,eval,epoch
0,"{'portability': {'tp': 0.0, 'fp': 1e-08, 'fn': 2.00000001, 'tn': 82.0, 'tot': 2.00000001, 'eval': {'textcat_p': 0.0, 'textcat_r': 0.0, 'textcat_f': 0}}, 'eval_global': {'textcat_p': 0.0, 'textcat_r': 0.0, 'textcat_f': 0}}",0
1,"{'portability': {'tp': 0.0, 'fp': 1e-08, 'fn': 2.00000001, 'tn': 82.0, 'tot': 2.00000001, 'eval': {'textcat_p': 0.0, 'textcat_r': 0.0, 'textcat_f': 0}}, 'eval_global': {'textcat_p': 0.0, 'textcat_r': 0.0, 'textcat_f': 0}}",1
2,"{'portability': {'tp': 0.0, 'fp': 1e-08, 'fn': 2.00000001, 'tn': 82.0, 'tot': 2.00000001, 'eval': {'textcat_p': 0.0, 'textcat_r': 0.0, 'textcat_f': 0}}, 'eval_global': {'textcat_p': 0.0, 'textcat_r': 0.0, 'textcat_f': 0}}",2
3,"{'portability': {'tp': 0.0, 'fp': 1e-08, 'fn': 2.00000001, 'tn': 82.0, 'tot': 2.00000001, 'eval': {'textcat_p': 0.0, 'textcat_r': 0.0, 'textcat_f': 0}}, 'eval_global': {'textcat_p': 0.0, 'textcat_r': 0.0, 'textcat_f': 0}}",3
4,"{'portability': {'tp': 0.0, 'fp': 1e-08, 'fn': 2.00000001, 'tn': 82.0, 'tot': 2.00000001, 'eval': {'textcat_p': 0.0, 'textcat_r': 0.0, 'textcat_f': 0}}, 'eval_global': {'textcat_p': 0.0, 'textcat_r': 0.0, 'textcat_f': 0}}",4
5,"{'portability': {'tp': 0.0, 'fp': 1e-08, 'fn': 2.00000001, 'tn': 82.0, 'tot': 2.00000001, 'eval': {'textcat_p': 0.0, 'textcat_r': 0.0, 'textcat_f': 0}}, 'eval_global': {'textcat_p': 0.0, 'textcat_r': 0.0, 'textcat_f': 0}}",5
6,"{'portability': {'tp': 0.0, 'fp': 1e-08, 'fn': 2.00000001, 'tn': 82.0, 'tot': 2.00000001, 'eval': {'textcat_p': 0.0, 'textcat_r': 0.0, 'textcat_f': 0}}, 'eval_global': {'textcat_p': 0.0, 'textcat_r': 0.0, 'textcat_f': 0}}",6
7,"{'portability': {'tp': 0.0, 'fp': 1e-08, 'fn': 2.00000001, 'tn': 82.0, 'tot': 2.00000001, 'eval': {'textcat_p': 0.0, 'textcat_r': 0.0, 'textcat_f': 0}}, 'eval_global': {'textcat_p': 0.0, 'textcat_r': 0.0, 'textcat_f': 0}}",7
8,"{'portability': {'tp': 0.0, 'fp': 1e-08, 'fn': 2.00000001, 'tn': 82.0, 'tot': 2.00000001, 'eval': {'textcat_p': 0.0, 'textcat_r': 0.0, 'textcat_f': 0}}, 'eval_global': {'textcat_p': 0.0, 'textcat_r': 0.0, 'textcat_f': 0}}",8
9,"{'portability': {'tp': 0.0, 'fp': 1e-08, 'fn': 2.00000001, 'tn': 82.0, 'tot': 2.00000001, 'eval': {'textcat_p': 0.0, 'textcat_r': 0.0, 'textcat_f': 0}}, 'eval_global': {'textcat_p': 0.0, 'textcat_r': 0.0, 'textcat_f': 0}}",9
10,"{'portability': {'tp': 1.0, 'fp': 1e-08, 'fn': 1.00000001, 'tn': 82.0, 'tot': 2.00000001, 'eval': {'textcat_p': 0.9999999900000002, 'textcat_r': 0.4999999975, 'textcat_f': 0.6666666622222222}}, 'eval_global': {'textcat_p': 0.9999999900000002, 'textcat_r': 0.4999999975, 'textcat_f': 0.6666666622222222}}",10
11,"{'portability': {'tp': 0.0, 'fp': 1e-08, 'fn': 2.00000001, 'tn': 82.0, 'tot': 2.00000001, 'eval': {'textcat_p': 0.0, 'textcat_r': 0.0, 'textcat_f': 0}}, 'eval_global': {'textcat_p': 0.0, 'textcat_r': 0.0, 'textcat_f': 0}}",11
12,"{'portability': {'tp': 0.0, 'fp': 1e-08, 'fn': 2.00000001, 'tn': 82.0, 'tot': 2.00000001, 'eval': {'textcat_p': 0.0, 'textcat_r': 0.0, 'textcat_f': 0}}, 'eval_global': {'textcat_p': 0.0, 'textcat_r': 0.0, 'textcat_f': 0}}",12
13,"{'portability': {'tp': 0.0, 'fp': 1e-08, 'fn': 2.00000001, 'tn': 82.0, 'tot': 2.00000001, 'eval': {'textcat_p': 0.0, 'textcat_r': 0.0, 'textcat_f': 0}}, 'eval_global': {'textcat_p': 0.0, 'textcat_r': 0.0, 'textcat_f': 0}}",13
14,"{'portability': {'tp': 0.0, 'fp': 1e-08, 'fn': 2.00000001, 'tn': 82.0, 'tot': 2.00000001, 'eval': {'textcat_p': 0.0, 'textcat_r': 0.0, 'textcat_f': 0}}, 'eval_global': {'textcat_p': 0.0, 'textcat_r': 0.0, 'textcat_f': 0}}",14
15,"{'portability': {'tp': 0.0, 'fp': 1e-08, 'fn': 2.00000001, 'tn': 82.0, 'tot': 2.00000001, 'eval': {'textcat_p': 0.0, 'textcat_r': 0.0, 'textcat_f': 0}}, 'eval_global': {'textcat_p': 0.0, 'textcat_r': 0.0, 'textcat_f': 0}}",15
16,"{'portability': {'tp': 0.0, 'fp': 1e-08, 'fn': 2.00000001, 'tn': 82.0, 'tot': 2.00000001, 'eval': {'textcat_p': 0.0, 'textcat_r': 0.0, 'textcat_f': 0}}, 'eval_global': {'textcat_p': 0.0, 'textcat_r': 0.0, 'textcat_f': 0}}",16
17,"{'portability': {'tp': 0.0, 'fp': 1.00000001, 'fn': 2.00000001, 'tn': 81.0, 'tot': 2.00000001, 'eval': {'textcat_p': 0.0, 'textcat_r': 0.0, 'textcat_f': 0}}, 'eval_global': {'textcat_p': 0.0, 'textcat_r': 0.0, 'textcat_f': 0}}",17
18,"{'portability': {'tp': 0.0, 'fp': 1.00000001, 'fn': 2.00000001, 'tn': 81.0, 'tot': 2.00000001, 'eval': {'textcat_p': 0.0, 'textcat_r': 0.0, 'textcat_f': 0}}, 'eval_global': {'textcat_p': 0.0, 'textcat_r': 0.0, 'textcat_f': 0}}",18
19,"{'portability': {'tp': 0.0, 'fp': 1e-08, 'fn': 2.00000001, 'tn': 82.0, 'tot': 2.00000001, 'eval': {'textcat_p': 0.0, 'textcat_r': 0.0, 'textcat_f': 0}}, 'eval_global': {'textcat_p': 0.0, 'textcat_r': 0.0, 'textcat_f': 0}}",19
20,"{'portability': {'tp': 0.0, 'fp': 1e-08, 'fn': 2.00000001, 'tn': 82.0, 'tot': 2.00000001, 'eval': {'textcat_p': 0.0, 'textcat_r': 0.0, 'textcat_f': 0}}, 'eval_global': {'textcat_p': 0.0, 'textcat_r': 0.0, 'textcat_f': 0}}",20
21,"{'portability': {'tp': 0.0, 'fp': 1e-08, 'fn': 2.00000001, 'tn': 82.0, 'tot': 2.00000001, 'eval': {'textcat_p': 0.0, 'textcat_r': 0.0, 'textcat_f': 0}}, 'eval_global': {'textcat_p': 0.0, 'textcat_r': 0.0, 'textcat_f': 0}}",21
22,"{'portability': {'tp': 0.0, 'fp': 1.00000001, 'fn': 2.00000001, 'tn': 81.0, 'tot': 2.00000001, 'eval': {'textcat_p': 0.0, 'textcat_r': 0.0, 'textcat_f': 0}}, 'eval_global': {'textcat_p': 0.0, 'textcat_r': 0.0, 'textcat_f': 0}}",22
23,"{'portability': {'tp': 0.0, 'fp': 1.00000001, 'fn': 2.00000001, 'tn': 81.0, 'tot': 2.00000001, 'eval': {'textcat_p': 0.0, 'textcat_r': 0.0, 'textcat_f': 0}}, 'eval_global': {'textcat_p': 0.0, 'textcat_r': 0.0, 'textcat_f': 0}}",23
24,"{'portability': {'tp': 0.0, 'fp': 1.00000001, 'fn': 2.00000001, 'tn': 81.0, 'tot': 2.00000001, 'eval': {'textcat_p': 0.0, 'textcat_r': 0.0, 'textcat_f': 0}}, 'eval_global': {'textcat_p': 0.0, 'textcat_r': 0.0, 'textcat_f': 0}}",24
25,"{'portability': {'tp': 0.0, 'fp': 1.00000001, 'fn': 2.00000001, 'tn': 81.0, 'tot': 2.00000001, 'eval': {'textcat_p': 0.0, 'textcat_r': 0.0, 'textcat_f': 0}}, 'eval_global': {'textcat_p': 0.0, 'textcat_r': 0.0, 'textcat_f': 0}}",25
26,"{'portability': {'tp': 0.0, 'fp': 1.00000001, 'fn': 2.00000001, 'tn': 81.0, 'tot': 2.00000001, 'eval': {'textcat_p': 0.0, 'textcat_r': 0.0, 'textcat_f': 0}}, 'eval_global': {'textcat_p': 0.0, 'textcat_r': 0.0, 'textcat_f': 0}}",26
27,"{'portability': {'tp': 0.0, 'fp': 1.00000001, 'fn': 2.00000001, 'tn': 81.0, 'tot': 2.00000001, 'eval': {'textcat_p': 0.0, 'textcat_r': 0.0, 'textcat_f': 0}}, 'eval_global': {'textcat_p': 0.0, 'textcat_r': 0.0, 'textcat_f': 0}}",27
28,"{'portability': {'tp': 0.0, 'fp': 1.00000001, 'fn': 2.00000001, 'tn': 81.0, 'tot': 2.00000001, 'eval': {'textcat_p': 0.0, 'textcat_r': 0.0, 'textcat_f': 0}}, 'eval_global': {'textcat_p': 0.0, 'textcat_r': 0.0, 'textcat_f': 0}}",28
29,"{'portability': {'tp': 0.0, 'fp': 1.00000001, 'fn': 2.00000001, 'tn': 81.0, 'tot': 2.00000001, 'eval': {'textcat_p': 0.0, 'textcat_r': 0.0, 'textcat_f': 0}}, 'eval_global': {'textcat_p': 0.0, 'textcat_r': 0.0, 'textcat_f': 0}}",29
30,"{'portability': {'tp': 0.0, 'fp': 1.00000001, 'fn': 2.00000001, 'tn': 81.0, 'tot': 2.00000001, 'eval': {'textcat_p': 0.0, 'textcat_r': 0.0, 'textcat_f': 0}}, 'eval_global': {'textcat_p': 0.0, 'textcat_r': 0.0, 'textcat_f': 0}}",30
31,"{'portability': {'tp': 0.0, 'fp': 1.00000001, 'fn': 2.00000001, 'tn': 81.0, 'tot': 2.00000001, 'eval': {'textcat_p': 0.0, 'textcat_r': 0.0, 'textcat_f': 0}}, 'eval_global': {'textcat_p': 0.0, 'textcat_r': 0.0, 'textcat_f': 0}}",31
32,"{'portability': {'tp': 0.0, 'fp': 1e-08, 'fn': 2.00000001, 'tn': 82.0, 'tot': 2.00000001, 'eval': {'textcat_p': 0.0, 'textcat_r': 0.0, 'textcat_f': 0}}, 'eval_global': {'textcat_p': 0.0, 'textcat_r': 0.0, 'textcat_f': 0}}",32
33,"{'portability': {'tp': 0.0, 'fp': 1e-08, 'fn': 2.00000001, 'tn': 82.0, 'tot': 2.00000001, 'eval': {'textcat_p': 0.0, 'textcat_r': 0.0, 'textcat_f': 0}}, 'eval_global': {'textcat_p': 0.0, 'textcat_r': 0.0, 'textcat_f': 0}}",33
34,"{'portability': {'tp': 0.0, 'fp': 1e-08, 'fn': 2.00000001, 'tn': 82.0, 'tot': 2.00000001, 'eval': {'textcat_p': 0.0, 'textcat_r': 0.0, 'textcat_f': 0}}, 'eval_global': {'textcat_p': 0.0, 'textcat_r': 0.0, 'textcat_f': 0}}",34
35,"{'portability': {'tp': 0.0, 'fp': 1e-08, 'fn': 2.00000001, 'tn': 82.0, 'tot': 2.00000001, 'eval': {'textcat_p': 0.0, 'textcat_r': 0.0, 'textcat_f': 0}}, 'eval_global': {'textcat_p': 0.0, 'textcat_r': 0.0, 'textcat_f': 0}}",35
36,"{'portability': {'tp': 0.0, 'fp': 1e-08, 'fn': 2.00000001, 'tn': 82.0, 'tot': 2.00000001, 'eval': {'textcat_p': 0.0, 'textcat_r': 0.0, 'textcat_f': 0}}, 'eval_global': {'textcat_p': 0.0, 'textcat_r': 0.0, 'textcat_f': 0}}",36
37,"{'portability': {'tp': 0.0, 'fp': 1e-08, 'fn': 2.00000001, 'tn': 82.0, 'tot': 2.00000001, 'eval': {'textcat_p': 0.0, 'textcat_r': 0.0, 'textcat_f': 0}}, 'eval_global': {'textcat_p': 0.0, 'textcat_r': 0.0, 'textcat_f': 0}}",37
38,"{'portability': {'tp': 0.0, 'fp': 1e-08, 'fn': 2.00000001, 'tn': 82.0, 'tot': 2.00000001, 'eval': {'textcat_p': 0.0, 'textcat_r': 0.0, 'textcat_f': 0}}, 'eval_global': {'textcat_p': 0.0, 'textcat_r': 0.0, 'textcat_f': 0}}",38
39,"{'portability': {'tp': 0.0, 'fp': 1e-08, 'fn': 2.00000001, 'tn': 82.0, 'tot': 2.00000001, 'eval': {'textcat_p': 0.0, 'textcat_r': 0.0, 'textcat_f': 0}}, 'eval_global': {'textcat_p': 0.0, 'textcat_r': 0.0, 'textcat_f': 0}}",39
40,"{'portability': {'tp': 0.0, 'fp': 1e-08, 'fn': 2.00000001, 'tn': 82.0, 'tot': 2.00000001, 'eval': {'textcat_p': 0.0, 'textcat_r': 0.0, 'textcat_f': 0}}, 'eval_global': {'textcat_p': 0.0, 'textcat_r': 0.0, 'textcat_f': 0}}",40
41,"{'portability': {'tp': 0.0, 'fp': 1e-08, 'fn': 2.00000001, 'tn': 82.0, 'tot': 2.00000001, 'eval': {'textcat_p': 0.0, 'textcat_r': 0.0, 'textcat_f': 0}}, 'eval_global': {'textcat_p': 0.0, 'textcat_r': 0.0, 'textcat_f': 0}}",41
42,"{'portability': {'tp': 0.0, 'fp': 1e-08, 'fn': 2.00000001, 'tn': 82.0, 'tot': 2.00000001, 'eval': {'textcat_p': 0.0, 'textcat_r': 0.0, 'textcat_f': 0}}, 'eval_global': {'textcat_p': 0.0, 'textcat_r': 0.0, 'textcat_f': 0}}",42
43,"{'portability': {'tp': 0.0, 'fp': 1e-08, 'fn': 2.00000001, 'tn': 82.0, 'tot': 2.00000001, 'eval': {'textcat_p': 0.0, 'textcat_r': 0.0, 'textcat_f': 0}}, 'eval_global': {'textcat_p': 0.0, 'textcat_r': 0.0, 'textcat_f': 0}}",43
44,"{'portability': {'tp': 0.0, 'fp': 1e-08, 'fn': 2.00000001, 'tn': 82.0, 'tot': 2.00000001, 'eval': {'textcat_p': 0.0, 'textcat_r': 0.0, 'textcat_f': 0}}, 'eval_global': {'textcat_p': 0.0, 'textcat_r': 0.0, 'textcat_f': 0}}",44
45,"{'portability': {'tp': 0.0, 'fp': 1e-08, 'fn': 2.00000001, 'tn': 82.0, 'tot': 2.00000001, 'eval': {'textcat_p': 0.0, 'textcat_r': 0.0, 'textcat_f': 0}}, 'eval_global': {'textcat_p': 0.0, 'textcat_r': 0.0, 'textcat_f': 0}}",45
46,"{'portability': {'tp': 0.0, 'fp': 1e-08, 'fn': 2.00000001, 'tn': 82.0, 'tot': 2.00000001, 'eval': {'textcat_p': 0.0, 'textcat_r': 0.0, 'textcat_f': 0}}, 'eval_global': {'textcat_p': 0.0, 'textcat_r': 0.0, 'textcat_f': 0}}",46
47,"{'portability': {'tp': 0.0, 'fp': 1e-08, 'fn': 2.00000001, 'tn': 82.0, 'tot': 2.00000001, 'eval': {'textcat_p': 0.0, 'textcat_r': 0.0, 'textcat_f': 0}}, 'eval_global': {'textcat_p': 0.0, 'textcat_r': 0.0, 'textcat_f': 0}}",47
48,"{'portability': {'tp': 0.0, 'fp': 1e-08, 'fn': 2.00000001, 'tn': 82.0, 'tot': 2.00000001, 'eval': {'textcat_p': 0.0, 'textcat_r': 0.0, 'textcat_f': 0}}, 'eval_global': {'textcat_p': 0.0, 'textcat_r': 0.0, 'textcat_f': 0}}",48
49,"{'portability': {'tp': 0.0, 'fp': 1e-08, 'fn': 2.00000001, 'tn': 82.0, 'tot': 2.00000001, 'eval': {'textcat_p': 0.0, 'textcat_r': 0.0, 'textcat_f': 0}}, 'eval_global': {'textcat_p': 0.0, 'textcat_r': 0.0, 'textcat_f': 0}}",49
50,"{'portability': {'tp': 0.0, 'fp': 1e-08, 'fn': 2.00000001, 'tn': 82.0, 'tot': 2.00000001, 'eval': {'textcat_p': 0.0, 'textcat_r': 0.0, 'textcat_f': 0}}, 'eval_global': {'textcat_p': 0.0, 'textcat_r': 0.0, 'textcat_f': 0}}",50
51,"{'portability': {'tp': 0.0, 'fp': 1e-08, 'fn': 2.00000001, 'tn': 82.0, 'tot': 2.00000001, 'eval': {'textcat_p': 0.0, 'textcat_r': 0.0, 'textcat_f': 0}}, 'eval_global': {'textcat_p': 0.0, 'textcat_r': 0.0, 'textcat_f': 0}}",51
52,"{'portability': {'tp': 0.0, 'fp': 1e-08, 'fn': 2.00000001, 'tn': 82.0, 'tot': 2.00000001, 'eval': {'textcat_p': 0.0, 'textcat_r': 0.0, 'textcat_f': 0}}, 'eval_global': {'textcat_p': 0.0, 'textcat_r': 0.0, 'textcat_f': 0}}",52
53,"{'portability': {'tp': 0.0, 'fp': 1e-08, 'fn': 2.00000001, 'tn': 82.0, 'tot': 2.00000001, 'eval': {'textcat_p': 0.0, 'textcat_r': 0.0, 'textcat_f': 0}}, 'eval_global': {'textcat_p': 0.0, 'textcat_r': 0.0, 'textcat_f': 0}}",53
54,"{'portability': {'tp': 0.0, 'fp': 1e-08, 'fn': 2.00000001, 'tn': 82.0, 'tot': 2.00000001, 'eval': {'textcat_p': 0.0, 'textcat_r': 0.0, 'textcat_f': 0}}, 'eval_global': {'textcat_p': 0.0, 'textcat_r': 0.0, 'textcat_f': 0}}",54
55,"{'portability': {'tp': 0.0, 'fp': 1e-08, 'fn': 2.00000001, 'tn': 82.0, 'tot': 2.00000001, 'eval': {'textcat_p': 0.0, 'textcat_r': 0.0, 'textcat_f': 0}}, 'eval_global': {'textcat_p': 0.0, 'textcat_r': 0.0, 'textcat_f': 0}}",55
56,"{'portability': {'tp': 0.0, 'fp': 1e-08, 'fn': 2.00000001, 'tn': 82.0, 'tot': 2.00000001, 'eval': {'textcat_p': 0.0, 'textcat_r': 0.0, 'textcat_f': 0}}, 'eval_global': {'textcat_p': 0.0, 'textcat_r': 0.0, 'textcat_f': 0}}",56
57,"{'portability': {'tp': 0.0, 'fp': 1e-08, 'fn': 2.00000001, 'tn': 82.0, 'tot': 2.00000001, 'eval': {'textcat_p': 0.0, 'textcat_r': 0.0, 'textcat_f': 0}}, 'eval_global': {'textcat_p': 0.0, 'textcat_r': 0.0, 'textcat_f': 0}}",57
58,"{'portability': {'tp': 0.0, 'fp': 1e-08, 'fn': 2.00000001, 'tn': 82.0, 'tot': 2.00000001, 'eval': {'textcat_p': 0.0, 'textcat_r': 0.0, 'textcat_f': 0}}, 'eval_global': {'textcat_p': 0.0, 'textcat_r': 0.0, 'textcat_f': 0}}",58
59,"{'portability': {'tp': 0.0, 'fp': 1e-08, 'fn': 2.00000001, 'tn': 82.0, 'tot': 2.00000001, 'eval': {'textcat_p': 0.0, 'textcat_r': 0.0, 'textcat_f': 0}}, 'eval_global': {'textcat_p': 0.0, 'textcat_r': 0.0, 'textcat_f': 0}}",59
60,"{'portability': {'tp': 0.0, 'fp': 1e-08, 'fn': 2.00000001, 'tn': 82.0, 'tot': 2.00000001, 'eval': {'textcat_p': 0.0, 'textcat_r': 0.0, 'textcat_f': 0}}, 'eval_global': {'textcat_p': 0.0, 'textcat_r': 0.0, 'textcat_f': 0}}",60
61,"{'portability': {'tp': 0.0, 'fp': 1e-08, 'fn': 2.00000001, 'tn': 82.0, 'tot': 2.00000001, 'eval': {'textcat_p': 0.0, 'textcat_r': 0.0, 'textcat_f': 0}}, 'eval_global': {'textcat_p': 0.0, 'textcat_r': 0.0, 'textcat_f': 0}}",61
62,"{'portability': {'tp': 0.0, 'fp': 1e-08, 'fn': 2.00000001, 'tn': 82.0, 'tot': 2.00000001, 'eval': {'textcat_p': 0.0, 'textcat_r': 0.0, 'textcat_f': 0}}, 'eval_global': {'textcat_p': 0.0, 'textcat_r': 0.0, 'textcat_f': 0}}",62
63,"{'portability': {'tp': 0.0, 'fp': 1e-08, 'fn': 2.00000001, 'tn': 82.0, 'tot': 2.00000001, 'eval': {'textcat_p': 0.0, 'textcat_r': 0.0, 'textcat_f': 0}}, 'eval_global': {'textcat_p': 0.0, 'textcat_r': 0.0, 'textcat_f': 0}}",63
64,"{'portability': {'tp': 0.0, 'fp': 1e-08, 'fn': 2.00000001, 'tn': 82.0, 'tot': 2.00000001, 'eval': {'textcat_p': 0.0, 'textcat_r': 0.0, 'textcat_f': 0}}, 'eval_global': {'textcat_p': 0.0, 'textcat_r': 0.0, 'textcat_f': 0}}",64
65,"{'portability': {'tp': 0.0, 'fp': 1e-08, 'fn': 2.00000001, 'tn': 82.0, 'tot': 2.00000001, 'eval': {'textcat_p': 0.0, 'textcat_r': 0.0, 'textcat_f': 0}}, 'eval_global': {'textcat_p': 0.0, 'textcat_r': 0.0, 'textcat_f': 0}}",65
66,"{'portability': {'tp': 0.0, 'fp': 1e-08, 'fn': 2.00000001, 'tn': 82.0, 'tot': 2.00000001, 'eval': {'textcat_p': 0.0, 'textcat_r': 0.0, 'textcat_f': 0}}, 'eval_global': {'textcat_p': 0.0, 'textcat_r': 0.0, 'textcat_f': 0}}",66
67,"{'portability': {'tp': 0.0, 'fp': 1e-08, 'fn': 2.00000001, 'tn': 82.0, 'tot': 2.00000001, 'eval': {'textcat_p': 0.0, 'textcat_r': 0.0, 'textcat_f': 0}}, 'eval_global': {'textcat_p': 0.0, 'textcat_r': 0.0, 'textcat_f': 0}}",67
68,"{'portability': {'tp': 0.0, 'fp': 1e-08, 'fn': 2.00000001, 'tn': 82.0, 'tot': 2.00000001, 'eval': {'textcat_p': 0.0, 'textcat_r': 0.0, 'textcat_f': 0}}, 'eval_global': {'textcat_p': 0.0, 'textcat_r': 0.0, 'textcat_f': 0}}",68
69,"{'portability': {'tp': 0.0, 'fp': 1e-08, 'fn': 2.00000001, 'tn': 82.0, 'tot': 2.00000001, 'eval': {'textcat_p': 0.0, 'textcat_r': 0.0, 'textcat_f': 0}}, 'eval_global': {'textcat_p': 0.0, 'textcat_r': 0.0, 'textcat_f': 0}}",69
70,"{'portability': {'tp': 0.0, 'fp': 1e-08, 'fn': 2.00000001, 'tn': 82.0, 'tot': 2.00000001, 'eval': {'textcat_p': 0.0, 'textcat_r': 0.0, 'textcat_f': 0}}, 'eval_global': {'textcat_p': 0.0, 'textcat_r': 0.0, 'textcat_f': 0}}",70
71,"{'portability': {'tp': 0.0, 'fp': 1e-08, 'fn': 2.00000001, 'tn': 82.0, 'tot': 2.00000001, 'eval': {'textcat_p': 0.0, 'textcat_r': 0.0, 'textcat_f': 0}}, 'eval_global': {'textcat_p': 0.0, 'textcat_r': 0.0, 'textcat_f': 0}}",71
72,"{'portability': {'tp': 0.0, 'fp': 1e-08, 'fn': 2.00000001, 'tn': 82.0, 'tot': 2.00000001, 'eval': {'textcat_p': 0.0, 'textcat_r': 0.0, 'textcat_f': 0}}, 'eval_global': {'textcat_p': 0.0, 'textcat_r': 0.0, 'textcat_f': 0}}",72
73,"{'portability': {'tp': 0.0, 'fp': 1e-08, 'fn': 2.00000001, 'tn': 82.0, 'tot': 2.00000001, 'eval': {'textcat_p': 0.0, 'textcat_r': 0.0, 'textcat_f': 0}}, 'eval_global': {'textcat_p': 0.0, 'textcat_r': 0.0, 'textcat_f': 0}}",73
74,"{'portability': {'tp': 0.0, 'fp': 1e-08, 'fn': 2.00000001, 'tn': 82.0, 'tot': 2.00000001, 'eval': {'textcat_p': 0.0, 'textcat_r': 0.0, 'textcat_f': 0}}, 'eval_global': {'textcat_p': 0.0, 'textcat_r': 0.0, 'textcat_f': 0}}",74
75,"{'portability': {'tp': 0.0, 'fp': 1e-08, 'fn': 2.00000001, 'tn': 82.0, 'tot': 2.00000001, 'eval': {'textcat_p': 0.0, 'textcat_r': 0.0, 'textcat_f': 0}}, 'eval_global': {'textcat_p': 0.0, 'textcat_r': 0.0, 'textcat_f': 0}}",75
76,"{'portability': {'tp': 0.0, 'fp': 1e-08, 'fn': 2.00000001, 'tn': 82.0, 'tot': 2.00000001, 'eval': {'textcat_p': 0.0, 'textcat_r': 0.0, 'textcat_f': 0}}, 'eval_global': {'textcat_p': 0.0, 'textcat_r': 0.0, 'textcat_f': 0}}",76
77,"{'portability': {'tp': 0.0, 'fp': 1e-08, 'fn': 2.00000001, 'tn': 82.0, 'tot': 2.00000001, 'eval': {'textcat_p': 0.0, 'textcat_r': 0.0, 'textcat_f': 0}}, 'eval_global': {'textcat_p': 0.0, 'textcat_r': 0.0, 'textcat_f': 0}}",77
78,"{'portability': {'tp': 0.0, 'fp': 1e-08, 'fn': 2.00000001, 'tn': 82.0, 'tot': 2.00000001, 'eval': {'textcat_p': 0.0, 'textcat_r': 0.0, 'textcat_f': 0}}, 'eval_global': {'textcat_p': 0.0, 'textcat_r': 0.0, 'textcat_f': 0}}",78
79,"{'portability': {'tp': 0.0, 'fp': 1e-08, 'fn': 2.00000001, 'tn': 82.0, 'tot': 2.00000001, 'eval': {'textcat_p': 0.0, 'textcat_r': 0.0, 'textcat_f': 0}}, 'eval_global': {'textcat_p': 0.0, 'textcat_r': 0.0, 'textcat_f': 0}}",79
80,"{'portability': {'tp': 0.0, 'fp': 1e-08, 'fn': 2.00000001, 'tn': 82.0, 'tot': 2.00000001, 'eval': {'textcat_p': 0.0, 'textcat_r': 0.0, 'textcat_f': 0}}, 'eval_global': {'textcat_p': 0.0, 'textcat_r': 0.0, 'textcat_f': 0}}",80
81,"{'portability': {'tp': 0.0, 'fp': 1e-08, 'fn': 2.00000001, 'tn': 82.0, 'tot': 2.00000001, 'eval': {'textcat_p': 0.0, 'textcat_r': 0.0, 'textcat_f': 0}}, 'eval_global': {'textcat_p': 0.0, 'textcat_r': 0.0, 'textcat_f': 0}}",81
82,"{'portability': {'tp': 0.0, 'fp': 1e-08, 'fn': 2.00000001, 'tn': 82.0, 'tot': 2.00000001, 'eval': {'textcat_p': 0.0, 'textcat_r': 0.0, 'textcat_f': 0}}, 'eval_global': {'textcat_p': 0.0, 'textcat_r': 0.0, 'textcat_f': 0}}",82
83,"{'portability': {'tp': 0.0, 'fp': 1e-08, 'fn': 2.00000001, 'tn': 82.0, 'tot': 2.00000001, 'eval': {'textcat_p': 0.0, 'textcat_r': 0.0, 'textcat_f': 0}}, 'eval_global': {'textcat_p': 0.0, 'textcat_r': 0.0, 'textcat_f': 0}}",83
84,"{'portability': {'tp': 0.0, 'fp': 1e-08, 'fn': 2.00000001, 'tn': 82.0, 'tot': 2.00000001, 'eval': {'textcat_p': 0.0, 'textcat_r': 0.0, 'textcat_f': 0}}, 'eval_global': {'textcat_p': 0.0, 'textcat_r': 0.0, 'textcat_f': 0}}",84
85,"{'portability': {'tp': 0.0, 'fp': 1e-08, 'fn': 2.00000001, 'tn': 82.0, 'tot': 2.00000001, 'eval': {'textcat_p': 0.0, 'textcat_r': 0.0, 'textcat_f': 0}}, 'eval_global': {'textcat_p': 0.0, 'textcat_r': 0.0, 'textcat_f': 0}}",85
86,"{'portability': {'tp': 0.0, 'fp': 1e-08, 'fn': 2.00000001, 'tn': 82.0, 'tot': 2.00000001, 'eval': {'textcat_p': 0.0, 'textcat_r': 0.0, 'textcat_f': 0}}, 'eval_global': {'textcat_p': 0.0, 'textcat_r': 0.0, 'textcat_f': 0}}",86
87,"{'portability': {'tp': 0.0, 'fp': 1e-08, 'fn': 2.00000001, 'tn': 82.0, 'tot': 2.00000001, 'eval': {'textcat_p': 0.0, 'textcat_r': 0.0, 'textcat_f': 0}}, 'eval_global': {'textcat_p': 0.0, 'textcat_r': 0.0, 'textcat_f': 0}}",87
88,"{'portability': {'tp': 0.0, 'fp': 1e-08, 'fn': 2.00000001, 'tn': 82.0, 'tot': 2.00000001, 'eval': {'textcat_p': 0.0, 'textcat_r': 0.0, 'textcat_f': 0}}, 'eval_global': {'textcat_p': 0.0, 'textcat_r': 0.0, 'textcat_f': 0}}",88
89,"{'portability': {'tp': 0.0, 'fp': 1e-08, 'fn': 2.00000001, 'tn': 82.0, 'tot': 2.00000001, 'eval': {'textcat_p': 0.0, 'textcat_r': 0.0, 'textcat_f': 0}}, 'eval_global': {'textcat_p': 0.0, 'textcat_r': 0.0, 'textcat_f': 0}}",89
90,"{'portability': {'tp': 0.0, 'fp': 1e-08, 'fn': 2.00000001, 'tn': 82.0, 'tot': 2.00000001, 'eval': {'textcat_p': 0.0, 'textcat_r': 0.0, 'textcat_f': 0}}, 'eval_global': {'textcat_p': 0.0, 'textcat_r': 0.0, 'textcat_f': 0}}",90
91,"{'portability': {'tp': 0.0, 'fp': 1e-08, 'fn': 2.00000001, 'tn': 82.0, 'tot': 2.00000001, 'eval': {'textcat_p': 0.0, 'textcat_r': 0.0, 'textcat_f': 0}}, 'eval_global': {'textcat_p': 0.0, 'textcat_r': 0.0, 'textcat_f': 0}}",91
92,"{'portability': {'tp': 0.0, 'fp': 1e-08, 'fn': 2.00000001, 'tn': 82.0, 'tot': 2.00000001, 'eval': {'textcat_p': 0.0, 'textcat_r': 0.0, 'textcat_f': 0}}, 'eval_global': {'textcat_p': 0.0, 'textcat_r': 0.0, 'textcat_f': 0}}",92
93,"{'portability': {'tp': 0.0, 'fp': 1e-08, 'fn': 2.00000001, 'tn': 82.0, 'tot': 2.00000001, 'eval': {'textcat_p': 0.0, 'textcat_r': 0.0, 'textcat_f': 0}}, 'eval_global': {'textcat_p': 0.0, 'textcat_r': 0.0, 'textcat_f': 0}}",93
94,"{'portability': {'tp': 0.0, 'fp': 1e-08, 'fn': 2.00000001, 'tn': 82.0, 'tot': 2.00000001, 'eval': {'textcat_p': 0.0, 'textcat_r': 0.0, 'textcat_f': 0}}, 'eval_global': {'textcat_p': 0.0, 'textcat_r': 0.0, 'textcat_f': 0}}",94
95,"{'portability': {'tp': 0.0, 'fp': 1e-08, 'fn': 2.00000001, 'tn': 82.0, 'tot': 2.00000001, 'eval': {'textcat_p': 0.0, 'textcat_r': 0.0, 'textcat_f': 0}}, 'eval_global': {'textcat_p': 0.0, 'textcat_r': 0.0, 'textcat_f': 0}}",95
96,"{'portability': {'tp': 0.0, 'fp': 1e-08, 'fn': 2.00000001, 'tn': 82.0, 'tot': 2.00000001, 'eval': {'textcat_p': 0.0, 'textcat_r': 0.0, 'textcat_f': 0}}, 'eval_global': {'textcat_p': 0.0, 'textcat_r': 0.0, 'textcat_f': 0}}",96
97,"{'portability': {'tp': 0.0, 'fp': 1e-08, 'fn': 2.00000001, 'tn': 82.0, 'tot': 2.00000001, 'eval': {'textcat_p': 0.0, 'textcat_r': 0.0, 'textcat_f': 0}}, 'eval_global': {'textcat_p': 0.0, 'textcat_r': 0.0, 'textcat_f': 0}}",97
98,"{'portability': {'tp': 0.0, 'fp': 1e-08, 'fn': 2.00000001, 'tn': 82.0, 'tot': 2.00000001, 'eval': {'textcat_p': 0.0, 'textcat_r': 0.0, 'textcat_f': 0}}, 'eval_global': {'textcat_p': 0.0, 'textcat_r': 0.0, 'textcat_f': 0}}",98
99,"{'portability': {'tp': 0.0, 'fp': 1e-08, 'fn': 2.00000001, 'tn': 82.0, 'tot': 2.00000001, 'eval': {'textcat_p': 0.0, 'textcat_r': 0.0, 'textcat_f': 0}}, 'eval_global': {'textcat_p': 0.0, 'textcat_r': 0.0, 'textcat_f': 0}}",99
