,US,pred,label
0,"As a participant, I want to immediately see that an estimate has been given by a specific estimator, so that I know who has already given an estimate and who we're still waiting for.",0.9994138479232788,performance
1,"As a Researcher, I want to get a Data Package into Excel in seconds, so that I can start using the data for doing analysis and visualizations. ",0.9993005990982056,performance
2,"As a Developer , I want my domain models to be indexed properly, so that I can get validation results back in a reasonable amount of time.",0.9998990297317505,performance
3,"As a Researcher, I want to get a Data Package into R in seconds, so that I can start using the data for doing analysis and visualizations. ",0.9994264841079712,performance
4,"As a Developer, I want D Files generation requests to be managed and cached, so that duplicate requests do not cause performance issues.",0.9997114539146423,performance
5,"As an IT staff member, I want to have an estimate of the produced data volume, so that I can plan the overall storage consumption.",0.9992406368255615,performance
6,"As a Developer, I want to get a Data Package into Python in seconds, so that I can start using the data for doing analysis and visualizations. ",0.9996393918991089,performance
7,"As a participant, I want to be shown all estimates at the same time after all estimators have given their estimate, so that I can be sure estimates are independent and not influenced by other estimates given in the same draw.",0.9999539852142334,performance
8,"As a Researcher, I want to get a Data Package into LibreOffice/OpenOffice in seconds, so that I can start using the data for doing analysis and visualizations. ",0.9994089603424072,performance
9,"As a FABS user, I want to have my validations run in a reasonable amount of time.",0.9993020296096802,performance
10,"As a Developer, I want to get a Data Package into Julia in seconds, so that I can start using the data in doing analysis and visualizations. ",0.9996342658996582,performance
11,"As a repository operator, I want to know about the kind of data, so that I can evaluate the storage size and system.",0.999092698097229,performance
12,"As a user, I want to upload large files of over 1GB in size.",0.9991129040718079,performance
13,"As an OlderPerson, I want to have a very good battery for ALFRED so I can keep him on the whole day.",0.999189555644989,performance
14,"As a Researcher, I want to get a Data Package into SPSS in seconds, so that I can start using the data for doing analysis and visualizations. ",0.9995543360710144,performance
15,"As a Researcher, I want an app that create proxy Data Packages for well know and reliable data, sources, so that I can load high quality data using Data Package tooling. ",0.9958602786064148,performance
16,"As a Developer, I want to prevent duplicate transactions from being published and deal with the time gap between validation and the publishing decision.",0.9980809688568115,performance
17,"As a Researcher, I want to get a Data Package into LibreOffice/OpenOffice in seconds, so that I can start using the data for doing analysis and visualizations. ",0.9994089603424072,performance
18,"As a Developer, I want to get a Data Package into Clojure in seconds, so that I can start using the data in doing analysis and visualizations. ",0.9998074173927307,performance
19,"As a Researcher, I want to get a Data Package into SPSS in seconds, so that I can start using the data for doing analysis and visualizations. ",0.9995543360710144,performance
20,"As a Researcher, I want to get a Data Package into Excel in seconds, so that I can start using the data for doing analysis and visualizations. ",0.9993005990982056,performance
21,"As a Researcher, I want an app that create proxy Data Packages for well know and reliable data, sources, so that I can load high quality data using Data Package tooling. ",0.9958602786064148,performance
22,"As an institutional data manager, I want to know about the privacy and security requirements of the data, so that I can plan the right storage system and sharing permissions.",0.9947822690010071,performance
23,"As a rector, I want to know how many data will be stored, so that I can plan long term resources.",0.9960299134254456,performance
24,"As a user, I want to have the application respond quickly to my actions, so that I don't get bored.",0.9953786134719849,performance
25,"As an archive, I want to get information about the volume of data to preserve at an early stage, so that I can provide the adequate storage infrastructure.",0.9989985823631287,performance
26,"As an Agency user, I want to be able to include a large number of flexfields without performance impact.",0.9966902732849121,performance
27,"As an IT manager, I want to know about IT resource requirements early in the project lifecycle, so that I can enable resource acquisition planning.",0.9994969367980957,performance
28,"As a Cornell faculty member, I want to share on the repository files that are larger than 1GB in a way that still allows users to download them if I want to use them, so that I can meet funder requirements.",0.9975162744522095,performance
29,"As a PI, I want to plan what kind of data I want to record/store, so that I can ensure it will possible to store it.",0.9914939403533936,performance
30,"As a developer, I want to have created database indexes, so that the queries run as fast as possible.",0.9988975524902344,performance
31,"As a Researcher, I want to get a Data Package into STATA in seconds, so that I can start using the data for doing analysis and visualizations. ",0.9996069073677063,performance
32,"As a Researcher, I want to get a Data Package into STATA in seconds, so that I can start using the data for doing analysis and visualizations. ",0.9996069073677063,performance
0,"As a Researcher, I want to get a Data Package into Excel in seconds, so that I can start using the data for doing analysis and visualizations. ",0.9999545812606812,compatibility
1,"As a Researcher, I want to get a Data Package into R in seconds, so that I can start using the data for doing analysis and visualizations. ",0.9998844861984253,compatibility
2,"As a Developer, I want to get a Data Package into Python in seconds, so that I can start using the data for doing analysis and visualizations. ",0.9999227523803711,compatibility
3,"As a Researcher, I want to get a Data Package into LibreOffice/OpenOffice in seconds, so that I can start using the data for doing analysis and visualizations. ",0.999784529209137,compatibility
4,"As a Developer, I want to get a Data Package into Julia in seconds, so that I can start using the data in doing analysis and visualizations. ",0.9999290704727173,compatibility
5,"As a Researcher, I want to get a Data Package into SPSS in seconds, so that I can start using the data for doing analysis and visualizations. ",0.9999037981033325,compatibility
6,"As an OlderPerson, I want to do guided exercises with ALFRED and ALFRED should also use sensors to capture health data while I am doing exercises. ",0.9998452663421631,compatibility
7,"As a trainer, I want to load an Excel file into the site, so that the course participants are added to the Scrum Alliance records.",0.999572217464447,compatibility
8,"As a user, I want to view the group's shared calendars via the Neurohub Nodes' Web page as well as on my mobile device.",0.9995600581169128,compatibility
9,"As an archivist, I want to use archival content on the RAC website, so that I can integrate our collections into our web presence.",0.9997144341468811,compatibility
10,"As a patron, I want to view/upload content in multiple formats, including old formats such as Lotus Works.",0.9999028444290161,compatibility
11,"As a Data Publishing User, I want to be able to import data in Excel, So that I do not have to convert data formats in order to use the data packager.",0.9999545812606812,compatibility
12,"As a research facility manager, I want to deposit data from my facility directly into the archive on behalf of researchers, so that I am no longer required to maintain my own archive of facility data and researchers can access their own data as needed. ",0.9998242259025574,compatibility
13,"As an Archivist, I want to export agent records as EAC-CPF.",0.9998192191123962,compatibility
14,"As an Archivist, I want to upload an EAD for import from within the frontend application.",0.9993870258331299,compatibility
15,"As a ResearcherPublisher, I want to publish Data Packages to CKAN, so that my data is findable, and I can have a data API. ",0.9996397495269775,compatibility
16,"As a developer, I want to have an easy way to read data from health sensors the user is wearing. ",0.9997856020927429,compatibility
17,"As a Research Information manager, I want to track citation counts for published datasets, so that impact of datasets within academia can be demonstrated.",0.9986922144889832,compatibility
18,"As a developer, I want to have my App to be granted access to several operating system features. ",0.9977285265922546,compatibility
19,"As a researcher, I want to import metadata that I captured with a metadata tool, so that I do not have to capture it again in a DMP.",0.9994248151779175,compatibility
20,"As a Developer, I want a DAT integration, so that I can integrate data-packaged data with pipelines that use DAT. ",0.9999431371688843,compatibility
21,"As a Researcher, I want to get a Data Package into LibreOffice/OpenOffice in seconds, so that I can start using the data for doing analysis and visualizations. ",0.999784529209137,compatibility
22,"As a user, I want to have that my Twitter Tweets to appear in Neurohub, so that other researchers in the centre can see what I am up to.",0.9997265934944153,compatibility
23,"As a user, I want to have the option to tell Neurohub to push posted content to my Twitter feed at the same time.",0.9996788501739502,compatibility
24,"As a repository administrator, I want author/creator to store the DUID of the person to allow for name authority control and interoperability with other systems like Symplectic Elements.",0.9977793097496033,compatibility
25,"As a Developer, I want a Mongo integration, so that I can integrate data-packaged data with pipelines that use Mongo. ",0.9999308586120605,compatibility
26,"As a content editor, I want to be able to add videos from Brightcove.",0.9995658993721008,compatibility
27,"As an agency user, I want to submit my data elements surrounded by quotation marks, so that Excel won't strip off leading and trailing zeroes.",0.9998694658279419,compatibility
28,"As a user, I want to specify schema as a SQL schema string.",0.9993594288825989,compatibility
29,"As a Technical Staff member, I want to update the GIS Property Management, so that I can successfully update the transactional Parcel Pin to reference the GIS layer where the Split or Merged Parcel Pin exists.",0.9997881054878235,compatibility
30,"As a researcher,  I want to have the ability to interact with a revision control system so that I can keep track of changes to files over time.",0.9985969662666321,compatibility
31,"As a Visitor, I want to sign up via github or google, so that that I don't have to enter lots of information and remember my password for yet another website.",0.9982523322105408,compatibility
32,"As a repository administrator, I want to be able to expose repository contents via OAI-PMH.",0.9998939037322998,compatibility
33,"As a Developer, I want to get a Data Package into Clojure in seconds, so that I can start using the data in doing analysis and visualizations. ",0.9998619556427002,compatibility
34,"As a administrator, I want to tag my blog posts for consumption by Drupal Planet, so that they will be listed on the Drupal Planet blog.",0.9998854398727417,compatibility
35,"As a Data Publishing User, I want to be able to edit the model of data I have already imported, So that I can fix bugs or make enhancements in the API built for my data.",0.9980600476264954,compatibility
36,"As a Zooniverse admin, I want to perform automatic worm motion analysis to reduce video duration in Worm Watch Lab.",0.9987064599990845,compatibility
37,"As a Researcher, I want to get a Data Package into SPSS in seconds, so that I can start using the data for doing analysis and visualizations. ",0.9999037981033325,compatibility
38,"As a Publisher, I would like an integration with Open Refine, so that I can output cleaned Data Packages. ",0.9997742772102356,compatibility
39,"As an Archivist, I want to import Agent information from EAC-CPF records.",0.9998747110366821,compatibility
40,"As a Zooniverse admin, I want to automatically detect Plankton Portal images with no classifiable plankton in them.",0.9995777010917664,compatibility
41,"As a researcher, I want to point my Mendeley client at a group-wide shared repository of research papers and get notifications via Mendeley when new content is added.",0.999370276927948,compatibility
42,"As a repository manager, I'd like to be able to export a spreadsheet of technical metadata at the repository, collection, or item level.",0.999678373336792,compatibility
43,"As a Researcher, I want to get a Data Package into Excel in seconds, so that I can start using the data for doing analysis and visualizations. ",0.9999545812606812,compatibility
44,"As a developer, I want to have the application function correctly in Internet Explorer 6 and 7, Firefox 1.5 and 2, and Safari 2, so that as many people as possible can fully use the application.",0.9993054866790771,compatibility
45,"As an OlderPerson, I want to use ALFRED to pay for small amounts.",0.9956504702568054,compatibility
46,"As a data reuser, I want to search the archive through Primo , so that I can search books, articles and data all in one place.",0.9994470477104187,compatibility
47,"As a depositor, I want to have metadata automatically filled from other University systems and remembered from previous deposits, so that I don't have to waste time reentering the same information.",0.9996356964111328,compatibility
48,"As a developer, I would like to create a web socket protocol for Frictionless data tools, so that I can easily use data packages with additional data analysis tools. ",0.9987794756889343,compatibility
49,"As a User , I want to authenticate using LDAP.",0.995326042175293,compatibility
50,"As a Publisher, I would like an integration with Excel, so that I can output cleaned Data Packages. ",0.9999327659606934,compatibility
51,"As a Researcher, I want an app that generates an OpenRefine reconciliation API endpoint from a Tabular Data Package, so that I can use it to clean messy data. ",0.9999089241027832,compatibility
52,"As an UnivITservice, I want to store archived data directly on the HCP object store, so that  features can be made.",0.9993426203727722,compatibility
53,"As a ResearcherDeveloper, would like the ability import/export from MS-SQL, so that I can use Data Packages in workflows that involve MS-SQL. ",0.9999545812606812,compatibility
54,"As an Archivist, I want to import EAD files that were exported by the Archivists' Toolkit.",0.9999545812606812,compatibility
55,"As an IT staff member, I want to know which formats are used, so that I can determine what kind of technical services and functionalities are required.",0.9984140396118164,compatibility
56,"As a institutional data steward, I want to be able to extract the data sets that are submitted to external repositories, so that I can add them to an institutional data catalogue.",0.9995734095573425,compatibility
57,"As a depositor, I want to deposit and maintain datasets through Virtual Research Environments and other workflow tools, so that I can continue to work with tools with which I'm familiar.",0.9981512427330017,compatibility
58,"As an agency user, I want to be confident that the data coming from SAM is complete.",0.999778687953949,compatibility
59,"As a Researcher, I want to be able to translate my EML dataset to a Data Package, so that I can benefit from the wide array of tools available for Data Packages. ",0.9993491768836975,compatibility
60,"As a Researcher, working with data, I want an Microsoft Power BI integration, so that I can import datasets without downloading them locally. ",0.9997691512107849,compatibility
61,"As a Zooniverse admin, I want to perform automatic segmentation or localization of plankton in Plankton Portal.",0.9998149275779724,compatibility
62,"As a researcher, I want to access files stored in my Neurohub workspace, using a network drive attached to my workstation.",0.999291181564331,compatibility
63,"As a collection curator, I would like metadata changes made to items with repository-assigned DOIs to be propagated to the EZID.",0.9993376135826111,compatibility
64,"As a Researcher, I want to be able to reference a remote-controlled vocabulary for my dataset, so that I can be sure that column of my dataset are valid against a single shared list of terms. ",0.9999545812606812,compatibility
65,"As a user, I want to sync events created in NeuroHub with a web-based Calendar such as Google Calendar.",0.9999487400054932,compatibility
66,"As a DeveloperWrangler, I want to use a command line tool that allows me to validate data, so that I can feel trust in the validity and usefulness of the data quickly and in the context of my command line workflow. ",0.999652624130249,compatibility
67,"As an assistant archivist, I want to easily access interdepartmental forms.",0.9992278814315796,compatibility
68,"As a Research Information manager, I want to integrate the archive with CRIS, so that I can analyse impact of research data publication I can link funding to all of the outputs it produces.",0.9991788268089294,compatibility
69,"As a Data Publishing User, I want to be able to import data from a Google Spreadsheet, So that I do not have to convert data formats in order to use the data packager.",0.9999545812606812,compatibility
70,"As an API User, I want to be able to get a CSV output of any cube-based query, So that I can use work with tools that read CSV.",0.9996789693832397,compatibility
71,"As a library staff member, I want to use content and metadata from the repository in other systems and/or web pages easily, so that I can deliver such content in the manner best fit to the audience or occasion.",0.9998458623886108,compatibility
72,"As a Cornell faculty member, I want to login remotely to the repository using Shibboleth, so that I can get remote access to Cornell campus-only content.",0.999359667301178,compatibility
73,"As a research facility manager, I want to deposit data from my facility directly into the archive on behalf of researchers, so that I am no longer required to maintain my own archive of facility data and researchers can access their own data as needed. ",0.9998242259025574,compatibility
74,"As an OlderPerson, I want to use ALFRED to pay for small amounts.",0.9956504702568054,compatibility
75,"As a User , I want to authenticate using LDAP.",0.995326042175293,compatibility
76,"As a developer, I want to have the API components to be on a high level so that I don't have to deal with their details. ",0.9914106130599976,compatibility
77,"As a Data Publishing User, I want to be able to edit the model of data I have already imported, So that I can fix bugs or make enhancements in the API built for my data.",0.9980600476264954,compatibility
78,"As a repository administrator, I want author/creator to store the DUID of the person to allow for name authority control and interoperability with other systems like Symplectic Elements.",0.9977793097496033,compatibility
79,"As a user, I want to be able to access the site and do all the other stuffs on all of my electronic devices.",0.9965009689331055,compatibility
80,"As a Researcher, I want to get a Data Package into STATA in seconds, so that I can start using the data for doing analysis and visualizations. ",0.9998902082443237,compatibility
81,"As an archivist, I want to access the digital files on the X-drive, so that I can use them.",0.9988700747489929,compatibility
82,"As a repository administrator, I would like Symplectic Elements to be able to communicate bidirectionally with the repository.",0.9994491934776306,compatibility
83,"As a Zooniverse admin, I want to perform automatic animal attribute preclassification in Snapshot Serengeti.",0.9995911717414856,compatibility
84,"As an agency user, I want to use the schema v1.1 headers in my FABS file.",0.9921624064445496,compatibility
85,"As a data reuser, I want to view a DOI for a dataset, so that I can get back to the data in future and I can import the dataset into my referencemanagement software automatically.",0.9995211362838745,compatibility
86,"As an Archivist, I want to import Accessions data in CSV.",0.9995989203453064,compatibility
87,"As a depositor, I want to link datasets to publications in Opus, so that both my data and publications are more easily discovered.",0.9959796667098999,compatibility
88,"As a Data Publishing User, I want to have the Packager support Constants, So that I can model dimensions that may not exist in the source file.",0.9994282126426697,compatibility
89,"As a Researcher, I want an integration with https://data.mendeley.com/, so that I can validate my data upon ingest to the service.",0.9982295632362366,compatibility
90,"As a Staff member, I want to Send or Post Citations and Fines, so that I can successfully send the Notice Of Violation document to the property owner and log information about the action.",0.999025821685791,compatibility
91,"As a Zooniverse admin, I want to assess how interesting or appealing or complex a picture is based on automated analysis, citizen annotations, and comments on Talk.",0.9997301697731018,compatibility
92,"As a developer, I want to have written a site which is compliant with XHTML and CSS standards, so that as many people as possible can access the site and view it as intended.",0.9996974468231201,compatibility
93,"As a Data Publishing User, I want to have a functioning Python Client, So that I can add data to the datastore in bulk from the command line or my own programs.",0.9996209144592285,compatibility
94,"As an archivist, I want to automatically create access derivatives of digital objects, so that I don't have to do this manually.",0.9943728446960449,compatibility
95,"As a Zooniverse admin, I want to perform automatic animal number detection in Snapshot Serengeti.",0.9993255138397217,compatibility
96,"As a Developer, I want an EPrints integration, so that I can integrate data-packaged data with pipelines that use EPrints. ",0.999909520149231,compatibility
97,"As an owner, I want to be sure that USAspending only send grant records to my system.",0.9937095642089844,compatibility
98,"As a collection curator, when I update the metadata for an object, that change should be propagated to the DOI system if the repository has assigned a DOI to that object.",0.999415397644043,compatibility
99,"As a moderator, I want to export a transcript of a game as a HTML file, so that I can save the stories and estimates locally.",0.9989643096923828,compatibility
100,"As a Data Publishing User, I want to be able to provide the Platform Administrator with additional GeoJSON sources, So that I can improve the map-based visualisations of my data.",0.9988184571266174,compatibility
101,"As a Researcher, I want to get a Data Package into STATA in seconds, so that I can start using the data for doing analysis and visualizations. ",0.9998902082443237,compatibility
102,"As a Developer, I want Feather integration, so that I can integrate data-packaged data with pipelines that use Feather. ",0.9998929500579834,compatibility
103,"As a Developer, I want HDF5 integration, so that I can integrate data-packaged data with pipelines that use HDF5.",0.9999545812606812,compatibility
104,"As a Developer, I want to do exploratory data analysis in R and operationalize that analysis in Python, so that I can use the best tool for the job.",0.9992266893386841,compatibility
105,"As a developer, I want to deposit and maintain datasets via an API such as SWORD2, so that my service can interact with the archive. ",0.9975663423538208,compatibility
106,"As an OlderPerson, I want to have my data stored directly on the phone.",0.9825998544692993,compatibility
107,"As a Zooniverse admin, I want to detect when a scientist should be prompted to look at a subject, based on annotations and information from Talk comments.",0.99980229139328,compatibility
108,"As a Developer, I want an Elasticsearch integration, so that I can integrate data-packaged data with pipelines that use Elasticsearch. ",0.9999485015869141,compatibility
109,"As a Data Publishing User, I want to be able to import data from Fiscal Data Package descriptor file, So that I do not have to convert data formats in order to use the data packager.",0.9999545812606812,compatibility
110,"As an Archivist, I want to import Resources from MARCXML records.",0.9993908405303955,compatibility
111,"As a Developer, I want the data loaded from historical FABS to include the FREC derivations, so that I can have consistent FREC data for USASpending.gov.",0.9993888139724731,compatibility
112,"As an Archivist, I want to export a description as EAD.",0.99933260679245,compatibility
113,"As a metadata batch editor, I want to export the CSV, remove the fields I'm not editing, edit the remaining fields, and upload the remediated file to overwrite values",0.9995641112327576,compatibility
114,"As a Data Publishing User, I want to be able to import data in JSON, So that I do not have to convert data formats in order to use the data packager.",0.9999545812606812,compatibility
115,"As a researcher, I want the DMP to prepopulate information that I have already entered in other institutional systems, so that I do not have to re-enter information ensuring the DMP contains accurate and standardized information.",0.9996535778045654,compatibility
116,"As a Developer, I want an SPSS integration, so that I can integrate data-packaged data with pipelines that use SPSS. ",0.9998705387115479,compatibility
117,"As a Zooniverse admin, I want to perform automatic preclassification of plankton species in Plankton Portal images.",0.9999271631240845,compatibility
118,"As a patron, I want to download report/dataset release calendar to load into own calendar.",0.998764157295227,compatibility
119,"As a repository administrator, I want Symplectic Elements to integrate with DDR. They provide a Fedora Connector and Emory is using a hidden Fedora instance that Hydra collects objects for. Note that there is bidirectional communication with Elements.",0.9998953342437744,compatibility
120,"As a Data Publishing User, I want to be able to edit the data source of data I have already imported, So that I can fix bugs or make enhancements in the API built for my data.",0.9990900754928589,compatibility
121,"As a Developer, I want to use data package as a node lib in my project, so that that I can depend on it using my normal dependency framework.",0.9983678460121155,compatibility
122,"As a Consumer, I want to download a DataPackage's data one coherent SQLite database, so that that I can get it easily in one form.",0.9991289973258972,compatibility
123,"As an administrator, I want to be able to use systems such as Symplectic Elements and Activity Insight to properly track faculty scholarly output in the repositories, so that I can facilitate personnel decisions.",0.9995689988136292,compatibility
124,"As a Broker user, I want the D1 file generation to be synced with the FPDS data load, so that I don't have to regenerate a file if no data has been updated.",0.9973493814468384,compatibility
125,"As a Machine Learning expert, I would like to package ML datasets as data packages, so that I can easily import them into my ML platform, so that I can start using the data in doing analysis. ",0.9997816681861877,compatibility
126,"As a Researcher, working with data in NetCDF, I want NetCDF integration, so that I can store my data in plaintext while still retaining its metadata. ",0.9996789693832397,compatibility
127,"As an OlderPerson, I want to use ALFRED to maintain my contact list in my phone. ",0.9974647760391235,compatibility
128,"As a developer, I want to access an API from the website, so that I can integrate it and implement certain features in my own iOS application.",0.9994888305664062,compatibility
129,"As an Archivist, I want to import EAD data.",0.9998960494995117,compatibility
130,"As a Broker user, I want the D1 file generation to be synced with the FPDS data load, so that I don't have to regenerate a file if no data has been updated.",0.9973493814468384,compatibility
131,"As an archivist, I want to automatically create access derivatives of digital objects, so that I don't have to do this manually.",0.9943728446960449,compatibility
132,"As a developer, I want to deposit and maintain datasets via an API such as SWORD2, so that my service can interact with the archive. ",0.9975663423538208,compatibility
133,"As a Data Publishing User, I want to be able to edit the data source of data I have already imported, So that I can fix bugs or make enhancements in the API built for my data.",0.9990900754928589,compatibility
134,"As a Data Publishing User, I want to have the Packager support Constants, So that I can model dimensions that may not exist in the source file.",0.9994282126426697,compatibility
0,"As a participant, I want to always have the cards in the same order across multiple draws, so that it's easy to compare estimates.",0.9989919066429138,usability
1,"As a lab administrator, I want to theme the Web interface graphics/colours.",0.9993124008178711,usability
2,"As a Publisher, I want to see real examples of published packages so that I can understand how useful and simple the datapackage format and the registry is.",0.9999021291732788,usability
3,"As a user, I want to be able to anonymously view public information, so that I know about recycling centers near me before creating an account.",0.9998026490211487,usability
4,"As an archivist, I want to search images by uploading an image, so that so I can find images when i don't have any metadata.",0.998236894607544,usability
5,"As a Data Consuming User, I want to have consistent use of colour on map visualisations, So that I can better understand the visual logic of the map view.",0.9998434782028198,usability
6,"As a site visitor, I want to be able to get back to the home page quickly and easily, so that I don't get lost navigating.",0.9976281523704529,usability
7,"As a user, I want to see sensible and predictable URLs, so that the application feels logical and transparent.",0.9993584752082825,usability
8,"As a FABS user, I want to submission errors to accurately represent FABS errors, so that I know why my submission didn't work.",0.9996539354324341,usability
9,"As an agency user, I want a landing page to navigate to either FABS or DABS pages, so that I can access both sides of the site.",0.9991372227668762,usability
10,"As a participant, I want to have a small thumbnail photo displayed near where my cards are played, so that the game is more personal because I see who I'm estimating with.",0.9998574256896973,usability
11,"As a UI designer, I want to report to the Agencies about user testing, so that they are aware of their contributions to making Broker a better UX.",0.9951889514923096,usability
12,"As an Owner, I want to create a user testing summary from the UI SME, so that I can know what UI improvements we will follow through on.",0.999288022518158,usability
13,"As an archivist, I want to automatically create access derivatives of digital objects, so that I don't have to do this manually.",0.996791422367096,usability
14,"As a Broker user, I want the D1 file generation to be synced with the FPDS data load, so that I don't have to regenerate a file if no data has been updated.",0.9975983500480652,usability
15,"As an Applicant, I want to Check the Status of a transaction, so that I can understand where the provisioning of my service is in the process, such as information related to service levels, fees, plan review, permit, or inspection results.",0.999931812286377,usability
16,"As a Publisher, I want to be warned that a tag exists when I try to overwrite it, so that that I don't accidentally overwrite stable tagged data which is relied on by consumers.",0.9977532029151917,usability
17,"As a publisher, I want to embed an interactive preview of my data on my site, so that users can be encouraged that this is the correct data for them. ",0.9995947480201721,usability
18,"As a trainer, I want to be assured that no one can submit the same answers multiple time and skew my results, so that my ratings are accurate.",0.999800980091095,usability
19,"As a user, I want to be able to use Unicode, so that I can use any language I like.",0.9995763897895813,usability
20,"As a Broker user, I want the D1 file generation to be synced with the FPDS data load, so that I don't have to regenerate a file if no data has been updated.",0.9975983500480652,usability
21,"As a Consumer, I want to download the data package in one file, so that that I don't have to download descriptor and each resource by hand.",0.9961674809455872,usability
22,"As a user, I want to have nice error pages when something goes wrong, so that I can trust the system and its developers.",0.9995704293251038,usability
23,"As a user, I want to have a great UI and UX from the sites, so that I have a pleasant experience when navigating through them.",0.9992555975914001,usability
24,"As a FABS user, I want the language on FABS pages to be appropriate for me, so that I am not confused.",0.9993932247161865,usability
25,"As a user, I want to draw tables using HTML tags as part of the content of a log book page.",0.9992713332176208,usability
26,"As a depositor, I want to have a user interface that is familiar to me, so that I feel like all the University systems are joined up.",0.9986818432807922,usability
27,"As an archivist, I want to automatically create access derivatives of digital objects, so that I don't have to do this manually.",0.996791422367096,usability
28,"As a user, I want to view user documentation for the website, so that I know how to use the web app.",0.9952943921089172,usability
29,"As a data reuser, I want to access the system in my native language, so that I am not put off reusing University of Bath data by language barriers.",0.9999545812606812,usability
30,"As the site editor, I want to have pretty good control over how the article, so that articles are visually appealing.",0.9996275901794434,usability
31,"As an OlderPerson, I want to have an ALFRED device that speaks very slowly and clearly.",0.9996217489242554,usability
32,"As a user, I want to have the ability to move multiple files around and rearrange them using the Neurohub file browser while processing data.",0.9987192153930664,usability
33,"As a site editor, I want to have a prominent area on the home page where I can put special announcements not necessarily news or articles, so that I can give them additional exposure.",0.9998527765274048,usability
34,"As an owner, I only want zero-padded fields, so that I can justify padding.",0.9995428323745728,usability
35,"As a user, I want to navigate forwards and backwards between log books and log book pages without having to use my browser's back button.",0.9997228980064392,usability
36,"As a ProspectiveApplicant, I want to research requirements and to select a service, so that I can find the relevant service and/or application type to initiate via the online portal.",0.9991187453269958,usability
37,"As a participant, I want to be able to change my estimate up until the last person selects a card and all are shown, so that I can change my mind based on information I hear.",0.999580442905426,usability
38,"As a publisher, I want to embed a preview button on my site, so that users can preview the data and be encouraged that this is the correct data for them.",0.99985671043396,usability
39,"As a Publisher, I want to preview a datapackage I have prepared, so that that I can check it works and share the results.",0.9998204112052917,usability
0,"As a Researcher, I want an app that create proxy Data Packages for well know and reliable data, sources, so that I can load high quality data using Data Package tooling. ",0.9995484948158264,reliability
1,"As a systems administrator, I want to be able to control the location of the demo database and I want it to be backed up.",0.9998078942298889,reliability
2,"As a collection curator, I want the repository to queue my collection for replication upon ingest to our remote storage site and to display the remote replication status in each item and component page in the staff interface. I would also like to see a summary of this at the collection level on my dashboard.",0.9998773336410522,reliability
3,"As an asset manager, I want to be assured that the digital copy I deposit is stored redundantly, so that when one copy suffers destruction or unwanted changes, I still have other good copies to restore from.",0.9988030195236206,reliability
4,"As a library staff member, I want to deliver streaming media from within the repository, so that I can deliver such content in the manner expected and ensure continued access to said content.",0.9998100399971008,reliability
5,"As a data manager, I want to know whether the data can be reproduced efficiently, so that I can determine whether and how the data has to be stored.",0.9989714622497559,reliability
6,"As an asset manager, I want to be assured that the redundant copies are continuously monitored for unwanted changes, and that if/when changes do occur, there is a mechanism by which I can determine the original object and restore it to all copies.",0.9990174770355225,reliability
7,"As a Researcher, I want an app that create proxy Data Packages for well know and reliable data, sources, so that I can load high quality data using Data Package tooling. ",0.9995484948158264,reliability
8,"As an app developer, I want to ensure that application creation fails if any of its datasets cannot be created.",0.9999401569366455,reliability
9,"As an asset manager, I want to be assured that threats to copies in one repository are not automatically incurred by the redundant copies.",0.9987123012542725,reliability
10,"As a Publisher, I want to publish a data package where its resource data is stored on my servers but the registry caches a copy of that data, so that that if my data is lost or gets broken I still have a copy people can use.",0.9988017082214355,reliability
11,"As a pipeline designer, I want to get a meaningful error message when pipeline creation fails when I use an existing dataset as a sink or source, so that I know that the schema or any other property of the dataset is incompatible with what the pipeline requires. ",0.9997954964637756,reliability
12,"As a system administrator, I want to have a managed backup protocol for the system.",0.9977890253067017,reliability
13,"As an Archivist, I want to be able to understand that an error occurred during import and why it might have occurred.",0.9998086094856262,reliability
14,"As a fundingbody, I want to be reassured that researchers I fund have robust archival plans for their data, so that I can be sure that funding them is a worthwhile investment.",0.9998714923858643,reliability
15,"As a researcher, I want to indicate where my data will be stored during the project and where after the project, so that it remains accessible during all stages of the data lifecycle.",0.9998070597648621,reliability
16,"As a depositor, I want to have guarantees about data integrity, so that I can use my data in the future and I can fulfil funder requirements for archival.",0.9982323050498962,reliability
17,"As a user, I want to ensure that an update of explore never leads to silent loss of data or data available for explore. ",0.999710738658905,reliability
18,"As a Publisher, I want to be able to restore the deleted data package via cli, so that that it is back visible and available to view, download.",0.9983394145965576,reliability
19,"As a collection curator housed in the Protected Data Network, I want my collection to be encrypted with a key maintained on that server, a checksum made and stored of the encrypted file, and the encrypted file replicated to our remote storage site.",0.9992189407348633,reliability
20,"As a Consumer, I want to be able to get the data for a data package even if the original data has been moved or removed, so that that I can still use is and my app or analysis keeps working.",0.9993083477020264,reliability
21,"As a repository manager, I want to specify the remote replication policy for each collection. I want to be able to elect to either replicate remotely or not and possibly to replicate beyond the primary remote site. E.g., some collections may not leave Duke, some may be replicated to DuraCloud, and some may be replicated to both DuraCloud and Glacier.",0.9998462200164795,reliability
22,"As an OlderPerson, I want to have an ALFRED device that informs me about a low battery when leaving the house. ",0.9983980059623718,reliability
23,"As a library staff member, I want to preserve both the content and the metadata within the repository in a robust manner, so that I can provide stable, long-term access to this material.",0.9989833235740662,reliability
24,"As a repository administrator, I would like to be able to continue to provide access to the repository in the event that the server fails.",0.9995527863502502,reliability
25,"As a user, I want to ensure that if reconfiguration of a dataset fails then no changes have taken effect, so that all steps required to reconfigure a dataset must be done as a single atomic action.",0.9999202489852905,reliability
26,"As a researcher, I want to have services to support the long term curation of data, so that I can be sure that data will not get 'lost' with the passage of time.",0.9992055296897888,reliability
27,"As an app developer, I want to ensure that application redeployment fails if any of its datasets cannot be reconfigured.",0.999667763710022,reliability
0,"As a research facility manager, I want to deposit data from my facility directly into the archive on behalf of researchers, so that I am no longer required to maintain my own archive of facility data and researchers can access their own data as needed. ",0.9999545812606812,security
1,"As an OlderPerson, I want to use ALFRED to pay for small amounts.",0.9979705214500427,security
2,"As a User , I want to authenticate using LDAP.",0.9979379773139954,security
3,"As a fundingbody, I want to be reassured that researchers I fund have robust archival plans for their data, so that I can be sure that funding them is a worthwhile investment.",0.9976450800895691,security
4,"As a PI, I want to know how secure data is, so that I can ensure legal compliance.",0.9996176958084106,security
5,"As an externalcollaborator, I want to gain privileged access to data for projects in which I am involved, so that I can collaborate effectively.",0.9998254179954529,security
6,"As a collection curator, I want users to be able to contact me directly from the repository to request access to restricted objects.",0.9996447563171387,security
7,"As a depositor, I want to place data under an embargo, so that my right of first use is protected, and I can fulfil my confidentiality responsibilities.",0.9992959499359131,security
8,"As an OlderPerson, I want to know exactly what ALFRED does with my personal data, and share it only on my specific permission. ",0.9996300935745239,security
9,"As an administrator, I want to create user roles, so that I can group users by role.",0.9994797110557556,security
10,"As a Cornell faculty member, I want to login remotely to the repository using Shibboleth, so that I can get remote access to Cornell campus-only content.",0.9991586208343506,security
11,"As a member, I want to have the system email me a new password or a password reminder since i have short-term memory problems.",0.9998995065689087,security
12,"As a user, I want to have my personal information kept securely in the database of the website, so that I will not suffer from identity theft or telephone harassment.",0.999819815158844,security
13,"As a Researcher, I want results to be stored in a non-identifiable way, so that I can study the data to see things like whether estimates converged around the first opinion given by ""estimator A"" for example.",0.9998176693916321,security
14,"As a data manager, I want to know the security requirements of the data, so that I can check whether the data can be kept secure.",0.9998681545257568,security
15,"As a legalofficer, I want to know about data sensitivity, so that I can establish sharing options.",0.9998711347579956,security
16,"As a depositor, I want to allow others to deposit on my behalf, so that I can delegate research data management tasks appropriately.",0.9989751577377319,security
17,"As an administrator, I want to have researchers reset their own passwords, so that I don't have to send passwords in cleartext.",0.9995947480201721,security
18,"As an institutional data manager, I want to know about the privacy and security requirements of the data, so that I can plan the right storage system and sharing permissions.",0.9998353719711304,security
19,"As a CST, I want to pay an annual fee, so that my CST status is active.",0.9997031092643738,security
20,"As the Digital Records Archivist, I want a method to add and remove multiple people to deposit groups in specific collections. Ideally, I'd be able to set a date that the deposit window closes. The permissions conferred on these depositors should pick up on the collection's default permission.",0.9999545812606812,security
21,"As a FABS user, I want to have read-only access to DABS, so that I can view DABS pages without wanting two sets of permissions.",0.9996546506881714,security
22,"As a Director of Research Integrity, I want to access reports containing details of research projects in which data are classified as sensitive or highly sensitive, so that I can confirm security protocols are applied to these data.",0.9995781779289246,security
23,As a collection curator I want to be able to change permissions on one or more items simultaneously.,0.9998767375946045,security
24,"As a DB/IR administrator, I want to set up or delete accounts for other administrators with various levels of permission.",0.9996194839477539,security
25,"As the Digital Records Archivist, I want the repository to lift embargoes on the release date and set the access controls to the configuration set on item on that date.",0.9996273517608643,security
26,"As a DB/IR administrator, I want to login to personal account with access to authorized functions.",0.9998083710670471,security
27,"As an administrator, I want to check that all data has the appropriate security level, so that I can demonstrate compliance.",0.99910968542099,security
28,"As a site member, I want to mark my profile as private in which case only my name will appear, so that no one can learn things about me I don't want shared.",0.9996470212936401,security
29,"As a parent, I want to be able to create an account, so that I can sign up my kids for camp online.",0.9990930557250977,security
30,"As an IT staff member, I want to know the security requirements of the data, so that I know which kind of security measures to apply.",0.998795747756958,security
31,"As an archivist, I want to add detailed restrictions to groups of files, so that I know if and how they can be shared.",0.9966895580291748,security
32,"As an archivist, I want to mark groups of files as restricted, so that they don't get shared by mistake.",0.9998300075531006,security
33,"As a researcher, I want to secure remote access to the Neurohub node when working away from the laboratory",0.9979202151298523,security
34,"As a Consumer, I want to know that the data I am downloading is good and can be relied on, so that that I don't have to check it myself or run into annoying bugs later on.",0.9976139068603516,security
35,"As a depositor, I want to link datasets with the project DMP, so that compliance with DMP can be demonstrated and whole project workflow is linked together.",0.9999018907546997,security
36,"As a collection curator, I want to allow some collections the option of setting an embargo date (e.g. 2017-01-01)at deposit. Item metadata should be discoverable until that date. Once the embargo date is reached, the embargo should be lifted and access to the item should be allowed under the access permissions set on the object.",0.9999545812606812,security
37,"As an administrator, I want to create user groups, so that I can control user permissions.",0.9998202919960022,security
38,"As an administrator, I want to limit who can see certain metadata fields, so that I can show or hide things from display based on user groups.",0.9992935657501221,security
39,"As lab administrator, I want to have increased access to the system to support regular users. ",0.9997920393943787,security
40,"As a researcher, I want to have a group-level repository for sharing papers/reviews/comments with other researchers.",0.9994946718215942,security
41,"As a user, I want to be able to create an account, so that I can create my own profile.",0.9994102716445923,security
42,"As a repository manager, I want to know all the collections for which I have curatorial responsibility. ",0.9994875192642212,security
43,"As a moderator, I want to create an account for the application by entering my name, email address, a password and a username, so that I can start using the application.",0.9995620846748352,security
44,"As an administrator, I want to assign rights to user groups or roles, so that I can control what users can and can't do.",0.9995086193084717,security
45,"As a collection curator, I want items to be made available under the permissions they were configured once the embargo date has been reached.",0.9998548030853271,security
46,"As an archivist, I want to mark individual files as restricted, so that they don't get shared by mistake.",0.9994366765022278,security
47,"As the Digital Records Archivist, I need the batch ingest tool to recognize and set embargoes. Permissions for embargoed items should be allow everyone to view metadata and collection curator and repository administrators to be able to download the files.",0.9998201727867126,security
48,"As an admin, I want to have all data encrypted, so that important information will not be stolen during a server breach or an attack.",0.9996838569641113,security
49,"As a research facility manager, I want to deposit data from my facility directly into the archive on behalf of researchers, so that I am no longer required to maintain my own archive of facility data and researchers can access their own data as needed. ",0.9999545812606812,security
50,"As an archivist, I want to restrict access to certain files by user, so that I can allow donor representatives to see certain files.",0.9999545812606812,security
51,"As a site member, I want to mark my email address as private even if the rest of my profile is not, so that no one can contact me.",0.999901533126831,security
52,"As an administrator, I want to assign RAC staff to different user groups, so that I can control read/write access.",0.9987855553627014,security
53,"AS an externalcoordinator, I want to access data from Bath collaborators off campus, so that I can collaborate effectively.",0.9998509883880615,security
54,"As a Publisher, I want to have private data packages, so that I can share just with my team.",0.9993219375610352,security
55,"As a authenticateduser, I want to Enter payment information and have my card charged for an individual sponsorship, so that I can pay for an individual sponsorship.",0.9997890591621399,security
56,"As a parent, I want to be able to sign and submit consent forms online, so that I don't have to deal with my child losing a consent form.",0.9975605010986328,security
57,"As an Application Administrator, I want to assign Users to an Advanced Data Entry and ensure that the appropriate permissions are enforced.",0.9996121525764465,security
58,"As a library staff member, I want to upload material to the repository on the author's behalf, so that I can fulfill a service obligation.",0.9994003772735596,security
59,"As a repository manager, I want to know all the collections and objects in the DAMS for which I have custodial responsibility.  ",0.9991850256919861,security
60,"As an OlderPerson, I want to use ALFRED to pay for small amounts.",0.9979705214500427,security
61,"As a moderator, I want to get a password reminder by email, so that I can get back to using the application when I've forgotten my password.",0.9998989105224609,security
62,"As a user,  I want to have the ability to keep my data private on the system, and only share data that I deem should be shared.",0.9990236759185791,security
63,"As a User , I want to authenticate using LDAP.",0.9979379773139954,security
64,"As a DB/IR administrator, I want to administrate patron accounts for purpose of closing accounts, viewing subscriptions, changing subscriptions, resetting passwords, changing email address, etc.",0.9999040365219116,security
65,"As a Platform Administrator, I want to be able to Hide any dataset already added as Public, So that I can maintain Public/Hidden status for other users.",0.9979885816574097,security
66,"As a collection curator housed in the Protected Data Network, I want my collection to be encrypted with a key maintained on that server, a checksum made and stored of the encrypted file, and the encrypted file replicated to our remote storage site.",0.9991183876991272,security
67,"As a user, I want to search and discover music using content identification or fingerprinting.",0.9990610480308533,security
68,"As a repository manager, I want to constrain curatorial access to my units assets to staff members of my unit and to DAMS managers having universal access.    ",0.9999545812606812,security
69,"As a collection curator, I want to be able require authentication to access objects unless the request is coming from a whitelisted IP address, list of addresses (like the Special Collections Reading Room, or range.",0.9999545812606812,security
70,"As a user, I want to link my email account to my profile, so that I can get a temporary password in case I forget my own one.",0.9998452663421631,security
71,"As a DB/IR administrator, I want to have a personal account with the ability to change passwords to make them more secure or to retrieve forgotten ones.",0.9995802044868469,security
72,"As a collection curator, I would like an easy way to create groups of users to manage permissions in the repository.",0.999316930770874,security
73,"As a collection curator, I would like to be able to view the permission on my objects all together.",0.9984951019287109,security
74,"As an Application Administrator, I want to be able to reset a User's password for them.",0.9988492727279663,security
75,"As an OlderPerson, I want to decide who has access to my vital data. ",0.9995216131210327,security
76,"As a moderator, I want to log in using my account name and password, so that I can start using the application.",0.9992281198501587,security
77,"As a site editor, I want to be able to indicate whether an article is publicly available or for members only, so that visitors are incentivized to become members.",0.9997602105140686,security
78,"As User, I want to be able to log in.",0.9970464110374451,security
79,"As repository manager, I'd like to be able to view authenticated, active users and anonymous users.",0.999626874923706,security
80,"As a faculty member, I want to go to my repository dashboard to manage members of my classes. I want to be able to grant submit permissions by pasting in a list of NetIDs, see confirmation that DDR recognizes the NetIDs, ability to manually remove permissions, ability to set begin and end dates for a submission window, and a have a status screen to clearly illustrate who has and hasn't submitted.",0.9999545812606812,security
81,"As a non-Duke researcher, I and my team need to describe our objects in the repository after they've been deposited if we've been assigned permission to edit metadata.",0.9999500513076782,security
82,"As a superuser, I should be able to enter and exit the superuser scope.",0.9995065927505493,security
83,"As an OlderPerson, I want to be able to manage my privacy and data settings. ",0.9984561204910278,security
84,"As an archivist, I want to restrict access to some files by IP address, so that I can give reading room access only to certain digital files.",0.9999544620513916,security
85,"As the Digital Records Archivist, I want to be able to grant embargo privileges to other repository administrators.",0.9995113611221313,security
86,"As a User, I want to authenticate locally.",0.9989890456199646,security
87,"As a library staff member, I want to be able to add custom metadata fields for deposits I make on behalf of researchers to allow for better search capabilities.",0.9990837574005127,security
88,"As a MedicalCaregiver, I want to be sure that the user can decide who has access to her data. ",0.9988062381744385,security
89,"As an admin, I want to be able to block specific users based on IP address, so that I can prevent spamming on the websites.",0.9995026588439941,security
90,"As a collection curator, I want to restrict access to my collection or items to Duke IP addresses.",0.9999545812606812,security
91,"As a researcher,  I want to have the ability to restrict the data I share to certain researchers or groups of researchers.",0.9982131719589233,security
92,"As a PI, I want to know who owns the data, so that I know what I am allowed to do with it.",0.9995187520980835,security
93,"As a authenticateduser, I want to identify myself as and pay for a $350 company sponsorship, so that I can easily become a sponsor at this level without having to interface with badcamp personnel to get a sponsorship.",0.9997969269752502,security
94,"As a Customer, I want to Create a Customer Portal User Account, so that I can log on to the Customer Portal and perform transactions that first require user authentication.",0.9988987445831299,security
95,"As a DAMS manager, I want know the dates for when a permission or restriction is active.  ",0.9992478489875793,security
96,"As an IT officer, I want to know how secure data is, so that I can ensure legal compliance.",0.9995974898338318,security
97,"As an archivist, I want to add restriction end date information to files, so that I can share files when they become open.",0.9994045495986938,security
0,"As a Data Publishing User, I want to be able to edit the model of data I have already imported, So that I can fix bugs or make enhancements in the API built for my data.",0.9997701048851013,maintainability
1,"As an app developer, I want to only depend on the interface of a dataset type in my app and have the system inject the implementation at runtime.",0.9997403025627136,maintainability
2,"As a developer, I want a dummy app to test DDR models on Fedora 4.",0.9988265633583069,maintainability
3,"As a developer, I want a version of the DDR Batch gem that works with Active Fedora 9 and passes all tests on Fedora 4.",0.9998780488967896,maintainability
4,"As a UI designer, I want to report to the Agencies about user testing, so that they are aware of their contributions to making Broker a better UX.",0.9998942613601685,maintainability
5,"As an app developer, I want to deploy a new version of a dataset type as part of an app artifact, without affecting other datasets of this type.",0.9937240481376648,maintainability
6,"As a Data Publishing User, I want to know if my CSV file is valid, So that I can fix possible data issues before publishing it on Open Spending.",0.9994562268257141,maintainability
7,"As a Developer, I want to list all DataPackages requirements for my project in the file and pin the exact versions of any DataPackage that my project depends on, so that that the project can be deterministically deployed locally and won't break because of the DataPackage schema changes. ",0.9979339838027954,maintainability
8,"As a dataset developer, I want to have the option of implementing a migration procedure that can be run after an upgrade of a dataset instance to a new version of it type. ",0.9991463422775269,maintainability
9,"As a developer, I want to have the API components to be on a high level so that I don't have to deal with their details. ",0.9958661794662476,maintainability
10,"As a developer, I want to have the API to be well defined and well documented. ",0.9977949857711792,maintainability
11,"As an app developer, I want to ensure that when I deploy a new version of an app that includes a shared dataset type that all dataset instances created by this app start using the new code but all dataset instances created by other apps remain unchanged.",0.9996066689491272,maintainability
12,"As an app developer, I want to deploy a new version of a dataset type as part of deploying a new version of the app that includes it and I expect that all dataset instances of that type that were created as part of the app deployment start using the new code.",0.9997499585151672,maintainability
13,"As repository developer, I want to find opportunities to merge functionality in batch tools.",0.9992535710334778,maintainability
14,"As a Data Publishing User, I want to be able to edit the model of data I have already imported, So that I can fix bugs or make enhancements in the API built for my data.",0.9997701048851013,maintainability
15,"As a tester, I want to ensure that FABS is deriving fields properly through a robust test file plus a follow up check.",0.9988032579421997,maintainability
16,"As a plugin developer, I want to use a custom dataset type that was deployed independently or as part of an app inside the plugin. ",0.9973061084747314,maintainability
17,"As a MedicalCaregiver, I want to have a simple ALFRED unit that is expandable in is functions. ",0.9982283711433411,maintainability
18,"As an app developer, I want to share a dataset type across multiple applications that include the dataset type's code in their artifacts.",0.998019814491272,maintainability
19,"As a developer, I want to use a configuration that is not prepackaged within a built version of application.",0.9973301887512207,maintainability
20,"As an app developer, I want to ensure that when I deploy a new version of an app that includes a different version of a dataset type deployed by another app and this app shares a dataset instance of this type with the other app the deployment will fail with a version conflict error. ",0.9995707869529724,maintainability
21,"As a tester, I want to have access to test features in environments other than Staging, so that I can test any nonProd feature in any environment.",0.9986470341682434,maintainability
22,"As an app developer, I want to write unit tests for an app that depends on the interface of a dataset type.",0.9995208978652954,maintainability
23,"As a developer, I want a version of the DDR models gem that uses Active Fedora 9 and passes all tests on Fedora 4.",0.9998373985290527,maintainability
24,"As a Developer , I want to be able to log better, so that I can troubleshoot issues with particular submissions and functions.",0.9998632669448853,maintainability
25,"As a data scientist, I want to be able to upgrade a dataset instance to a new version of its code.",0.999354898929596,maintainability
26,"As a UI designer, I want to track the issues that come up in Tech Thursday, so that I know what to test and what want s to be fixed.",0.9992772936820984,maintainability
27,"As a plugin developer, I want to upgrade the code of a dataset type used by a dataset instance created by that plugin when I deploy a new version of the plugin and update the pipeline to use that version.",0.9994439482688904,maintainability
28,"As an app developer, I want to ensure that when I deploy a new version of an app that includes an older version of a dataset type deployed by another app and I expect that the dataset instances created by this app use the dataset type code included in this app.",0.9998534917831421,maintainability
29,"As a developer, I want a version of DUL Hydra that works with Active Fedora 9 and passes all tests.",0.9996739625930786,maintainability
30,"As a developer, I want to have detailed information of what happened when my App crashes on the user's device. ",0.9928280711174011,maintainability
31,"As a dataset developer, I want to deploy a new version of a dataset type without affecting the dataset instances of that type.",0.9992362260818481,maintainability
32,"As a release engineer, I want to call a script to execute acceptance tests against a Neurohub installation and report back the results.",0.9992757439613342,maintainability
33,"As an Owner, I want to create a user testing summary from the UI SME, so that I can know what UI improvements we will follow through on.",0.9978779554367065,maintainability
34,"As a Developer, I want to be able to customise the Brand Name and Icon, and Primary Color of all frontend Javascript apps, So that I can customise the branding for my own needs.",0.9987958669662476,maintainability
35,"As a broker team member, I want to make some updates to the SQL codes for clarity.",0.9993147850036621,maintainability
36,"As a dataset developer, I want to have the option of forcing applications to have the dataset code injected at runtime.",0.9995403289794922,maintainability
37,"As a plugin developer, I want to upgrade the code of a dataset type used by a dataset instance created by that plugin when I deploy a new version of the plugin and update the pipeline to use that version.",0.9994439482688904,maintainability
38,"As a Data Publishing User, I want to know if my CSV file is valid, So that I can fix possible data issues before publishing it on Open Spending.",0.9994562268257141,maintainability
39,"As an NSF administrator, I want to shadow the CMS implementation, so that I can learn as the prototype is developed further.",0.9985748529434204,maintainability
40,"As a developer, I want a dummy app to test DDR models on Fedora 4.",0.9988265633583069,maintainability
41,"As a developer, I want a version of the DDR models gem that uses Active Fedora 9 and passes all tests on Fedora 4.",0.9998373985290527,maintainability
42,"As a developer, I want a version of the DDR Batch gem that works with Active Fedora 9 and passes all tests on Fedora 4.",0.9998780488967896,maintainability
43,"As an app developer, I want to ensure that when I deploy a new version of an app that includes an older version of a dataset type deployed by another app and I expect that the dataset instances created by this app use the dataset type code included in this app.",0.9998534917831421,maintainability
44,"As a release engineer, I want to configure nightly builds that automatically perform a Neurohub installation on a virgin operating system, execute tests and report back results, without requiring any manual input/interaction.",0.9978139400482178,maintainability
45,"As a Web Developer, I want to be able to install multiple versions of the same datapackage separately, so that that all my projects could be developed independently and deployed locally.",0.9984551668167114,maintainability
46,"As a Data Publishing User, I want to have the Packager support Constants, So that I can model dimensions that may not exist in the source file.",0.9973342418670654,maintainability
47,"As a developer, I want to deposit and maintain datasets via an API such as SWORD2, so that my service can interact with the archive. ",0.9988386034965515,maintainability
48,"As a Data Publishing User, I want to be able to edit the data source of data I have already imported, So that I can fix bugs or make enhancements in the API built for my data.",0.9996219873428345,maintainability
49,"As an admin, I want to view user error logs, so that I can fix or review any issues that are being faced by users of the system.",0.9994719624519348,maintainability
50,"As a system administrator, I want to run a script that tests to see if a Neurohub installation is functioning correctly.",0.9983575940132141,maintainability
51,"As a developer, I want to have the ALFRED API to reduce the work to achieve my goals. ",0.9952556490898132,maintainability
52,"As an Owner, I want to reset the environment to only take Staging MAX permissions, so that I can ensure that the FABS testers no longer have access.",0.9992654919624329,maintainability
53,"As a developer, I want to deposit and maintain datasets via an API such as SWORD2, so that my service can interact with the archive. ",0.9988386034965515,maintainability
54,"As a Broker user, I want to have PPoPZIP+4 work the same as the Legal Entity ZIP validations.",0.9991808533668518,maintainability
55,"As a dataset developer, I want to separate the interface from the implementation of a dataset type.",0.9995537400245667,maintainability
56,"As a dataset developer, I want to deploy a dataset type independent from any app and allow apps to create and use dataset instances of that type.",0.9966102242469788,maintainability
57,"As a data scientist, I want to be able to create a dataset instance of an existing dataset type without writing code.",0.9996994733810425,maintainability
58,"As a Data Publishing User, I want to be able to edit the data source of data I have already imported, So that I can fix bugs or make enhancements in the API built for my data.",0.9996219873428345,maintainability
59,"As a UI designer, I want to begin user testing, so that I can validate stakeholder UI improvement requests.",0.9971669316291809,maintainability
60,"As a Data Publishing User, I want to have the Packager support Constants, So that I can model dimensions that may not exist in the source file.",0.9973342418670654,maintainability
61,"As a user, I want to update the properties of a dataset instance and I expect this to fail if the new properties are not compatible with a meaningful error message.",0.9975659847259521,maintainability
0,"As a user, I want to view the group's shared calendars via the Neurohub Nodes' Web page as well as on my mobile device.",0.9999545812606812,portability
1,"As a repository administrator, I want author/creator to store the DUID of the person to allow for name authority control and interoperability with other systems like Symplectic Elements.",0.9998986721038818,portability
2,"As a developer, I want a dummy app to test DDR models on Fedora 4.",0.9999545812606812,portability
3,"As a developer, I want a version of the DDR Batch gem that works with Active Fedora 9 and passes all tests on Fedora 4.",0.9999545812606812,portability
4,"As a Data Publishing User, I want to know if my CSV file is valid, So that I can fix possible data issues before publishing it on Open Spending.",0.9999426603317261,portability
5,"As a Developer, I want to list all DataPackages requirements for my project in the file and pin the exact versions of any DataPackage that my project depends on, so that that the project can be deterministically deployed locally and won't break because of the DataPackage schema changes. ",0.9998036026954651,portability
6,"As an app developer, I want to deploy a new version of a dataset type as part of deploying a new version of the app that includes it and I expect that all dataset instances of that type that were created as part of the app deployment start using the new code.",0.9995328187942505,portability
7,"As a plugin developer, I want to use a custom dataset type that was deployed independently or as part of an app inside the plugin. ",0.9999545812606812,portability
8,"As a developer, I want a version of the DDR models gem that uses Active Fedora 9 and passes all tests on Fedora 4.",0.9999545812606812,portability
9,"As a plugin developer, I want to upgrade the code of a dataset type used by a dataset instance created by that plugin when I deploy a new version of the plugin and update the pipeline to use that version.",0.9999545812606812,portability
10,"As an app developer, I want to ensure that when I deploy a new version of an app that includes an older version of a dataset type deployed by another app and I expect that the dataset instances created by this app use the dataset type code included in this app.",0.9999545812606812,portability
11,"As a developer, I want a version of DUL Hydra that works with Active Fedora 9 and passes all tests.",0.9999545812606812,portability
12,"As a plugin developer, I want to upgrade the code of a dataset type used by a dataset instance created by that plugin when I deploy a new version of the plugin and update the pipeline to use that version.",0.9999545812606812,portability
13,"As a Data Publishing User, I want to know if my CSV file is valid, So that I can fix possible data issues before publishing it on Open Spending.",0.9999426603317261,portability
14,"As an NSF administrator, I want to shadow the CMS implementation, so that I can learn as the prototype is developed further.",0.9998685121536255,portability
15,"As a developer, I want a dummy app to test DDR models on Fedora 4.",0.9999545812606812,portability
16,"As a repository administrator, I want author/creator to store the DUID of the person to allow for name authority control and interoperability with other systems like Symplectic Elements.",0.9998986721038818,portability
17,"As a user, I want to be able to access the site and do all the other stuffs on all of my electronic devices.",0.9994634985923767,portability
18,"As a system administrator, I want to migrate data from an older version of NeuroHub to the current version.",0.99989914894104,portability
19,"As a developer, I want a version of the DDR models gem that uses Active Fedora 9 and passes all tests on Fedora 4.",0.9999545812606812,portability
20,"As a developer, I want a version of the DDR Batch gem that works with Active Fedora 9 and passes all tests on Fedora 4.",0.9999545812606812,portability
21,"As a Cornell faculty member, I want to search the repository and browse through its contents on my phone, so that I can check things on the go.",0.9999545812606812,portability
22,"As an OlderPerson, I want to have ALFRED on all my computers, tablets and phone.",0.999850869178772,portability
23,"As an Admin, I want to set key configuration parameters for my site deployment, so that that I can change key information like the site title.",0.9999408721923828,portability
24,"As an app developer, I want to ensure that when I deploy a new version of an app that includes an older version of a dataset type deployed by another app and I expect that the dataset instances created by this app use the dataset type code included in this app.",0.9999545812606812,portability
25,"As a release engineer, I want to configure nightly builds that automatically perform a Neurohub installation on a virgin operating system, execute tests and report back results, without requiring any manual input/interaction.",0.9999545812606812,portability
26,"As a developer, I want to present my App in several ways. ",0.9999545812606812,portability
27,"As a Web Developer, I want to be able to install multiple versions of the same datapackage separately, so that that all my projects could be developed independently and deployed locally.",0.9999454021453857,portability
28,"As a repository developer, I would like to upgrade to Fedora 4 and migrate our applications and data.",0.999824583530426,portability
29,"As a team member, I want to see the first iteration of beta up on cloud.gov.",0.9999545812606812,portability
30,"As a system administrator, I want to run a script that installs the Neurohub node onto a virgin Ubuntu operating system.",0.9999545812606812,portability
31,"As a systems administrator, I want  to install Neurohub dependencies into an Ubuntu 10.04 LTS machine using the normal Ubuntu package management tools.",0.9999545812606812,portability
