,eval,epoch
0,"{'QA': {'tp': 15.0, 'fp': 7.00000001, 'fn': 35.00000001, 'tn': 30.0, 'tot': 50.00000001, 'eval': {'textcat_p': 0.6818181815082645, 'textcat_r': 0.29999999994, 'textcat_f': 0.4166666665509259}}, 'eval_global': {'textcat_p': 0.6818181815082645, 'textcat_r': 0.29999999994, 'textcat_f': 0.4166666665509259}}",0
1,"{'QA': {'tp': 28.0, 'fp': 13.00000001, 'fn': 22.00000001, 'tn': 24.0, 'tot': 50.00000001, 'eval': {'textcat_p': 0.6829268291017252, 'textcat_r': 0.559999999888, 'textcat_f': 0.615384615249366}}, 'eval_global': {'textcat_p': 0.6829268291017252, 'textcat_r': 0.559999999888, 'textcat_f': 0.615384615249366}}",1
2,"{'QA': {'tp': 33.0, 'fp': 14.00000001, 'fn': 17.00000001, 'tn': 23.0, 'tot': 50.00000001, 'eval': {'textcat_p': 0.7021276594250792, 'textcat_r': 0.659999999868, 'textcat_f': 0.6804123709937294}}, 'eval_global': {'textcat_p': 0.7021276594250792, 'textcat_r': 0.659999999868, 'textcat_f': 0.6804123709937294}}",2
3,"{'QA': {'tp': 34.0, 'fp': 17.00000001, 'fn': 16.00000001, 'tn': 20.0, 'tot': 50.00000001, 'eval': {'textcat_p': 0.6666666665359477, 'textcat_r': 0.679999999864, 'textcat_f': 0.6732673265993531}}, 'eval_global': {'textcat_p': 0.6666666665359477, 'textcat_r': 0.679999999864, 'textcat_f': 0.6732673265993531}}",3
4,"{'QA': {'tp': 30.0, 'fp': 17.00000001, 'fn': 20.00000001, 'tn': 20.0, 'tot': 50.00000001, 'eval': {'textcat_p': 0.6382978722046174, 'textcat_r': 0.59999999988, 'textcat_f': 0.6185567009033903}}, 'eval_global': {'textcat_p': 0.6382978722046174, 'textcat_r': 0.59999999988, 'textcat_f': 0.6185567009033903}}",4
5,"{'QA': {'tp': 32.0, 'fp': 12.00000001, 'fn': 18.00000001, 'tn': 25.0, 'tot': 50.00000001, 'eval': {'textcat_p': 0.727272727107438, 'textcat_r': 0.639999999872, 'textcat_f': 0.6808510636849253}}, 'eval_global': {'textcat_p': 0.727272727107438, 'textcat_r': 0.639999999872, 'textcat_f': 0.6808510636849253}}",5
6,"{'QA': {'tp': 32.0, 'fp': 12.00000001, 'fn': 18.00000001, 'tn': 25.0, 'tot': 50.00000001, 'eval': {'textcat_p': 0.727272727107438, 'textcat_r': 0.639999999872, 'textcat_f': 0.6808510636849253}}, 'eval_global': {'textcat_p': 0.727272727107438, 'textcat_r': 0.639999999872, 'textcat_f': 0.6808510636849253}}",6
7,"{'QA': {'tp': 31.0, 'fp': 11.00000001, 'fn': 19.00000001, 'tn': 26.0, 'tot': 50.00000001, 'eval': {'textcat_p': 0.7380952379195012, 'textcat_r': 0.619999999876, 'textcat_f': 0.673913043331758}}, 'eval_global': {'textcat_p': 0.7380952379195012, 'textcat_r': 0.619999999876, 'textcat_f': 0.673913043331758}}",7
8,"{'QA': {'tp': 31.0, 'fp': 9.00000001, 'fn': 19.00000001, 'tn': 28.0, 'tot': 50.00000001, 'eval': {'textcat_p': 0.77499999980625, 'textcat_r': 0.619999999876, 'textcat_f': 0.6888888887358025}}, 'eval_global': {'textcat_p': 0.77499999980625, 'textcat_r': 0.619999999876, 'textcat_f': 0.6888888887358025}}",8
9,"{'QA': {'tp': 29.0, 'fp': 10.00000001, 'fn': 21.00000001, 'tn': 27.0, 'tot': 50.00000001, 'eval': {'textcat_p': 0.7435897433990796, 'textcat_r': 0.579999999884, 'textcat_f': 0.6516853931119807}}, 'eval_global': {'textcat_p': 0.7435897433990796, 'textcat_r': 0.579999999884, 'textcat_f': 0.6516853931119807}}",9
10,"{'QA': {'tp': 30.0, 'fp': 12.00000001, 'fn': 20.00000001, 'tn': 25.0, 'tot': 50.00000001, 'eval': {'textcat_p': 0.7142857141156462, 'textcat_r': 0.59999999988, 'textcat_f': 0.6521739129017013}}, 'eval_global': {'textcat_p': 0.7142857141156462, 'textcat_r': 0.59999999988, 'textcat_f': 0.6521739129017013}}",10
11,"{'QA': {'tp': 28.0, 'fp': 12.00000001, 'fn': 22.00000001, 'tn': 25.0, 'tot': 50.00000001, 'eval': {'textcat_p': 0.6999999998249999, 'textcat_r': 0.559999999888, 'textcat_f': 0.6222222220839505}}, 'eval_global': {'textcat_p': 0.6999999998249999, 'textcat_r': 0.559999999888, 'textcat_f': 0.6222222220839505}}",11
12,"{'QA': {'tp': 27.0, 'fp': 12.00000001, 'fn': 23.00000001, 'tn': 25.0, 'tot': 50.00000001, 'eval': {'textcat_p': 0.6923076921301775, 'textcat_r': 0.539999999892, 'textcat_f': 0.6067415728973614}}, 'eval_global': {'textcat_p': 0.6923076921301775, 'textcat_r': 0.539999999892, 'textcat_f': 0.6067415728973614}}",12
13,"{'QA': {'tp': 27.0, 'fp': 12.00000001, 'fn': 23.00000001, 'tn': 25.0, 'tot': 50.00000001, 'eval': {'textcat_p': 0.6923076921301775, 'textcat_r': 0.539999999892, 'textcat_f': 0.6067415728973614}}, 'eval_global': {'textcat_p': 0.6923076921301775, 'textcat_r': 0.539999999892, 'textcat_f': 0.6067415728973614}}",13
14,"{'QA': {'tp': 27.0, 'fp': 13.00000001, 'fn': 23.00000001, 'tn': 24.0, 'tot': 50.00000001, 'eval': {'textcat_p': 0.67499999983125, 'textcat_r': 0.539999999892, 'textcat_f': 0.5999999998666666}}, 'eval_global': {'textcat_p': 0.67499999983125, 'textcat_r': 0.539999999892, 'textcat_f': 0.5999999998666666}}",14
15,"{'QA': {'tp': 29.0, 'fp': 12.00000001, 'fn': 21.00000001, 'tn': 25.0, 'tot': 50.00000001, 'eval': {'textcat_p': 0.7073170729982153, 'textcat_r': 0.579999999884, 'textcat_f': 0.6373626372225577}}, 'eval_global': {'textcat_p': 0.7073170729982153, 'textcat_r': 0.579999999884, 'textcat_f': 0.6373626372225577}}",15
16,"{'QA': {'tp': 28.0, 'fp': 11.00000001, 'fn': 22.00000001, 'tn': 26.0, 'tot': 50.00000001, 'eval': {'textcat_p': 0.7179487177646285, 'textcat_r': 0.559999999888, 'textcat_f': 0.6292134830046712}}, 'eval_global': {'textcat_p': 0.7179487177646285, 'textcat_r': 0.559999999888, 'textcat_f': 0.6292134830046712}}",16
17,"{'QA': {'tp': 29.0, 'fp': 12.00000001, 'fn': 21.00000001, 'tn': 25.0, 'tot': 50.00000001, 'eval': {'textcat_p': 0.7073170729982153, 'textcat_r': 0.579999999884, 'textcat_f': 0.6373626372225577}}, 'eval_global': {'textcat_p': 0.7073170729982153, 'textcat_r': 0.579999999884, 'textcat_f': 0.6373626372225577}}",17
18,"{'QA': {'tp': 28.0, 'fp': 12.00000001, 'fn': 22.00000001, 'tn': 25.0, 'tot': 50.00000001, 'eval': {'textcat_p': 0.6999999998249999, 'textcat_r': 0.559999999888, 'textcat_f': 0.6222222220839505}}, 'eval_global': {'textcat_p': 0.6999999998249999, 'textcat_r': 0.559999999888, 'textcat_f': 0.6222222220839505}}",18
19,"{'QA': {'tp': 31.0, 'fp': 12.00000001, 'fn': 19.00000001, 'tn': 25.0, 'tot': 50.00000001, 'eval': {'textcat_p': 0.7209302323904814, 'textcat_r': 0.619999999876, 'textcat_f': 0.6666666665232975}}, 'eval_global': {'textcat_p': 0.7209302323904814, 'textcat_r': 0.619999999876, 'textcat_f': 0.6666666665232975}}",19
20,"{'QA': {'tp': 31.0, 'fp': 12.00000001, 'fn': 19.00000001, 'tn': 25.0, 'tot': 50.00000001, 'eval': {'textcat_p': 0.7209302323904814, 'textcat_r': 0.619999999876, 'textcat_f': 0.6666666665232975}}, 'eval_global': {'textcat_p': 0.7209302323904814, 'textcat_r': 0.619999999876, 'textcat_f': 0.6666666665232975}}",20
21,"{'QA': {'tp': 30.0, 'fp': 14.00000001, 'fn': 20.00000001, 'tn': 23.0, 'tot': 50.00000001, 'eval': {'textcat_p': 0.6818181816632232, 'textcat_r': 0.59999999988, 'textcat_f': 0.6382978722046175}}, 'eval_global': {'textcat_p': 0.6818181816632232, 'textcat_r': 0.59999999988, 'textcat_f': 0.6382978722046175}}",21
22,"{'QA': {'tp': 31.0, 'fp': 14.00000001, 'fn': 19.00000001, 'tn': 23.0, 'tot': 50.00000001, 'eval': {'textcat_p': 0.6888888887358025, 'textcat_r': 0.619999999876, 'textcat_f': 0.6526315788099722}}, 'eval_global': {'textcat_p': 0.6888888887358025, 'textcat_r': 0.619999999876, 'textcat_f': 0.6526315788099722}}",22
23,"{'QA': {'tp': 31.0, 'fp': 16.00000001, 'fn': 19.00000001, 'tn': 21.0, 'tot': 50.00000001, 'eval': {'textcat_p': 0.6595744679447714, 'textcat_r': 0.619999999876, 'textcat_f': 0.63917525760017}}, 'eval_global': {'textcat_p': 0.6595744679447714, 'textcat_r': 0.619999999876, 'textcat_f': 0.63917525760017}}",23
24,"{'QA': {'tp': 31.0, 'fp': 16.00000001, 'fn': 19.00000001, 'tn': 21.0, 'tot': 50.00000001, 'eval': {'textcat_p': 0.6595744679447714, 'textcat_r': 0.619999999876, 'textcat_f': 0.63917525760017}}, 'eval_global': {'textcat_p': 0.6595744679447714, 'textcat_r': 0.619999999876, 'textcat_f': 0.63917525760017}}",24
25,"{'QA': {'tp': 30.0, 'fp': 14.00000001, 'fn': 20.00000001, 'tn': 23.0, 'tot': 50.00000001, 'eval': {'textcat_p': 0.6818181816632232, 'textcat_r': 0.59999999988, 'textcat_f': 0.6382978722046175}}, 'eval_global': {'textcat_p': 0.6818181816632232, 'textcat_r': 0.59999999988, 'textcat_f': 0.6382978722046175}}",25
26,"{'QA': {'tp': 30.0, 'fp': 14.00000001, 'fn': 20.00000001, 'tn': 23.0, 'tot': 50.00000001, 'eval': {'textcat_p': 0.6818181816632232, 'textcat_r': 0.59999999988, 'textcat_f': 0.6382978722046175}}, 'eval_global': {'textcat_p': 0.6818181816632232, 'textcat_r': 0.59999999988, 'textcat_f': 0.6382978722046175}}",26
27,"{'QA': {'tp': 30.0, 'fp': 14.00000001, 'fn': 20.00000001, 'tn': 23.0, 'tot': 50.00000001, 'eval': {'textcat_p': 0.6818181816632232, 'textcat_r': 0.59999999988, 'textcat_f': 0.6382978722046175}}, 'eval_global': {'textcat_p': 0.6818181816632232, 'textcat_r': 0.59999999988, 'textcat_f': 0.6382978722046175}}",27
28,"{'QA': {'tp': 29.0, 'fp': 15.00000001, 'fn': 21.00000001, 'tn': 22.0, 'tot': 50.00000001, 'eval': {'textcat_p': 0.6590909089411157, 'textcat_r': 0.579999999884, 'textcat_f': 0.6170212764644636}}, 'eval_global': {'textcat_p': 0.6590909089411157, 'textcat_r': 0.579999999884, 'textcat_f': 0.6170212764644636}}",28
29,"{'QA': {'tp': 29.0, 'fp': 16.00000001, 'fn': 21.00000001, 'tn': 21.0, 'tot': 50.00000001, 'eval': {'textcat_p': 0.6444444443012346, 'textcat_r': 0.579999999884, 'textcat_f': 0.610526315660942}}, 'eval_global': {'textcat_p': 0.6444444443012346, 'textcat_r': 0.579999999884, 'textcat_f': 0.610526315660942}}",29
30,"{'QA': {'tp': 29.0, 'fp': 15.00000001, 'fn': 21.00000001, 'tn': 22.0, 'tot': 50.00000001, 'eval': {'textcat_p': 0.6590909089411157, 'textcat_r': 0.579999999884, 'textcat_f': 0.6170212764644636}}, 'eval_global': {'textcat_p': 0.6590909089411157, 'textcat_r': 0.579999999884, 'textcat_f': 0.6170212764644636}}",30
31,"{'QA': {'tp': 29.0, 'fp': 15.00000001, 'fn': 21.00000001, 'tn': 22.0, 'tot': 50.00000001, 'eval': {'textcat_p': 0.6590909089411157, 'textcat_r': 0.579999999884, 'textcat_f': 0.6170212764644636}}, 'eval_global': {'textcat_p': 0.6590909089411157, 'textcat_r': 0.579999999884, 'textcat_f': 0.6170212764644636}}",31
32,"{'QA': {'tp': 30.0, 'fp': 15.00000001, 'fn': 20.00000001, 'tn': 22.0, 'tot': 50.00000001, 'eval': {'textcat_p': 0.6666666665185185, 'textcat_r': 0.59999999988, 'textcat_f': 0.631578947235457}}, 'eval_global': {'textcat_p': 0.6666666665185185, 'textcat_r': 0.59999999988, 'textcat_f': 0.631578947235457}}",32
33,"{'QA': {'tp': 30.0, 'fp': 13.00000001, 'fn': 20.00000001, 'tn': 24.0, 'tot': 50.00000001, 'eval': {'textcat_p': 0.6976744184424013, 'textcat_r': 0.59999999988, 'textcat_f': 0.6451612901838363}}, 'eval_global': {'textcat_p': 0.6976744184424013, 'textcat_r': 0.59999999988, 'textcat_f': 0.6451612901838363}}",33
34,"{'QA': {'tp': 30.0, 'fp': 12.00000001, 'fn': 20.00000001, 'tn': 25.0, 'tot': 50.00000001, 'eval': {'textcat_p': 0.7142857141156462, 'textcat_r': 0.59999999988, 'textcat_f': 0.6521739129017013}}, 'eval_global': {'textcat_p': 0.7142857141156462, 'textcat_r': 0.59999999988, 'textcat_f': 0.6521739129017013}}",34
35,"{'QA': {'tp': 30.0, 'fp': 12.00000001, 'fn': 20.00000001, 'tn': 25.0, 'tot': 50.00000001, 'eval': {'textcat_p': 0.7142857141156462, 'textcat_r': 0.59999999988, 'textcat_f': 0.6521739129017013}}, 'eval_global': {'textcat_p': 0.7142857141156462, 'textcat_r': 0.59999999988, 'textcat_f': 0.6521739129017013}}",35
36,"{'QA': {'tp': 29.0, 'fp': 12.00000001, 'fn': 21.00000001, 'tn': 25.0, 'tot': 50.00000001, 'eval': {'textcat_p': 0.7073170729982153, 'textcat_r': 0.579999999884, 'textcat_f': 0.6373626372225577}}, 'eval_global': {'textcat_p': 0.7073170729982153, 'textcat_r': 0.579999999884, 'textcat_f': 0.6373626372225577}}",36
37,"{'QA': {'tp': 28.0, 'fp': 12.00000001, 'fn': 22.00000001, 'tn': 25.0, 'tot': 50.00000001, 'eval': {'textcat_p': 0.6999999998249999, 'textcat_r': 0.559999999888, 'textcat_f': 0.6222222220839505}}, 'eval_global': {'textcat_p': 0.6999999998249999, 'textcat_r': 0.559999999888, 'textcat_f': 0.6222222220839505}}",37
38,"{'QA': {'tp': 28.0, 'fp': 12.00000001, 'fn': 22.00000001, 'tn': 25.0, 'tot': 50.00000001, 'eval': {'textcat_p': 0.6999999998249999, 'textcat_r': 0.559999999888, 'textcat_f': 0.6222222220839505}}, 'eval_global': {'textcat_p': 0.6999999998249999, 'textcat_r': 0.559999999888, 'textcat_f': 0.6222222220839505}}",38
39,"{'QA': {'tp': 28.0, 'fp': 12.00000001, 'fn': 22.00000001, 'tn': 25.0, 'tot': 50.00000001, 'eval': {'textcat_p': 0.6999999998249999, 'textcat_r': 0.559999999888, 'textcat_f': 0.6222222220839505}}, 'eval_global': {'textcat_p': 0.6999999998249999, 'textcat_r': 0.559999999888, 'textcat_f': 0.6222222220839505}}",39
40,"{'QA': {'tp': 27.0, 'fp': 12.00000001, 'fn': 23.00000001, 'tn': 25.0, 'tot': 50.00000001, 'eval': {'textcat_p': 0.6923076921301775, 'textcat_r': 0.539999999892, 'textcat_f': 0.6067415728973614}}, 'eval_global': {'textcat_p': 0.6923076921301775, 'textcat_r': 0.539999999892, 'textcat_f': 0.6067415728973614}}",40
41,"{'QA': {'tp': 26.0, 'fp': 12.00000001, 'fn': 24.00000001, 'tn': 25.0, 'tot': 50.00000001, 'eval': {'textcat_p': 0.6842105261357341, 'textcat_r': 0.519999999896, 'textcat_f': 0.5909090907747934}}, 'eval_global': {'textcat_p': 0.6842105261357341, 'textcat_r': 0.519999999896, 'textcat_f': 0.5909090907747934}}",41
42,"{'QA': {'tp': 27.0, 'fp': 12.00000001, 'fn': 23.00000001, 'tn': 25.0, 'tot': 50.00000001, 'eval': {'textcat_p': 0.6923076921301775, 'textcat_r': 0.539999999892, 'textcat_f': 0.6067415728973614}}, 'eval_global': {'textcat_p': 0.6923076921301775, 'textcat_r': 0.539999999892, 'textcat_f': 0.6067415728973614}}",42
43,"{'QA': {'tp': 28.0, 'fp': 12.00000001, 'fn': 22.00000001, 'tn': 25.0, 'tot': 50.00000001, 'eval': {'textcat_p': 0.6999999998249999, 'textcat_r': 0.559999999888, 'textcat_f': 0.6222222220839505}}, 'eval_global': {'textcat_p': 0.6999999998249999, 'textcat_r': 0.559999999888, 'textcat_f': 0.6222222220839505}}",43
44,"{'QA': {'tp': 27.0, 'fp': 15.00000001, 'fn': 23.00000001, 'tn': 22.0, 'tot': 50.00000001, 'eval': {'textcat_p': 0.6428571427040817, 'textcat_r': 0.539999999892, 'textcat_f': 0.5869565216115312}}, 'eval_global': {'textcat_p': 0.6428571427040817, 'textcat_r': 0.539999999892, 'textcat_f': 0.5869565216115312}}",44
45,"{'QA': {'tp': 27.0, 'fp': 14.00000001, 'fn': 23.00000001, 'tn': 23.0, 'tot': 50.00000001, 'eval': {'textcat_p': 0.658536585205235, 'textcat_r': 0.539999999892, 'textcat_f': 0.5934065932761743}}, 'eval_global': {'textcat_p': 0.658536585205235, 'textcat_r': 0.539999999892, 'textcat_f': 0.5934065932761743}}",45
46,"{'QA': {'tp': 27.0, 'fp': 14.00000001, 'fn': 23.00000001, 'tn': 23.0, 'tot': 50.00000001, 'eval': {'textcat_p': 0.658536585205235, 'textcat_r': 0.539999999892, 'textcat_f': 0.5934065932761743}}, 'eval_global': {'textcat_p': 0.658536585205235, 'textcat_r': 0.539999999892, 'textcat_f': 0.5934065932761743}}",46
47,"{'QA': {'tp': 27.0, 'fp': 14.00000001, 'fn': 23.00000001, 'tn': 23.0, 'tot': 50.00000001, 'eval': {'textcat_p': 0.658536585205235, 'textcat_r': 0.539999999892, 'textcat_f': 0.5934065932761743}}, 'eval_global': {'textcat_p': 0.658536585205235, 'textcat_r': 0.539999999892, 'textcat_f': 0.5934065932761743}}",47
48,"{'QA': {'tp': 28.0, 'fp': 14.00000001, 'fn': 22.00000001, 'tn': 23.0, 'tot': 50.00000001, 'eval': {'textcat_p': 0.6666666665079365, 'textcat_r': 0.559999999888, 'textcat_f': 0.6086956520415878}}, 'eval_global': {'textcat_p': 0.6666666665079365, 'textcat_r': 0.559999999888, 'textcat_f': 0.6086956520415878}}",48
49,"{'QA': {'tp': 28.0, 'fp': 14.00000001, 'fn': 22.00000001, 'tn': 23.0, 'tot': 50.00000001, 'eval': {'textcat_p': 0.6666666665079365, 'textcat_r': 0.559999999888, 'textcat_f': 0.6086956520415878}}, 'eval_global': {'textcat_p': 0.6666666665079365, 'textcat_r': 0.559999999888, 'textcat_f': 0.6086956520415878}}",49
50,"{'QA': {'tp': 28.0, 'fp': 13.00000001, 'fn': 22.00000001, 'tn': 24.0, 'tot': 50.00000001, 'eval': {'textcat_p': 0.6829268291017252, 'textcat_r': 0.559999999888, 'textcat_f': 0.615384615249366}}, 'eval_global': {'textcat_p': 0.6829268291017252, 'textcat_r': 0.559999999888, 'textcat_f': 0.615384615249366}}",50
51,"{'QA': {'tp': 29.0, 'fp': 13.00000001, 'fn': 21.00000001, 'tn': 24.0, 'tot': 50.00000001, 'eval': {'textcat_p': 0.6904761903117914, 'textcat_r': 0.579999999884, 'textcat_f': 0.6304347824716445}}, 'eval_global': {'textcat_p': 0.6904761903117914, 'textcat_r': 0.579999999884, 'textcat_f': 0.6304347824716445}}",51
52,"{'QA': {'tp': 29.0, 'fp': 13.00000001, 'fn': 21.00000001, 'tn': 24.0, 'tot': 50.00000001, 'eval': {'textcat_p': 0.6904761903117914, 'textcat_r': 0.579999999884, 'textcat_f': 0.6304347824716445}}, 'eval_global': {'textcat_p': 0.6904761903117914, 'textcat_r': 0.579999999884, 'textcat_f': 0.6304347824716445}}",52
53,"{'QA': {'tp': 29.0, 'fp': 13.00000001, 'fn': 21.00000001, 'tn': 24.0, 'tot': 50.00000001, 'eval': {'textcat_p': 0.6904761903117914, 'textcat_r': 0.579999999884, 'textcat_f': 0.6304347824716445}}, 'eval_global': {'textcat_p': 0.6904761903117914, 'textcat_r': 0.579999999884, 'textcat_f': 0.6304347824716445}}",53
54,"{'QA': {'tp': 29.0, 'fp': 12.00000001, 'fn': 21.00000001, 'tn': 25.0, 'tot': 50.00000001, 'eval': {'textcat_p': 0.7073170729982153, 'textcat_r': 0.579999999884, 'textcat_f': 0.6373626372225577}}, 'eval_global': {'textcat_p': 0.7073170729982153, 'textcat_r': 0.579999999884, 'textcat_f': 0.6373626372225577}}",54
55,"{'QA': {'tp': 31.0, 'fp': 12.00000001, 'fn': 19.00000001, 'tn': 25.0, 'tot': 50.00000001, 'eval': {'textcat_p': 0.7209302323904814, 'textcat_r': 0.619999999876, 'textcat_f': 0.6666666665232975}}, 'eval_global': {'textcat_p': 0.7209302323904814, 'textcat_r': 0.619999999876, 'textcat_f': 0.6666666665232975}}",55
56,"{'QA': {'tp': 31.0, 'fp': 12.00000001, 'fn': 19.00000001, 'tn': 25.0, 'tot': 50.00000001, 'eval': {'textcat_p': 0.7209302323904814, 'textcat_r': 0.619999999876, 'textcat_f': 0.6666666665232975}}, 'eval_global': {'textcat_p': 0.7209302323904814, 'textcat_r': 0.619999999876, 'textcat_f': 0.6666666665232975}}",56
57,"{'QA': {'tp': 30.0, 'fp': 12.00000001, 'fn': 20.00000001, 'tn': 25.0, 'tot': 50.00000001, 'eval': {'textcat_p': 0.7142857141156462, 'textcat_r': 0.59999999988, 'textcat_f': 0.6521739129017013}}, 'eval_global': {'textcat_p': 0.7142857141156462, 'textcat_r': 0.59999999988, 'textcat_f': 0.6521739129017013}}",57
58,"{'QA': {'tp': 30.0, 'fp': 12.00000001, 'fn': 20.00000001, 'tn': 25.0, 'tot': 50.00000001, 'eval': {'textcat_p': 0.7142857141156462, 'textcat_r': 0.59999999988, 'textcat_f': 0.6521739129017013}}, 'eval_global': {'textcat_p': 0.7142857141156462, 'textcat_r': 0.59999999988, 'textcat_f': 0.6521739129017013}}",58
59,"{'QA': {'tp': 30.0, 'fp': 12.00000001, 'fn': 20.00000001, 'tn': 25.0, 'tot': 50.00000001, 'eval': {'textcat_p': 0.7142857141156462, 'textcat_r': 0.59999999988, 'textcat_f': 0.6521739129017013}}, 'eval_global': {'textcat_p': 0.7142857141156462, 'textcat_r': 0.59999999988, 'textcat_f': 0.6521739129017013}}",59
60,"{'QA': {'tp': 29.0, 'fp': 12.00000001, 'fn': 21.00000001, 'tn': 25.0, 'tot': 50.00000001, 'eval': {'textcat_p': 0.7073170729982153, 'textcat_r': 0.579999999884, 'textcat_f': 0.6373626372225577}}, 'eval_global': {'textcat_p': 0.7073170729982153, 'textcat_r': 0.579999999884, 'textcat_f': 0.6373626372225577}}",60
61,"{'QA': {'tp': 29.0, 'fp': 12.00000001, 'fn': 21.00000001, 'tn': 25.0, 'tot': 50.00000001, 'eval': {'textcat_p': 0.7073170729982153, 'textcat_r': 0.579999999884, 'textcat_f': 0.6373626372225577}}, 'eval_global': {'textcat_p': 0.7073170729982153, 'textcat_r': 0.579999999884, 'textcat_f': 0.6373626372225577}}",61
62,"{'QA': {'tp': 29.0, 'fp': 12.00000001, 'fn': 21.00000001, 'tn': 25.0, 'tot': 50.00000001, 'eval': {'textcat_p': 0.7073170729982153, 'textcat_r': 0.579999999884, 'textcat_f': 0.6373626372225577}}, 'eval_global': {'textcat_p': 0.7073170729982153, 'textcat_r': 0.579999999884, 'textcat_f': 0.6373626372225577}}",62
63,"{'QA': {'tp': 28.0, 'fp': 12.00000001, 'fn': 22.00000001, 'tn': 25.0, 'tot': 50.00000001, 'eval': {'textcat_p': 0.6999999998249999, 'textcat_r': 0.559999999888, 'textcat_f': 0.6222222220839505}}, 'eval_global': {'textcat_p': 0.6999999998249999, 'textcat_r': 0.559999999888, 'textcat_f': 0.6222222220839505}}",63
64,"{'QA': {'tp': 28.0, 'fp': 12.00000001, 'fn': 22.00000001, 'tn': 25.0, 'tot': 50.00000001, 'eval': {'textcat_p': 0.6999999998249999, 'textcat_r': 0.559999999888, 'textcat_f': 0.6222222220839505}}, 'eval_global': {'textcat_p': 0.6999999998249999, 'textcat_r': 0.559999999888, 'textcat_f': 0.6222222220839505}}",64
65,"{'QA': {'tp': 28.0, 'fp': 12.00000001, 'fn': 22.00000001, 'tn': 25.0, 'tot': 50.00000001, 'eval': {'textcat_p': 0.6999999998249999, 'textcat_r': 0.559999999888, 'textcat_f': 0.6222222220839505}}, 'eval_global': {'textcat_p': 0.6999999998249999, 'textcat_r': 0.559999999888, 'textcat_f': 0.6222222220839505}}",65
66,"{'QA': {'tp': 28.0, 'fp': 13.00000001, 'fn': 22.00000001, 'tn': 24.0, 'tot': 50.00000001, 'eval': {'textcat_p': 0.6829268291017252, 'textcat_r': 0.559999999888, 'textcat_f': 0.615384615249366}}, 'eval_global': {'textcat_p': 0.6829268291017252, 'textcat_r': 0.559999999888, 'textcat_f': 0.615384615249366}}",66
67,"{'QA': {'tp': 28.0, 'fp': 13.00000001, 'fn': 22.00000001, 'tn': 24.0, 'tot': 50.00000001, 'eval': {'textcat_p': 0.6829268291017252, 'textcat_r': 0.559999999888, 'textcat_f': 0.615384615249366}}, 'eval_global': {'textcat_p': 0.6829268291017252, 'textcat_r': 0.559999999888, 'textcat_f': 0.615384615249366}}",67
68,"{'QA': {'tp': 28.0, 'fp': 13.00000001, 'fn': 22.00000001, 'tn': 24.0, 'tot': 50.00000001, 'eval': {'textcat_p': 0.6829268291017252, 'textcat_r': 0.559999999888, 'textcat_f': 0.615384615249366}}, 'eval_global': {'textcat_p': 0.6829268291017252, 'textcat_r': 0.559999999888, 'textcat_f': 0.615384615249366}}",68
69,"{'QA': {'tp': 28.0, 'fp': 14.00000001, 'fn': 22.00000001, 'tn': 23.0, 'tot': 50.00000001, 'eval': {'textcat_p': 0.6666666665079365, 'textcat_r': 0.559999999888, 'textcat_f': 0.6086956520415878}}, 'eval_global': {'textcat_p': 0.6666666665079365, 'textcat_r': 0.559999999888, 'textcat_f': 0.6086956520415878}}",69
70,"{'QA': {'tp': 28.0, 'fp': 14.00000001, 'fn': 22.00000001, 'tn': 23.0, 'tot': 50.00000001, 'eval': {'textcat_p': 0.6666666665079365, 'textcat_r': 0.559999999888, 'textcat_f': 0.6086956520415878}}, 'eval_global': {'textcat_p': 0.6666666665079365, 'textcat_r': 0.559999999888, 'textcat_f': 0.6086956520415878}}",70
71,"{'QA': {'tp': 27.0, 'fp': 14.00000001, 'fn': 23.00000001, 'tn': 23.0, 'tot': 50.00000001, 'eval': {'textcat_p': 0.658536585205235, 'textcat_r': 0.539999999892, 'textcat_f': 0.5934065932761743}}, 'eval_global': {'textcat_p': 0.658536585205235, 'textcat_r': 0.539999999892, 'textcat_f': 0.5934065932761743}}",71
72,"{'QA': {'tp': 27.0, 'fp': 14.00000001, 'fn': 23.00000001, 'tn': 23.0, 'tot': 50.00000001, 'eval': {'textcat_p': 0.658536585205235, 'textcat_r': 0.539999999892, 'textcat_f': 0.5934065932761743}}, 'eval_global': {'textcat_p': 0.658536585205235, 'textcat_r': 0.539999999892, 'textcat_f': 0.5934065932761743}}",72
73,"{'QA': {'tp': 26.0, 'fp': 14.00000001, 'fn': 24.00000001, 'tn': 23.0, 'tot': 50.00000001, 'eval': {'textcat_p': 0.6499999998375, 'textcat_r': 0.519999999896, 'textcat_f': 0.5777777776493828}}, 'eval_global': {'textcat_p': 0.6499999998375, 'textcat_r': 0.519999999896, 'textcat_f': 0.5777777776493828}}",73
74,"{'QA': {'tp': 26.0, 'fp': 14.00000001, 'fn': 24.00000001, 'tn': 23.0, 'tot': 50.00000001, 'eval': {'textcat_p': 0.6499999998375, 'textcat_r': 0.519999999896, 'textcat_f': 0.5777777776493828}}, 'eval_global': {'textcat_p': 0.6499999998375, 'textcat_r': 0.519999999896, 'textcat_f': 0.5777777776493828}}",74
75,"{'QA': {'tp': 25.0, 'fp': 14.00000001, 'fn': 25.00000001, 'tn': 23.0, 'tot': 50.00000001, 'eval': {'textcat_p': 0.6410256408612754, 'textcat_r': 0.4999999999, 'textcat_f': 0.561797752682742}}, 'eval_global': {'textcat_p': 0.6410256408612754, 'textcat_r': 0.4999999999, 'textcat_f': 0.561797752682742}}",75
76,"{'QA': {'tp': 25.0, 'fp': 14.00000001, 'fn': 25.00000001, 'tn': 23.0, 'tot': 50.00000001, 'eval': {'textcat_p': 0.6410256408612754, 'textcat_r': 0.4999999999, 'textcat_f': 0.561797752682742}}, 'eval_global': {'textcat_p': 0.6410256408612754, 'textcat_r': 0.4999999999, 'textcat_f': 0.561797752682742}}",76
77,"{'QA': {'tp': 25.0, 'fp': 14.00000001, 'fn': 25.00000001, 'tn': 23.0, 'tot': 50.00000001, 'eval': {'textcat_p': 0.6410256408612754, 'textcat_r': 0.4999999999, 'textcat_f': 0.561797752682742}}, 'eval_global': {'textcat_p': 0.6410256408612754, 'textcat_r': 0.4999999999, 'textcat_f': 0.561797752682742}}",77
78,"{'QA': {'tp': 24.0, 'fp': 13.00000001, 'fn': 26.00000001, 'tn': 24.0, 'tot': 50.00000001, 'eval': {'textcat_p': 0.6486486484733381, 'textcat_r': 0.479999999904, 'textcat_f': 0.5517241378042013}}, 'eval_global': {'textcat_p': 0.6486486484733381, 'textcat_r': 0.479999999904, 'textcat_f': 0.5517241378042013}}",78
79,"{'QA': {'tp': 24.0, 'fp': 13.00000001, 'fn': 26.00000001, 'tn': 24.0, 'tot': 50.00000001, 'eval': {'textcat_p': 0.6486486484733381, 'textcat_r': 0.479999999904, 'textcat_f': 0.5517241378042013}}, 'eval_global': {'textcat_p': 0.6486486484733381, 'textcat_r': 0.479999999904, 'textcat_f': 0.5517241378042013}}",79
80,"{'QA': {'tp': 24.0, 'fp': 14.00000001, 'fn': 26.00000001, 'tn': 23.0, 'tot': 50.00000001, 'eval': {'textcat_p': 0.6315789472022161, 'textcat_r': 0.479999999904, 'textcat_f': 0.5454545453305785}}, 'eval_global': {'textcat_p': 0.6315789472022161, 'textcat_r': 0.479999999904, 'textcat_f': 0.5454545453305785}}",80
81,"{'QA': {'tp': 24.0, 'fp': 14.00000001, 'fn': 26.00000001, 'tn': 23.0, 'tot': 50.00000001, 'eval': {'textcat_p': 0.6315789472022161, 'textcat_r': 0.479999999904, 'textcat_f': 0.5454545453305785}}, 'eval_global': {'textcat_p': 0.6315789472022161, 'textcat_r': 0.479999999904, 'textcat_f': 0.5454545453305785}}",81
82,"{'QA': {'tp': 24.0, 'fp': 14.00000001, 'fn': 26.00000001, 'tn': 23.0, 'tot': 50.00000001, 'eval': {'textcat_p': 0.6315789472022161, 'textcat_r': 0.479999999904, 'textcat_f': 0.5454545453305785}}, 'eval_global': {'textcat_p': 0.6315789472022161, 'textcat_r': 0.479999999904, 'textcat_f': 0.5454545453305785}}",82
83,"{'QA': {'tp': 25.0, 'fp': 14.00000001, 'fn': 25.00000001, 'tn': 23.0, 'tot': 50.00000001, 'eval': {'textcat_p': 0.6410256408612754, 'textcat_r': 0.4999999999, 'textcat_f': 0.561797752682742}}, 'eval_global': {'textcat_p': 0.6410256408612754, 'textcat_r': 0.4999999999, 'textcat_f': 0.561797752682742}}",83
84,"{'QA': {'tp': 25.0, 'fp': 14.00000001, 'fn': 25.00000001, 'tn': 23.0, 'tot': 50.00000001, 'eval': {'textcat_p': 0.6410256408612754, 'textcat_r': 0.4999999999, 'textcat_f': 0.561797752682742}}, 'eval_global': {'textcat_p': 0.6410256408612754, 'textcat_r': 0.4999999999, 'textcat_f': 0.561797752682742}}",84
85,"{'QA': {'tp': 25.0, 'fp': 14.00000001, 'fn': 25.00000001, 'tn': 23.0, 'tot': 50.00000001, 'eval': {'textcat_p': 0.6410256408612754, 'textcat_r': 0.4999999999, 'textcat_f': 0.561797752682742}}, 'eval_global': {'textcat_p': 0.6410256408612754, 'textcat_r': 0.4999999999, 'textcat_f': 0.561797752682742}}",85
86,"{'QA': {'tp': 25.0, 'fp': 14.00000001, 'fn': 25.00000001, 'tn': 23.0, 'tot': 50.00000001, 'eval': {'textcat_p': 0.6410256408612754, 'textcat_r': 0.4999999999, 'textcat_f': 0.561797752682742}}, 'eval_global': {'textcat_p': 0.6410256408612754, 'textcat_r': 0.4999999999, 'textcat_f': 0.561797752682742}}",86
87,"{'QA': {'tp': 25.0, 'fp': 15.00000001, 'fn': 25.00000001, 'tn': 22.0, 'tot': 50.00000001, 'eval': {'textcat_p': 0.62499999984375, 'textcat_r': 0.4999999999, 'textcat_f': 0.5555555554320988}}, 'eval_global': {'textcat_p': 0.62499999984375, 'textcat_r': 0.4999999999, 'textcat_f': 0.5555555554320988}}",87
88,"{'QA': {'tp': 25.0, 'fp': 15.00000001, 'fn': 25.00000001, 'tn': 22.0, 'tot': 50.00000001, 'eval': {'textcat_p': 0.62499999984375, 'textcat_r': 0.4999999999, 'textcat_f': 0.5555555554320988}}, 'eval_global': {'textcat_p': 0.62499999984375, 'textcat_r': 0.4999999999, 'textcat_f': 0.5555555554320988}}",88
89,"{'QA': {'tp': 25.0, 'fp': 15.00000001, 'fn': 25.00000001, 'tn': 22.0, 'tot': 50.00000001, 'eval': {'textcat_p': 0.62499999984375, 'textcat_r': 0.4999999999, 'textcat_f': 0.5555555554320988}}, 'eval_global': {'textcat_p': 0.62499999984375, 'textcat_r': 0.4999999999, 'textcat_f': 0.5555555554320988}}",89
90,"{'QA': {'tp': 25.0, 'fp': 15.00000001, 'fn': 25.00000001, 'tn': 22.0, 'tot': 50.00000001, 'eval': {'textcat_p': 0.62499999984375, 'textcat_r': 0.4999999999, 'textcat_f': 0.5555555554320988}}, 'eval_global': {'textcat_p': 0.62499999984375, 'textcat_r': 0.4999999999, 'textcat_f': 0.5555555554320988}}",90
91,"{'QA': {'tp': 25.0, 'fp': 15.00000001, 'fn': 25.00000001, 'tn': 22.0, 'tot': 50.00000001, 'eval': {'textcat_p': 0.62499999984375, 'textcat_r': 0.4999999999, 'textcat_f': 0.5555555554320988}}, 'eval_global': {'textcat_p': 0.62499999984375, 'textcat_r': 0.4999999999, 'textcat_f': 0.5555555554320988}}",91
92,"{'QA': {'tp': 25.0, 'fp': 15.00000001, 'fn': 25.00000001, 'tn': 22.0, 'tot': 50.00000001, 'eval': {'textcat_p': 0.62499999984375, 'textcat_r': 0.4999999999, 'textcat_f': 0.5555555554320988}}, 'eval_global': {'textcat_p': 0.62499999984375, 'textcat_r': 0.4999999999, 'textcat_f': 0.5555555554320988}}",92
93,"{'QA': {'tp': 25.0, 'fp': 15.00000001, 'fn': 25.00000001, 'tn': 22.0, 'tot': 50.00000001, 'eval': {'textcat_p': 0.62499999984375, 'textcat_r': 0.4999999999, 'textcat_f': 0.5555555554320988}}, 'eval_global': {'textcat_p': 0.62499999984375, 'textcat_r': 0.4999999999, 'textcat_f': 0.5555555554320988}}",93
94,"{'QA': {'tp': 25.0, 'fp': 15.00000001, 'fn': 25.00000001, 'tn': 22.0, 'tot': 50.00000001, 'eval': {'textcat_p': 0.62499999984375, 'textcat_r': 0.4999999999, 'textcat_f': 0.5555555554320988}}, 'eval_global': {'textcat_p': 0.62499999984375, 'textcat_r': 0.4999999999, 'textcat_f': 0.5555555554320988}}",94
95,"{'QA': {'tp': 25.0, 'fp': 15.00000001, 'fn': 25.00000001, 'tn': 22.0, 'tot': 50.00000001, 'eval': {'textcat_p': 0.62499999984375, 'textcat_r': 0.4999999999, 'textcat_f': 0.5555555554320988}}, 'eval_global': {'textcat_p': 0.62499999984375, 'textcat_r': 0.4999999999, 'textcat_f': 0.5555555554320988}}",95
96,"{'QA': {'tp': 25.0, 'fp': 15.00000001, 'fn': 25.00000001, 'tn': 22.0, 'tot': 50.00000001, 'eval': {'textcat_p': 0.62499999984375, 'textcat_r': 0.4999999999, 'textcat_f': 0.5555555554320988}}, 'eval_global': {'textcat_p': 0.62499999984375, 'textcat_r': 0.4999999999, 'textcat_f': 0.5555555554320988}}",96
97,"{'QA': {'tp': 25.0, 'fp': 15.00000001, 'fn': 25.00000001, 'tn': 22.0, 'tot': 50.00000001, 'eval': {'textcat_p': 0.62499999984375, 'textcat_r': 0.4999999999, 'textcat_f': 0.5555555554320988}}, 'eval_global': {'textcat_p': 0.62499999984375, 'textcat_r': 0.4999999999, 'textcat_f': 0.5555555554320988}}",97
98,"{'QA': {'tp': 26.0, 'fp': 15.00000001, 'fn': 24.00000001, 'tn': 22.0, 'tot': 50.00000001, 'eval': {'textcat_p': 0.6341463413087448, 'textcat_r': 0.519999999896, 'textcat_f': 0.5714285713029826}}, 'eval_global': {'textcat_p': 0.6341463413087448, 'textcat_r': 0.519999999896, 'textcat_f': 0.5714285713029826}}",98
99,"{'QA': {'tp': 26.0, 'fp': 15.00000001, 'fn': 24.00000001, 'tn': 22.0, 'tot': 50.00000001, 'eval': {'textcat_p': 0.6341463413087448, 'textcat_r': 0.519999999896, 'textcat_f': 0.5714285713029826}}, 'eval_global': {'textcat_p': 0.6341463413087448, 'textcat_r': 0.519999999896, 'textcat_f': 0.5714285713029826}}",99
