,eval,epoch
0,"{'QA': {'tp': 36.0, 'fp': 20.00000001, 'fn': 14.00000001, 'tn': 17.0, 'tot': 50.00000001, 'eval': {'textcat_p': 0.642857142742347, 'textcat_r': 0.7199999998559999, 'textcat_f': 0.6792452828907084}}, 'eval_global': {'textcat_p': 0.642857142742347, 'textcat_r': 0.7199999998559999, 'textcat_f': 0.6792452828907084}}",0
1,"{'QA': {'tp': 37.0, 'fp': 17.00000001, 'fn': 13.00000001, 'tn': 20.0, 'tot': 50.00000001, 'eval': {'textcat_p': 0.6851851850582991, 'textcat_r': 0.7399999998519999, 'textcat_f': 0.7115384614016272}}, 'eval_global': {'textcat_p': 0.6851851850582991, 'textcat_r': 0.7399999998519999, 'textcat_f': 0.7115384614016272}}",1
2,"{'QA': {'tp': 32.0, 'fp': 11.00000001, 'fn': 18.00000001, 'tn': 26.0, 'tot': 50.00000001, 'eval': {'textcat_p': 0.7441860463385613, 'textcat_r': 0.639999999872, 'textcat_f': 0.6881720428627587}}, 'eval_global': {'textcat_p': 0.7441860463385613, 'textcat_r': 0.639999999872, 'textcat_f': 0.6881720428627587}}",2
3,"{'QA': {'tp': 32.0, 'fp': 7.00000001, 'fn': 18.00000001, 'tn': 30.0, 'tot': 50.00000001, 'eval': {'textcat_p': 0.8205128203024326, 'textcat_r': 0.639999999872, 'textcat_f': 0.7191011234339099}}, 'eval_global': {'textcat_p': 0.8205128203024326, 'textcat_r': 0.639999999872, 'textcat_f': 0.7191011234339099}}",3
4,"{'QA': {'tp': 26.0, 'fp': 5.00000001, 'fn': 24.00000001, 'tn': 32.0, 'tot': 50.00000001, 'eval': {'textcat_p': 0.8387096771488033, 'textcat_r': 0.519999999896, 'textcat_f': 0.6419753084834628}}, 'eval_global': {'textcat_p': 0.8387096771488033, 'textcat_r': 0.519999999896, 'textcat_f': 0.6419753084834628}}",4
5,"{'QA': {'tp': 30.0, 'fp': 8.00000001, 'fn': 20.00000001, 'tn': 29.0, 'tot': 50.00000001, 'eval': {'textcat_p': 0.7894736840027701, 'textcat_r': 0.59999999988, 'textcat_f': 0.681818181663223}}, 'eval_global': {'textcat_p': 0.7894736840027701, 'textcat_r': 0.59999999988, 'textcat_f': 0.681818181663223}}",5
6,"{'QA': {'tp': 29.0, 'fp': 5.00000001, 'fn': 21.00000001, 'tn': 32.0, 'tot': 50.00000001, 'eval': {'textcat_p': 0.8529411762197232, 'textcat_r': 0.579999999884, 'textcat_f': 0.6904761903117913}}, 'eval_global': {'textcat_p': 0.8529411762197232, 'textcat_r': 0.579999999884, 'textcat_f': 0.6904761903117913}}",6
7,"{'QA': {'tp': 28.0, 'fp': 5.00000001, 'fn': 22.00000001, 'tn': 32.0, 'tot': 50.00000001, 'eval': {'textcat_p': 0.8484848482277318, 'textcat_r': 0.559999999888, 'textcat_f': 0.6746987950181448}}, 'eval_global': {'textcat_p': 0.8484848482277318, 'textcat_r': 0.559999999888, 'textcat_f': 0.6746987950181448}}",7
8,"{'QA': {'tp': 27.0, 'fp': 6.00000001, 'fn': 23.00000001, 'tn': 31.0, 'tot': 50.00000001, 'eval': {'textcat_p': 0.8181818179338842, 'textcat_r': 0.539999999892, 'textcat_f': 0.6506024094817825}}, 'eval_global': {'textcat_p': 0.8181818179338842, 'textcat_r': 0.539999999892, 'textcat_f': 0.6506024094817825}}",8
9,"{'QA': {'tp': 30.0, 'fp': 7.00000001, 'fn': 20.00000001, 'tn': 30.0, 'tot': 50.00000001, 'eval': {'textcat_p': 0.8108108105916727, 'textcat_r': 0.59999999988, 'textcat_f': 0.6896551722552517}}, 'eval_global': {'textcat_p': 0.8108108105916727, 'textcat_r': 0.59999999988, 'textcat_f': 0.6896551722552517}}",9
10,"{'QA': {'tp': 30.0, 'fp': 7.00000001, 'fn': 20.00000001, 'tn': 30.0, 'tot': 50.00000001, 'eval': {'textcat_p': 0.8108108105916727, 'textcat_r': 0.59999999988, 'textcat_f': 0.6896551722552517}}, 'eval_global': {'textcat_p': 0.8108108105916727, 'textcat_r': 0.59999999988, 'textcat_f': 0.6896551722552517}}",10
11,"{'QA': {'tp': 30.0, 'fp': 6.00000001, 'fn': 20.00000001, 'tn': 31.0, 'tot': 50.00000001, 'eval': {'textcat_p': 0.8333333331018519, 'textcat_r': 0.59999999988, 'textcat_f': 0.6976744184424013}}, 'eval_global': {'textcat_p': 0.8333333331018519, 'textcat_r': 0.59999999988, 'textcat_f': 0.6976744184424013}}",11
12,"{'QA': {'tp': 33.0, 'fp': 6.00000001, 'fn': 17.00000001, 'tn': 31.0, 'tot': 50.00000001, 'eval': {'textcat_p': 0.8461538459368836, 'textcat_r': 0.659999999868, 'textcat_f': 0.7415730335412195}}, 'eval_global': {'textcat_p': 0.8461538459368836, 'textcat_r': 0.659999999868, 'textcat_f': 0.7415730335412195}}",12
13,"{'QA': {'tp': 33.0, 'fp': 6.00000001, 'fn': 17.00000001, 'tn': 31.0, 'tot': 50.00000001, 'eval': {'textcat_p': 0.8461538459368836, 'textcat_r': 0.659999999868, 'textcat_f': 0.7415730335412195}}, 'eval_global': {'textcat_p': 0.8461538459368836, 'textcat_r': 0.659999999868, 'textcat_f': 0.7415730335412195}}",13
14,"{'QA': {'tp': 33.0, 'fp': 5.00000001, 'fn': 17.00000001, 'tn': 32.0, 'tot': 50.00000001, 'eval': {'textcat_p': 0.8684210524030471, 'textcat_r': 0.659999999868, 'textcat_f': 0.7499999998295453}}, 'eval_global': {'textcat_p': 0.8684210524030471, 'textcat_r': 0.659999999868, 'textcat_f': 0.7499999998295453}}",14
15,"{'QA': {'tp': 34.0, 'fp': 6.00000001, 'fn': 16.00000001, 'tn': 31.0, 'tot': 50.00000001, 'eval': {'textcat_p': 0.8499999997875, 'textcat_r': 0.679999999864, 'textcat_f': 0.7555555553876543}}, 'eval_global': {'textcat_p': 0.8499999997875, 'textcat_r': 0.679999999864, 'textcat_f': 0.7555555553876543}}",15
16,"{'QA': {'tp': 33.0, 'fp': 6.00000001, 'fn': 17.00000001, 'tn': 31.0, 'tot': 50.00000001, 'eval': {'textcat_p': 0.8461538459368836, 'textcat_r': 0.659999999868, 'textcat_f': 0.7415730335412195}}, 'eval_global': {'textcat_p': 0.8461538459368836, 'textcat_r': 0.659999999868, 'textcat_f': 0.7415730335412195}}",16
17,"{'QA': {'tp': 32.0, 'fp': 8.00000001, 'fn': 18.00000001, 'tn': 29.0, 'tot': 50.00000001, 'eval': {'textcat_p': 0.7999999998, 'textcat_r': 0.639999999872, 'textcat_f': 0.7111111109530863}}, 'eval_global': {'textcat_p': 0.7999999998, 'textcat_r': 0.639999999872, 'textcat_f': 0.7111111109530863}}",17
18,"{'QA': {'tp': 34.0, 'fp': 8.00000001, 'fn': 16.00000001, 'tn': 29.0, 'tot': 50.00000001, 'eval': {'textcat_p': 0.8095238093310657, 'textcat_r': 0.679999999864, 'textcat_f': 0.739130434621928}}, 'eval_global': {'textcat_p': 0.8095238093310657, 'textcat_r': 0.679999999864, 'textcat_f': 0.739130434621928}}",18
19,"{'QA': {'tp': 34.0, 'fp': 6.00000001, 'fn': 16.00000001, 'tn': 31.0, 'tot': 50.00000001, 'eval': {'textcat_p': 0.8499999997875, 'textcat_r': 0.679999999864, 'textcat_f': 0.7555555553876543}}, 'eval_global': {'textcat_p': 0.8499999997875, 'textcat_r': 0.679999999864, 'textcat_f': 0.7555555553876543}}",19
20,"{'QA': {'tp': 34.0, 'fp': 9.00000001, 'fn': 16.00000001, 'tn': 28.0, 'tot': 50.00000001, 'eval': {'textcat_p': 0.7906976742347215, 'textcat_r': 0.679999999864, 'textcat_f': 0.731182795541681}}, 'eval_global': {'textcat_p': 0.7906976742347215, 'textcat_r': 0.679999999864, 'textcat_f': 0.731182795541681}}",20
21,"{'QA': {'tp': 34.0, 'fp': 9.00000001, 'fn': 16.00000001, 'tn': 28.0, 'tot': 50.00000001, 'eval': {'textcat_p': 0.7906976742347215, 'textcat_r': 0.679999999864, 'textcat_f': 0.731182795541681}}, 'eval_global': {'textcat_p': 0.7906976742347215, 'textcat_r': 0.679999999864, 'textcat_f': 0.731182795541681}}",21
22,"{'QA': {'tp': 34.0, 'fp': 10.00000001, 'fn': 16.00000001, 'tn': 27.0, 'tot': 50.00000001, 'eval': {'textcat_p': 0.7727272725516529, 'textcat_r': 0.679999999864, 'textcat_f': 0.7234042551652331}}, 'eval_global': {'textcat_p': 0.7727272725516529, 'textcat_r': 0.679999999864, 'textcat_f': 0.7234042551652331}}",22
23,"{'QA': {'tp': 34.0, 'fp': 11.00000001, 'fn': 16.00000001, 'tn': 26.0, 'tot': 50.00000001, 'eval': {'textcat_p': 0.7555555553876543, 'textcat_r': 0.679999999864, 'textcat_f': 0.7157894735335179}}, 'eval_global': {'textcat_p': 0.7555555553876543, 'textcat_r': 0.679999999864, 'textcat_f': 0.7157894735335179}}",23
24,"{'QA': {'tp': 34.0, 'fp': 11.00000001, 'fn': 16.00000001, 'tn': 26.0, 'tot': 50.00000001, 'eval': {'textcat_p': 0.7555555553876543, 'textcat_r': 0.679999999864, 'textcat_f': 0.7157894735335179}}, 'eval_global': {'textcat_p': 0.7555555553876543, 'textcat_r': 0.679999999864, 'textcat_f': 0.7157894735335179}}",24
25,"{'QA': {'tp': 35.0, 'fp': 11.00000001, 'fn': 15.00000001, 'tn': 26.0, 'tot': 50.00000001, 'eval': {'textcat_p': 0.7608695650519849, 'textcat_r': 0.6999999998599999, 'textcat_f': 0.7291666665147569}}, 'eval_global': {'textcat_p': 0.7608695650519849, 'textcat_r': 0.6999999998599999, 'textcat_f': 0.7291666665147569}}",25
26,"{'QA': {'tp': 34.0, 'fp': 9.00000001, 'fn': 16.00000001, 'tn': 28.0, 'tot': 50.00000001, 'eval': {'textcat_p': 0.7906976742347215, 'textcat_r': 0.679999999864, 'textcat_f': 0.731182795541681}}, 'eval_global': {'textcat_p': 0.7906976742347215, 'textcat_r': 0.679999999864, 'textcat_f': 0.731182795541681}}",26
27,"{'QA': {'tp': 36.0, 'fp': 10.00000001, 'fn': 14.00000001, 'tn': 27.0, 'tot': 50.00000001, 'eval': {'textcat_p': 0.7826086954820416, 'textcat_r': 0.7199999998559999, 'textcat_f': 0.74999999984375}}, 'eval_global': {'textcat_p': 0.7826086954820416, 'textcat_r': 0.7199999998559999, 'textcat_f': 0.74999999984375}}",27
28,"{'QA': {'tp': 36.0, 'fp': 10.00000001, 'fn': 14.00000001, 'tn': 27.0, 'tot': 50.00000001, 'eval': {'textcat_p': 0.7826086954820416, 'textcat_r': 0.7199999998559999, 'textcat_f': 0.74999999984375}}, 'eval_global': {'textcat_p': 0.7826086954820416, 'textcat_r': 0.7199999998559999, 'textcat_f': 0.74999999984375}}",28
29,"{'QA': {'tp': 35.0, 'fp': 10.00000001, 'fn': 15.00000001, 'tn': 27.0, 'tot': 50.00000001, 'eval': {'textcat_p': 0.7777777776049383, 'textcat_r': 0.6999999998599999, 'textcat_f': 0.7368421051080332}}, 'eval_global': {'textcat_p': 0.7777777776049383, 'textcat_r': 0.6999999998599999, 'textcat_f': 0.7368421051080332}}",29
30,"{'QA': {'tp': 35.0, 'fp': 10.00000001, 'fn': 15.00000001, 'tn': 27.0, 'tot': 50.00000001, 'eval': {'textcat_p': 0.7777777776049383, 'textcat_r': 0.6999999998599999, 'textcat_f': 0.7368421051080332}}, 'eval_global': {'textcat_p': 0.7777777776049383, 'textcat_r': 0.6999999998599999, 'textcat_f': 0.7368421051080332}}",30
31,"{'QA': {'tp': 35.0, 'fp': 10.00000001, 'fn': 15.00000001, 'tn': 27.0, 'tot': 50.00000001, 'eval': {'textcat_p': 0.7777777776049383, 'textcat_r': 0.6999999998599999, 'textcat_f': 0.7368421051080332}}, 'eval_global': {'textcat_p': 0.7777777776049383, 'textcat_r': 0.6999999998599999, 'textcat_f': 0.7368421051080332}}",31
32,"{'QA': {'tp': 35.0, 'fp': 10.00000001, 'fn': 15.00000001, 'tn': 27.0, 'tot': 50.00000001, 'eval': {'textcat_p': 0.7777777776049383, 'textcat_r': 0.6999999998599999, 'textcat_f': 0.7368421051080332}}, 'eval_global': {'textcat_p': 0.7777777776049383, 'textcat_r': 0.6999999998599999, 'textcat_f': 0.7368421051080332}}",32
33,"{'QA': {'tp': 35.0, 'fp': 10.00000001, 'fn': 15.00000001, 'tn': 27.0, 'tot': 50.00000001, 'eval': {'textcat_p': 0.7777777776049383, 'textcat_r': 0.6999999998599999, 'textcat_f': 0.7368421051080332}}, 'eval_global': {'textcat_p': 0.7777777776049383, 'textcat_r': 0.6999999998599999, 'textcat_f': 0.7368421051080332}}",33
34,"{'QA': {'tp': 35.0, 'fp': 10.00000001, 'fn': 15.00000001, 'tn': 27.0, 'tot': 50.00000001, 'eval': {'textcat_p': 0.7777777776049383, 'textcat_r': 0.6999999998599999, 'textcat_f': 0.7368421051080332}}, 'eval_global': {'textcat_p': 0.7777777776049383, 'textcat_r': 0.6999999998599999, 'textcat_f': 0.7368421051080332}}",34
35,"{'QA': {'tp': 33.0, 'fp': 10.00000001, 'fn': 17.00000001, 'tn': 27.0, 'tot': 50.00000001, 'eval': {'textcat_p': 0.7674418602866414, 'textcat_r': 0.659999999868, 'textcat_f': 0.7096774192022199}}, 'eval_global': {'textcat_p': 0.7674418602866414, 'textcat_r': 0.659999999868, 'textcat_f': 0.7096774192022199}}",35
36,"{'QA': {'tp': 33.0, 'fp': 10.00000001, 'fn': 17.00000001, 'tn': 27.0, 'tot': 50.00000001, 'eval': {'textcat_p': 0.7674418602866414, 'textcat_r': 0.659999999868, 'textcat_f': 0.7096774192022199}}, 'eval_global': {'textcat_p': 0.7674418602866414, 'textcat_r': 0.659999999868, 'textcat_f': 0.7096774192022199}}",36
37,"{'QA': {'tp': 33.0, 'fp': 10.00000001, 'fn': 17.00000001, 'tn': 27.0, 'tot': 50.00000001, 'eval': {'textcat_p': 0.7674418602866414, 'textcat_r': 0.659999999868, 'textcat_f': 0.7096774192022199}}, 'eval_global': {'textcat_p': 0.7674418602866414, 'textcat_r': 0.659999999868, 'textcat_f': 0.7096774192022199}}",37
38,"{'QA': {'tp': 33.0, 'fp': 9.00000001, 'fn': 17.00000001, 'tn': 28.0, 'tot': 50.00000001, 'eval': {'textcat_p': 0.7857142855272109, 'textcat_r': 0.659999999868, 'textcat_f': 0.7173913041918715}}, 'eval_global': {'textcat_p': 0.7857142855272109, 'textcat_r': 0.659999999868, 'textcat_f': 0.7173913041918715}}",38
39,"{'QA': {'tp': 33.0, 'fp': 11.00000001, 'fn': 17.00000001, 'tn': 26.0, 'tot': 50.00000001, 'eval': {'textcat_p': 0.7499999998295455, 'textcat_r': 0.659999999868, 'textcat_f': 0.7021276594250792}}, 'eval_global': {'textcat_p': 0.7499999998295455, 'textcat_r': 0.659999999868, 'textcat_f': 0.7021276594250792}}",39
40,"{'QA': {'tp': 35.0, 'fp': 11.00000001, 'fn': 15.00000001, 'tn': 26.0, 'tot': 50.00000001, 'eval': {'textcat_p': 0.7608695650519849, 'textcat_r': 0.6999999998599999, 'textcat_f': 0.7291666665147569}}, 'eval_global': {'textcat_p': 0.7608695650519849, 'textcat_r': 0.6999999998599999, 'textcat_f': 0.7291666665147569}}",40
41,"{'QA': {'tp': 35.0, 'fp': 11.00000001, 'fn': 15.00000001, 'tn': 26.0, 'tot': 50.00000001, 'eval': {'textcat_p': 0.7608695650519849, 'textcat_r': 0.6999999998599999, 'textcat_f': 0.7291666665147569}}, 'eval_global': {'textcat_p': 0.7608695650519849, 'textcat_r': 0.6999999998599999, 'textcat_f': 0.7291666665147569}}",41
42,"{'QA': {'tp': 35.0, 'fp': 10.00000001, 'fn': 15.00000001, 'tn': 27.0, 'tot': 50.00000001, 'eval': {'textcat_p': 0.7777777776049383, 'textcat_r': 0.6999999998599999, 'textcat_f': 0.7368421051080332}}, 'eval_global': {'textcat_p': 0.7777777776049383, 'textcat_r': 0.6999999998599999, 'textcat_f': 0.7368421051080332}}",42
43,"{'QA': {'tp': 35.0, 'fp': 8.00000001, 'fn': 15.00000001, 'tn': 29.0, 'tot': 50.00000001, 'eval': {'textcat_p': 0.8139534881828014, 'textcat_r': 0.6999999998599999, 'textcat_f': 0.7526881718811423}}, 'eval_global': {'textcat_p': 0.8139534881828014, 'textcat_r': 0.6999999998599999, 'textcat_f': 0.7526881718811423}}",43
44,"{'QA': {'tp': 34.0, 'fp': 8.00000001, 'fn': 16.00000001, 'tn': 29.0, 'tot': 50.00000001, 'eval': {'textcat_p': 0.8095238093310657, 'textcat_r': 0.679999999864, 'textcat_f': 0.739130434621928}}, 'eval_global': {'textcat_p': 0.8095238093310657, 'textcat_r': 0.679999999864, 'textcat_f': 0.739130434621928}}",44
45,"{'QA': {'tp': 34.0, 'fp': 7.00000001, 'fn': 16.00000001, 'tn': 30.0, 'tot': 50.00000001, 'eval': {'textcat_p': 0.8292682924806662, 'textcat_r': 0.679999999864, 'textcat_f': 0.7472527470885159}}, 'eval_global': {'textcat_p': 0.8292682924806662, 'textcat_r': 0.679999999864, 'textcat_f': 0.7472527470885159}}",45
46,"{'QA': {'tp': 33.0, 'fp': 7.00000001, 'fn': 17.00000001, 'tn': 30.0, 'tot': 50.00000001, 'eval': {'textcat_p': 0.8249999997937499, 'textcat_r': 0.659999999868, 'textcat_f': 0.7333333331703702}}, 'eval_global': {'textcat_p': 0.8249999997937499, 'textcat_r': 0.659999999868, 'textcat_f': 0.7333333331703702}}",46
47,"{'QA': {'tp': 34.0, 'fp': 8.00000001, 'fn': 16.00000001, 'tn': 29.0, 'tot': 50.00000001, 'eval': {'textcat_p': 0.8095238093310657, 'textcat_r': 0.679999999864, 'textcat_f': 0.739130434621928}}, 'eval_global': {'textcat_p': 0.8095238093310657, 'textcat_r': 0.679999999864, 'textcat_f': 0.739130434621928}}",47
48,"{'QA': {'tp': 34.0, 'fp': 8.00000001, 'fn': 16.00000001, 'tn': 29.0, 'tot': 50.00000001, 'eval': {'textcat_p': 0.8095238093310657, 'textcat_r': 0.679999999864, 'textcat_f': 0.739130434621928}}, 'eval_global': {'textcat_p': 0.8095238093310657, 'textcat_r': 0.679999999864, 'textcat_f': 0.739130434621928}}",48
49,"{'QA': {'tp': 31.0, 'fp': 8.00000001, 'fn': 19.00000001, 'tn': 29.0, 'tot': 50.00000001, 'eval': {'textcat_p': 0.7948717946679815, 'textcat_r': 0.619999999876, 'textcat_f': 0.6966292133266001}}, 'eval_global': {'textcat_p': 0.7948717946679815, 'textcat_r': 0.619999999876, 'textcat_f': 0.6966292133266001}}",49
50,"{'QA': {'tp': 32.0, 'fp': 8.00000001, 'fn': 18.00000001, 'tn': 29.0, 'tot': 50.00000001, 'eval': {'textcat_p': 0.7999999998, 'textcat_r': 0.639999999872, 'textcat_f': 0.7111111109530863}}, 'eval_global': {'textcat_p': 0.7999999998, 'textcat_r': 0.639999999872, 'textcat_f': 0.7111111109530863}}",50
51,"{'QA': {'tp': 32.0, 'fp': 8.00000001, 'fn': 18.00000001, 'tn': 29.0, 'tot': 50.00000001, 'eval': {'textcat_p': 0.7999999998, 'textcat_r': 0.639999999872, 'textcat_f': 0.7111111109530863}}, 'eval_global': {'textcat_p': 0.7999999998, 'textcat_r': 0.639999999872, 'textcat_f': 0.7111111109530863}}",51
52,"{'QA': {'tp': 31.0, 'fp': 8.00000001, 'fn': 19.00000001, 'tn': 29.0, 'tot': 50.00000001, 'eval': {'textcat_p': 0.7948717946679815, 'textcat_r': 0.619999999876, 'textcat_f': 0.6966292133266001}}, 'eval_global': {'textcat_p': 0.7948717946679815, 'textcat_r': 0.619999999876, 'textcat_f': 0.6966292133266001}}",52
53,"{'QA': {'tp': 32.0, 'fp': 8.00000001, 'fn': 18.00000001, 'tn': 29.0, 'tot': 50.00000001, 'eval': {'textcat_p': 0.7999999998, 'textcat_r': 0.639999999872, 'textcat_f': 0.7111111109530863}}, 'eval_global': {'textcat_p': 0.7999999998, 'textcat_r': 0.639999999872, 'textcat_f': 0.7111111109530863}}",53
54,"{'QA': {'tp': 32.0, 'fp': 8.00000001, 'fn': 18.00000001, 'tn': 29.0, 'tot': 50.00000001, 'eval': {'textcat_p': 0.7999999998, 'textcat_r': 0.639999999872, 'textcat_f': 0.7111111109530863}}, 'eval_global': {'textcat_p': 0.7999999998, 'textcat_r': 0.639999999872, 'textcat_f': 0.7111111109530863}}",54
55,"{'QA': {'tp': 33.0, 'fp': 8.00000001, 'fn': 17.00000001, 'tn': 29.0, 'tot': 50.00000001, 'eval': {'textcat_p': 0.8048780485841761, 'textcat_r': 0.659999999868, 'textcat_f': 0.7252747251153241}}, 'eval_global': {'textcat_p': 0.8048780485841761, 'textcat_r': 0.659999999868, 'textcat_f': 0.7252747251153241}}",55
56,"{'QA': {'tp': 34.0, 'fp': 9.00000001, 'fn': 16.00000001, 'tn': 28.0, 'tot': 50.00000001, 'eval': {'textcat_p': 0.7906976742347215, 'textcat_r': 0.679999999864, 'textcat_f': 0.731182795541681}}, 'eval_global': {'textcat_p': 0.7906976742347215, 'textcat_r': 0.679999999864, 'textcat_f': 0.731182795541681}}",56
57,"{'QA': {'tp': 34.0, 'fp': 9.00000001, 'fn': 16.00000001, 'tn': 28.0, 'tot': 50.00000001, 'eval': {'textcat_p': 0.7906976742347215, 'textcat_r': 0.679999999864, 'textcat_f': 0.731182795541681}}, 'eval_global': {'textcat_p': 0.7906976742347215, 'textcat_r': 0.679999999864, 'textcat_f': 0.731182795541681}}",57
58,"{'QA': {'tp': 33.0, 'fp': 9.00000001, 'fn': 17.00000001, 'tn': 28.0, 'tot': 50.00000001, 'eval': {'textcat_p': 0.7857142855272109, 'textcat_r': 0.659999999868, 'textcat_f': 0.7173913041918715}}, 'eval_global': {'textcat_p': 0.7857142855272109, 'textcat_r': 0.659999999868, 'textcat_f': 0.7173913041918715}}",58
59,"{'QA': {'tp': 33.0, 'fp': 9.00000001, 'fn': 17.00000001, 'tn': 28.0, 'tot': 50.00000001, 'eval': {'textcat_p': 0.7857142855272109, 'textcat_r': 0.659999999868, 'textcat_f': 0.7173913041918715}}, 'eval_global': {'textcat_p': 0.7857142855272109, 'textcat_r': 0.659999999868, 'textcat_f': 0.7173913041918715}}",59
60,"{'QA': {'tp': 34.0, 'fp': 9.00000001, 'fn': 16.00000001, 'tn': 28.0, 'tot': 50.00000001, 'eval': {'textcat_p': 0.7906976742347215, 'textcat_r': 0.679999999864, 'textcat_f': 0.731182795541681}}, 'eval_global': {'textcat_p': 0.7906976742347215, 'textcat_r': 0.679999999864, 'textcat_f': 0.731182795541681}}",60
61,"{'QA': {'tp': 33.0, 'fp': 9.00000001, 'fn': 17.00000001, 'tn': 28.0, 'tot': 50.00000001, 'eval': {'textcat_p': 0.7857142855272109, 'textcat_r': 0.659999999868, 'textcat_f': 0.7173913041918715}}, 'eval_global': {'textcat_p': 0.7857142855272109, 'textcat_r': 0.659999999868, 'textcat_f': 0.7173913041918715}}",61
62,"{'QA': {'tp': 32.0, 'fp': 8.00000001, 'fn': 18.00000001, 'tn': 29.0, 'tot': 50.00000001, 'eval': {'textcat_p': 0.7999999998, 'textcat_r': 0.639999999872, 'textcat_f': 0.7111111109530863}}, 'eval_global': {'textcat_p': 0.7999999998, 'textcat_r': 0.639999999872, 'textcat_f': 0.7111111109530863}}",62
63,"{'QA': {'tp': 31.0, 'fp': 8.00000001, 'fn': 19.00000001, 'tn': 29.0, 'tot': 50.00000001, 'eval': {'textcat_p': 0.7948717946679815, 'textcat_r': 0.619999999876, 'textcat_f': 0.6966292133266001}}, 'eval_global': {'textcat_p': 0.7948717946679815, 'textcat_r': 0.619999999876, 'textcat_f': 0.6966292133266001}}",63
64,"{'QA': {'tp': 31.0, 'fp': 8.00000001, 'fn': 19.00000001, 'tn': 29.0, 'tot': 50.00000001, 'eval': {'textcat_p': 0.7948717946679815, 'textcat_r': 0.619999999876, 'textcat_f': 0.6966292133266001}}, 'eval_global': {'textcat_p': 0.7948717946679815, 'textcat_r': 0.619999999876, 'textcat_f': 0.6966292133266001}}",64
65,"{'QA': {'tp': 30.0, 'fp': 8.00000001, 'fn': 20.00000001, 'tn': 29.0, 'tot': 50.00000001, 'eval': {'textcat_p': 0.7894736840027701, 'textcat_r': 0.59999999988, 'textcat_f': 0.681818181663223}}, 'eval_global': {'textcat_p': 0.7894736840027701, 'textcat_r': 0.59999999988, 'textcat_f': 0.681818181663223}}",65
66,"{'QA': {'tp': 30.0, 'fp': 8.00000001, 'fn': 20.00000001, 'tn': 29.0, 'tot': 50.00000001, 'eval': {'textcat_p': 0.7894736840027701, 'textcat_r': 0.59999999988, 'textcat_f': 0.681818181663223}}, 'eval_global': {'textcat_p': 0.7894736840027701, 'textcat_r': 0.59999999988, 'textcat_f': 0.681818181663223}}",66
67,"{'QA': {'tp': 31.0, 'fp': 8.00000001, 'fn': 19.00000001, 'tn': 29.0, 'tot': 50.00000001, 'eval': {'textcat_p': 0.7948717946679815, 'textcat_r': 0.619999999876, 'textcat_f': 0.6966292133266001}}, 'eval_global': {'textcat_p': 0.7948717946679815, 'textcat_r': 0.619999999876, 'textcat_f': 0.6966292133266001}}",67
68,"{'QA': {'tp': 32.0, 'fp': 9.00000001, 'fn': 18.00000001, 'tn': 28.0, 'tot': 50.00000001, 'eval': {'textcat_p': 0.7804878046876859, 'textcat_r': 0.639999999872, 'textcat_f': 0.7032967031421326}}, 'eval_global': {'textcat_p': 0.7804878046876859, 'textcat_r': 0.639999999872, 'textcat_f': 0.7032967031421326}}",68
69,"{'QA': {'tp': 32.0, 'fp': 9.00000001, 'fn': 18.00000001, 'tn': 28.0, 'tot': 50.00000001, 'eval': {'textcat_p': 0.7804878046876859, 'textcat_r': 0.639999999872, 'textcat_f': 0.7032967031421326}}, 'eval_global': {'textcat_p': 0.7804878046876859, 'textcat_r': 0.639999999872, 'textcat_f': 0.7032967031421326}}",69
70,"{'QA': {'tp': 34.0, 'fp': 9.00000001, 'fn': 16.00000001, 'tn': 28.0, 'tot': 50.00000001, 'eval': {'textcat_p': 0.7906976742347215, 'textcat_r': 0.679999999864, 'textcat_f': 0.731182795541681}}, 'eval_global': {'textcat_p': 0.7906976742347215, 'textcat_r': 0.679999999864, 'textcat_f': 0.731182795541681}}",70
71,"{'QA': {'tp': 36.0, 'fp': 9.00000001, 'fn': 14.00000001, 'tn': 28.0, 'tot': 50.00000001, 'eval': {'textcat_p': 0.7999999998222223, 'textcat_r': 0.7199999998559999, 'textcat_f': 0.7578947366825484}}, 'eval_global': {'textcat_p': 0.7999999998222223, 'textcat_r': 0.7199999998559999, 'textcat_f': 0.7578947366825484}}",71
72,"{'QA': {'tp': 36.0, 'fp': 9.00000001, 'fn': 14.00000001, 'tn': 28.0, 'tot': 50.00000001, 'eval': {'textcat_p': 0.7999999998222223, 'textcat_r': 0.7199999998559999, 'textcat_f': 0.7578947366825484}}, 'eval_global': {'textcat_p': 0.7999999998222223, 'textcat_r': 0.7199999998559999, 'textcat_f': 0.7578947366825484}}",72
73,"{'QA': {'tp': 36.0, 'fp': 9.00000001, 'fn': 14.00000001, 'tn': 28.0, 'tot': 50.00000001, 'eval': {'textcat_p': 0.7999999998222223, 'textcat_r': 0.7199999998559999, 'textcat_f': 0.7578947366825484}}, 'eval_global': {'textcat_p': 0.7999999998222223, 'textcat_r': 0.7199999998559999, 'textcat_f': 0.7578947366825484}}",73
74,"{'QA': {'tp': 37.0, 'fp': 9.00000001, 'fn': 13.00000001, 'tn': 28.0, 'tot': 50.00000001, 'eval': {'textcat_p': 0.8043478259120983, 'textcat_r': 0.7399999998519999, 'textcat_f': 0.770833333172743}}, 'eval_global': {'textcat_p': 0.8043478259120983, 'textcat_r': 0.7399999998519999, 'textcat_f': 0.770833333172743}}",74
75,"{'QA': {'tp': 37.0, 'fp': 9.00000001, 'fn': 13.00000001, 'tn': 28.0, 'tot': 50.00000001, 'eval': {'textcat_p': 0.8043478259120983, 'textcat_r': 0.7399999998519999, 'textcat_f': 0.770833333172743}}, 'eval_global': {'textcat_p': 0.8043478259120983, 'textcat_r': 0.7399999998519999, 'textcat_f': 0.770833333172743}}",75
76,"{'QA': {'tp': 37.0, 'fp': 9.00000001, 'fn': 13.00000001, 'tn': 28.0, 'tot': 50.00000001, 'eval': {'textcat_p': 0.8043478259120983, 'textcat_r': 0.7399999998519999, 'textcat_f': 0.770833333172743}}, 'eval_global': {'textcat_p': 0.8043478259120983, 'textcat_r': 0.7399999998519999, 'textcat_f': 0.770833333172743}}",76
77,"{'QA': {'tp': 37.0, 'fp': 9.00000001, 'fn': 13.00000001, 'tn': 28.0, 'tot': 50.00000001, 'eval': {'textcat_p': 0.8043478259120983, 'textcat_r': 0.7399999998519999, 'textcat_f': 0.770833333172743}}, 'eval_global': {'textcat_p': 0.8043478259120983, 'textcat_r': 0.7399999998519999, 'textcat_f': 0.770833333172743}}",77
78,"{'QA': {'tp': 37.0, 'fp': 9.00000001, 'fn': 13.00000001, 'tn': 28.0, 'tot': 50.00000001, 'eval': {'textcat_p': 0.8043478259120983, 'textcat_r': 0.7399999998519999, 'textcat_f': 0.770833333172743}}, 'eval_global': {'textcat_p': 0.8043478259120983, 'textcat_r': 0.7399999998519999, 'textcat_f': 0.770833333172743}}",78
79,"{'QA': {'tp': 37.0, 'fp': 9.00000001, 'fn': 13.00000001, 'tn': 28.0, 'tot': 50.00000001, 'eval': {'textcat_p': 0.8043478259120983, 'textcat_r': 0.7399999998519999, 'textcat_f': 0.770833333172743}}, 'eval_global': {'textcat_p': 0.8043478259120983, 'textcat_r': 0.7399999998519999, 'textcat_f': 0.770833333172743}}",79
80,"{'QA': {'tp': 36.0, 'fp': 9.00000001, 'fn': 14.00000001, 'tn': 28.0, 'tot': 50.00000001, 'eval': {'textcat_p': 0.7999999998222223, 'textcat_r': 0.7199999998559999, 'textcat_f': 0.7578947366825484}}, 'eval_global': {'textcat_p': 0.7999999998222223, 'textcat_r': 0.7199999998559999, 'textcat_f': 0.7578947366825484}}",80
81,"{'QA': {'tp': 36.0, 'fp': 9.00000001, 'fn': 14.00000001, 'tn': 28.0, 'tot': 50.00000001, 'eval': {'textcat_p': 0.7999999998222223, 'textcat_r': 0.7199999998559999, 'textcat_f': 0.7578947366825484}}, 'eval_global': {'textcat_p': 0.7999999998222223, 'textcat_r': 0.7199999998559999, 'textcat_f': 0.7578947366825484}}",81
82,"{'QA': {'tp': 36.0, 'fp': 8.00000001, 'fn': 14.00000001, 'tn': 29.0, 'tot': 50.00000001, 'eval': {'textcat_p': 0.8181818179958678, 'textcat_r': 0.7199999998559999, 'textcat_f': 0.7659574466455409}}, 'eval_global': {'textcat_p': 0.8181818179958678, 'textcat_r': 0.7199999998559999, 'textcat_f': 0.7659574466455409}}",82
83,"{'QA': {'tp': 36.0, 'fp': 8.00000001, 'fn': 14.00000001, 'tn': 29.0, 'tot': 50.00000001, 'eval': {'textcat_p': 0.8181818179958678, 'textcat_r': 0.7199999998559999, 'textcat_f': 0.7659574466455409}}, 'eval_global': {'textcat_p': 0.8181818179958678, 'textcat_r': 0.7199999998559999, 'textcat_f': 0.7659574466455409}}",83
84,"{'QA': {'tp': 34.0, 'fp': 8.00000001, 'fn': 16.00000001, 'tn': 29.0, 'tot': 50.00000001, 'eval': {'textcat_p': 0.8095238093310657, 'textcat_r': 0.679999999864, 'textcat_f': 0.739130434621928}}, 'eval_global': {'textcat_p': 0.8095238093310657, 'textcat_r': 0.679999999864, 'textcat_f': 0.739130434621928}}",84
85,"{'QA': {'tp': 34.0, 'fp': 8.00000001, 'fn': 16.00000001, 'tn': 29.0, 'tot': 50.00000001, 'eval': {'textcat_p': 0.8095238093310657, 'textcat_r': 0.679999999864, 'textcat_f': 0.739130434621928}}, 'eval_global': {'textcat_p': 0.8095238093310657, 'textcat_r': 0.679999999864, 'textcat_f': 0.739130434621928}}",85
86,"{'QA': {'tp': 34.0, 'fp': 9.00000001, 'fn': 16.00000001, 'tn': 28.0, 'tot': 50.00000001, 'eval': {'textcat_p': 0.7906976742347215, 'textcat_r': 0.679999999864, 'textcat_f': 0.731182795541681}}, 'eval_global': {'textcat_p': 0.7906976742347215, 'textcat_r': 0.679999999864, 'textcat_f': 0.731182795541681}}",86
87,"{'QA': {'tp': 33.0, 'fp': 9.00000001, 'fn': 17.00000001, 'tn': 28.0, 'tot': 50.00000001, 'eval': {'textcat_p': 0.7857142855272109, 'textcat_r': 0.659999999868, 'textcat_f': 0.7173913041918715}}, 'eval_global': {'textcat_p': 0.7857142855272109, 'textcat_r': 0.659999999868, 'textcat_f': 0.7173913041918715}}",87
88,"{'QA': {'tp': 32.0, 'fp': 9.00000001, 'fn': 18.00000001, 'tn': 28.0, 'tot': 50.00000001, 'eval': {'textcat_p': 0.7804878046876859, 'textcat_r': 0.639999999872, 'textcat_f': 0.7032967031421326}}, 'eval_global': {'textcat_p': 0.7804878046876859, 'textcat_r': 0.639999999872, 'textcat_f': 0.7032967031421326}}",88
89,"{'QA': {'tp': 32.0, 'fp': 9.00000001, 'fn': 18.00000001, 'tn': 28.0, 'tot': 50.00000001, 'eval': {'textcat_p': 0.7804878046876859, 'textcat_r': 0.639999999872, 'textcat_f': 0.7032967031421326}}, 'eval_global': {'textcat_p': 0.7804878046876859, 'textcat_r': 0.639999999872, 'textcat_f': 0.7032967031421326}}",89
90,"{'QA': {'tp': 32.0, 'fp': 9.00000001, 'fn': 18.00000001, 'tn': 28.0, 'tot': 50.00000001, 'eval': {'textcat_p': 0.7804878046876859, 'textcat_r': 0.639999999872, 'textcat_f': 0.7032967031421326}}, 'eval_global': {'textcat_p': 0.7804878046876859, 'textcat_r': 0.639999999872, 'textcat_f': 0.7032967031421326}}",90
91,"{'QA': {'tp': 32.0, 'fp': 8.00000001, 'fn': 18.00000001, 'tn': 29.0, 'tot': 50.00000001, 'eval': {'textcat_p': 0.7999999998, 'textcat_r': 0.639999999872, 'textcat_f': 0.7111111109530863}}, 'eval_global': {'textcat_p': 0.7999999998, 'textcat_r': 0.639999999872, 'textcat_f': 0.7111111109530863}}",91
92,"{'QA': {'tp': 32.0, 'fp': 9.00000001, 'fn': 18.00000001, 'tn': 28.0, 'tot': 50.00000001, 'eval': {'textcat_p': 0.7804878046876859, 'textcat_r': 0.639999999872, 'textcat_f': 0.7032967031421326}}, 'eval_global': {'textcat_p': 0.7804878046876859, 'textcat_r': 0.639999999872, 'textcat_f': 0.7032967031421326}}",92
93,"{'QA': {'tp': 32.0, 'fp': 9.00000001, 'fn': 18.00000001, 'tn': 28.0, 'tot': 50.00000001, 'eval': {'textcat_p': 0.7804878046876859, 'textcat_r': 0.639999999872, 'textcat_f': 0.7032967031421326}}, 'eval_global': {'textcat_p': 0.7804878046876859, 'textcat_r': 0.639999999872, 'textcat_f': 0.7032967031421326}}",93
94,"{'QA': {'tp': 31.0, 'fp': 9.00000001, 'fn': 19.00000001, 'tn': 28.0, 'tot': 50.00000001, 'eval': {'textcat_p': 0.77499999980625, 'textcat_r': 0.619999999876, 'textcat_f': 0.6888888887358025}}, 'eval_global': {'textcat_p': 0.77499999980625, 'textcat_r': 0.619999999876, 'textcat_f': 0.6888888887358025}}",94
95,"{'QA': {'tp': 31.0, 'fp': 10.00000001, 'fn': 19.00000001, 'tn': 27.0, 'tot': 50.00000001, 'eval': {'textcat_p': 0.7560975607911957, 'textcat_r': 0.619999999876, 'textcat_f': 0.6813186811689409}}, 'eval_global': {'textcat_p': 0.7560975607911957, 'textcat_r': 0.619999999876, 'textcat_f': 0.6813186811689409}}",95
96,"{'QA': {'tp': 32.0, 'fp': 10.00000001, 'fn': 18.00000001, 'tn': 27.0, 'tot': 50.00000001, 'eval': {'textcat_p': 0.761904761723356, 'textcat_r': 0.639999999872, 'textcat_f': 0.6956521737618148}}, 'eval_global': {'textcat_p': 0.761904761723356, 'textcat_r': 0.639999999872, 'textcat_f': 0.6956521737618148}}",96
97,"{'QA': {'tp': 32.0, 'fp': 10.00000001, 'fn': 18.00000001, 'tn': 27.0, 'tot': 50.00000001, 'eval': {'textcat_p': 0.761904761723356, 'textcat_r': 0.639999999872, 'textcat_f': 0.6956521737618148}}, 'eval_global': {'textcat_p': 0.761904761723356, 'textcat_r': 0.639999999872, 'textcat_f': 0.6956521737618148}}",97
98,"{'QA': {'tp': 33.0, 'fp': 10.00000001, 'fn': 17.00000001, 'tn': 27.0, 'tot': 50.00000001, 'eval': {'textcat_p': 0.7674418602866414, 'textcat_r': 0.659999999868, 'textcat_f': 0.7096774192022199}}, 'eval_global': {'textcat_p': 0.7674418602866414, 'textcat_r': 0.659999999868, 'textcat_f': 0.7096774192022199}}",98
99,"{'QA': {'tp': 33.0, 'fp': 10.00000001, 'fn': 17.00000001, 'tn': 27.0, 'tot': 50.00000001, 'eval': {'textcat_p': 0.7674418602866414, 'textcat_r': 0.659999999868, 'textcat_f': 0.7096774192022199}}, 'eval_global': {'textcat_p': 0.7674418602866414, 'textcat_r': 0.659999999868, 'textcat_f': 0.7096774192022199}}",99
