,US,pred,label
0,"As an institutional data manager, I want to know about the privacy and security requirements of the data, so that I can plan the right storage system and sharing permissions.",0.9999474287033081,security
1,"As a User , I want to authenticate using LDAP.",0.9999545812606812,security
2,"As a research facility manager, I want to deposit data from my facility directly into the archive on behalf of researchers, so that I am no longer required to maintain my own archive of facility data and researchers can access their own data as needed. ",0.9999545812606812,security
3,"As a Cornell faculty member, I want to login remotely to the repository using Shibboleth, so that I can get remote access to Cornell campus-only content.",0.9999545812606812,security
4,"As a fundingbody, I want to be reassured that researchers I fund have robust archival plans for their data, so that I can be sure that funding them is a worthwhile investment.",0.9997299313545227,security
5,"As a collection curator housed in the Protected Data Network, I want my collection to be encrypted with a key maintained on that server, a checksum made and stored of the encrypted file, and the encrypted file replicated to our remote storage site.",0.9999545812606812,security
6,"As a Consumer, I want to know that the data I am downloading is good and can be relied on, so that that I don't have to check it myself or run into annoying bugs later on.",0.9998764991760254,security
7,"As the Digital Records Archivist, I want a method to add and remove multiple people to deposit groups in specific collections. Ideally, I'd be able to set a date that the deposit window closes. The permissions conferred on these depositors should pick up on the collection's default permission.",0.9999545812606812,security
8,"As a moderator, I want to get a password reminder by email, so that I can get back to using the application when I've forgotten my password.",0.9999459981918335,security
9,"As an administrator, I want to limit who can see certain metadata fields, so that I can show or hide things from display based on user groups.",0.9998797178268433,security
10,"AS an externalcoordinator, I want to access data from Bath collaborators off campus, so that I can collaborate effectively.",0.9999526739120483,security
11,"As an IT staff member, I want to know the security requirements of the data, so that I know which kind of security measures to apply.",0.9997126460075378,security
12,"As a parent, I want to be able to sign and submit consent forms online, so that I don't have to deal with my child losing a consent form.",0.9997326731681824,security
13,"As an externalcollaborator, I want to gain privileged access to data for projects in which I am involved, so that I can collaborate effectively.",0.9999545812606812,security
14,"As a PI, I want to know who owns the data, so that I know what I am allowed to do with it.",0.999750554561615,security
15,"As a researcher, I want to secure remote access to the Neurohub node when working away from the laboratory",0.9999505281448364,security
16,"As a repository manager, I want to know all the collections and objects in the DAMS for which I have custodial responsibility.  ",0.9999545812606812,security
17,"As an administrator, I want to assign rights to user groups or roles, so that I can control what users can and can't do.",0.9999473094940186,security
18,"As a member, I want to have the system email me a new password or a password reminder since i have short-term memory problems.",0.9999545812606812,security
19,"As an institutional data manager, I want to know about the privacy and security requirements of the data, so that I can plan the right storage system and sharing permissions.",0.9999474287033081,security
20,"As a research facility manager, I want to deposit data from my facility directly into the archive on behalf of researchers, so that I am no longer required to maintain my own archive of facility data and researchers can access their own data as needed. ",0.9999545812606812,security
21,"As a Director of Research Integrity, I want to access reports containing details of research projects in which data are classified as sensitive or highly sensitive, so that I can confirm security protocols are applied to these data.",0.9999387264251709,security
22,"As a collection curator, I want to be able require authentication to access objects unless the request is coming from a whitelisted IP address, list of addresses (like the Special Collections Reading Room, or range.",0.9999545812606812,security
23,"As a User, I want to authenticate locally.",0.9999545812606812,security
24,"As a site editor, I want to be able to indicate whether an article is publicly available or for members only, so that visitors are incentivized to become members.",0.9999545812606812,security
25,"As a library staff member, I want to upload material to the repository on the author's behalf, so that I can fulfill a service obligation.",0.9999545812606812,security
26,"As an administrator, I want to check that all data has the appropriate security level, so that I can demonstrate compliance.",0.9997842907905579,security
27,"As a collection curator, I want to restrict access to my collection or items to Duke IP addresses.",0.9999545812606812,security
28,"As a researcher,  I want to have the ability to restrict the data I share to certain researchers or groups of researchers.",0.9999545812606812,security
29,"As a DB/IR administrator, I want to set up or delete accounts for other administrators with various levels of permission.",0.9997053742408752,security
30,"As a superuser, I should be able to enter and exit the superuser scope.",0.9993478655815125,security
31,"As an Application Administrator, I want to assign Users to an Advanced Data Entry and ensure that the appropriate permissions are enforced.",0.9999545812606812,security
32,"As an OlderPerson, I want to decide who has access to my vital data. ",0.9997116923332214,security
33,"As an archivist, I want to add detailed restrictions to groups of files, so that I know if and how they can be shared.",0.9998986721038818,security
34,"As a DB/IR administrator, I want to have a personal account with the ability to change passwords to make them more secure or to retrieve forgotten ones.",0.9999545812606812,security
35,"As a Platform Administrator, I want to be able to Hide any dataset already added as Public, So that I can maintain Public/Hidden status for other users.",0.9998908042907715,security
36,"As lab administrator, I want to have increased access to the system to support regular users. ",0.9999545812606812,security
37,"As a user, I want to have my personal information kept securely in the database of the website, so that I will not suffer from identity theft or telephone harassment.",0.9999545812606812,security
38,"As a Customer, I want to Create a Customer Portal User Account, so that I can log on to the Customer Portal and perform transactions that first require user authentication.",0.9999545812606812,security
39,"As an archivist, I want to restrict access to some files by IP address, so that I can give reading room access only to certain digital files.",0.9999545812606812,security
40,"As a user,  I want to have the ability to keep my data private on the system, and only share data that I deem should be shared.",0.9999545812606812,security
41,"As a repository manager, I want to know all the collections for which I have curatorial responsibility. ",0.9999451637268066,security
42,"As an administrator, I want to have researchers reset their own passwords, so that I don't have to send passwords in cleartext.",0.9997850060462952,security
43,"As an archivist, I want to mark individual files as restricted, so that they don't get shared by mistake.",0.9999545812606812,security
44,"As a authenticateduser, I want to Enter payment information and have my card charged for an individual sponsorship, so that I can pay for an individual sponsorship.",0.9999229907989502,security
45,"As an admin, I want to be able to block specific users based on IP address, so that I can prevent spamming on the websites.",0.9999545812606812,security
46,"As an admin, I want to have all data encrypted, so that important information will not be stolen during a server breach or an attack.",0.9998313188552856,security
47,"As a DB/IR administrator, I want to administrate patron accounts for purpose of closing accounts, viewing subscriptions, changing subscriptions, resetting passwords, changing email address, etc.",0.9999377727508545,security
48,"As a collection curator, I want users to be able to contact me directly from the repository to request access to restricted objects.",0.9999545812606812,security
49,"As a site member, I want to mark my email address as private even if the rest of my profile is not, so that no one can contact me.",0.9998950958251953,security
50,"As a parent, I want to be able to create an account, so that I can sign up my kids for camp online.",0.9995903372764587,security
51,"As a faculty member, I want to go to my repository dashboard to manage members of my classes. I want to be able to grant submit permissions by pasting in a list of NetIDs, see confirmation that DDR recognizes the NetIDs, ability to manually remove permissions, ability to set begin and end dates for a submission window, and a have a status screen to clearly illustrate who has and hasn't submitted.",0.9999545812606812,security
52,"As a collection curator, I want to allow some collections the option of setting an embargo date (e.g. 2017-01-01)at deposit. Item metadata should be discoverable until that date. Once the embargo date is reached, the embargo should be lifted and access to the item should be allowed under the access permissions set on the object.",0.9999545812606812,security
53,"As a Cornell faculty member, I want to login remotely to the repository using Shibboleth, so that I can get remote access to Cornell campus-only content.",0.9999545812606812,security
54,"As the Digital Records Archivist, I want to be able to grant embargo privileges to other repository administrators.",0.9999545812606812,security
55,"As a user, I want to be able to create an account, so that I can create my own profile.",0.9998295307159424,security
56,As a collection curator I want to be able to change permissions on one or more items simultaneously.,0.9997761845588684,security
57,"As an archivist, I want to restrict access to certain files by user, so that I can allow donor representatives to see certain files.",0.9999470710754395,security
58,"As a Publisher, I want to have private data packages, so that I can share just with my team.",0.9997931122779846,security
59,"As repository manager, I'd like to be able to view authenticated, active users and anonymous users.",0.999772846698761,security
60,"As a MedicalCaregiver, I want to be sure that the user can decide who has access to her data. ",0.9998146891593933,security
61,"As User, I want to be able to log in.",0.9999055862426758,security
62,"As an administrator, I want to create user groups, so that I can control user permissions.",0.9999545812606812,security
63,"As a Researcher, I want results to be stored in a non-identifiable way, so that I can study the data to see things like whether estimates converged around the first opinion given by ""estimator A"" for example.",0.9999545812606812,security
64,"As a non-Duke researcher, I and my team need to describe our objects in the repository after they've been deposited if we've been assigned permission to edit metadata.",0.999798595905304,security
65,"As an UnivITservice, I want to integrate the archive with existing university systems such as LDAP, so that the cost of administering the system can be kept low.",0.9999545812606812,security
66,"As a User , I want to authenticate using LDAP.",0.9999545812606812,security
67,"As a fundingbody, I want to be reassured that researchers I fund have robust archival plans for their data, so that I can be sure that funding them is a worthwhile investment.",0.9997299313545227,security
68,"As a moderator, I want to create an account for the application by entering my name, email address, a password and a username, so that I can start using the application.",0.9996960163116455,security
69,"As a CST, I want to pay an annual fee, so that my CST status is active.",0.9999256134033203,security
