,eval,epoch
0,"{'QA': {'tp': 0.0, 'fp': 1e-08, 'fn': 46.00000001, 'tn': 126.0, 'tot': 46.00000001, 'eval': {'textcat_p': 0.0, 'textcat_r': 0.0, 'textcat_f': 0}}, 'eval_global': {'textcat_p': 0.0, 'textcat_r': 0.0, 'textcat_f': 0}}",0
1,"{'QA': {'tp': 0.0, 'fp': 1e-08, 'fn': 46.00000001, 'tn': 126.0, 'tot': 46.00000001, 'eval': {'textcat_p': 0.0, 'textcat_r': 0.0, 'textcat_f': 0}}, 'eval_global': {'textcat_p': 0.0, 'textcat_r': 0.0, 'textcat_f': 0}}",1
2,"{'QA': {'tp': 8.0, 'fp': 2.00000001, 'fn': 38.00000001, 'tn': 124.0, 'tot': 46.00000001, 'eval': {'textcat_p': 0.7999999992, 'textcat_r': 0.1739130434404537, 'textcat_f': 0.28571428561224493}}, 'eval_global': {'textcat_p': 0.7999999992, 'textcat_r': 0.1739130434404537, 'textcat_f': 0.28571428561224493}}",2
3,"{'QA': {'tp': 10.0, 'fp': 3.00000001, 'fn': 36.00000001, 'tn': 123.0, 'tot': 46.00000001, 'eval': {'textcat_p': 0.7692307686390532, 'textcat_r': 0.2173913043005671, 'textcat_f': 0.3389830507325481}}, 'eval_global': {'textcat_p': 0.7692307686390532, 'textcat_r': 0.2173913043005671, 'textcat_f': 0.3389830507325481}}",3
4,"{'QA': {'tp': 10.0, 'fp': 3.00000001, 'fn': 36.00000001, 'tn': 123.0, 'tot': 46.00000001, 'eval': {'textcat_p': 0.7692307686390532, 'textcat_r': 0.2173913043005671, 'textcat_f': 0.3389830507325481}}, 'eval_global': {'textcat_p': 0.7692307686390532, 'textcat_r': 0.2173913043005671, 'textcat_f': 0.3389830507325481}}",4
5,"{'QA': {'tp': 12.0, 'fp': 5.00000001, 'fn': 34.00000001, 'tn': 121.0, 'tot': 46.00000001, 'eval': {'textcat_p': 0.7058823525259516, 'textcat_r': 0.26086956516068055, 'textcat_f': 0.38095238083144367}}, 'eval_global': {'textcat_p': 0.7058823525259516, 'textcat_r': 0.26086956516068055, 'textcat_f': 0.38095238083144367}}",5
6,"{'QA': {'tp': 11.0, 'fp': 5.00000001, 'fn': 35.00000001, 'tn': 121.0, 'tot': 46.00000001, 'eval': {'textcat_p': 0.6874999995703125, 'textcat_r': 0.23913043473062381, 'textcat_f': 0.35483870956295527}}, 'eval_global': {'textcat_p': 0.6874999995703125, 'textcat_r': 0.23913043473062381, 'textcat_f': 0.35483870956295527}}",6
7,"{'QA': {'tp': 12.0, 'fp': 11.00000001, 'fn': 34.00000001, 'tn': 115.0, 'tot': 46.00000001, 'eval': {'textcat_p': 0.5217391302079395, 'textcat_r': 0.26086956516068055, 'textcat_f': 0.3478260868557026}}, 'eval_global': {'textcat_p': 0.5217391302079395, 'textcat_r': 0.26086956516068055, 'textcat_f': 0.3478260868557026}}",7
8,"{'QA': {'tp': 11.0, 'fp': 12.00000001, 'fn': 35.00000001, 'tn': 114.0, 'tot': 46.00000001, 'eval': {'textcat_p': 0.47826086935727785, 'textcat_r': 0.23913043473062381, 'textcat_f': 0.3188405796177274}}, 'eval_global': {'textcat_p': 0.47826086935727785, 'textcat_r': 0.23913043473062381, 'textcat_f': 0.3188405796177274}}",8
9,"{'QA': {'tp': 10.0, 'fp': 12.00000001, 'fn': 36.00000001, 'tn': 114.0, 'tot': 46.00000001, 'eval': {'textcat_p': 0.45454545433884297, 'textcat_r': 0.2173913043005671, 'textcat_f': 0.29411764697231835}}, 'eval_global': {'textcat_p': 0.45454545433884297, 'textcat_r': 0.2173913043005671, 'textcat_f': 0.29411764697231835}}",9
10,"{'QA': {'tp': 10.0, 'fp': 14.00000001, 'fn': 36.00000001, 'tn': 112.0, 'tot': 46.00000001, 'eval': {'textcat_p': 0.41666666649305556, 'textcat_r': 0.2173913043005671, 'textcat_f': 0.28571428563265305}}, 'eval_global': {'textcat_p': 0.41666666649305556, 'textcat_r': 0.2173913043005671, 'textcat_f': 0.28571428563265305}}",10
11,"{'QA': {'tp': 11.0, 'fp': 14.00000001, 'fn': 35.00000001, 'tn': 112.0, 'tot': 46.00000001, 'eval': {'textcat_p': 0.439999999824, 'textcat_r': 0.23913043473062381, 'textcat_f': 0.3098591548422932}}, 'eval_global': {'textcat_p': 0.439999999824, 'textcat_r': 0.23913043473062381, 'textcat_f': 0.3098591548422932}}",11
12,"{'QA': {'tp': 13.0, 'fp': 15.00000001, 'fn': 33.00000001, 'tn': 111.0, 'tot': 46.00000001, 'eval': {'textcat_p': 0.46428571411989794, 'textcat_r': 0.28260869559073726, 'textcat_f': 0.35135135125639155}}, 'eval_global': {'textcat_p': 0.46428571411989794, 'textcat_r': 0.28260869559073726, 'textcat_f': 0.35135135125639155}}",12
13,"{'QA': {'tp': 15.0, 'fp': 16.00000001, 'fn': 31.00000001, 'tn': 110.0, 'tot': 46.00000001, 'eval': {'textcat_p': 0.4838709675858481, 'textcat_r': 0.3260869564508507, 'textcat_f': 0.38961038950919213}}, 'eval_global': {'textcat_p': 0.4838709675858481, 'textcat_r': 0.3260869564508507, 'textcat_f': 0.38961038950919213}}",13
14,"{'QA': {'tp': 17.0, 'fp': 13.00000001, 'fn': 29.00000001, 'tn': 113.0, 'tot': 46.00000001, 'eval': {'textcat_p': 0.5666666664777777, 'textcat_r': 0.3695652173109641, 'textcat_f': 0.44736842093490303}}, 'eval_global': {'textcat_p': 0.5666666664777777, 'textcat_r': 0.3695652173109641, 'textcat_f': 0.44736842093490303}}",14
15,"{'QA': {'tp': 18.0, 'fp': 15.00000001, 'fn': 28.00000001, 'tn': 111.0, 'tot': 46.00000001, 'eval': {'textcat_p': 0.5454545452892562, 'textcat_r': 0.3913043477410208, 'textcat_f': 0.4556962024162794}}, 'eval_global': {'textcat_p': 0.5454545452892562, 'textcat_r': 0.3913043477410208, 'textcat_f': 0.4556962024162794}}",15
16,"{'QA': {'tp': 20.0, 'fp': 14.00000001, 'fn': 26.00000001, 'tn': 112.0, 'tot': 46.00000001, 'eval': {'textcat_p': 0.5882352939446367, 'textcat_r': 0.4347826086011342, 'textcat_f': 0.4999999998750001}}, 'eval_global': {'textcat_p': 0.5882352939446367, 'textcat_r': 0.4347826086011342, 'textcat_f': 0.4999999998750001}}",16
17,"{'QA': {'tp': 20.0, 'fp': 14.00000001, 'fn': 26.00000001, 'tn': 112.0, 'tot': 46.00000001, 'eval': {'textcat_p': 0.5882352939446367, 'textcat_r': 0.4347826086011342, 'textcat_f': 0.4999999998750001}}, 'eval_global': {'textcat_p': 0.5882352939446367, 'textcat_r': 0.4347826086011342, 'textcat_f': 0.4999999998750001}}",17
18,"{'QA': {'tp': 21.0, 'fp': 15.00000001, 'fn': 25.00000001, 'tn': 111.0, 'tot': 46.00000001, 'eval': {'textcat_p': 0.5833333331712963, 'textcat_r': 0.4565217390311909, 'textcat_f': 0.5121951218262939}}, 'eval_global': {'textcat_p': 0.5833333331712963, 'textcat_r': 0.4565217390311909, 'textcat_f': 0.5121951218262939}}",18
19,"{'QA': {'tp': 21.0, 'fp': 15.00000001, 'fn': 25.00000001, 'tn': 111.0, 'tot': 46.00000001, 'eval': {'textcat_p': 0.5833333331712963, 'textcat_r': 0.4565217390311909, 'textcat_f': 0.5121951218262939}}, 'eval_global': {'textcat_p': 0.5833333331712963, 'textcat_r': 0.4565217390311909, 'textcat_f': 0.5121951218262939}}",19
20,"{'QA': {'tp': 21.0, 'fp': 14.00000001, 'fn': 25.00000001, 'tn': 112.0, 'tot': 46.00000001, 'eval': {'textcat_p': 0.5999999998285714, 'textcat_r': 0.4565217390311909, 'textcat_f': 0.5185185183904892}}, 'eval_global': {'textcat_p': 0.5999999998285714, 'textcat_r': 0.4565217390311909, 'textcat_f': 0.5185185183904892}}",20
21,"{'QA': {'tp': 21.0, 'fp': 14.00000001, 'fn': 25.00000001, 'tn': 112.0, 'tot': 46.00000001, 'eval': {'textcat_p': 0.5999999998285714, 'textcat_r': 0.4565217390311909, 'textcat_f': 0.5185185183904892}}, 'eval_global': {'textcat_p': 0.5999999998285714, 'textcat_r': 0.4565217390311909, 'textcat_f': 0.5185185183904892}}",21
22,"{'QA': {'tp': 21.0, 'fp': 14.00000001, 'fn': 25.00000001, 'tn': 112.0, 'tot': 46.00000001, 'eval': {'textcat_p': 0.5999999998285714, 'textcat_r': 0.4565217390311909, 'textcat_f': 0.5185185183904892}}, 'eval_global': {'textcat_p': 0.5999999998285714, 'textcat_r': 0.4565217390311909, 'textcat_f': 0.5185185183904892}}",22
23,"{'QA': {'tp': 21.0, 'fp': 15.00000001, 'fn': 25.00000001, 'tn': 111.0, 'tot': 46.00000001, 'eval': {'textcat_p': 0.5833333331712963, 'textcat_r': 0.4565217390311909, 'textcat_f': 0.5121951218262939}}, 'eval_global': {'textcat_p': 0.5833333331712963, 'textcat_r': 0.4565217390311909, 'textcat_f': 0.5121951218262939}}",23
24,"{'QA': {'tp': 21.0, 'fp': 13.00000001, 'fn': 25.00000001, 'tn': 113.0, 'tot': 46.00000001, 'eval': {'textcat_p': 0.6176470586418685, 'textcat_r': 0.4565217390311909, 'textcat_f': 0.5249999998687501}}, 'eval_global': {'textcat_p': 0.6176470586418685, 'textcat_r': 0.4565217390311909, 'textcat_f': 0.5249999998687501}}",24
25,"{'QA': {'tp': 22.0, 'fp': 14.00000001, 'fn': 24.00000001, 'tn': 112.0, 'tot': 46.00000001, 'eval': {'textcat_p': 0.6111111109413581, 'textcat_r': 0.47826086946124763, 'textcat_f': 0.536585365722784}}, 'eval_global': {'textcat_p': 0.6111111109413581, 'textcat_r': 0.47826086946124763, 'textcat_f': 0.536585365722784}}",25
26,"{'QA': {'tp': 22.0, 'fp': 14.00000001, 'fn': 24.00000001, 'tn': 112.0, 'tot': 46.00000001, 'eval': {'textcat_p': 0.6111111109413581, 'textcat_r': 0.47826086946124763, 'textcat_f': 0.536585365722784}}, 'eval_global': {'textcat_p': 0.6111111109413581, 'textcat_r': 0.47826086946124763, 'textcat_f': 0.536585365722784}}",26
27,"{'QA': {'tp': 23.0, 'fp': 14.00000001, 'fn': 23.00000001, 'tn': 112.0, 'tot': 46.00000001, 'eval': {'textcat_p': 0.6216216214536158, 'textcat_r': 0.49999999989130434, 'textcat_f': 0.5542168673363332}}, 'eval_global': {'textcat_p': 0.6216216214536158, 'textcat_r': 0.49999999989130434, 'textcat_f': 0.5542168673363332}}",27
28,"{'QA': {'tp': 22.0, 'fp': 14.00000001, 'fn': 24.00000001, 'tn': 112.0, 'tot': 46.00000001, 'eval': {'textcat_p': 0.6111111109413581, 'textcat_r': 0.47826086946124763, 'textcat_f': 0.536585365722784}}, 'eval_global': {'textcat_p': 0.6111111109413581, 'textcat_r': 0.47826086946124763, 'textcat_f': 0.536585365722784}}",28
29,"{'QA': {'tp': 21.0, 'fp': 15.00000001, 'fn': 25.00000001, 'tn': 111.0, 'tot': 46.00000001, 'eval': {'textcat_p': 0.5833333331712963, 'textcat_r': 0.4565217390311909, 'textcat_f': 0.5121951218262939}}, 'eval_global': {'textcat_p': 0.5833333331712963, 'textcat_r': 0.4565217390311909, 'textcat_f': 0.5121951218262939}}",29
30,"{'QA': {'tp': 21.0, 'fp': 16.00000001, 'fn': 25.00000001, 'tn': 110.0, 'tot': 46.00000001, 'eval': {'textcat_p': 0.5675675674141709, 'textcat_r': 0.4565217390311909, 'textcat_f': 0.5060240962636087}}, 'eval_global': {'textcat_p': 0.5675675674141709, 'textcat_r': 0.4565217390311909, 'textcat_f': 0.5060240962636087}}",30
31,"{'QA': {'tp': 22.0, 'fp': 14.00000001, 'fn': 24.00000001, 'tn': 112.0, 'tot': 46.00000001, 'eval': {'textcat_p': 0.6111111109413581, 'textcat_r': 0.47826086946124763, 'textcat_f': 0.536585365722784}}, 'eval_global': {'textcat_p': 0.6111111109413581, 'textcat_r': 0.47826086946124763, 'textcat_f': 0.536585365722784}}",31
32,"{'QA': {'tp': 22.0, 'fp': 14.00000001, 'fn': 24.00000001, 'tn': 112.0, 'tot': 46.00000001, 'eval': {'textcat_p': 0.6111111109413581, 'textcat_r': 0.47826086946124763, 'textcat_f': 0.536585365722784}}, 'eval_global': {'textcat_p': 0.6111111109413581, 'textcat_r': 0.47826086946124763, 'textcat_f': 0.536585365722784}}",32
33,"{'QA': {'tp': 21.0, 'fp': 15.00000001, 'fn': 25.00000001, 'tn': 111.0, 'tot': 46.00000001, 'eval': {'textcat_p': 0.5833333331712963, 'textcat_r': 0.4565217390311909, 'textcat_f': 0.5121951218262939}}, 'eval_global': {'textcat_p': 0.5833333331712963, 'textcat_r': 0.4565217390311909, 'textcat_f': 0.5121951218262939}}",33
34,"{'QA': {'tp': 20.0, 'fp': 14.00000001, 'fn': 26.00000001, 'tn': 112.0, 'tot': 46.00000001, 'eval': {'textcat_p': 0.5882352939446367, 'textcat_r': 0.4347826086011342, 'textcat_f': 0.4999999998750001}}, 'eval_global': {'textcat_p': 0.5882352939446367, 'textcat_r': 0.4347826086011342, 'textcat_f': 0.4999999998750001}}",34
35,"{'QA': {'tp': 21.0, 'fp': 13.00000001, 'fn': 25.00000001, 'tn': 113.0, 'tot': 46.00000001, 'eval': {'textcat_p': 0.6176470586418685, 'textcat_r': 0.4565217390311909, 'textcat_f': 0.5249999998687501}}, 'eval_global': {'textcat_p': 0.6176470586418685, 'textcat_r': 0.4565217390311909, 'textcat_f': 0.5249999998687501}}",35
36,"{'QA': {'tp': 22.0, 'fp': 12.00000001, 'fn': 24.00000001, 'tn': 114.0, 'tot': 46.00000001, 'eval': {'textcat_p': 0.6470588233391004, 'textcat_r': 0.47826086946124763, 'textcat_f': 0.5499999998625}}, 'eval_global': {'textcat_p': 0.6470588233391004, 'textcat_r': 0.47826086946124763, 'textcat_f': 0.5499999998625}}",36
37,"{'QA': {'tp': 22.0, 'fp': 12.00000001, 'fn': 24.00000001, 'tn': 114.0, 'tot': 46.00000001, 'eval': {'textcat_p': 0.6470588233391004, 'textcat_r': 0.47826086946124763, 'textcat_f': 0.5499999998625}}, 'eval_global': {'textcat_p': 0.6470588233391004, 'textcat_r': 0.47826086946124763, 'textcat_f': 0.5499999998625}}",37
38,"{'QA': {'tp': 22.0, 'fp': 12.00000001, 'fn': 24.00000001, 'tn': 114.0, 'tot': 46.00000001, 'eval': {'textcat_p': 0.6470588233391004, 'textcat_r': 0.47826086946124763, 'textcat_f': 0.5499999998625}}, 'eval_global': {'textcat_p': 0.6470588233391004, 'textcat_r': 0.47826086946124763, 'textcat_f': 0.5499999998625}}",38
39,"{'QA': {'tp': 22.0, 'fp': 13.00000001, 'fn': 24.00000001, 'tn': 113.0, 'tot': 46.00000001, 'eval': {'textcat_p': 0.6285714283918368, 'textcat_r': 0.47826086946124763, 'textcat_f': 0.543209876409084}}, 'eval_global': {'textcat_p': 0.6285714283918368, 'textcat_r': 0.47826086946124763, 'textcat_f': 0.543209876409084}}",39
40,"{'QA': {'tp': 22.0, 'fp': 13.00000001, 'fn': 24.00000001, 'tn': 113.0, 'tot': 46.00000001, 'eval': {'textcat_p': 0.6285714283918368, 'textcat_r': 0.47826086946124763, 'textcat_f': 0.543209876409084}}, 'eval_global': {'textcat_p': 0.6285714283918368, 'textcat_r': 0.47826086946124763, 'textcat_f': 0.543209876409084}}",40
41,"{'QA': {'tp': 22.0, 'fp': 14.00000001, 'fn': 24.00000001, 'tn': 112.0, 'tot': 46.00000001, 'eval': {'textcat_p': 0.6111111109413581, 'textcat_r': 0.47826086946124763, 'textcat_f': 0.536585365722784}}, 'eval_global': {'textcat_p': 0.6111111109413581, 'textcat_r': 0.47826086946124763, 'textcat_f': 0.536585365722784}}",41
42,"{'QA': {'tp': 22.0, 'fp': 14.00000001, 'fn': 24.00000001, 'tn': 112.0, 'tot': 46.00000001, 'eval': {'textcat_p': 0.6111111109413581, 'textcat_r': 0.47826086946124763, 'textcat_f': 0.536585365722784}}, 'eval_global': {'textcat_p': 0.6111111109413581, 'textcat_r': 0.47826086946124763, 'textcat_f': 0.536585365722784}}",42
43,"{'QA': {'tp': 22.0, 'fp': 15.00000001, 'fn': 24.00000001, 'tn': 111.0, 'tot': 46.00000001, 'eval': {'textcat_p': 0.5945945944338933, 'textcat_r': 0.47826086946124763, 'textcat_f': 0.530120481799971}}, 'eval_global': {'textcat_p': 0.5945945944338933, 'textcat_r': 0.47826086946124763, 'textcat_f': 0.530120481799971}}",43
44,"{'QA': {'tp': 22.0, 'fp': 15.00000001, 'fn': 24.00000001, 'tn': 111.0, 'tot': 46.00000001, 'eval': {'textcat_p': 0.5945945944338933, 'textcat_r': 0.47826086946124763, 'textcat_f': 0.530120481799971}}, 'eval_global': {'textcat_p': 0.5945945944338933, 'textcat_r': 0.47826086946124763, 'textcat_f': 0.530120481799971}}",44
45,"{'QA': {'tp': 22.0, 'fp': 14.00000001, 'fn': 24.00000001, 'tn': 112.0, 'tot': 46.00000001, 'eval': {'textcat_p': 0.6111111109413581, 'textcat_r': 0.47826086946124763, 'textcat_f': 0.536585365722784}}, 'eval_global': {'textcat_p': 0.6111111109413581, 'textcat_r': 0.47826086946124763, 'textcat_f': 0.536585365722784}}",45
46,"{'QA': {'tp': 22.0, 'fp': 14.00000001, 'fn': 24.00000001, 'tn': 112.0, 'tot': 46.00000001, 'eval': {'textcat_p': 0.6111111109413581, 'textcat_r': 0.47826086946124763, 'textcat_f': 0.536585365722784}}, 'eval_global': {'textcat_p': 0.6111111109413581, 'textcat_r': 0.47826086946124763, 'textcat_f': 0.536585365722784}}",46
47,"{'QA': {'tp': 22.0, 'fp': 14.00000001, 'fn': 24.00000001, 'tn': 112.0, 'tot': 46.00000001, 'eval': {'textcat_p': 0.6111111109413581, 'textcat_r': 0.47826086946124763, 'textcat_f': 0.536585365722784}}, 'eval_global': {'textcat_p': 0.6111111109413581, 'textcat_r': 0.47826086946124763, 'textcat_f': 0.536585365722784}}",47
48,"{'QA': {'tp': 21.0, 'fp': 15.00000001, 'fn': 25.00000001, 'tn': 111.0, 'tot': 46.00000001, 'eval': {'textcat_p': 0.5833333331712963, 'textcat_r': 0.4565217390311909, 'textcat_f': 0.5121951218262939}}, 'eval_global': {'textcat_p': 0.5833333331712963, 'textcat_r': 0.4565217390311909, 'textcat_f': 0.5121951218262939}}",48
49,"{'QA': {'tp': 21.0, 'fp': 14.00000001, 'fn': 25.00000001, 'tn': 112.0, 'tot': 46.00000001, 'eval': {'textcat_p': 0.5999999998285714, 'textcat_r': 0.4565217390311909, 'textcat_f': 0.5185185183904892}}, 'eval_global': {'textcat_p': 0.5999999998285714, 'textcat_r': 0.4565217390311909, 'textcat_f': 0.5185185183904892}}",49
50,"{'QA': {'tp': 21.0, 'fp': 14.00000001, 'fn': 25.00000001, 'tn': 112.0, 'tot': 46.00000001, 'eval': {'textcat_p': 0.5999999998285714, 'textcat_r': 0.4565217390311909, 'textcat_f': 0.5185185183904892}}, 'eval_global': {'textcat_p': 0.5999999998285714, 'textcat_r': 0.4565217390311909, 'textcat_f': 0.5185185183904892}}",50
51,"{'QA': {'tp': 20.0, 'fp': 14.00000001, 'fn': 26.00000001, 'tn': 112.0, 'tot': 46.00000001, 'eval': {'textcat_p': 0.5882352939446367, 'textcat_r': 0.4347826086011342, 'textcat_f': 0.4999999998750001}}, 'eval_global': {'textcat_p': 0.5882352939446367, 'textcat_r': 0.4347826086011342, 'textcat_f': 0.4999999998750001}}",51
52,"{'QA': {'tp': 20.0, 'fp': 14.00000001, 'fn': 26.00000001, 'tn': 112.0, 'tot': 46.00000001, 'eval': {'textcat_p': 0.5882352939446367, 'textcat_r': 0.4347826086011342, 'textcat_f': 0.4999999998750001}}, 'eval_global': {'textcat_p': 0.5882352939446367, 'textcat_r': 0.4347826086011342, 'textcat_f': 0.4999999998750001}}",52
53,"{'QA': {'tp': 20.0, 'fp': 14.00000001, 'fn': 26.00000001, 'tn': 112.0, 'tot': 46.00000001, 'eval': {'textcat_p': 0.5882352939446367, 'textcat_r': 0.4347826086011342, 'textcat_f': 0.4999999998750001}}, 'eval_global': {'textcat_p': 0.5882352939446367, 'textcat_r': 0.4347826086011342, 'textcat_f': 0.4999999998750001}}",53
54,"{'QA': {'tp': 20.0, 'fp': 14.00000001, 'fn': 26.00000001, 'tn': 112.0, 'tot': 46.00000001, 'eval': {'textcat_p': 0.5882352939446367, 'textcat_r': 0.4347826086011342, 'textcat_f': 0.4999999998750001}}, 'eval_global': {'textcat_p': 0.5882352939446367, 'textcat_r': 0.4347826086011342, 'textcat_f': 0.4999999998750001}}",54
55,"{'QA': {'tp': 20.0, 'fp': 14.00000001, 'fn': 26.00000001, 'tn': 112.0, 'tot': 46.00000001, 'eval': {'textcat_p': 0.5882352939446367, 'textcat_r': 0.4347826086011342, 'textcat_f': 0.4999999998750001}}, 'eval_global': {'textcat_p': 0.5882352939446367, 'textcat_r': 0.4347826086011342, 'textcat_f': 0.4999999998750001}}",55
56,"{'QA': {'tp': 20.0, 'fp': 15.00000001, 'fn': 26.00000001, 'tn': 111.0, 'tot': 46.00000001, 'eval': {'textcat_p': 0.5714285712653061, 'textcat_r': 0.4347826086011342, 'textcat_f': 0.4938271603718945}}, 'eval_global': {'textcat_p': 0.5714285712653061, 'textcat_r': 0.4347826086011342, 'textcat_f': 0.4938271603718945}}",56
57,"{'QA': {'tp': 20.0, 'fp': 15.00000001, 'fn': 26.00000001, 'tn': 111.0, 'tot': 46.00000001, 'eval': {'textcat_p': 0.5714285712653061, 'textcat_r': 0.4347826086011342, 'textcat_f': 0.4938271603718945}}, 'eval_global': {'textcat_p': 0.5714285712653061, 'textcat_r': 0.4347826086011342, 'textcat_f': 0.4938271603718945}}",57
58,"{'QA': {'tp': 20.0, 'fp': 16.00000001, 'fn': 26.00000001, 'tn': 110.0, 'tot': 46.00000001, 'eval': {'textcat_p': 0.5555555554012346, 'textcat_r': 0.4347826086011342, 'textcat_f': 0.4878048779298037}}, 'eval_global': {'textcat_p': 0.5555555554012346, 'textcat_r': 0.4347826086011342, 'textcat_f': 0.4878048779298037}}",58
59,"{'QA': {'tp': 20.0, 'fp': 15.00000001, 'fn': 26.00000001, 'tn': 111.0, 'tot': 46.00000001, 'eval': {'textcat_p': 0.5714285712653061, 'textcat_r': 0.4347826086011342, 'textcat_f': 0.4938271603718945}}, 'eval_global': {'textcat_p': 0.5714285712653061, 'textcat_r': 0.4347826086011342, 'textcat_f': 0.4938271603718945}}",59
60,"{'QA': {'tp': 20.0, 'fp': 14.00000001, 'fn': 26.00000001, 'tn': 112.0, 'tot': 46.00000001, 'eval': {'textcat_p': 0.5882352939446367, 'textcat_r': 0.4347826086011342, 'textcat_f': 0.4999999998750001}}, 'eval_global': {'textcat_p': 0.5882352939446367, 'textcat_r': 0.4347826086011342, 'textcat_f': 0.4999999998750001}}",60
61,"{'QA': {'tp': 20.0, 'fp': 14.00000001, 'fn': 26.00000001, 'tn': 112.0, 'tot': 46.00000001, 'eval': {'textcat_p': 0.5882352939446367, 'textcat_r': 0.4347826086011342, 'textcat_f': 0.4999999998750001}}, 'eval_global': {'textcat_p': 0.5882352939446367, 'textcat_r': 0.4347826086011342, 'textcat_f': 0.4999999998750001}}",61
62,"{'QA': {'tp': 20.0, 'fp': 15.00000001, 'fn': 26.00000001, 'tn': 111.0, 'tot': 46.00000001, 'eval': {'textcat_p': 0.5714285712653061, 'textcat_r': 0.4347826086011342, 'textcat_f': 0.4938271603718945}}, 'eval_global': {'textcat_p': 0.5714285712653061, 'textcat_r': 0.4347826086011342, 'textcat_f': 0.4938271603718945}}",62
63,"{'QA': {'tp': 20.0, 'fp': 14.00000001, 'fn': 26.00000001, 'tn': 112.0, 'tot': 46.00000001, 'eval': {'textcat_p': 0.5882352939446367, 'textcat_r': 0.4347826086011342, 'textcat_f': 0.4999999998750001}}, 'eval_global': {'textcat_p': 0.5882352939446367, 'textcat_r': 0.4347826086011342, 'textcat_f': 0.4999999998750001}}",63
64,"{'QA': {'tp': 20.0, 'fp': 13.00000001, 'fn': 26.00000001, 'tn': 113.0, 'tot': 46.00000001, 'eval': {'textcat_p': 0.6060606058769513, 'textcat_r': 0.4347826086011342, 'textcat_f': 0.5063291137958661}}, 'eval_global': {'textcat_p': 0.6060606058769513, 'textcat_r': 0.4347826086011342, 'textcat_f': 0.5063291137958661}}",64
65,"{'QA': {'tp': 20.0, 'fp': 12.00000001, 'fn': 26.00000001, 'tn': 114.0, 'tot': 46.00000001, 'eval': {'textcat_p': 0.6249999998046875, 'textcat_r': 0.4347826086011342, 'textcat_f': 0.5128205126890203}}, 'eval_global': {'textcat_p': 0.6249999998046875, 'textcat_r': 0.4347826086011342, 'textcat_f': 0.5128205126890203}}",65
66,"{'QA': {'tp': 20.0, 'fp': 13.00000001, 'fn': 26.00000001, 'tn': 113.0, 'tot': 46.00000001, 'eval': {'textcat_p': 0.6060606058769513, 'textcat_r': 0.4347826086011342, 'textcat_f': 0.5063291137958661}}, 'eval_global': {'textcat_p': 0.6060606058769513, 'textcat_r': 0.4347826086011342, 'textcat_f': 0.5063291137958661}}",66
67,"{'QA': {'tp': 21.0, 'fp': 13.00000001, 'fn': 25.00000001, 'tn': 113.0, 'tot': 46.00000001, 'eval': {'textcat_p': 0.6176470586418685, 'textcat_r': 0.4565217390311909, 'textcat_f': 0.5249999998687501}}, 'eval_global': {'textcat_p': 0.6176470586418685, 'textcat_r': 0.4565217390311909, 'textcat_f': 0.5249999998687501}}",67
68,"{'QA': {'tp': 20.0, 'fp': 14.00000001, 'fn': 26.00000001, 'tn': 112.0, 'tot': 46.00000001, 'eval': {'textcat_p': 0.5882352939446367, 'textcat_r': 0.4347826086011342, 'textcat_f': 0.4999999998750001}}, 'eval_global': {'textcat_p': 0.5882352939446367, 'textcat_r': 0.4347826086011342, 'textcat_f': 0.4999999998750001}}",68
69,"{'QA': {'tp': 20.0, 'fp': 14.00000001, 'fn': 26.00000001, 'tn': 112.0, 'tot': 46.00000001, 'eval': {'textcat_p': 0.5882352939446367, 'textcat_r': 0.4347826086011342, 'textcat_f': 0.4999999998750001}}, 'eval_global': {'textcat_p': 0.5882352939446367, 'textcat_r': 0.4347826086011342, 'textcat_f': 0.4999999998750001}}",69
70,"{'QA': {'tp': 20.0, 'fp': 14.00000001, 'fn': 26.00000001, 'tn': 112.0, 'tot': 46.00000001, 'eval': {'textcat_p': 0.5882352939446367, 'textcat_r': 0.4347826086011342, 'textcat_f': 0.4999999998750001}}, 'eval_global': {'textcat_p': 0.5882352939446367, 'textcat_r': 0.4347826086011342, 'textcat_f': 0.4999999998750001}}",70
71,"{'QA': {'tp': 18.0, 'fp': 13.00000001, 'fn': 28.00000001, 'tn': 113.0, 'tot': 46.00000001, 'eval': {'textcat_p': 0.5806451611030177, 'textcat_r': 0.3913043477410208, 'textcat_f': 0.46753246741103055}}, 'eval_global': {'textcat_p': 0.5806451611030177, 'textcat_r': 0.3913043477410208, 'textcat_f': 0.46753246741103055}}",71
72,"{'QA': {'tp': 19.0, 'fp': 14.00000001, 'fn': 27.00000001, 'tn': 112.0, 'tot': 46.00000001, 'eval': {'textcat_p': 0.5757575755831037, 'textcat_r': 0.4130434781710775, 'textcat_f': 0.48101265810607274}}, 'eval_global': {'textcat_p': 0.5757575755831037, 'textcat_r': 0.4130434781710775, 'textcat_f': 0.48101265810607274}}",72
73,"{'QA': {'tp': 19.0, 'fp': 14.00000001, 'fn': 27.00000001, 'tn': 112.0, 'tot': 46.00000001, 'eval': {'textcat_p': 0.5757575755831037, 'textcat_r': 0.4130434781710775, 'textcat_f': 0.48101265810607274}}, 'eval_global': {'textcat_p': 0.5757575755831037, 'textcat_r': 0.4130434781710775, 'textcat_f': 0.48101265810607274}}",73
74,"{'QA': {'tp': 19.0, 'fp': 14.00000001, 'fn': 27.00000001, 'tn': 112.0, 'tot': 46.00000001, 'eval': {'textcat_p': 0.5757575755831037, 'textcat_r': 0.4130434781710775, 'textcat_f': 0.48101265810607274}}, 'eval_global': {'textcat_p': 0.5757575755831037, 'textcat_r': 0.4130434781710775, 'textcat_f': 0.48101265810607274}}",74
75,"{'QA': {'tp': 19.0, 'fp': 14.00000001, 'fn': 27.00000001, 'tn': 112.0, 'tot': 46.00000001, 'eval': {'textcat_p': 0.5757575755831037, 'textcat_r': 0.4130434781710775, 'textcat_f': 0.48101265810607274}}, 'eval_global': {'textcat_p': 0.5757575755831037, 'textcat_r': 0.4130434781710775, 'textcat_f': 0.48101265810607274}}",75
76,"{'QA': {'tp': 20.0, 'fp': 14.00000001, 'fn': 26.00000001, 'tn': 112.0, 'tot': 46.00000001, 'eval': {'textcat_p': 0.5882352939446367, 'textcat_r': 0.4347826086011342, 'textcat_f': 0.4999999998750001}}, 'eval_global': {'textcat_p': 0.5882352939446367, 'textcat_r': 0.4347826086011342, 'textcat_f': 0.4999999998750001}}",76
77,"{'QA': {'tp': 20.0, 'fp': 13.00000001, 'fn': 26.00000001, 'tn': 113.0, 'tot': 46.00000001, 'eval': {'textcat_p': 0.6060606058769513, 'textcat_r': 0.4347826086011342, 'textcat_f': 0.5063291137958661}}, 'eval_global': {'textcat_p': 0.6060606058769513, 'textcat_r': 0.4347826086011342, 'textcat_f': 0.5063291137958661}}",77
78,"{'QA': {'tp': 20.0, 'fp': 13.00000001, 'fn': 26.00000001, 'tn': 113.0, 'tot': 46.00000001, 'eval': {'textcat_p': 0.6060606058769513, 'textcat_r': 0.4347826086011342, 'textcat_f': 0.5063291137958661}}, 'eval_global': {'textcat_p': 0.6060606058769513, 'textcat_r': 0.4347826086011342, 'textcat_f': 0.5063291137958661}}",78
79,"{'QA': {'tp': 20.0, 'fp': 13.00000001, 'fn': 26.00000001, 'tn': 113.0, 'tot': 46.00000001, 'eval': {'textcat_p': 0.6060606058769513, 'textcat_r': 0.4347826086011342, 'textcat_f': 0.5063291137958661}}, 'eval_global': {'textcat_p': 0.6060606058769513, 'textcat_r': 0.4347826086011342, 'textcat_f': 0.5063291137958661}}",79
80,"{'QA': {'tp': 19.0, 'fp': 13.00000001, 'fn': 27.00000001, 'tn': 113.0, 'tot': 46.00000001, 'eval': {'textcat_p': 0.5937499998144531, 'textcat_r': 0.4130434781710775, 'textcat_f': 0.48717948705456937}}, 'eval_global': {'textcat_p': 0.5937499998144531, 'textcat_r': 0.4130434781710775, 'textcat_f': 0.48717948705456937}}",80
81,"{'QA': {'tp': 19.0, 'fp': 13.00000001, 'fn': 27.00000001, 'tn': 113.0, 'tot': 46.00000001, 'eval': {'textcat_p': 0.5937499998144531, 'textcat_r': 0.4130434781710775, 'textcat_f': 0.48717948705456937}}, 'eval_global': {'textcat_p': 0.5937499998144531, 'textcat_r': 0.4130434781710775, 'textcat_f': 0.48717948705456937}}",81
82,"{'QA': {'tp': 19.0, 'fp': 15.00000001, 'fn': 27.00000001, 'tn': 111.0, 'tot': 46.00000001, 'eval': {'textcat_p': 0.5588235292474049, 'textcat_r': 0.4130434781710775, 'textcat_f': 0.4749999998812501}}, 'eval_global': {'textcat_p': 0.5588235292474049, 'textcat_r': 0.4130434781710775, 'textcat_f': 0.4749999998812501}}",82
83,"{'QA': {'tp': 19.0, 'fp': 15.00000001, 'fn': 27.00000001, 'tn': 111.0, 'tot': 46.00000001, 'eval': {'textcat_p': 0.5588235292474049, 'textcat_r': 0.4130434781710775, 'textcat_f': 0.4749999998812501}}, 'eval_global': {'textcat_p': 0.5588235292474049, 'textcat_r': 0.4130434781710775, 'textcat_f': 0.4749999998812501}}",83
84,"{'QA': {'tp': 19.0, 'fp': 15.00000001, 'fn': 27.00000001, 'tn': 111.0, 'tot': 46.00000001, 'eval': {'textcat_p': 0.5588235292474049, 'textcat_r': 0.4130434781710775, 'textcat_f': 0.4749999998812501}}, 'eval_global': {'textcat_p': 0.5588235292474049, 'textcat_r': 0.4130434781710775, 'textcat_f': 0.4749999998812501}}",84
85,"{'QA': {'tp': 19.0, 'fp': 15.00000001, 'fn': 27.00000001, 'tn': 111.0, 'tot': 46.00000001, 'eval': {'textcat_p': 0.5588235292474049, 'textcat_r': 0.4130434781710775, 'textcat_f': 0.4749999998812501}}, 'eval_global': {'textcat_p': 0.5588235292474049, 'textcat_r': 0.4130434781710775, 'textcat_f': 0.4749999998812501}}",85
86,"{'QA': {'tp': 19.0, 'fp': 14.00000001, 'fn': 27.00000001, 'tn': 112.0, 'tot': 46.00000001, 'eval': {'textcat_p': 0.5757575755831037, 'textcat_r': 0.4130434781710775, 'textcat_f': 0.48101265810607274}}, 'eval_global': {'textcat_p': 0.5757575755831037, 'textcat_r': 0.4130434781710775, 'textcat_f': 0.48101265810607274}}",86
87,"{'QA': {'tp': 19.0, 'fp': 14.00000001, 'fn': 27.00000001, 'tn': 112.0, 'tot': 46.00000001, 'eval': {'textcat_p': 0.5757575755831037, 'textcat_r': 0.4130434781710775, 'textcat_f': 0.48101265810607274}}, 'eval_global': {'textcat_p': 0.5757575755831037, 'textcat_r': 0.4130434781710775, 'textcat_f': 0.48101265810607274}}",87
88,"{'QA': {'tp': 19.0, 'fp': 14.00000001, 'fn': 27.00000001, 'tn': 112.0, 'tot': 46.00000001, 'eval': {'textcat_p': 0.5757575755831037, 'textcat_r': 0.4130434781710775, 'textcat_f': 0.48101265810607274}}, 'eval_global': {'textcat_p': 0.5757575755831037, 'textcat_r': 0.4130434781710775, 'textcat_f': 0.48101265810607274}}",88
89,"{'QA': {'tp': 19.0, 'fp': 14.00000001, 'fn': 27.00000001, 'tn': 112.0, 'tot': 46.00000001, 'eval': {'textcat_p': 0.5757575755831037, 'textcat_r': 0.4130434781710775, 'textcat_f': 0.48101265810607274}}, 'eval_global': {'textcat_p': 0.5757575755831037, 'textcat_r': 0.4130434781710775, 'textcat_f': 0.48101265810607274}}",89
90,"{'QA': {'tp': 20.0, 'fp': 14.00000001, 'fn': 26.00000001, 'tn': 112.0, 'tot': 46.00000001, 'eval': {'textcat_p': 0.5882352939446367, 'textcat_r': 0.4347826086011342, 'textcat_f': 0.4999999998750001}}, 'eval_global': {'textcat_p': 0.5882352939446367, 'textcat_r': 0.4347826086011342, 'textcat_f': 0.4999999998750001}}",90
91,"{'QA': {'tp': 19.0, 'fp': 15.00000001, 'fn': 27.00000001, 'tn': 111.0, 'tot': 46.00000001, 'eval': {'textcat_p': 0.5588235292474049, 'textcat_r': 0.4130434781710775, 'textcat_f': 0.4749999998812501}}, 'eval_global': {'textcat_p': 0.5588235292474049, 'textcat_r': 0.4130434781710775, 'textcat_f': 0.4749999998812501}}",91
92,"{'QA': {'tp': 20.0, 'fp': 15.00000001, 'fn': 26.00000001, 'tn': 111.0, 'tot': 46.00000001, 'eval': {'textcat_p': 0.5714285712653061, 'textcat_r': 0.4347826086011342, 'textcat_f': 0.4938271603718945}}, 'eval_global': {'textcat_p': 0.5714285712653061, 'textcat_r': 0.4347826086011342, 'textcat_f': 0.4938271603718945}}",92
93,"{'QA': {'tp': 20.0, 'fp': 15.00000001, 'fn': 26.00000001, 'tn': 111.0, 'tot': 46.00000001, 'eval': {'textcat_p': 0.5714285712653061, 'textcat_r': 0.4347826086011342, 'textcat_f': 0.4938271603718945}}, 'eval_global': {'textcat_p': 0.5714285712653061, 'textcat_r': 0.4347826086011342, 'textcat_f': 0.4938271603718945}}",93
94,"{'QA': {'tp': 19.0, 'fp': 15.00000001, 'fn': 27.00000001, 'tn': 111.0, 'tot': 46.00000001, 'eval': {'textcat_p': 0.5588235292474049, 'textcat_r': 0.4130434781710775, 'textcat_f': 0.4749999998812501}}, 'eval_global': {'textcat_p': 0.5588235292474049, 'textcat_r': 0.4130434781710775, 'textcat_f': 0.4749999998812501}}",94
95,"{'QA': {'tp': 20.0, 'fp': 15.00000001, 'fn': 26.00000001, 'tn': 111.0, 'tot': 46.00000001, 'eval': {'textcat_p': 0.5714285712653061, 'textcat_r': 0.4347826086011342, 'textcat_f': 0.4938271603718945}}, 'eval_global': {'textcat_p': 0.5714285712653061, 'textcat_r': 0.4347826086011342, 'textcat_f': 0.4938271603718945}}",95
96,"{'QA': {'tp': 20.0, 'fp': 15.00000001, 'fn': 26.00000001, 'tn': 111.0, 'tot': 46.00000001, 'eval': {'textcat_p': 0.5714285712653061, 'textcat_r': 0.4347826086011342, 'textcat_f': 0.4938271603718945}}, 'eval_global': {'textcat_p': 0.5714285712653061, 'textcat_r': 0.4347826086011342, 'textcat_f': 0.4938271603718945}}",96
97,"{'QA': {'tp': 20.0, 'fp': 16.00000001, 'fn': 26.00000001, 'tn': 110.0, 'tot': 46.00000001, 'eval': {'textcat_p': 0.5555555554012346, 'textcat_r': 0.4347826086011342, 'textcat_f': 0.4878048779298037}}, 'eval_global': {'textcat_p': 0.5555555554012346, 'textcat_r': 0.4347826086011342, 'textcat_f': 0.4878048779298037}}",97
98,"{'QA': {'tp': 21.0, 'fp': 16.00000001, 'fn': 25.00000001, 'tn': 110.0, 'tot': 46.00000001, 'eval': {'textcat_p': 0.5675675674141709, 'textcat_r': 0.4565217390311909, 'textcat_f': 0.5060240962636087}}, 'eval_global': {'textcat_p': 0.5675675674141709, 'textcat_r': 0.4565217390311909, 'textcat_f': 0.5060240962636087}}",98
99,"{'QA': {'tp': 21.0, 'fp': 15.00000001, 'fn': 25.00000001, 'tn': 111.0, 'tot': 46.00000001, 'eval': {'textcat_p': 0.5833333331712963, 'textcat_r': 0.4565217390311909, 'textcat_f': 0.5121951218262939}}, 'eval_global': {'textcat_p': 0.5833333331712963, 'textcat_r': 0.4565217390311909, 'textcat_f': 0.5121951218262939}}",99
