,US,pred,label
0,"As a developer, I want a version of the DDR Batch gem that works with Active Fedora 9 and passes all tests on Fedora 4.",0.9999545812606812,portability
1,"As an OlderPerson, I want to have ALFRED on all my computers, tablets and phone.",0.9999545812606812,portability
2,"As a release engineer, I want to configure nightly builds that automatically perform a Neurohub installation on a virgin operating system, execute tests and report back results, without requiring any manual input/interaction.",0.9999545812606812,portability
3,"As a Developer, I want to list all DataPackages requirements for my project in the file and pin the exact versions of any DataPackage that my project depends on, so that that the project can be deterministically deployed locally and won't break because of the DataPackage schema changes. ",0.9999545812606812,portability
4,"As an NSF administrator, I want to shadow the CMS implementation, so that I can learn as the prototype is developed further.",0.9999545812606812,portability
5,"As a developer, I want a version of DUL Hydra that works with Active Fedora 9 and passes all tests.",0.9999545812606812,portability
6,"As a systems administrator, I want  to install Neurohub dependencies into an Ubuntu 10.04 LTS machine using the normal Ubuntu package management tools.",0.9999545812606812,portability
7,"As an Admin, I want to set key configuration parameters for my site deployment, so that that I can change key information like the site title.",0.9999545812606812,portability
8,"As a plugin developer, I want to use a custom dataset type that was deployed independently or as part of an app inside the plugin. ",0.9999545812606812,portability
9,"As a team member, I want to see the first iteration of beta up on cloud.gov.",0.9999545812606812,portability
10,"As a developer, I want a dummy app to test DDR models on Fedora 4.",0.9999545812606812,portability
11,"As a developer, I want to present my App in several ways. ",0.995599627494812,portability
12,"As a system administrator, I want to migrate data from an older version of NeuroHub to the current version.",0.9999545812606812,portability
13,"As a user, I want to view the group's shared calendars via the Neurohub Nodes' Web page as well as on my mobile device.",0.9999545812606812,portability
14,"As a Data Publishing User, I want to know if my CSV file is valid, So that I can fix possible data issues before publishing it on Open Spending.",0.9999545812606812,portability
15,"As a plugin developer, I want to use a custom dataset type that was deployed independently or as part of an app inside the plugin. ",0.9999545812606812,portability
16,"As a plugin developer, I want to upgrade the code of a dataset type used by a dataset instance created by that plugin when I deploy a new version of the plugin and update the pipeline to use that version.",0.9997754693031311,portability
17,"As a developer, I want a dummy app to test DDR models on Fedora 4.",0.9999545812606812,portability
18,"As an app developer, I want to deploy a new version of a dataset type as part of deploying a new version of the app that includes it and I expect that all dataset instances of that type that were created as part of the app deployment start using the new code.",0.9999545812606812,portability
19,"As a release engineer, I want to configure nightly builds that automatically perform a Neurohub installation on a virgin operating system, execute tests and report back results, without requiring any manual input/interaction.",0.9999545812606812,portability
20,"As a Cornell faculty member, I want to search the repository and browse through its contents on my phone, so that I can check things on the go.",0.9999545812606812,portability
21,"As a developer, I want a version of the DDR Batch gem that works with Active Fedora 9 and passes all tests on Fedora 4.",0.9999545812606812,portability
22,"As an NSF administrator, I want to shadow the CMS implementation, so that I can learn as the prototype is developed further.",0.9999545812606812,portability
23,"As a repository developer, I would like to upgrade to Fedora 4 and migrate our applications and data.",0.9999545812606812,portability
24,"As a system administrator, I want to run a script that installs the Neurohub node onto a virgin Ubuntu operating system.",0.9999545812606812,portability
