,US,pred,label
0,"As a developer, I want to have created database indexes, so that the queries run as fast as possible.",0.9999452829360962,performance
1,"As a Developer , I want my domain models to be indexed properly, so that I can get validation results back in a reasonable amount of time.",0.99978107213974,performance
2,"As a Researcher, I want to get a Data Package into STATA in seconds, so that I can start using the data for doing analysis and visualizations. ",0.9999545812606812,performance
3,"As a Developer, I want to get a Data Package into Julia in seconds, so that I can start using the data in doing analysis and visualizations. ",0.9999545812606812,performance
4,"As a participant, I want to immediately see that an estimate has been given by a specific estimator, so that I know who has already given an estimate and who we're still waiting for.",0.9998629093170166,performance
5,"As a user, I want to upload large files of over 1GB in size.",0.9997487664222717,performance
6,"As an archive, I want to get information about the volume of data to preserve at an early stage, so that I can provide the adequate storage infrastructure.",0.9998689889907837,performance
7,"As a Researcher, I want to get a Data Package into Julia in seconds, so that I can start using the data for doing analysis and visualizations. ",0.9999545812606812,performance
8,"As an OlderPerson, I want to have a very good battery for ALFRED so I can keep him on the whole day.",0.9997033476829529,performance
9,"As a participant, I want to be shown all estimates at the same time after all estimators have given their estimate, so that I can be sure estimates are independent and not influenced by other estimates given in the same draw.",0.9992714524269104,performance
10,"As a Cornell faculty member, I want to share on the repository files that are larger than 1GB in a way that still allows users to download them if I want to use them, so that I can meet funder requirements.",0.9998966455459595,performance
11,"As an IT staff member, I want to have an estimate of the produced data volume, so that I can plan the overall storage consumption.",0.9998528957366943,performance
12,"As a Developer, I want to get a Data Package into Python in seconds, so that I can start using the data for doing analysis and visualizations. ",0.9999545812606812,performance
13,"As an IT manager, I want to know about IT resource requirements early in the project lifecycle, so that I can enable resource acquisition planning.",0.9996522665023804,performance
14,"As a Researcher, I want to get a Data Package into LibreOffice/OpenOffice in seconds, so that I can start using the data for doing analysis and visualizations. ",0.9999545812606812,performance
15,"As a Researcher, I want an app that create proxy Data Packages for well know and reliable data, sources, so that I can load high quality data using Data Package tooling. ",0.998695433139801,performance
16,"As an institutional data manager, I want to know about the privacy and security requirements of the data, so that I can plan the right storage system and sharing permissions.",0.9995290040969849,performance
17,"As a user, I want to have the application respond quickly to my actions, so that I don't get bored.",0.9996263980865479,performance
18,"As a Researcher, I want to get a Data Package into R in seconds, so that I can start using the data for doing analysis and visualizations. ",0.9999545812606812,performance
19,"As a rector, I want to know how many data will be stored, so that I can plan long term resources.",0.9993139505386353,performance
20,"As a Researcher, I want to get a Data Package into Excel in seconds, so that I can start using the data for doing analysis and visualizations. ",0.9999545812606812,performance
21,"As a Developer, I want D Files generation requests to be managed and cached, so that duplicate requests do not cause performance issues.",0.9999545812606812,performance
22,"As a repository operator, I want to know about the kind of data, so that I can evaluate the storage size and system.",0.9997757077217102,performance
23,"As a depositor, I want to deposit arbitrarily large files, so that I am not limited in what files I can and cannot deposit.",0.9996610879898071,performance
24,"As an Agency user, I want to be able to include a large number of flexfields without performance impact.",0.9992983341217041,performance
25,"As a PI, I want to plan what kind of data I want to record/store, so that I can ensure it will possible to store it.",0.9994070529937744,performance
0,"As an agency user, I want the maximum length allowed for LegalEntityAddressLine3 to match Schema v1.1.",0.9998748302459717,compatibility
1,"As a Data Publishing User, I want to be able to edit the model of data I have already imported, So that I can fix bugs or make enhancements in the API built for my data.",0.9984512329101562,compatibility
2,"As an agency user, I want to be confident that the data coming from SAM is complete.",0.9999473094940186,compatibility
3,"As an IT staff member, I want to know which formats are used, so that I can determine what kind of technical services and functionalities are required.",0.9997168183326721,compatibility
4,"As an UnivITservice, I want to integrate the archive with existing university systems such as LDAP, so that the cost of administering the system can be kept low.",0.9906196594238281,compatibility
5,"As a developer, I want an online service that is connected to my data repository that validates data on update, so that I can delegate data validation to a third party. ",0.9956040382385254,compatibility
6,"As a Researcher, I want to get a Data Package into STATA in seconds, so that I can start using the data for doing analysis and visualizations. ",0.9997106194496155,compatibility
7,"As a Researcher, I want an app that generates an OpenRefine reconciliation API endpoint from a Tabular Data Package, so that I can use it to clean messy data. ",0.9999430179595947,compatibility
8,"As a Technical Staff member, I want to update the GIS Property Management, so that I can successfully update the transactional Parcel Pin to reference the GIS layer where the Split or Merged Parcel Pin exists.",0.9993066787719727,compatibility
9,"As a moderator, I want to copy/paste stories from a spreadsheet, so that I can get started more quickly.",0.9998112320899963,compatibility
10,"As a Researcher, working with data, I want an Microsoft Power BI integration, so that I can import datasets without downloading them locally. ",0.9999536275863647,compatibility
11,"As a Developer, I want to get a Data Package into Julia in seconds, so that I can start using the data in doing analysis and visualizations. ",0.999690055847168,compatibility
12,"As a Developer, I want HDF5 integration, so that I can integrate data-packaged data with pipelines that use HDF5.",0.9999545812606812,compatibility
13,"As an Archivist, I want to export agent records as EAC-CPF.",0.9998797178268433,compatibility
14,"As an Archivist, I want to import Agent information from EAC-CPF records.",0.9998230338096619,compatibility
15,"As a Planning Staff member, I want to Generate Planning-related Reports, so that I can access, analyze and/or export the needed information in the format I requested.",0.9999545812606812,compatibility
16,"As a team member, I want to have a platform that allows me to rapidly prototype HTML ideas.",0.9980504512786865,compatibility
17,"As a user, I want to click on the address, so that it takes me to a new tab with Google Maps.",0.9997214674949646,compatibility
18,"As a Zooniverse admin, I want to perform automatic preclassification of plankton species in Plankton Portal images.",0.9999545812606812,compatibility
19,"As a Data Publishing User, I want to have the Packager support Constants, So that I can model dimensions that may not exist in the source file.",0.9983429908752441,compatibility
20,"As a user, I want to have that my Twitter Tweets to appear in Neurohub, so that other researchers in the centre can see what I am up to.",0.9991940855979919,compatibility
21,"As a Consumer, I want to load a Data Package from R, so that that I can immediately start playing with it.",0.9998757839202881,compatibility
22,"As a developer, determine if we can use the in-built Fedora 4 event audit services.",0.9977772831916809,compatibility
23,"As a ResearcherPublisher, I want an integration with Zenodo, so that when I store my dataset in GitHub, I don't have to retype descriptive information about my dataset. ",0.9999396800994873,compatibility
24,"As a ResearcherPublisher, I want to publish Data Packages to CKAN, so that my data is findable, and I can have a data API. ",0.998426079750061,compatibility
25,"As a institutional data steward, I want to be able to extract the data sets that are submitted to external repositories, so that I can add them to an institutional data catalogue.",0.9993115663528442,compatibility
26,"As a Data Publishing User, I want to be able to import data in Excel, So that I do not have to convert data formats in order to use the data packager.",0.9999545812606812,compatibility
27,"As a Researcher, I want to get my Excel spreadsheet into a Data Package, so that I can benefit from better tooling and standardization. ",0.999762237071991,compatibility
28,"As a depositor, I want to have metadata automatically filled from other University systems and remembered from previous deposits, so that I don't have to waste time reentering the same information.",0.9999527931213379,compatibility
29,"As an UnivITservice, I want to store archived data on existing storage systems, so that university data storage is consistent and maintainable and future availability of data can be guaranteed.",0.998565137386322,compatibility
30,"As a Data Publishing User, I want to be able to import data from Fiscal Data Package descriptor file, So that I do not have to convert data formats in order to use the data packager.",0.9999545812606812,compatibility
31,"As a Researcher, I want to get a Data Package into Julia in seconds, so that I can start using the data for doing analysis and visualizations. ",0.999535322189331,compatibility
32,"As a Developer , I want to develop a custom importer.",0.9958571791648865,compatibility
33,"As an Archivist, I want to import only Agent and Subject information from MARCXML records.",0.9996579885482788,compatibility
34,"As a Machine Learning expert, I would like to package ML datasets as data packages, so that I can easily import them into my ML platform, so that I can start using the data in doing analysis. ",0.9999545812606812,compatibility
35,"As a user, I want to upload my week's schedule, so that I can get recommendations for recycling centers that best fit my availability.",0.9993327260017395,compatibility
36,"As a developer, I want to have the application function correctly in Internet Explorer 6 and 7, Firefox 1.5 and 2, and Safari 2, so that as many people as possible can fully use the application.",0.9996657371520996,compatibility
37,"As a Developer, I want the data loaded from historical FABS to include the FREC derivations, so that I can have consistent FREC data for USASpending.gov.",0.9993305206298828,compatibility
38,"As a library staff member, I want to use content and metadata from the repository in other systems and/or web pages easily, so that I can deliver such content in the manner best fit to the audience or occasion.",0.999924898147583,compatibility
39,"As a Data Publishing User, I want to be able to import data in JSON, So that I do not have to convert data formats in order to use the data packager.",0.9999545812606812,compatibility
40,"As a collection curator, when I update the metadata for an object, that change should be propagated to the DOI system if the repository has assigned a DOI to that object.",0.9998840093612671,compatibility
41,"As a User , I want to authenticate using LDAP.",0.9972164630889893,compatibility
42,"As a Developer, I want an SPSS integration, so that I can integrate data-packaged data with pipelines that use SPSS. ",0.9999545812606812,compatibility
43,"As an archivist, I want to access the digital files on the X-drive, so that I can use them.",0.9991188645362854,compatibility
44,"As an Archivist, I want to import Resources from MARCXML records.",0.9999545812606812,compatibility
45,"As a Researcher, working with data in NetCDF, I want NetCDF integration, so that I can store my data in plaintext while still retaining its metadata. ",0.9999061822891235,compatibility
46,"As a patron, I want to view/upload content in multiple formats, including old formats such as Lotus Works.",0.9990370273590088,compatibility
47,"As a Zooniverse admin, I want to perform automatic animal number detection in Snapshot Serengeti.",0.999819815158844,compatibility
48,"As a moderator, I want to import stories from a spreadsheet, so that I don't have to copy and paste each individual story.",0.9999545812606812,compatibility
49,"As a Developer, I want to get a Data Package into Python in seconds, so that I can start using the data for doing analysis and visualizations. ",0.9998764991760254,compatibility
50,"As a developer, I want to have written a site which is compliant with XHTML and CSS standards, so that as many people as possible can access the site and view it as intended.",0.9998464584350586,compatibility
51,"As a Developer, I want a jQuery plugin for Core Data Packages, so that I can use it to apply to form control that uses a core dataset for autocompletion. ",0.9998631477355957,compatibility
52,"As a Data Publishing User, I want to be able to edit the data source of data I have already imported, So that I can fix bugs or make enhancements in the API built for my data.",0.9987758994102478,compatibility
53,"As a Researcher, I want to get a Data Package into LibreOffice/OpenOffice in seconds, so that I can start using the data for doing analysis and visualizations. ",0.9985021352767944,compatibility
54,"As a metadata batch editor, I'd like to be able to export and import descriptive and administrative metadata for multiple collections together.",0.9995521903038025,compatibility
55,"As a Zooniverse admin, I want to assess how interesting or appealing or complex a picture is based on automated analysis, citizen annotations, and comments on Talk.",0.9999107122421265,compatibility
56,"As a Data Publishing User, I want to have a functioning Python Client, So that I can add data to the datastore in bulk from the command line or my own programs.",0.9998642206192017,compatibility
57,"As an OlderPerson, I want to use ALFRED to pay for small amounts.",0.9976430535316467,compatibility
58,"As an Archivist, I want to upload an EAD for import from within the frontend application.",0.9998807907104492,compatibility
59,"As a ResearcherDeveloper, would like the ability import/export from MS-SQL, so that I can use Data Packages in workflows that involve MS-SQL. ",0.9999545812606812,compatibility
60,"As a Zooniverse admin, I want to perform automatic segmentation or localization of plankton in Plankton Portal.",0.999953031539917,compatibility
61,"As a repository manager, I'd like to be able to export a spreadsheet of technical metadata at the repository, collection, or item level.",0.9995900988578796,compatibility
62,"As a Zooniverse admin, I want to detect when a scientist should be prompted to look at a subject, based on annotations and information from Talk comments.",0.9999545812606812,compatibility
63,"As an agency user, I want to use the schema v1.1 headers in my FABS file.",0.9998476505279541,compatibility
64,"As a Zooniverse admin, I want to automatically detect Plankton Portal images with no classifiable plankton in them.",0.9986453652381897,compatibility
65,"As a patron, I want to download report/dataset release calendar to load into own calendar.",0.9995924830436707,compatibility
66,"As an OlderPerson, I want to use ALFRED to maintain my contact list in my phone. ",0.997918426990509,compatibility
67,"As a content editor, I want to be able to add videos from Brightcove.",0.9991183876991272,compatibility
68,"As a repository administrator, I want to be able to expose repository contents via OAI-PMH.",0.9995484948158264,compatibility
69,"As a Data Consuming User, I want to be able to download a CSV of the data that is used in any visualisation I am viewing, So that I can use the data in other tools.",0.9991961121559143,compatibility
70,"As a Visitor, I want to sign up via github or google, so that that I don't have to enter lots of information and remember my password for yet another website.",0.9996908903121948,compatibility
71,"As a developer, I want to have the API components to be on a high level so that I don't have to deal with their details. ",0.9955549836158752,compatibility
72,"As an Archivist, I want to import EAD files that were exported by Archon.",0.9998225569725037,compatibility
73,"As an assistant archivist, I want to easily access interdepartmental forms.",0.9997215867042542,compatibility
74,"As a user, I want to specify schema as a JSON string.",0.9993957281112671,compatibility
75,"As a DeveloperWrangler, I want to use a command line tool that allows me to validate data, so that I can feel trust in the validity and usefulness of the data quickly and in the context of my command line workflow. ",0.9999545812606812,compatibility
76,"As a data reuser, I want to view a DOI for a dataset, so that I can get back to the data in future and I can import the dataset into my referencemanagement software automatically.",0.9999545812606812,compatibility
77,"As a repository administrator, I want to provide a Linked Data interface to the repository.",0.9976449608802795,compatibility
78,"As a Zooniverse admin, I want to perform automatic animal species preclassification in Snapshot Serengeti.",0.9999545812606812,compatibility
79,"As a Researcher, I want to get a Data Package into R in seconds, so that I can start using the data for doing analysis and visualizations. ",0.9997414946556091,compatibility
80,"As a Staff member, I want to Send or Post Citations and Fines, so that I can successfully send the Notice Of Violation document to the property owner and log information about the action.",0.9994341731071472,compatibility
81,"As a developer, I want to have an easy way to read data from health sensors the user is wearing. ",0.9994553923606873,compatibility
82,"As a user, I want to sync events created in NeuroHub with a web-based Calendar such as Google Calendar.",0.9998456239700317,compatibility
83,"As a Publisher, I would like an integration with Excel, so that I can output cleaned Data Packages. ",0.9996656179428101,compatibility
84,"As the Digital Records Archivist, I need a method to batch ingest ETDs we receive from ProQuest. A script might work, but a GUI would be nice.",0.9997759461402893,compatibility
85,"As a Zooniverse admin, I want to perform automatic detection of plankton size or orientation in Plankton Portal images.",0.9999545812606812,compatibility
86,"As a Developer, I want an EPrints integration, so that I can integrate data-packaged data with pipelines that use EPrints. ",0.9999545812606812,compatibility
87,"As Metadata Architect, I want to be able to use batch tools to ingest, update, and export descriptive and administrative metadata in lieu of METS ingest.",0.995429515838623,compatibility
88,"As a developer, I want to deposit and maintain datasets via an API such as SWORD2, so that my service can interact with the archive. ",0.999610960483551,compatibility
89,"As a moderator, I want to export a transcript of a game as a CSV file, so that I can further process the stories and estimates.",0.9993982315063477,compatibility
90,"As a repository administrator, I would like Symplectic Elements to be able to communicate bidirectionally with the repository.",0.9979801774024963,compatibility
91,"As a serious games developer, I want to be able to take control over some functions to provide the desired user experience. ",0.9993159770965576,compatibility
92,"As an Archivist, I want to export a description as EAD.",0.9997089505195618,compatibility
93,"As a Developer, I want to use data package as a node lib in my project, so that that I can depend on it using my normal dependency framework.",0.9996362924575806,compatibility
94,"As a Consumer, I want to download a DataPackage's data one coherent SQLite database, so that that I can get it easily in one form.",0.998781144618988,compatibility
95,"As a developer, I would like to create a web socket protocol for Frictionless data tools, so that I can easily use data packages with additional data analysis tools. ",0.9993807077407837,compatibility
96,"As an API User, I want to be able to get a CSV output of any cube-based query, So that I can use work with tools that read CSV.",0.9994956254959106,compatibility
97,"As a depositor, I want to deposit and maintain datasets through Virtual Research Environments and other workflow tools, so that I can continue to work with tools with which I'm familiar.",0.9993056058883667,compatibility
98,"As a researcher,  I want to have the ability to interact with a revision control system so that I can keep track of changes to files over time.",0.9999161958694458,compatibility
99,"As an Archivist, I want to import Accessions data in CSV.",0.9995728135108948,compatibility
100,"As a library staff member, I want to make digital items held in trusted external system searchable within our system, so that I can provide seamless access to disparate collections.",0.9994052648544312,compatibility
101,"As a Researcher, I want to get a Data Package into Excel in seconds, so that I can start using the data for doing analysis and visualizations. ",0.999798595905304,compatibility
102,"As a Researcher, I want to be able to reference a remote-controlled vocabulary for my dataset, so that I can be sure that column of my dataset are valid against a single shared list of terms. ",0.9994077682495117,compatibility
103,"As a moderator, I want to export a transcript of a game as a HTML file, so that I can save the stories and estimates locally.",0.9993497729301453,compatibility
104,"As a Publisher, I would like an integration with Open Refine, so that I can output cleaned Data Packages. ",0.9990146160125732,compatibility
105,"As a Data Publishing User, I want to be able to provide the Platform Administrator with additional GeoJSON sources, So that I can improve the map-based visualisations of my data.",0.9985631108283997,compatibility
106,"As a Developer, I want a DAT integration, so that I can integrate data-packaged data with pipelines that use DAT. ",0.9999545812606812,compatibility
107,"As a repository administrator, I want Symplectic Elements to integrate with DDR. They provide a Fedora Connector and Emory is using a hidden Fedora instance that Hydra collects objects for. Note that there is bidirectional communication with Elements.",0.9992913007736206,compatibility
108,"As a Data Publishing User, I want to be able to import data from a Google Spreadsheet, So that I do not have to convert data formats in order to use the data packager.",0.9999545812606812,compatibility
109,"As a data reuser, I want to search the archive through Primo , so that I can search books, articles and data all in one place.",0.9995481371879578,compatibility
110,"As a collection curator, I would like metadata changes made to items with repository-assigned DOIs to be propagated to the EZID.",0.9997289776802063,compatibility
111,"As a collection curator, I want to deposit items into the repository from within ArchivesSpace and to view the status of those objects in ArchivesSpace.",0.9994256496429443,compatibility
112,"As a developer, I want to access an API from the website, so that I can integrate it and implement certain features in my own iOS application.",0.9991152882575989,compatibility
113,"As an owner, I want to be sure that USAspending only send grant records to my system.",0.9996374845504761,compatibility
114,"As a Developer, I want to do exploratory data analysis in R and operationalize that analysis in Python, so that I can use the best tool for the job.",0.9999545812606812,compatibility
115,"As a Developer, I want an Elasticsearch integration, so that I can integrate data-packaged data with pipelines that use Elasticsearch. ",0.9999545812606812,compatibility
116,"As a researcher, I want to upload files prior to having them attached to a log book page using a mapped network drive.",0.9999545812606812,compatibility
117,"As a DeveloperDataWrangler, I want to store my Data Package in GitHub and have it automatically stored into CKAN, so that I get a data API and my dataset is listed in a relevant catalog. ",0.9998819828033447,compatibility
118,"As an archivist, I want to use archival content on the RAC website, so that I can integrate our collections into our web presence.",0.9988245368003845,compatibility
119,"As an OlderPerson, I want to have an ALFRED device that responds to the changing demand of the users by offering new Apps in the ALFREDO platform.",0.9991819262504578,compatibility
120,"As a metadata batch editor, I want to export the CSV, remove the fields I'm not editing, edit the remaining fields, and upload the remediated file to overwrite values",0.9997105002403259,compatibility
121,"As an UnivITservice, I want to store archived data directly on the HCP object store, so that  features can be made.",0.9997685551643372,compatibility
122,"As a Publisher, I want to be able to preview the views of the current data package using cli prior to publishing, so that that I can refine the json declarations of datapackage view section to achieve a great looking result.",0.9998462200164795,compatibility
123,"As a Research Information manager, I want to integrate the archive with CRIS, so that I can analyse impact of research data publication I can link funding to all of the outputs it produces.",0.9997066855430603,compatibility
124,"As a developer, I want an DSpace integration, so that I can integrate data-packaged data with pipelines that use Dspace. ",0.9999545812606812,compatibility
125,"As a researcher, I want the DMP to prepopulate information that I have already entered in other institutional systems, so that I do not have to re-enter information ensuring the DMP contains accurate and standardized information.",0.9999545812606812,compatibility
126,"As a developer, I want to have my App to be granted access to several operating system features. ",0.998896598815918,compatibility
127,"As an administrator, I want to be able to use systems such as Symplectic Elements and Activity Insight to properly track faculty scholarly output in the repositories, so that I can facilitate personnel decisions.",0.9998544454574585,compatibility
128,"As a research facility manager, I want to deposit data from my facility directly into the archive on behalf of researchers, so that I am no longer required to maintain my own archive of facility data and researchers can access their own data as needed. ",0.9990097284317017,compatibility
129,"As an archivist, I want to automatically create access derivatives of digital objects, so that I don't have to do this manually.",0.9985394477844238,compatibility
130,"As a Broker user, I want the D1 file generation to be synced with the FPDS data load, so that I don't have to regenerate a file if no data has been updated.",0.9985904097557068,compatibility
131,"As a Developer, I want Feather integration, so that I can integrate data-packaged data with pipelines that use Feather. ",0.9999545812606812,compatibility
132,"As a Research Information manager, I want to track citation counts for published datasets, so that impact of datasets within academia can be demonstrated.",0.9994122982025146,compatibility
133,"As a repository administrator, I want author/creator to store the DUID of the person to allow for name authority control and interoperability with other systems like Symplectic Elements.",0.9983036518096924,compatibility
134,"As a depositor, I want to deposit arbitrarily large files, so that I am not limited in what files I can and cannot deposit.",0.9985226988792419,compatibility
135,"As a Cornell faculty member, I want to login remotely to the repository using Shibboleth, so that I can get remote access to Cornell campus-only content.",0.9993011951446533,compatibility
136,"As an Archivist, I want to import EAD files that were exported by the Archivists' Toolkit.",0.9996286630630493,compatibility
137,"As a user, I want to specify schema as a SQL schema string.",0.9993588328361511,compatibility
138,"As a developer, I want to use bootstrap in the process of developing, so that I can easily design my website.",0.9986653327941895,compatibility
139,"As an agency user, I want to submit my data elements surrounded by quotation marks, so that Excel won't strip off leading and trailing zeroes.",0.9996310472488403,compatibility
140,"As an administrator, I want to allow users to log in using Active Directory credentials, so that I don't have to manage another set of usernames and passwords.",0.9996788501739502,compatibility
141,"As a user, I want to be able to access the site and do all the other stuffs on all of my electronic devices.",0.994830310344696,compatibility
142,"As a Researcher, I want an integration with https://data.mendeley.com/, so that I can validate my data upon ingest to the service.",0.9994706511497498,compatibility
143,"As a depositor, I want to link datasets to publications in Opus, so that both my data and publications are more easily discovered.",0.9990022778511047,compatibility
144,"As a researcher, I want to import metadata that I captured with a metadata tool, so that I do not have to capture it again in a DMP.",0.999804675579071,compatibility
145,"As a agency user, I want to map the FederalActionObligation properly to the Atom Feed.",0.999691367149353,compatibility
146,"As a administrator, I want to tag my blog posts for consumption by Drupal Planet, so that they will be listed on the Drupal Planet blog.",0.9995772242546082,compatibility
147,"As an IT staff member, I want to know with which software or technology the data is produced or used, so that I can determine what kind of technical services and functionalities are required.",0.9998917579650879,compatibility
148,"As a researcher, I want to access files stored in my Neurohub workspace, using a network drive attached to my workstation.",0.9999140501022339,compatibility
149,"As a data depositor, I'd like to use the Simple Ingest Format to update existing items and components creating new versions where they already exist and creating new ones where the don't.",0.9993869066238403,compatibility
150,"As a Zooniverse admin, I want to perform automatic worm motion analysis to reduce video duration in Worm Watch Lab.",0.9999545812606812,compatibility
0,"As a ResearcherPublisher, I want to understand the ways in which my data is invalid, so that I can know how to fix it. ",0.9998372793197632,usability
1,"As a developer, I want to attend some UI/UX lessons, so that I can develop an awesome and beautiful features website.",0.9998922348022461,usability
2,"As a Data Consuming User, I want to see textual descriptions that accompany embedded visualisations, So that I can more easily understand what I am viewing.",0.9999545812606812,usability
3,"As a UI designer, I want to redesign the Resources page, so that it matches the new Broker design styles.",0.9999281167984009,usability
4,"As the site editor, I want to have pretty good control over how the article, so that articles are visually appealing.",0.9988272786140442,usability
5,"As a participant, I want to have a small thumbnail photo displayed near where my cards are played, so that the game is more personal because I see who I'm estimating with.",0.9999545812606812,usability
6,"As a ProspectiveApplicant, I want to research requirements and to select a service, so that I can find the relevant service and/or application type to initiate via the online portal.",0.9997827410697937,usability
7,"As a user, I want to view user documentation for the website, so that I know how to use the web app.",0.997054934501648,usability
8,"As a user, I want to get feedback when I enter an invalid zip code.",0.9996788501739502,usability
9,"As a moderator, I want to see dates and times in my local timezone, so that I don't have to do timezone conversion myself.",0.9999476671218872,usability
10,"As a FABS user, I want the language on FABS pages to be appropriate for me, so that I am not confused.",0.9999091625213623,usability
11,"As an OlderPerson, I want to insert my meetings into ALFRED using speech. ",0.9997755885124207,usability
12,"As a metadata editor, I would like to be able to add and edit metadata without assistance.",0.9990541338920593,usability
13,"As a Data Consuming User, I want to be able to have stepped zoom on map visualisations, So that I can have better control over the navigation experience inside a map view.",0.9997327923774719,usability
14,"As a repository manager, I want to have metadata in additional languages, so that I can allow for multilingual data archive.",0.9954381585121155,usability
15,"As an agency user, I want a landing page to navigate to either FABS or DABS pages, so that I can access both sides of the site.",0.9994310736656189,usability
16,"As a Publisher, I want to see real examples of published packages so that I can understand how useful and simple the datapackage format and the registry is.",0.9995158910751343,usability
17,"As an Agency user, I want to receive a more helpful file-level error when I upload a file with the wrong extension.",0.999698281288147,usability
18,"As a publisher, I want to be able to check that every time I update my data it is still good, so that I can catch errors early and store reliable data. ",0.9998143315315247,usability
19,"As a Publisher, I want to be warned that a tag exists when I try to overwrite it, so that that I don't accidentally overwrite stable tagged data which is relied on by consumers.",0.9999545812606812,usability
20,"As a user, I want to be able to anonymously view public information, so that I know about recycling centers near me before creating an account.",0.9996013045310974,usability
21,"As a user, I want to view thumbnail sequences of video segments.",0.9999451637268066,usability
22,"As a lab administrator, I want to theme the Web interface graphics/colours.",0.9995561242103577,usability
23,"As a user, I want to be able to use Unicode, so that I can use any language I like.",0.9995824694633484,usability
24,"As a FABS user, I do not want  DABS banner messages and vice versa, so that I have the appropriate information for my application.",0.9998001456260681,usability
25,"As a Developer I want to quickly access Broker application data, so that I can investigate issues.",0.9924715757369995,usability
26,"As a company, I want to have a website that is easy to use, so that I can upload or delete stuff step by step.",0.9999313354492188,usability
27,"As a researcher, I want to have the ability to insert Greek symbols into my logbook entries.",0.9998171925544739,usability
28,"As a Broker user, I want  to help create content mockups, so that I can submit my data efficiently.",0.9997132420539856,usability
29,"As a donor representative, I want to see thumbnails of images, so that I can select which one I want.",0.9998032450675964,usability
30,"As a depositor, I want to have a user interface that is familiar to me, so that I feel like all the University systems are joined up.",0.9996923208236694,usability
31,"As an OlderPerson, I want to receive information from ALFRED by speech technology. ",0.9994280934333801,usability
32,"As an OlderPerson, I want to use only well-visible buttons.",0.998580813407898,usability
33,"As a user, I want to see sensible and predictable URLs, so that the application feels logical and transparent.",0.9999545812606812,usability
34,"As an OlderPerson, I want to use ALFRED as much as possible with speech interaction.",0.9997151494026184,usability
35,"As a user, I want to draw tables using HTML tags as part of the content of a log book page.",0.9996284246444702,usability
36,"As a County Staff Member, I want to create a custom query/report outside of the common querying/reporting functionality, so that I can fulfill a request.",0.9997256398200989,usability
37,"As an OlderPerson, I want to have an ALFRED device that can be easily adapted for user that have visual or hearing troubles.",0.9979975819587708,usability
38,"As an OlderPerson, I want to have an ALFRED device that speaks very slowly and clearly.",0.9998891353607178,usability
39,"As a ResearcherPublisher, I want validate my data with a minimum of clicks, so that I can feel trust in the validity and usefulness of the data. ",0.9997544884681702,usability
40,"As an owner, I only want zero-padded fields, so that I can justify padding.",0.9998273253440857,usability
41,"As an Applicant, I want to Check the Status of a transaction, so that I can understand where the provisioning of my service is in the process, such as information related to service levels, fees, plan review, permit, or inspection results.",0.9995028972625732,usability
42,"As a user, I want more information about how many rows will be published prior to deciding whether to publish.",0.9987435936927795,usability
43,"As an Agency user, I want to accurately see who created a submission, so that I'm not confused about who last updated a submission.",0.9993777275085449,usability
44,"As a Publisher, I want to data to be validated when I publish it, so that that I know immediately if I have accidentally broken my data or have bugs and can take action to correct.",0.9998757839202881,usability
45,"As a Consumer, I want to see some example data packages quickly, so that I get a sense of what is on this site and if it is useful to look further.",0.9999254941940308,usability
46,"As a trainer, I want to be assured that no one can submit the same answers multiple time and skew my results, so that my ratings are accurate.",0.9999545812606812,usability
47,"As a FABS user, I want to see correct status labels on the Submission Dashboard, so that I can quickly see my submission history.",0.9999202489852905,usability
48,"As a Developer , I want to clarify to users what exactly is triggering the CFDA error code in each case.",0.9997591376304626,usability
49,"As a Publisher, I want to preview a datapackage I have prepared, so that that I can check it works and share the results.",0.998865008354187,usability
50,"As a Platform administrator, I want to be able to translate the data types hierarchies of the Viewer while in embed mode, So that my users can understand the interface in their native language.",0.9999464750289917,usability
51,"As a publisher, I want to embed an interactive preview of my data on my site, so that users can be encouraged that this is the correct data for them. ",0.9998902082443237,usability
52,"As a publisher, I want to embed a preview button on my site, so that users can preview the data and be encouraged that this is the correct data for them.",0.9999545812606812,usability
53,"As a data reuser, I want to access the system in my native language, so that I am not put off reusing University of Bath data by language barriers.",0.9999545812606812,usability
54,"As an archivist, I want to automatically create access derivatives of digital objects, so that I don't have to do this manually.",0.999482274055481,usability
55,"As a Broker user, I want the D1 file generation to be synced with the FPDS data load, so that I don't have to regenerate a file if no data has been updated.",0.9996199607849121,usability
56,"As a Staff member, I need to be notified when Geospatial attributes change, so that I can ensure that I am reviewing the permit/application to the most current data and appropriate standards.",0.9999545812606812,usability
57,"As a participant, I want to be able to change my estimate up until the last person selects a card and all are shown, so that I can change my mind based on information I hear.",0.9999545812606812,usability
58,"As a user, I want the flexfields in my submission file to appear in the warning and error files when the only error is a missing required element.",0.9997348189353943,usability
59,"As a participant, I want to always have the cards in the same order across multiple draws, so that it's easy to compare estimates.",0.9999545812606812,usability
60,"As a Data Consuming User, I want to be able to filter, sort and aggregate data by multiple dimensions and measures, So that I can get more granular views on the data.",0.9992805123329163,usability
61,"As a user, I want to have nice error pages when something goes wrong, so that I can trust the system and its developers.",0.999945878982544,usability
62,"As a UI designer, I want to report to the Agencies about user testing, so that they are aware of their contributions to making Broker a better UX.",0.9994890689849854,usability
63,"As a moderator, I want to add an item to the list of items to be estimated, so that so that we can be flexible and accommodate situations where we think of a new story while playing.",0.9999500513076782,usability
64,"As a user, I want to have the ability to move multiple files around and rearrange them using the Neurohub file browser while processing data.",0.9999402761459351,usability
65,"As a researcher, I want to promote/share my work through interactive maps, so that I can display the range and extent of my work graphically.",0.9990406632423401,usability
66,"As an Owner, I want to create a user testing summary from the UI SME, so that I can know what UI improvements we will follow through on.",0.999559223651886,usability
67,"As a FABS user, I want to submission errors to accurately represent FABS errors, so that I know why my submission didn't work.",0.9999151229858398,usability
68,"As a user, I want the publish button in FABS to deactivate after I click it while the derivations are happening, so that I cannot click it multiple times for the same submission.",0.9999469518661499,usability
69,"As a site visitor, I want to be able to get back to the home page quickly and easily, so that I don't get lost navigating.",0.9995661377906799,usability
70,"As a Data Consuming User, I want to have consistent use of colour on map visualisations, So that I can better understand the visual logic of the map view.",0.9982513785362244,usability
71,"As a depositor, I want to deposit and maintain datasets through Pure, so that I have a single onestop shop for managing my research outputs.",0.9994534850120544,usability
0,"As a Director of Research Integrity, I want to access reports containing details of research projects in which data are classified as sensitive or highly sensitive, so that I can confirm security protocols are applied to these data.",0.9998412132263184,security
1,"As an UnivITservice, I want to integrate the archive with existing university systems such as LDAP, so that the cost of administering the system can be kept low.",0.9999343156814575,security
2,"As an administrator, I want to assign RAC staff to different user groups, so that I can control read/write access.",0.9998689889907837,security
3,"As a Consumer, I want to know that the data I am downloading is good and can be relied on, so that that I don't have to check it myself or run into annoying bugs later on.",0.9986555576324463,security
4,"As an archivist, I want to restrict access to certain files by user, so that I can allow donor representatives to see certain files.",0.9998338222503662,security
5,"As an IT officer, I want to know how secure data is, so that I can ensure legal compliance.",0.9975569248199463,security
6,"As a collection curator housed in the Protected Data Network, I want my collection to be encrypted with a key maintained on that server, a checksum made and stored of the encrypted file, and the encrypted file replicated to our remote storage site.",0.9999545812606812,security
7,"As a data manager, I want to know the security requirements of the data, so that I can check whether the data can be kept secure.",0.9995518326759338,security
8,"As a collection curator, I would like to be able to view the permission on my objects all together.",0.9995619654655457,security
9,"As a parent, I want to be able to create an account, so that I can sign up my kids for camp online.",0.9996188879013062,security
10,"As a fundingbody, I want to be reassured that researchers I fund have robust archival plans for their data, so that I can be sure that funding them is a worthwhile investment.",0.9993599057197571,security
11,"As an OlderPerson, I want to be able to manage my privacy and data settings. ",0.9998192191123962,security
12,"As an admin, I want to have all data encrypted, so that important information will not be stolen during a server breach or an attack.",0.9998396635055542,security
13,"As a parent, I want to be able to sign and submit consent forms online, so that I don't have to deal with my child losing a consent form.",0.999624490737915,security
14,"As a MedicalCaregiver, I want to be sure that the user can decide who has access to her data. ",0.9990677237510681,security
15,"As an OlderPerson, I want to decide who has access to my vital data. ",0.9987395405769348,security
16,"As an archivist, I want to mark groups of files as restricted, so that they don't get shared by mistake.",0.9999545812606812,security
17,"As a User , I want to authenticate using LDAP.",0.9922296404838562,security
18,"As an externalcollaborator, I want to gain privileged access to data for projects in which I am involved, so that I can collaborate effectively.",0.9994446635246277,security
19,"As a moderator, I want to log in using my account name and password, so that I can start using the application.",0.9999545812606812,security
20,"As a moderator, I want to get a password reminder by email, so that I can get back to using the application when I've forgotten my password.",0.9999545812606812,security
21,"As the Digital Records Archivist, I need the batch ingest tool to recognize and set embargoes. Permissions for embargoed items should be allow everyone to view metadata and collection curator and repository administrators to be able to download the files.",0.99974125623703,security
22,"As an administrator, I want to check that all data has the appropriate security level, so that I can demonstrate compliance.",0.9983882904052734,security
23,"As an OlderPerson, I want to know exactly what ALFRED does with my personal data, and share it only on my specific permission. ",0.9998650550842285,security
24,"As a Publisher, I want to have private data packages, so that I can share just with my team.",0.9994964599609375,security
25,"As a Customer, I want to Create a Customer Portal User Account, so that I can log on to the Customer Portal and perform transactions that first require user authentication.",0.9999545812606812,security
26,"As an archivist, I want to mark individual files as restricted, so that they don't get shared by mistake.",0.999954104423523,security
27,"As an OlderPerson, I want to use ALFRED to pay for small amounts.",0.9971253275871277,security
28,"As a CST, I want to pay an annual fee, so that my CST status is active.",0.9999545812606812,security
29,"As a site member, I want to mark my email address as private even if the rest of my profile is not, so that no one can contact me.",0.9993682503700256,security
30,"As an archivist, I want to add restriction end date information to files, so that I can share files when they become open.",0.9997734427452087,security
31,"As a user,  I want to have the ability to keep my data private on the system, and only share data that I deem should be shared.",0.9997764229774475,security
32,"As a User, I want to authenticate locally.",0.998696506023407,security
33,"As an IT staff member, I want to know the security requirements of the data, so that I know which kind of security measures to apply.",0.999790608882904,security
34,"As a authenticateduser, I want to Enter payment information and have my card charged for an individual sponsorship, so that I can pay for an individual sponsorship.",0.9999545812606812,security
35,"As a collection curator, I want items to be made available under the permissions they were configured once the embargo date has been reached.",0.9999545812606812,security
36,"As a researcher, I want to secure remote access to the Neurohub node when working away from the laboratory",0.9994884729385376,security
37,"As an institutional data manager, I want to know about the privacy and security requirements of the data, so that I can plan the right storage system and sharing permissions.",0.9996293783187866,security
38,"As a researcher, I want to have a group-level repository for sharing papers/reviews/comments with other researchers.",0.9998927116394043,security
39,"As an administrator, I want to limit who can see certain metadata fields, so that I can show or hide things from display based on user groups.",0.9999176263809204,security
40,"As a faculty member, I want to go to my repository dashboard to manage members of my classes. I want to be able to grant submit permissions by pasting in a list of NetIDs, see confirmation that DDR recognizes the NetIDs, ability to manually remove permissions, ability to set begin and end dates for a submission window, and a have a status screen to clearly illustrate who has and hasn't submitted.",0.9999196529388428,security
41,"As a DB/IR administrator, I want to have a personal account with the ability to change passwords to make them more secure or to retrieve forgotten ones.",0.9999545812606812,security
42,As a collection curator I want to be able to change permissions on one or more items simultaneously.,0.9999425411224365,security
43,"As an administrator, I want to create user groups, so that I can control user permissions.",0.999934196472168,security
44,"As a collection curator, I want to be able require authentication to access objects unless the request is coming from a whitelisted IP address, list of addresses (like the Special Collections Reading Room, or range.",0.9987884163856506,security
45,"As a site editor, I want to be able to indicate whether an article is publicly available or for members only, so that visitors are incentivized to become members.",0.996523916721344,security
46,"As an administrator, I want to create user roles, so that I can group users by role.",0.9998618364334106,security
47,"As a DB/IR administrator, I want to login to personal account with access to authorized functions.",0.9999032020568848,security
48,"As an Application Administrator, I want to assign Users to an Advanced Data Entry and ensure that the appropriate permissions are enforced.",0.9998440742492676,security
49,"As a library staff member, I want to be able to add custom metadata fields for deposits I make on behalf of researchers to allow for better search capabilities.",0.9984958171844482,security
50,"As a superuser, I should be able to enter and exit the superuser scope.",0.9980111122131348,security
51,"As the Digital Records Archivist, I want to be able to grant embargo privileges to other repository administrators.",0.9997978806495667,security
52,"As a depositor, I want to link datasets with the project DMP, so that compliance with DMP can be demonstrated and whole project workflow is linked together.",0.9999291896820068,security
53,"As the Digital Records Archivist, I want a method to add and remove multiple people to deposit groups in specific collections. Ideally, I'd be able to set a date that the deposit window closes. The permissions conferred on these depositors should pick up on the collection's default permission.",0.9999545812606812,security
54,"As a PI, I want to know how secure data is, so that I can ensure legal compliance.",0.9929929971694946,security
55,"As a user, I want to be able to create an account, so that I can create my own profile.",0.9997779726982117,security
56,"As a DB/IR administrator, I want to administrate patron accounts for purpose of closing accounts, viewing subscriptions, changing subscriptions, resetting passwords, changing email address, etc.",0.9998661279678345,security
57,"As a repository manager, I want to know all the collections for which I have curatorial responsibility. ",0.9997113347053528,security
58,"As User, I want to be able to log in.",0.9984110593795776,security
59,"As a DAMS manager, I want know the dates for when a permission or restriction is active.  ",0.999674916267395,security
60,"As the Digital Records Archivist, I want the repository to lift embargoes on the release date and set the access controls to the configuration set on item on that date.",0.9981563687324524,security
61,"As a collection curator, I want to restrict access to my collection or items to Duke IP addresses.",0.9996241331100464,security
62,"As a user, I want to have my personal information kept securely in the database of the website, so that I will not suffer from identity theft or telephone harassment.",0.9998117089271545,security
63,"As a site member, I want to mark my profile as private in which case only my name will appear, so that no one can learn things about me I don't want shared.",0.9999051094055176,security
64,"As a legalofficer, I want to know about data sensitivity, so that I can establish sharing options.",0.9990118741989136,security
65,"As a moderator, I want to create an account for the application by entering my name, email address, a password and a username, so that I can start using the application.",0.9999545812606812,security
66,"As an administrator, I want to assign rights to user groups or roles, so that I can control what users can and can't do.",0.999853253364563,security
67,"As a DB/IR administrator, I want to set up or delete accounts for other administrators with various levels of permission.",0.9999545812606812,security
68,"As a authenticateduser, I want to identify myself as and pay for a $350 company sponsorship, so that I can easily become a sponsor at this level without having to interface with badcamp personnel to get a sponsorship.",0.9992668032646179,security
69,"As a research facility manager, I want to deposit data from my facility directly into the archive on behalf of researchers, so that I am no longer required to maintain my own archive of facility data and researchers can access their own data as needed. ",0.9994832277297974,security
70,"As an archivist, I want to restrict access to some files by IP address, so that I can give reading room access only to certain digital files.",0.9999070167541504,security
71,"As a repository manager, I want to know all the collections and objects in the DAMS for which I have custodial responsibility.  ",0.9997428059577942,security
72,"AS an externalcoordinator, I want to access data from Bath collaborators off campus, so that I can collaborate effectively.",0.9995976090431213,security
73,"As a collection curator, I want to allow some collections the option of setting an embargo date (e.g. 2017-01-01)at deposit. Item metadata should be discoverable until that date. Once the embargo date is reached, the embargo should be lifted and access to the item should be allowed under the access permissions set on the object.",0.9999545812606812,security
74,"As a Cornell faculty member, I want to login remotely to the repository using Shibboleth, so that I can get remote access to Cornell campus-only content.",0.9991669654846191,security
75,"As a depositor, I want to place data under an embargo, so that my right of first use is protected, and I can fulfil my confidentiality responsibilities.",0.9999545812606812,security
76,"As an admin, I want to be able to block specific users based on IP address, so that I can prevent spamming on the websites.",0.9999215602874756,security
77,"As an archivist, I want to add detailed restrictions to groups of files, so that I know if and how they can be shared.",0.9998503923416138,security
78,"As an administrator, I want to allow users to log in using Active Directory credentials, so that I don't have to manage another set of usernames and passwords.",0.9991676807403564,security
79,"As a Platform Administrator, I want to be able to Hide any dataset already added as Public, So that I can maintain Public/Hidden status for other users.",0.9995512366294861,security
80,"As a depositor, I want to allow others to deposit on my behalf, so that I can delegate research data management tasks appropriately.",0.9987390637397766,security
81,"As a collection curator, I would like an easy way to create groups of users to manage permissions in the repository.",0.9998542070388794,security
82,"As a FABS user, I want to have read-only access to DABS, so that I can view DABS pages without wanting two sets of permissions.",0.9980698227882385,security
83,"As an administrator, I want to have researchers reset their own passwords, so that I don't have to send passwords in cleartext.",0.9997561573982239,security
84,"As a Researcher, I want results to be stored in a non-identifiable way, so that I can study the data to see things like whether estimates converged around the first opinion given by ""estimator A"" for example.",0.9988859295845032,security
85,"As a library staff member, I want to upload material to the repository on the author's behalf, so that I can fulfill a service obligation.",0.9994020462036133,security
0,"As a Data Publishing User, I want to be able to edit the model of data I have already imported, So that I can fix bugs or make enhancements in the API built for my data.",0.9998865127563477,maintainability
1,"As a Broker user, I want to have PPoPZIP+4 work the same as the Legal Entity ZIP validations.",0.9993977546691895,maintainability
2,"As a dataset developer, I want to have the option of implementing a migration procedure that can be run after an upgrade of a dataset instance to a new version of it type. ",0.9997391104698181,maintainability
3,"As a developer, I want an online service that is connected to my data repository that validates data on update, so that I can delegate data validation to a third party. ",0.9992291927337646,maintainability
4,"As a team member, I want to have a platform that allows me to rapidly prototype HTML ideas.",0.9993875026702881,maintainability
5,"As a Data Publishing User, I want to have the Packager support Constants, So that I can model dimensions that may not exist in the source file.",0.9993851184844971,maintainability
6,"As a Developer, I want to list all DataPackages requirements for my project in the file and pin the exact versions of any DataPackage that my project depends on, so that that the project can be deterministically deployed locally and won't break because of the DataPackage schema changes. ",0.9997422099113464,maintainability
7,"As an UnivITservice, I want to store archived data on existing storage systems, so that university data storage is consistent and maintainable and future availability of data can be guaranteed.",0.9987021684646606,maintainability
8,"As an app developer, I want to share a dataset type across multiple applications that include the dataset type's code in their artifacts.",0.9997567534446716,maintainability
9,"As a developer, I want to use a configuration that is not prepackaged within a built version of application.",0.9981223940849304,maintainability
10,"As a plugin developer, I want to use a custom dataset type that was deployed independently or as part of an app inside the plugin. ",0.9986563920974731,maintainability
11,"As a dataset developer, I want to deploy a dataset type independent from any app and allow apps to create and use dataset instances of that type.",0.9949684739112854,maintainability
12,"As a Developer, I want to be able to customise the Brand Name and Icon, and Primary Color of all frontend Javascript apps, So that I can customise the branding for my own needs.",0.9987309575080872,maintainability
13,"As an NSF administrator, I want to shadow the CMS implementation, so that I can learn as the prototype is developed further.",0.9988870024681091,maintainability
14,"As a release engineer, I want to configure nightly builds that automatically perform a Neurohub installation on a virgin operating system, execute tests and report back results, without requiring any manual input/interaction.",0.999581515789032,maintainability
15,"As an app developer, I want to ensure that when I deploy a new version of an app that includes an older version of a dataset type deployed by another app and I expect that the dataset instances created by this app use the dataset type code included in this app.",0.9999294281005859,maintainability
16,"As a developer, I want a version of the DDR models gem that uses Active Fedora 9 and passes all tests on Fedora 4.",0.9997149109840393,maintainability
17,"As a Data Publishing User, I want to be able to edit the data source of data I have already imported, So that I can fix bugs or make enhancements in the API built for my data.",0.9998792409896851,maintainability
18,"As a developer, I want to have the API to be well defined and well documented. ",0.9985828399658203,maintainability
19,"As a tester, I want to have access to test features in environments other than Staging, so that I can test any nonProd feature in any environment.",0.9998586177825928,maintainability
20,"As a Web Developer, I want to be able to install multiple versions of the same datapackage separately, so that that all my projects could be developed independently and deployed locally.",0.9998307228088379,maintainability
21,"As a Developer I want to quickly access Broker application data, so that I can investigate issues.",0.9983508586883545,maintainability
22,"As a plugin developer, I want to upgrade the code of a dataset type used by a dataset instance created by that plugin when I deploy a new version of the plugin and update the pipeline to use that version.",0.9988901019096375,maintainability
23,"As a developer, I want to have the API components to be on a high level so that I don't have to deal with their details. ",0.9968838095664978,maintainability
24,"As a developer, I want a version of DUL Hydra that works with Active Fedora 9 and passes all tests.",0.9992755055427551,maintainability
25,"As a developer, I want a dummy app to test DDR models on Fedora 4.",0.999046266078949,maintainability
26,"As an app developer, I want to write unit tests for an app that depends on the interface of a dataset type.",0.9993821382522583,maintainability
27,"As an app developer, I want to ensure that when I deploy a new version of an app that includes a different version of a dataset type deployed by another app and this app shares a dataset instance of this type with the other app the deployment will fail with a version conflict error. ",0.9993927478790283,maintainability
28,"As a user, I want to update the properties of a dataset instance and I expect this to fail if the new properties are not compatible with a meaningful error message.",0.9961277842521667,maintainability
29,"As a Developer , I want to be able to log better, so that I can troubleshoot issues with particular submissions and functions.",0.997767448425293,maintainability
30,"As a system administrator, I want to run a script that tests to see if a Neurohub installation is functioning correctly.",0.9999234676361084,maintainability
31,"As Metadata Architect, I want to be able to use batch tools to ingest, update, and export descriptive and administrative metadata in lieu of METS ingest.",0.9998284578323364,maintainability
32,"As a developer, I want to deposit and maintain datasets via an API such as SWORD2, so that my service can interact with the archive. ",0.9984386563301086,maintainability
33,"As an app developer, I want to only depend on the interface of a dataset type in my app and have the system inject the implementation at runtime.",0.9995885491371155,maintainability
34,"As a release engineer, I want to call a script to execute acceptance tests against a Neurohub installation and report back the results.",0.9999276399612427,maintainability
35,"As a dataset developer, I want to separate the interface from the implementation of a dataset type.",0.9977380037307739,maintainability
36,"As repository developer, I want to find opportunities to merge functionality in batch tools.",0.9997922778129578,maintainability
37,"As a dataset developer, I want to have the option of forcing applications to have the dataset code injected at runtime.",0.9999377727508545,maintainability
38,"As a broker team member, I want to make some updates to the SQL codes for clarity.",0.9995915293693542,maintainability
39,"As an app developer, I want to deploy a new version of a dataset type as part of an app artifact, without affecting other datasets of this type.",0.9988951086997986,maintainability
40,"As a developer, I want to have the ALFRED API to reduce the work to achieve my goals. ",0.9995170831680298,maintainability
41,"As an Owner, I want to reset the environment to only take Staging MAX permissions, so that I can ensure that the FABS testers no longer have access.",0.9996123909950256,maintainability
42,"As a data scientist, I want to be able to upgrade a dataset instance to a new version of its code.",0.9987454414367676,maintainability
43,"As a tester, I want to ensure that FABS is deriving fields properly through a robust test file plus a follow up check.",0.9994075298309326,maintainability
44,"As an app developer, I want to deploy a new version of a dataset type as part of deploying a new version of the app that includes it and I expect that all dataset instances of that type that were created as part of the app deployment start using the new code.",0.9999545812606812,maintainability
45,"As a data scientist, I want to be able to create a dataset instance of an existing dataset type without writing code.",0.999544084072113,maintainability
46,"As a MedicalCaregiver, I want to have a simple ALFRED unit that is expandable in is functions. ",0.9994237422943115,maintainability
47,"As a UI designer, I want to track the issues that come up in Tech Thursday, so that I know what to test and what want s to be fixed.",0.9993632435798645,maintainability
48,"As a developer, I want a version of the DDR Batch gem that works with Active Fedora 9 and passes all tests on Fedora 4.",0.9998883008956909,maintainability
49,"As a UI designer, I want to report to the Agencies about user testing, so that they are aware of their contributions to making Broker a better UX.",0.9989032745361328,maintainability
50,"As a UI designer, I want to begin user testing, so that I can validate stakeholder UI improvement requests.",0.9999433755874634,maintainability
51,"As a Data Publishing User, I want to know if my CSV file is valid, So that I can fix possible data issues before publishing it on Open Spending.",0.9996638298034668,maintainability
52,"As an Owner, I want to create a user testing summary from the UI SME, so that I can know what UI improvements we will follow through on.",0.999508261680603,maintainability
0,"As a team member, I want to see the first iteration of beta up on cloud.gov.",0.998789370059967,portability
1,"As a Developer, I want to list all DataPackages requirements for my project in the file and pin the exact versions of any DataPackage that my project depends on, so that that the project can be deterministically deployed locally and won't break because of the DataPackage schema changes. ",0.9993450045585632,portability
2,"As a system administrator, I want to run a script that installs the Neurohub node onto a virgin Ubuntu operating system.",0.998936116695404,portability
3,"As an OlderPerson, I want to have ALFRED on all my computers, tablets and phone.",0.998124897480011,portability
4,"As a plugin developer, I want to use a custom dataset type that was deployed independently or as part of an app inside the plugin. ",0.998923122882843,portability
5,"As an NSF administrator, I want to shadow the CMS implementation, so that I can learn as the prototype is developed further.",0.9946757555007935,portability
6,"As a release engineer, I want to configure nightly builds that automatically perform a Neurohub installation on a virgin operating system, execute tests and report back results, without requiring any manual input/interaction.",0.9992734789848328,portability
7,"As an app developer, I want to ensure that when I deploy a new version of an app that includes an older version of a dataset type deployed by another app and I expect that the dataset instances created by this app use the dataset type code included in this app.",0.9962189793586731,portability
8,"As a developer, I want a version of the DDR models gem that uses Active Fedora 9 and passes all tests on Fedora 4.",0.9999545812606812,portability
9,"As a Web Developer, I want to be able to install multiple versions of the same datapackage separately, so that that all my projects could be developed independently and deployed locally.",0.9996514320373535,portability
10,"As a Cornell faculty member, I want to search the repository and browse through its contents on my phone, so that I can check things on the go.",0.9990047812461853,portability
11,"As a plugin developer, I want to upgrade the code of a dataset type used by a dataset instance created by that plugin when I deploy a new version of the plugin and update the pipeline to use that version.",0.9941657781600952,portability
12,"As a developer, I want a version of DUL Hydra that works with Active Fedora 9 and passes all tests.",0.9983065128326416,portability
13,"As a developer, I want a dummy app to test DDR models on Fedora 4.",0.9980879426002502,portability
14,"As a developer, I want to present my App in several ways. ",0.9973715543746948,portability
15,"As a repository developer, I would like to upgrade to Fedora 4 and migrate our applications and data.",0.9981603026390076,portability
16,"As a system administrator, I want to migrate data from an older version of NeuroHub to the current version.",0.9989223480224609,portability
17,"As an app developer, I want to deploy a new version of a dataset type as part of deploying a new version of the app that includes it and I expect that all dataset instances of that type that were created as part of the app deployment start using the new code.",0.9940324425697327,portability
18,"As an Admin, I want to set key configuration parameters for my site deployment, so that that I can change key information like the site title.",0.9976556301116943,portability
19,"As a repository administrator, I want author/creator to store the DUID of the person to allow for name authority control and interoperability with other systems like Symplectic Elements.",0.9970340728759766,portability
20,"As a systems administrator, I want  to install Neurohub dependencies into an Ubuntu 10.04 LTS machine using the normal Ubuntu package management tools.",0.9993818998336792,portability
21,"As a developer, I want a version of the DDR Batch gem that works with Active Fedora 9 and passes all tests on Fedora 4.",0.9999332427978516,portability
22,"As a user, I want to be able to access the site and do all the other stuffs on all of my electronic devices.",0.9961789846420288,portability
23,"As a Data Publishing User, I want to know if my CSV file is valid, So that I can fix possible data issues before publishing it on Open Spending.",0.9960492253303528,portability
