,US,pred,label
0,"As a depositor, I want to have guarantees about data integrity, so that I can use my data in the future and I can fulfil funder requirements for archival.",4.539787187241018e-05,reliability
1,"As a researcher, I want to indicate where my data will be stored during the project and where after the project, so that it remains accessible during all stages of the data lifecycle.",4.539787187241018e-05,reliability
2,"As a collection curator housed in the Protected Data Network, I want my collection to be encrypted with a key maintained on that server, a checksum made and stored of the encrypted file, and the encrypted file replicated to our remote storage site.",4.539787187241018e-05,reliability
3,"As an Archivist, I want to be able to understand that an error occurred during import and why it might have occurred.",4.539787187241018e-05,reliability
4,"As a data manager, I want to know whether the data can be reproduced efficiently, so that I can determine whether and how the data has to be stored.",4.539787187241018e-05,reliability
5,"As a researcher, I want to have services to support the long term curation of data, so that I can be sure that data will not get 'lost' with the passage of time.",4.539787187241018e-05,reliability
6,"As an app developer, I want to ensure that application creation fails if any of its datasets cannot be created.",4.539787187241018e-05,reliability
7,"As a fundingbody, I want to be reassured that researchers I fund have robust archival plans for their data, so that I can be sure that funding them is a worthwhile investment.",4.539787187241018e-05,reliability
8,"As an app developer, I want to ensure that application redeployment fails if any of its datasets cannot be reconfigured.",4.539787187241018e-05,reliability
9,"As a Consumer, I want to be able to get the data for a data package even if the original data has been moved or removed, so that that I can still use is and my app or analysis keeps working.",4.539787187241018e-05,reliability
10,"As a system administrator, I want to have a managed backup protocol for the system.",4.539787187241018e-05,reliability
11,"As a Publisher, I want to publish a data package where its resource data is stored on my servers but the registry caches a copy of that data, so that that if my data is lost or gets broken I still have a copy people can use.",4.539787187241018e-05,reliability
12,"As an asset manager, I want to be assured that the digital copy I deposit is stored redundantly, so that when one copy suffers destruction or unwanted changes, I still have other good copies to restore from.",4.539787187241018e-05,reliability
13,"As a Researcher, I want an app that create proxy Data Packages for well know and reliable data, sources, so that I can load high quality data using Data Package tooling. ",4.539787187241018e-05,reliability
14,"As a repository manager, I want to specify the remote replication policy for each collection. I want to be able to elect to either replicate remotely or not and possibly to replicate beyond the primary remote site. E.g., some collections may not leave Duke, some may be replicated to DuraCloud, and some may be replicated to both DuraCloud and Glacier.",4.539787187241018e-05,reliability
15,"As an asset manager, I want to be assured that threats to copies in one repository are not automatically incurred by the redundant copies.",4.539787187241018e-05,reliability
16,"As a user, I want to ensure that if reconfiguration of a dataset fails then no changes have taken effect, so that all steps required to reconfigure a dataset must be done as a single atomic action.",4.539787187241018e-05,reliability
17,"As a Publisher, I want to be able to restore the deleted data package via cli, so that that it is back visible and available to view, download.",4.539787187241018e-05,reliability
18,"As a library staff member, I want to deliver streaming media from within the repository, so that I can deliver such content in the manner expected and ensure continued access to said content.",4.539787187241018e-05,reliability
19,"As a pipeline designer, I want to get a meaningful error message when pipeline creation fails when I use an existing dataset as a sink or source, so that I know that the schema or any other property of the dataset is incompatible with what the pipeline requires. ",4.539787187241018e-05,reliability
20,"As a user, I want to ensure that an update of explore never leads to silent loss of data or data available for explore. ",4.539787187241018e-05,reliability
21,"As an asset manager, I want to be assured that the redundant copies are continuously monitored for unwanted changes, and that if/when changes do occur, there is a mechanism by which I can determine the original object and restore it to all copies.",4.539787187241018e-05,reliability
22,"As a dataset developer, I want to delete outdated versions of a dataset type and I expect this to fail if there are any dataset instances with that version of the type.",4.539787187241018e-05,reliability
23,"As an OlderPerson, I want to have an ALFRED device that informs me about a low battery when leaving the house. ",4.539787187241018e-05,reliability
24,"As a library staff member, I want to preserve both the content and the metadata within the repository in a robust manner, so that I can provide stable, long-term access to this material.",4.539787187241018e-05,reliability
