,US,pred,label
0,"As an archivist, I want to automatically create access derivatives of digital objects, so that I don't have to do this manually.",8.216882270062342e-05,usability
0,"As a Researcher, I want an app that create proxy Data Packages for well know and reliable data, sources, so that I can load high quality data using Data Package tooling. ",0.006069741677492857,reliability
