,US,pred,label
0,"As a Publisher, I want to be warned that a tag exists when I try to overwrite it, so that that I don't accidentally overwrite stable tagged data which is relied on by consumers.",0.9999545812606812,QA
1,"As a developer, I want a dummy app to test DDR models on Fedora 4.",0.9999545812606812,QA
2,"As a developer, I want to have created database indexes, so that the queries run as fast as possible.",0.9999545812606812,QA
3,"As the Digital Records Archivist, I want a method to add and remove multiple people to deposit groups in specific collections. Ideally, I'd be able to set a date that the deposit window closes. The permissions conferred on these depositors should pick up on the collection's default permission.",0.9999545812606812,QA
4,"As a Consumer, I want to know that the data I am downloading is good and can be relied on, so that that I don't have to check it myself or run into annoying bugs later on.",0.9999545812606812,QA
5,"As a participant, I want to always have the cards in the same order across multiple draws, so that it's easy to compare estimates.",0.999941349029541,QA
6,"As a ResearcherDeveloper, would like the ability import/export from MS-SQL, so that I can use Data Packages in workflows that involve MS-SQL. ",0.9998655319213867,QA
7,"As a Planning Staff member, I want to Generate Planning-related Reports, so that I can access, analyze and/or export the needed information in the format I requested.",0.9999521970748901,QA
8,"As a collection curator, I want to allow some collections the option of setting an embargo date (e.g. 2017-01-01)at deposit. Item metadata should be discoverable until that date. Once the embargo date is reached, the embargo should be lifted and access to the item should be allowed under the access permissions set on the object.",0.9999545812606812,QA
9,"As a dataset developer, I want to separate the interface from the implementation of a dataset type.",0.9999265670776367,QA
10,"As a library staff member, I want to be able to add custom metadata fields for deposits I make on behalf of researchers to allow for better search capabilities.",0.9997089505195618,QA
11,"As a user, I want to view user documentation for the website, so that I know how to use the web app.",0.9999302625656128,QA
12,"As an archivist, I want to automatically create access derivatives of digital objects, so that I don't have to do this manually.",0.9999545812606812,QA
13,"As a user, I want to specify schema as a JSON string.",0.999871015548706,QA
14,"As an OlderPerson, I want to use only well-visible buttons.",0.9999545812606812,QA
15,"As a participant, I want to have a small thumbnail photo displayed near where my cards are played, so that the game is more personal because I see who I'm estimating with.",0.9999545812606812,QA
16,"As Metadata Architect, I want to be able to use batch tools to ingest, update, and export descriptive and administrative metadata in lieu of METS ingest.",0.9998779296875,QA
17,"As a repository manager, I want to have metadata in additional languages, so that I can allow for multilingual data archive.",0.9999545812606812,QA
18,"As a member, I want to have the system email me a new password or a password reminder since i have short-term memory problems.",0.9999545812606812,QA
19,"As an Applicant, I want to Check the Status of a transaction, so that I can understand where the provisioning of my service is in the process, such as information related to service levels, fees, plan review, permit, or inspection results.",0.9999545812606812,QA
20,"As a Developer , I want to be able to log better, so that I can troubleshoot issues with particular submissions and functions.",0.9999545812606812,QA
21,"As an Archivist, I want to import only Agent and Subject information from MARCXML records.",0.9999287128448486,QA
22,"As a release engineer, I want to configure nightly builds that automatically perform a Neurohub installation on a virgin operating system, execute tests and report back results, without requiring any manual input/interaction.",0.9999545812606812,QA
23,"As a library staff member, I want to preserve both the content and the metadata within the repository in a robust manner, so that I can provide stable, long-term access to this material.",0.9999545812606812,QA
24,"As a user, I want the flexfields in my submission file to appear in the warning and error files when the only error is a missing required element.",0.9999545812606812,QA
25,"As a collection curator, when I update the metadata for an object, that change should be propagated to the DOI system if the repository has assigned a DOI to that object.",0.9998990297317505,QA
26,"As a Zooniverse admin, I want to perform automatic preclassification of plankton species in Plankton Portal images.",0.9999545812606812,QA
27,"As a moderator, I want to import stories from a spreadsheet, so that I don't have to copy and paste each individual story.",0.9999409914016724,QA
28,"As a Data Publishing User, I want to have a functioning Python Client, So that I can add data to the datastore in bulk from the command line or my own programs.",0.9999545812606812,QA
29,"As a user, I want to click on the address, so that it takes me to a new tab with Google Maps.",0.9999545812606812,QA
30,"As an Agency user, I want to accurately see who created a submission, so that I'm not confused about who last updated a submission.",0.9999545812606812,QA
31,"As a site editor, I want to be able to indicate whether an article is publicly available or for members only, so that visitors are incentivized to become members.",0.9999545812606812,QA
32,"As a ResearcherPublisher, I want an integration with Zenodo, so that when I store my dataset in GitHub, I don't have to retype descriptive information about my dataset. ",0.9999545812606812,QA
33,"As a user, I want the publish button in FABS to deactivate after I click it while the derivations are happening, so that I cannot click it multiple times for the same submission.",0.9999545812606812,QA
34,"As a publisher, I want to embed a preview button on my site, so that users can preview the data and be encouraged that this is the correct data for them.",0.9999545812606812,QA
35,"As a CST, I want to pay an annual fee, so that my CST status is active.",0.9999545812606812,QA
36,"As a developer, I want to use a configuration that is not prepackaged within a built version of application.",0.9999545812606812,QA
37,"As an archivist, I want to add detailed restrictions to groups of files, so that I know if and how they can be shared.",0.999940037727356,QA
38,"As a moderator, I want to log in using my account name and password, so that I can start using the application.",0.9999545812606812,QA
39,"As a repository operator, I want to know about the kind of data, so that I can evaluate the storage size and system.",0.9996627569198608,QA
40,"As a lab administrator, I want to theme the Web interface graphics/colours.",0.9999545812606812,QA
41,"As a patron, I want to view/upload content in multiple formats, including old formats such as Lotus Works.",0.9999545812606812,QA
42,"As a Data Publishing User, I want to be able to edit the model of data I have already imported, So that I can fix bugs or make enhancements in the API built for my data.",0.9999545812606812,QA
43,"As an archivist, I want to access the digital files on the X-drive, so that I can use them.",0.9999545812606812,QA
44,"As an archivist, I want to add restriction end date information to files, so that I can share files when they become open.",0.9999545812606812,QA
45,"As an IT staff member, I want to know which formats are used, so that I can determine what kind of technical services and functionalities are required.",0.9997596144676208,QA
46,"As a depositor, I want to have metadata automatically filled from other University systems and remembered from previous deposits, so that I don't have to waste time reentering the same information.",0.9999545812606812,QA
47,"As an app developer, I want to deploy a new version of a dataset type as part of deploying a new version of the app that includes it and I expect that all dataset instances of that type that were created as part of the app deployment start using the new code.",0.9999545812606812,QA
48,"As a Research Information manager, I want to integrate the archive with CRIS, so that I can analyse impact of research data publication I can link funding to all of the outputs it produces.",0.9999545812606812,QA
49,"As User, I want to be able to log in.",0.9996078610420227,QA
50,"As a authenticateduser, I want to identify myself as and pay for a $350 company sponsorship, so that I can easily become a sponsor at this level without having to interface with badcamp personnel to get a sponsorship.",0.9999545812606812,QA
51,"As a DB/IR administrator, I want to administrate patron accounts for purpose of closing accounts, viewing subscriptions, changing subscriptions, resetting passwords, changing email address, etc.",0.9999545812606812,QA
52,"As a Zooniverse admin, I want to perform automatic animal attribute preclassification in Snapshot Serengeti.",0.9999545812606812,QA
53,"As a FABS user, I want to have read-only access to DABS, so that I can view DABS pages without wanting two sets of permissions.",0.9999545812606812,QA
54,"As a Researcher, I want results to be stored in a non-identifiable way, so that I can study the data to see things like whether estimates converged around the first opinion given by ""estimator A"" for example.",0.9999456405639648,QA
55,"As a Publisher, I want to see real examples of published packages so that I can understand how useful and simple the datapackage format and the registry is.",0.9999545812606812,QA
56,"As a user, I want to ensure that if reconfiguration of a dataset fails then no changes have taken effect, so that all steps required to reconfigure a dataset must be done as a single atomic action.",0.9999545812606812,QA
57,"As a fundingbody, I want to be reassured that researchers I fund have robust archival plans for their data, so that I can be sure that funding them is a worthwhile investment.",0.9999545812606812,QA
58,"As a user, I want to update the properties of a dataset instance and I expect this to fail if the new properties are not compatible with a meaningful error message.",0.9999545812606812,QA
59,"As a Data Publishing User, I want to be able to provide the Platform Administrator with additional GeoJSON sources, So that I can improve the map-based visualisations of my data.",0.9999545812606812,QA
60,"As an archivist, I want to mark groups of files as restricted, so that they don't get shared by mistake.",0.9999545812606812,QA
61,"As a Publisher, I want to be able to preview the views of the current data package using cli prior to publishing, so that that I can refine the json declarations of datapackage view section to achieve a great looking result.",0.9999545812606812,QA
62,"As a Platform administrator, I want to be able to translate the data types hierarchies of the Viewer while in embed mode, So that my users can understand the interface in their native language.",0.9998393058776855,QA
63,"As a Consumer, I want to see some example data packages quickly, so that I get a sense of what is on this site and if it is useful to look further.",0.9999545812606812,QA
64,"As an Archivist, I want to import Accessions data in CSV.",0.9999545812606812,QA
65,"As an Admin, I want to set key configuration parameters for my site deployment, so that that I can change key information like the site title.",0.9999545812606812,QA
66,"As a collection curator, I would like metadata changes made to items with repository-assigned DOIs to be propagated to the EZID.",0.999873161315918,QA
67,"As a Developer, I want D Files generation requests to be managed and cached, so that duplicate requests do not cause performance issues.",0.9999545812606812,QA
68,"As a Director of Research Integrity, I want to access reports containing details of research projects in which data are classified as sensitive or highly sensitive, so that I can confirm security protocols are applied to these data.",0.9999545812606812,QA
69,"As a Developer, I want to prevent duplicate transactions from being published and deal with the time gap between validation and the publishing decision.",0.9999545812606812,QA
70,"As an OlderPerson, I want to insert my meetings into ALFRED using speech. ",0.9999526739120483,QA
71,"As a Developer, I want an Elasticsearch integration, so that I can integrate data-packaged data with pipelines that use Elasticsearch. ",0.9999545812606812,QA
72,"As a Developer, I want to get a Data Package into C++ in seconds, so that I can start using the data in doing analysis and visualizations. ",0.9999545812606812,QA
73,"As a Researcher, I want to get a Data Package into Julia in seconds, so that I can start using the data for doing analysis and visualizations. ",0.9999545812606812,QA
74,"As a user, I want to sync events created in NeuroHub with a web-based Calendar such as Google Calendar.",0.9999545812606812,QA
75,"As an OlderPerson, I want to have an ALFRED device that speaks very slowly and clearly.",0.9999545812606812,QA
76,"As a researcher, I want to import metadata that I captured with a metadata tool, so that I do not have to capture it again in a DMP.",0.9999545812606812,QA
77,"As an archivist, I want to use archival content on the RAC website, so that I can integrate our collections into our web presence.",0.9999545812606812,QA
78,"As a data scientist, I want to be able to upgrade a dataset instance to a new version of its code.",0.9999457597732544,QA
79,"As an OlderPerson, I want to have a very good battery for ALFRED so I can keep him on the whole day.",0.9999545812606812,QA
80,"As a serious games developer, I want to be able to take control over some functions to provide the desired user experience. ",0.9999545812606812,QA
81,"As an app developer, I want to ensure that application creation fails if any of its datasets cannot be created.",0.9999195337295532,QA
82,"As a broker team member, I want to make some updates to the SQL codes for clarity.",0.9999545812606812,QA
83,"As a Data Publishing User, I want to be able to import data in JSON, So that I do not have to convert data formats in order to use the data packager.",0.9999545812606812,QA
84,"As an IT staff member, I want to know with which software or technology the data is produced or used, so that I can determine what kind of technical services and functionalities are required.",0.999954104423523,QA
85,"As an asset manager, I want to be assured that threats to copies in one repository are not automatically incurred by the redundant copies.",0.9997290968894958,QA
86,"As a Developer, I want a DAT integration, so that I can integrate data-packaged data with pipelines that use DAT. ",0.9999545812606812,QA
87,"As a library staff member, I want to make digital items held in trusted external system searchable within our system, so that I can provide seamless access to disparate collections.",0.999729573726654,QA
88,"As a participant, I want to be able to change my estimate up until the last person selects a card and all are shown, so that I can change my mind based on information I hear.",0.9999545812606812,QA
89,"As an IT staff member, I want to have an estimate of the produced data volume, so that I can plan the overall storage consumption.",0.9999545812606812,QA
90,"As a repository administrator, I would like Symplectic Elements to be able to communicate bidirectionally with the repository.",0.9999545812606812,QA
91,"As an Agency user, I want to be able to include a large number of flexfields without performance impact.",0.999953031539917,QA
92,"As a collection curator, I want to deposit items into the repository from within ArchivesSpace and to view the status of those objects in ArchivesSpace.",0.9999545812606812,QA
93,"As a Zooniverse admin, I want to perform automatic worm motion analysis to reduce video duration in Worm Watch Lab.",0.9999545812606812,QA
94,"As a DAMS manager, I want know the dates for when a permission or restriction is active.  ",0.9998401403427124,QA
95,"As an OlderPerson, I want to know exactly what ALFRED does with my personal data, and share it only on my specific permission. ",0.999920129776001,QA
96,"As a researcher, I want to promote/share my work through interactive maps, so that I can display the range and extent of my work graphically.",0.9999545812606812,QA
97,"As a depositor, I want to have guarantees about data integrity, so that I can use my data in the future and I can fulfil funder requirements for archival.",0.9999545812606812,QA
98,"As a Developer, I want to use data package as a node lib in my project, so that that I can depend on it using my normal dependency framework.",0.9999545812606812,QA
99,"As a researcher, I want to secure remote access to the Neurohub node when working away from the laboratory",0.9999545812606812,QA
100,"As a depositor, I want to link datasets to publications in Opus, so that both my data and publications are more easily discovered.",0.9998635053634644,QA
101,"As a researcher, I want to upload files prior to having them attached to a log book page using a mapped network drive.",0.9999545812606812,QA
102,"As a developer, I want a version of the DDR Batch gem that works with Active Fedora 9 and passes all tests on Fedora 4.",0.9999545812606812,QA
103,"As a Web Developer, I want to be able to install multiple versions of the same datapackage separately, so that that all my projects could be developed independently and deployed locally.",0.9999545812606812,QA
104,"As a developer, I would like to create a web socket protocol for Frictionless data tools, so that I can easily use data packages with additional data analysis tools. ",0.9999545812606812,QA
105,"As an owner, I want to be sure that USAspending only send grant records to my system.",0.9999368190765381,QA
106,"As a researcher, I want to have services to support the long term curation of data, so that I can be sure that data will not get 'lost' with the passage of time.",0.9998830556869507,QA
107,"As an institutional data manager, I want to know about the privacy and security requirements of the data, so that I can plan the right storage system and sharing permissions.",0.9999545812606812,QA
108,"As a Developer, I want to get a Data Package into Clojure in seconds, so that I can start using the data in doing analysis and visualizations. ",0.9999545812606812,QA
109,"As a parent, I want to be able to create an account, so that I can sign up my kids for camp online.",0.9995160102844238,QA
110,"As an administrator, I want to create user groups, so that I can control user permissions.",0.9999545812606812,QA
111,"As a developer, I want a version of the DDR models gem that uses Active Fedora 9 and passes all tests on Fedora 4.",0.9999545812606812,QA
112,"As a moderator, I want to add an item to the list of items to be estimated, so that so that we can be flexible and accommodate situations where we think of a new story while playing.",0.9999545812606812,QA
113,"As a developer, I want to access an API from the website, so that I can integrate it and implement certain features in my own iOS application.",0.9999545812606812,QA
114,"As an OlderPerson, I want to have an ALFRED device that responds to the changing demand of the users by offering new Apps in the ALFREDO platform.",0.9999545812606812,QA
115,"As a Developer , I want to develop a custom importer.",0.9999545812606812,QA
116,"As an administrator, I want to check that all data has the appropriate security level, so that I can demonstrate compliance.",0.9999545812606812,QA
117,"As a Cornell faculty member, I want to login remotely to the repository using Shibboleth, so that I can get remote access to Cornell campus-only content.",0.9999545812606812,QA
118,"As a data reuser, I want to access the system in my native language, so that I am not put off reusing University of Bath data by language barriers.",0.9999545812606812,QA
119,"As a systems administrator, I want to be able to control the location of the demo database and I want it to be backed up.",0.9999545812606812,QA
120,"As a non-Duke researcher, I and my team need to describe our objects in the repository after they've been deposited if we've been assigned permission to edit metadata.",0.9997945427894592,QA
121,"As a Publisher, I want to data to be validated when I publish it, so that that I know immediately if I have accidentally broken my data or have bugs and can take action to correct.",0.9991534948348999,QA
122,"As a user, I want to be able to anonymously view public information, so that I know about recycling centers near me before creating an account.",0.9998884201049805,QA
123,"As a Data Consuming User, I want to be able to filter, sort and aggregate data by multiple dimensions and measures, So that I can get more granular views on the data.",0.9999545812606812,QA
124,"As a moderator, I want to get a password reminder by email, so that I can get back to using the application when I've forgotten my password.",0.9998831748962402,QA
125,"As an IT staff member, I want to know the security requirements of the data, so that I know which kind of security measures to apply.",0.9996042847633362,QA
126,"As lab administrator, I want to have increased access to the system to support regular users. ",0.9998317956924438,QA
127,"As a depositor, I want to deposit and maintain datasets through Virtual Research Environments and other workflow tools, so that I can continue to work with tools with which I'm familiar.",0.9999545812606812,QA
128,"As an administrator, I want to allow users to log in using Active Directory credentials, so that I don't have to manage another set of usernames and passwords.",0.9999545812606812,QA
129,"As repository developer, I want to find opportunities to merge functionality in batch tools.",0.999943733215332,QA
130,"As a Platform Administrator, I want to be able to Hide any dataset already added as Public, So that I can maintain Public/Hidden status for other users.",0.9998871088027954,QA
131,"As a dataset developer, I want to have the option of implementing a migration procedure that can be run after an upgrade of a dataset instance to a new version of it type. ",0.9995720982551575,QA
132,"As a site visitor, I want to be able to get back to the home page quickly and easily, so that I don't get lost navigating.",0.9999545812606812,QA
133,"As an app developer, I want to ensure that application redeployment fails if any of its datasets cannot be reconfigured.",0.9999545812606812,QA
134,"As a user, I want to get feedback when I enter an invalid zip code.",0.9999545812606812,QA
135,"As a UI designer, I want to redesign the Resources page, so that it matches the new Broker design styles.",0.9997943043708801,QA
136,"As a administrator, I want to tag my blog posts for consumption by Drupal Planet, so that they will be listed on the Drupal Planet blog.",0.9999545812606812,QA
137,"As a collection curator, I want items to be made available under the permissions they were configured once the embargo date has been reached.",0.9998571872711182,QA
138,"As an agency user, I want the maximum length allowed for LegalEntityAddressLine3 to match Schema v1.1.",0.9999545812606812,QA
139,"As a Developer I want to quickly access Broker application data, so that I can investigate issues.",0.9999545812606812,QA
140,"As a plugin developer, I want to upgrade the code of a dataset type used by a dataset instance created by that plugin when I deploy a new version of the plugin and update the pipeline to use that version.",0.9999545812606812,QA
141,"As an archivist, I want to restrict access to some files by IP address, so that I can give reading room access only to certain digital files.",0.9999088048934937,QA
142,"As an Application Administrator, I want to assign Users to an Advanced Data Entry and ensure that the appropriate permissions are enforced.",0.9999545812606812,QA
143,"As a ProspectiveApplicant, I want to research requirements and to select a service, so that I can find the relevant service and/or application type to initiate via the online portal.",0.9999545812606812,QA
144,"As a user, I want to search and discover music using content identification or fingerprinting.",0.9994102716445923,QA
145,"As repository manager, I'd like to be able to view authenticated, active users and anonymous users.",0.9985839128494263,QA
146,"As a participant, I want to immediately see that an estimate has been given by a specific estimator, so that I know who has already given an estimate and who we're still waiting for.",0.9996367692947388,QA
147,"As an Owner, I want to create a user testing summary from the UI SME, so that I can know what UI improvements we will follow through on.",0.9999545812606812,QA
148,"As a developer, I want to have the application function correctly in Internet Explorer 6 and 7, Firefox 1.5 and 2, and Safari 2, so that as many people as possible can fully use the application.",0.9999545812606812,QA
149,"As a collection curator, I want to restrict access to my collection or items to Duke IP addresses.",0.9999545812606812,QA
150,"As an archivist, I want to search images by uploading an image, so that so I can find images when i don't have any metadata.",0.9999473094940186,QA
151,"As a Researcher, working with data, I want an Microsoft Power BI integration, so that I can import datasets without downloading them locally. ",0.9999545812606812,QA
152,"As a developer, I want an DSpace integration, so that I can integrate data-packaged data with pipelines that use Dspace. ",0.9999545812606812,QA
153,"As a developer, I want to have written a site which is compliant with XHTML and CSS standards, so that as many people as possible can access the site and view it as intended.",0.9999545812606812,QA
154,"As an archivist, I want to mark individual files as restricted, so that they don't get shared by mistake.",0.9999545812606812,QA
155,"As a ResearcherPublisher, I want to understand the ways in which my data is invalid, so that I can know how to fix it. ",0.9999545812606812,QA
156,"As a metadata editor, I would like to be able to add and edit metadata without assistance.",0.9999545812606812,QA
157,"As a Researcher, I want to be able to translate my EML dataset to a Data Package, so that I can benefit from the wide array of tools available for Data Packages. ",0.9999426603317261,QA
158,"As a library staff member, I want to upload material to the repository on the author's behalf, so that I can fulfill a service obligation.",0.9999545812606812,QA
159,"As a site member, I want to mark my email address as private even if the rest of my profile is not, so that no one can contact me.",0.999936580657959,QA
160,"As a FABS user, I do not want  DABS banner messages and vice versa, so that I have the appropriate information for my application.",0.9999545812606812,QA
161,"As an admin, I want to view user error logs, so that I can fix or review any issues that are being faced by users of the system.",0.9999545812606812,QA
162,"As a researcher, I want to discover items in the repository through the library's discovery system and Google, so that I can facilitate my easy use of the content.",0.9998884201049805,QA
163,"As a company, I want to have a website that is easy to use, so that I can upload or delete stuff step by step.",0.9999545812606812,QA
164,"As a Publisher, I want to be able to restore the deleted data package via cli, so that that it is back visible and available to view, download.",0.9998049139976501,QA
165,"As a Developer, I want to do exploratory data analysis in R and operationalize that analysis in Python, so that I can use the best tool for the job.",0.9999545812606812,QA
166,"As a Researcher, I want to get a Data Package into R in seconds, so that I can start using the data for doing analysis and visualizations. ",0.9998792409896851,QA
167,"As a DeveloperDataWrangler, I want to store my Data Package in GitHub and have it automatically stored into CKAN, so that I get a data API and my dataset is listed in a relevant catalog. ",0.9999545812606812,QA
168,"As a developer, I want to have the site comply with the W3C accessibility guidelines where possible, so that people with accessibility issues can use the application.",0.9999545812606812,QA
169,"As an Archivist, I want to export agent records as EAC-CPF.",0.9998195767402649,QA
170,"As a moderator, I want to export a transcript of a game as a HTML file, so that I can save the stories and estimates locally.",0.9994810223579407,QA
171,"As a developer, I want to have the API components to be on a high level so that I don't have to deal with their details. ",0.9998170733451843,QA
172,"As an API User, I want to be able to get a CSV output of any cube-based query, So that I can use work with tools that read CSV.",0.9997007846832275,QA
173,"As a user, I want to specify schema as a SQL schema string.",0.9999545812606812,QA
174,"As a Researcher, I want an integration with https://data.mendeley.com/, so that I can validate my data upon ingest to the service.",0.9999545812606812,QA
175,"As a UI designer, I want to begin user testing, so that I can validate stakeholder UI improvement requests.",0.9999545812606812,QA
176,"As an Application Administrator, I want to be able to reset a User's password for them.",0.9998775720596313,QA
177,"As a user, I want to draw tables using HTML tags as part of the content of a log book page.",0.9998214840888977,QA
178,"As a participant, I want to be shown all estimates at the same time after all estimators have given their estimate, so that I can be sure estimates are independent and not influenced by other estimates given in the same draw.",0.9999545812606812,QA
179,"As a UI designer, I want to track the issues that come up in Tech Thursday, so that I know what to test and what want s to be fixed.",0.9999542236328125,QA
180,"As a moderator, I want to see dates and times in my local timezone, so that I don't have to do timezone conversion myself.",0.9997661709785461,QA
181,"As an app developer, I want to ensure that when I deploy a new version of an app that includes a shared dataset type that all dataset instances created by this app start using the new code but all dataset instances created by other apps remain unchanged.",0.9999545812606812,QA
182,"As a parent, I want to be able to sign and submit consent forms online, so that I don't have to deal with my child losing a consent form.",0.999583899974823,QA
183,"As a moderator, I want to copy/paste stories from a spreadsheet, so that I can get started more quickly.",0.9999136924743652,QA
184,"As a Machine Learning expert, I would like to package ML datasets as data packages, so that I can easily import them into my ML platform, so that I can start using the data in doing analysis. ",0.9999455213546753,QA
185,"As a developer, I want to use bootstrap in the process of developing, so that I can easily design my website.",0.9999545812606812,QA
186,"As a FABS user, I want the language on FABS pages to be appropriate for me, so that I am not confused.",0.9996960163116455,QA
187,"As a superuser, I should be able to enter and exit the superuser scope.",0.9998261332511902,QA
188,"As a user, I want to have nice error pages when something goes wrong, so that I can trust the system and its developers.",0.9999545812606812,QA
189,"As a institutional data steward, I want to be able to extract the data sets that are submitted to external repositories, so that I can add them to an institutional data catalogue.",0.9999545812606812,QA
190,"As a publisher, I want to embed an interactive preview of my data on my site, so that users can be encouraged that this is the correct data for them. ",0.9999545812606812,QA
191,"As a FABS user, I want to see correct status labels on the Submission Dashboard, so that I can quickly see my submission history.",0.9998377561569214,QA
192,"As an Owner, I want to reset the environment to only take Staging MAX permissions, so that I can ensure that the FABS testers no longer have access.",0.9999545812606812,QA
193,"As an app developer, I want to share a dataset type across multiple applications that include the dataset type's code in their artifacts.",0.9999545812606812,QA
194,"As an OlderPerson, I want to have my data stored directly on the phone.",0.9998761415481567,QA
195,"As a user, I want to have the option to tell Neurohub to push posted content to my Twitter feed at the same time.",0.9996259212493896,QA
196,"As a repository administrator, I want to provide a Linked Data interface to the repository.",0.9998914003372192,QA
197,"As a data reuser, I want to search the archive through Primo , so that I can search books, articles and data all in one place.",0.9986556768417358,QA
198,"As a Cornell faculty member, I want to share on the repository files that are larger than 1GB in a way that still allows users to download them if I want to use them, so that I can meet funder requirements.",0.9999545812606812,QA
199,"As a Researcher, I want to get my Excel spreadsheet into a Data Package, so that I can benefit from better tooling and standardization. ",0.9999545812606812,QA
200,"As an OlderPerson, I want to have an ALFRED device that informs me about a low battery when leaving the house. ",0.9999032020568848,QA
201,"As a trainer, I want to load an Excel file into the site, so that the course participants are added to the Scrum Alliance records.",0.9999473094940186,QA
202,"As a library staff member, I want to deliver streaming media from within the repository, so that I can deliver such content in the manner expected and ensure continued access to said content.",0.9996997117996216,QA
203,"As a ResearcherPublisher, I want to publish Data Packages to CKAN, so that my data is findable, and I can have a data API. ",0.999895453453064,QA
204,"As an UnivITservice, I want to store archived data on existing storage systems, so that university data storage is consistent and maintainable and future availability of data can be guaranteed.",0.9999545812606812,QA
205,"As a Broker user, I want to have PPoPZIP+4 work the same as the Legal Entity ZIP validations.",0.9999545812606812,QA
206,"As a data reuser, I want to view a DOI for a dataset, so that I can get back to the data in future and I can import the dataset into my referencemanagement software automatically.",0.9998425245285034,QA
207,"As a repository manager, I want to know all the collections for which I have curatorial responsibility. ",0.9999545812606812,QA
208,"As the Digital Records Archivist, I want the repository to lift embargoes on the release date and set the access controls to the configuration set on item on that date.",0.9998884201049805,QA
209,"As a researcher,  I want to have the ability to interact with a revision control system so that I can keep track of changes to files over time.",0.9999545812606812,QA
210,"As an IT manager, I want to know about IT resource requirements early in the project lifecycle, so that I can enable resource acquisition planning.",0.9999147653579712,QA
211,"As a Publisher, I would like an integration with Open Refine, so that I can output cleaned Data Packages. ",0.9999545812606812,QA
212,"As a donor representative, I want to see thumbnails of images, so that I can select which one I want.",0.9990354776382446,QA
213,"As an agency user, I want the FABS validation rules to accept zero and blank for non-loan records.",0.9998620748519897,QA
214,"As a tester, I want to have access to test features in environments other than Staging, so that I can test any nonProd feature in any environment.",0.9998608827590942,QA
215,"As a system administrator, I want to migrate data from an older version of NeuroHub to the current version.",0.9993189573287964,QA
216,"As a FABS user, I want the frontend URLs to more accurately reflect the page I'm accessing, so that I'm not confused.",0.9999545812606812,QA
217,"As a MedicalCaregiver, I want to have a simple ALFRED unit that is expandable in is functions. ",0.9999545812606812,QA
218,"As a user, I want to have the application respond quickly to my actions, so that I don't get bored.",0.9999454021453857,QA
219,"As a Broker user, I want the D1 file generation to be synced with the FPDS data load, so that I don't have to regenerate a file if no data has been updated.",0.9999545812606812,QA
220,"As the Digital Records Archivist, I want to be able to grant embargo privileges to other repository administrators.",0.9999545812606812,QA
221,"As a Researcher, I want to get a Data Package into LibreOffice/OpenOffice in seconds, so that I can start using the data for doing analysis and visualizations. ",0.9999545812606812,QA
222,"As a dataset developer, I want to delete outdated versions of a dataset type and I expect this to fail if there are any dataset instances with that version of the type.",0.9999508857727051,QA
223,"As a Consumer, I want to download a DataPackage's data one coherent SQLite database, so that that I can get it easily in one form.",0.9999545812606812,QA
224,"As an Archivist, I want to upload an EAD for import from within the frontend application.",0.9999545812606812,QA
225,"As a depositor, I want to deposit arbitrarily large files, so that I am not limited in what files I can and cannot deposit.",0.9999545812606812,QA
226,"As a Developer, I want a Mongo integration, so that I can integrate data-packaged data with pipelines that use Mongo. ",0.9999545812606812,QA
227,"As a Zooniverse admin, I want to detect when a scientist should be prompted to look at a subject, based on annotations and information from Talk comments.",0.9999463558197021,QA
228,"As a systems administrator, I want  to install Neurohub dependencies into an Ubuntu 10.04 LTS machine using the normal Ubuntu package management tools.",0.9999383687973022,QA
229,"As a system administrator, I want to have a managed backup protocol for the system.",0.9999383687973022,QA
230,"As a Data Publishing User, I want to be able to import data from a Google Spreadsheet, So that I do not have to convert data formats in order to use the data packager.",0.9999545812606812,QA
231,"As a system administrator, I want to run a script that installs the Neurohub node onto a virgin Ubuntu operating system.",0.9999545812606812,QA
232,"As a Zooniverse admin, I want to assess how interesting or appealing or complex a picture is based on automated analysis, citizen annotations, and comments on Talk.",0.9999545812606812,QA
233,"As a user, I want to upload my week's schedule, so that I can get recommendations for recycling centers that best fit my availability.",0.9999545812606812,QA
234,"As a Consumer, I want to download the data package in one file, so that that I don't have to download descriptor and each resource by hand.",0.9998964071273804,QA
235,"As a tester, I want to ensure that FABS is deriving fields properly through a robust test file plus a follow up check.",0.9999545812606812,QA
236,"As a pipeline designer, I want to get a meaningful error message when pipeline creation fails when I use an existing dataset as a sink or source, so that I know that the schema or any other property of the dataset is incompatible with what the pipeline requires. ",0.9999545812606812,QA
237,"As an agency user, I want to use the schema v1.1 headers in my FABS file.",0.9999545812606812,QA
238,"As a dataset developer, I want to deploy a dataset type independent from any app and allow apps to create and use dataset instances of that type.",0.9999545812606812,QA
239,"As a repository manager, I want to constrain curatorial access to my units assets to staff members of my unit and to DAMS managers having universal access.    ",0.9999545812606812,QA
240,"As a site editor, I want to have a prominent area on the home page where I can put special announcements not necessarily news or articles, so that I can give them additional exposure.",0.9999545812606812,QA
241,"As a MedicalCaregiver, I want to be sure that the user can decide who has access to her data. ",0.9993458390235901,QA
242,"As a Technical Staff member, I want to update the GIS Property Management, so that I can successfully update the transactional Parcel Pin to reference the GIS layer where the Split or Merged Parcel Pin exists.",0.9999427795410156,QA
243,"As a user, I want to upload large files of over 1GB in size.",0.9999545812606812,QA
244,"As a user, I want to navigate forwards and backwards between log books and log book pages without having to use my browser's back button.",0.9999545812606812,QA
245,"As a researcher,  I want to have the ability to restrict the data I share to certain researchers or groups of researchers.",0.9998825788497925,QA
246,"As a collection curator, I want the repository to queue my collection for replication upon ingest to our remote storage site and to display the remote replication status in each item and component page in the staff interface. I would also like to see a summary of this at the collection level on my dashboard.",0.9999545812606812,QA
247,"As a Data Publishing User, I want to be able to import data in Excel, So that I do not have to convert data formats in order to use the data packager.",0.9999545812606812,QA
248,"As a developer, I want a version of DUL Hydra that works with Active Fedora 9 and passes all tests.",0.9999545812606812,QA
249,"As the Digital Records Archivist, I need a method to batch ingest ETDs we receive from ProQuest. A script might work, but a GUI would be nice.",0.9995842576026917,QA
250,"As a ResearcherPublisher, I want validate my data with a minimum of clicks, so that I can feel trust in the validity and usefulness of the data. ",0.9999542236328125,QA
251,"As a Developer, I want an SPSS integration, so that I can integrate data-packaged data with pipelines that use SPSS. ",0.9999545812606812,QA
252,"As a Zooniverse admin, I want to perform automatic animal number detection in Snapshot Serengeti.",0.9999545812606812,QA
253,"As a dataset developer, I want to have the option of forcing applications to have the dataset code injected at runtime.",0.9996417760848999,QA
254,"As a collection curator, I would like to be able to view the permission on my objects all together.",0.99967360496521,QA
255,"As a Zooniverse admin, I want to perform automatic segmentation or localization of plankton in Plankton Portal.",0.9999545812606812,QA
256,"As an UnivITservice, I want to store archived data directly on the HCP object store, so that  features can be made.",0.9999419450759888,QA
257,"As a dataset developer, I want to deploy a new version of a dataset type without affecting the dataset instances of that type.",0.9999545812606812,QA
258,"As an Archivist, I want to import EAD data.",0.9999545812606812,QA
259,"As a moderator, I want to export a transcript of a game as a CSV file, so that I can further process the stories and estimates.",0.9998611211776733,QA
260,"As a Broker user, I want  to help create content mockups, so that I can submit my data efficiently.",0.9999237060546875,QA
261,"As an administrator, I want to be able to use systems such as Symplectic Elements and Activity Insight to properly track faculty scholarly output in the repositories, so that I can facilitate personnel decisions.",0.9999545812606812,QA
262,"As a Developer, I want the data loaded from historical FABS to include the FREC derivations, so that I can have consistent FREC data for USASpending.gov.",0.999839186668396,QA
263,"As a FABS user, I want to submission errors to accurately represent FABS errors, so that I know why my submission didn't work.",0.9999545812606812,QA
264,"As a Zooniverse admin, I want to perform automatic animal species preclassification in Snapshot Serengeti.",0.9999545812606812,QA
265,"As a Researcher, I want to get a Data Package into STATA in seconds, so that I can start using the data for doing analysis and visualizations. ",0.9999545812606812,QA
266,"As an asset manager, I want to be assured that the redundant copies are continuously monitored for unwanted changes, and that if/when changes do occur, there is a mechanism by which I can determine the original object and restore it to all copies.",0.999915361404419,QA
267,"As a legalofficer, I want to know about data sensitivity, so that I can establish sharing options.",0.9999545812606812,QA
268,"As a content editor, I want to be able to add videos from Brightcove.",0.9997856020927429,QA
269,"As a Publisher, I want to preview a datapackage I have prepared, so that that I can check it works and share the results.",0.9999442100524902,QA
270,"As a Cornell faculty member, I want to search the repository and browse through its contents on my phone, so that I can check things on the go.",0.9994383454322815,QA
271,"As a Publisher, I want to have private data packages, so that I can share just with my team.",0.9999545812606812,QA
272,"As a Developer, I want Feather integration, so that I can integrate data-packaged data with pipelines that use Feather. ",0.9999545812606812,QA
273,"As a Data Publishing User, I want to know if my CSV file is valid, So that I can fix possible data issues before publishing it on Open Spending.",0.9999545812606812,QA
274,"As a Staff member, I need to be notified when Geospatial attributes change, so that I can ensure that I am reviewing the permit/application to the most current data and appropriate standards.",0.9999545812606812,QA
275,"As a plugin developer, I want to use a custom dataset type that was deployed independently or as part of an app inside the plugin. ",0.9999270439147949,QA
276,As a collection curator I want to be able to change permissions on one or more items simultaneously.,0.9998289346694946,QA
277,"As a Data Consuming User, I want to see textual descriptions that accompany embedded visualisations, So that I can more easily understand what I am viewing.",0.9999545812606812,QA
278,"As a repository administrator, I want author/creator to store the DUID of the person to allow for name authority control and interoperability with other systems like Symplectic Elements.",0.9999545812606812,QA
279,"As a Developer, I want to get a Data Package into Julia in seconds, so that I can start using the data in doing analysis and visualizations. ",0.9999545812606812,QA
280,"As a publisher, I want to be able to check that every time I update my data it is still good, so that I can catch errors early and store reliable data. ",0.9999545812606812,QA
281,"As a metadata batch editor, I want to export the CSV, remove the fields I'm not editing, edit the remaining fields, and upload the remediated file to overwrite values",0.9999198913574219,QA
282,"As a Consumer, I want to load a Data Package from R, so that that I can immediately start playing with it.",0.9999545812606812,QA
283,"As a repository administrator, I want Symplectic Elements to integrate with DDR. They provide a Fedora Connector and Emory is using a hidden Fedora instance that Hydra collects objects for. Note that there is bidirectional communication with Elements.",0.9999545812606812,QA
284,"As a user, I want to have my personal information kept securely in the database of the website, so that I will not suffer from identity theft or telephone harassment.",0.9999545812606812,QA
285,"As a Developer , I want to clarify to users what exactly is triggering the CFDA error code in each case.",0.9999545812606812,QA
286,"As a FABS user, I want to have my validations run in a reasonable amount of time.",0.9999545812606812,QA
287,"As a user, I want to ensure that an update of explore never leads to silent loss of data or data available for explore. ",0.9998363256454468,QA
288,"As a user, I want to be able to use Unicode, so that I can use any language I like.",0.9998102784156799,QA
289,"As an Archivist, I want to import Resources from MARCXML records.",0.9999241828918457,QA
290,"As a researcher, I want to have the ability to insert Greek symbols into my logbook entries.",0.9999545812606812,QA
291,"As an asset manager, I want to be assured that the digital copy I deposit is stored redundantly, so that when one copy suffers destruction or unwanted changes, I still have other good copies to restore from.",0.9999545812606812,QA
292,"As a depositor, I want to deposit and maintain datasets through Pure, so that I have a single onestop shop for managing my research outputs.",0.9999545812606812,QA
293,"As a depositor, I want to link datasets with the project DMP, so that compliance with DMP can be demonstrated and whole project workflow is linked together.",0.9993100166320801,QA
294,"As a Researcher, I want an app that create proxy Data Packages for well know and reliable data, sources, so that I can load high quality data using Data Package tooling. ",0.9998810291290283,QA
295,"As a Consumer, I want to be able to get the data for a data package even if the original data has been moved or removed, so that that I can still use is and my app or analysis keeps working.",0.9999545812606812,QA
296,"As a developer, I want to deposit and maintain datasets via an API such as SWORD2, so that my service can interact with the archive. ",0.9997261166572571,QA
297,"As an OlderPerson, I want to be able to manage my privacy and data settings. ",0.9997989535331726,QA
298,"As a Researcher, working with data in NetCDF, I want NetCDF integration, so that I can store my data in plaintext while still retaining its metadata. ",0.9997125267982483,QA
299,"As the Digital Records Archivist, I need the batch ingest tool to recognize and set embargoes. Permissions for embargoed items should be allow everyone to view metadata and collection curator and repository administrators to be able to download the files.",0.9998451471328735,QA
300,"As a researcher, I want to indicate where my data will be stored during the project and where after the project, so that it remains accessible during all stages of the data lifecycle.",0.9999227523803711,QA
301,"As a user, I want to view thumbnail sequences of video segments.",0.9999545812606812,QA
302,"As a developer, I want to have an easy way to read data from health sensors the user is wearing. ",0.9999545812606812,QA
303,"As a research facility manager, I want to deposit data from my facility directly into the archive on behalf of researchers, so that I am no longer required to maintain my own archive of facility data and researchers can access their own data as needed. ",0.9986353516578674,QA
304,"As a release engineer, I want to call a script to execute acceptance tests against a Neurohub installation and report back the results.",0.9999545812606812,QA
305,"As a depositor, I want to place data under an embargo, so that my right of first use is protected, and I can fulfil my confidentiality responsibilities.",0.99973064661026,QA
306,"As a Zooniverse admin, I want to perform automatic detection of plankton size or orientation in Plankton Portal images.",0.9999545812606812,QA
307,"As a team member, I want to see the first iteration of beta up on cloud.gov.",0.9999299049377441,QA
308,"As a trainer, I want to be assured that no one can submit the same answers multiple time and skew my results, so that my ratings are accurate.",0.9999545812606812,QA
309,"As a researcher, I want to access files stored in my Neurohub workspace, using a network drive attached to my workstation.",0.9999545812606812,QA
310,"As an archive, I want to get information about the volume of data to preserve at an early stage, so that I can provide the adequate storage infrastructure.",0.9999545812606812,QA
311,"As a Data Consuming User, I want to have consistent use of colour on map visualisations, So that I can better understand the visual logic of the map view.",0.9999545812606812,QA
312,"As a PI, I want to know how secure data is, so that I can ensure legal compliance.",0.9999545812606812,QA
313,"As an OlderPerson, I want to use ALFRED to pay for small amounts.",0.9999536275863647,QA
314,"As an agency user, I want to submit my data elements surrounded by quotation marks, so that Excel won't strip off leading and trailing zeroes.",0.9999545812606812,QA
315,"As a Data Publishing User, I want to be able to edit the data source of data I have already imported, So that I can fix bugs or make enhancements in the API built for my data.",0.9998698234558105,QA
316,"As an UnivITservice, I want to integrate the archive with existing university systems such as LDAP, so that the cost of administering the system can be kept low.",0.9999185800552368,QA
317,"As an app developer, I want to write unit tests for an app that depends on the interface of a dataset type.",0.9999545812606812,QA
318,"As an agency user, I want to be confident that the data coming from SAM is complete.",0.9996672868728638,QA
319,"As a developer, determine if we can use the in-built Fedora 4 event audit services.",0.9999545812606812,QA
320,"As an externalcollaborator, I want to gain privileged access to data for projects in which I am involved, so that I can collaborate effectively.",0.9999545812606812,QA
321,"As a User , I want to authenticate using LDAP.",0.9999545812606812,QA
322,"As a repository developer, I would like to upgrade to Fedora 4 and migrate our applications and data.",0.9999545812606812,QA
323,"As an IT officer, I want to know how secure data is, so that I can ensure legal compliance.",0.9999545812606812,QA
324,"As a repository administrator, I would like to be able to continue to provide access to the repository in the event that the server fails.",0.9999545812606812,QA
325,"As an app developer, I want to deploy a new version of a dataset type as part of an app artifact, without affecting other datasets of this type.",0.9999545812606812,QA
326,"AS an externalcoordinator, I want to access data from Bath collaborators off campus, so that I can collaborate effectively.",0.9999343156814575,QA
327,"As a Data Consuming User, I want to be able to download a CSV of the data that is used in any visualisation I am viewing, So that I can use the data in other tools.",0.9995735287666321,QA
328,"As a Publisher, I want to publish a data package where its resource data is stored on my servers but the registry caches a copy of that data, so that that if my data is lost or gets broken I still have a copy people can use.",0.9999545812606812,QA
329,"As a user,  I want to have the ability to keep my data private on the system, and only share data that I deem should be shared.",0.9999545812606812,QA
330,"As a Customer, I want to Create a Customer Portal User Account, so that I can log on to the Customer Portal and perform transactions that first require user authentication.",0.9989527463912964,QA
331,"As a repository manager, I want to know all the collections and objects in the DAMS for which I have custodial responsibility.  ",0.9999545812606812,QA
332,"As a developer, I want to have my App to be granted access to several operating system features. ",0.9999545812606812,QA
333,"As a user, I want to have a great UI and UX from the sites, so that I have a pleasant experience when navigating through them.",0.9999545812606812,QA
334,"As an OlderPerson, I want to have an ALFRED device that can be easily adapted for user that have visual or hearing troubles.",0.9998787641525269,QA
335,"As a researcher, I want to point my Mendeley client at a group-wide shared repository of research papers and get notifications via Mendeley when new content is added.",0.999903678894043,QA
336,"As a Developer, I want to list all DataPackages requirements for my project in the file and pin the exact versions of any DataPackage that my project depends on, so that that the project can be deterministically deployed locally and won't break because of the DataPackage schema changes. ",0.9997926354408264,QA
337,"As a authenticateduser, I want to Enter payment information and have my card charged for an individual sponsorship, so that I can pay for an individual sponsorship.",0.9999545812606812,QA
338,"As an Archivist, I want to import EAD files that were exported by the Archivists' Toolkit.",0.999915599822998,QA
339,"As a user, I want to view the group's shared calendars via the Neurohub Nodes' Web page as well as on my mobile device.",0.9999545812606812,QA
340,"As an Agency user, I want to better understand my file-level errors.",0.9999545812606812,QA
341,"As an OlderPerson, I want to do guided exercises with ALFRED and ALFRED should also use sensors to capture health data while I am doing exercises. ",0.9999545812606812,QA
342,"As a data manager, I want to know the security requirements of the data, so that I can check whether the data can be kept secure.",0.9999545812606812,QA
343,"As an NSF administrator, I want to shadow the CMS implementation, so that I can learn as the prototype is developed further.",0.9998992681503296,QA
344,"As a system administrator, I want to run a script that tests to see if a Neurohub installation is functioning correctly.",0.9999545812606812,QA
345,"As a researcher, I want the DMP to prepopulate information that I have already entered in other institutional systems, so that I do not have to re-enter information ensuring the DMP contains accurate and standardized information.",0.9999545812606812,QA
346,"As a developer, I want to attend some UI/UX lessons, so that I can develop an awesome and beautiful features website.",0.9999545812606812,QA
347,"As a Researcher, I want an app that generates an OpenRefine reconciliation API endpoint from a Tabular Data Package, so that I can use it to clean messy data. ",0.9999545812606812,QA
348,"As a depositor, I want to allow others to deposit on my behalf, so that I can delegate research data management tasks appropriately.",0.9998631477355957,QA
349,"As a Research Information manager, I want to track citation counts for published datasets, so that impact of datasets within academia can be demonstrated.",0.999915599822998,QA
350,"As a agency user, I want to map the FederalActionObligation properly to the Atom Feed.",0.9999545812606812,QA
351,"As an OlderPerson, I want to use ALFRED to maintain my contact list in my phone. ",0.9996234178543091,QA
352,"As a metadata batch editor, I'd like to be able to export and import descriptive and administrative metadata for multiple collections together.",0.9992971420288086,QA
353,"As an administrator, I want to assign RAC staff to different user groups, so that I can control read/write access.",0.9996321201324463,QA
354,"As a collection curator housed in the Protected Data Network, I want my collection to be encrypted with a key maintained on that server, a checksum made and stored of the encrypted file, and the encrypted file replicated to our remote storage site.",0.9999545812606812,QA
355,"As a site member, I want to mark my profile as private in which case only my name will appear, so that no one can learn things about me I don't want shared.",0.9984248876571655,QA
356,"As a developer, I want to have the API to be well defined and well documented. ",0.9999545812606812,QA
357,"As a UI designer, I want to report to the Agencies about user testing, so that they are aware of their contributions to making Broker a better UX.",0.9999545812606812,QA
358,"As an assistant archivist, I want to easily access interdepartmental forms.",0.9999545812606812,QA
359,"As a Developer, I want a jQuery plugin for Core Data Packages, so that I can use it to apply to form control that uses a core dataset for autocompletion. ",0.9998936653137207,QA
360,"As an Archivist, I want to export a description as EAD.",0.9992266893386841,QA
361,"As a Zooniverse admin, I want to automatically detect Plankton Portal images with no classifiable plankton in them.",0.9999545812606812,QA
362,"As a Publisher, I would like an integration with Excel, so that I can output cleaned Data Packages. ",0.9999545812606812,QA
363,"As a user, I want to see sensible and predictable URLs, so that the application feels logical and transparent.",0.9999545812606812,QA
364,"As an administrator, I want to create user roles, so that I can group users by role.",0.9999330043792725,QA
365,"As a repository manager, I'd like to be able to export a spreadsheet of technical metadata at the repository, collection, or item level.",0.9986372590065002,QA
366,"As a PI, I want to plan what kind of data I want to record/store, so that I can ensure it will possible to store it.",0.9994462132453918,QA
367,"As an Archivist, I want to be able to understand that an error occurred during import and why it might have occurred.",0.9999417066574097,QA
368,"As a Developer, I want to get a Data Package into Python in seconds, so that I can start using the data for doing analysis and visualizations. ",0.9999545812606812,QA
369,"As an admin, I want to have all data encrypted, so that important information will not be stolen during a server breach or an attack.",0.9998750686645508,QA
370,"As a Developer, I want to be able to customise the Brand Name and Icon, and Primary Color of all frontend Javascript apps, So that I can customise the branding for my own needs.",0.999901533126831,QA
371,"As an administrator, I want to assign rights to user groups or roles, so that I can control what users can and can't do.",0.999581515789032,QA
372,"As an administrator, I want to have researchers reset their own passwords, so that I don't have to send passwords in cleartext.",0.9998540878295898,QA
373,"As a County Staff Member, I want to create a custom query/report outside of the common querying/reporting functionality, so that I can fulfill a request.",0.9998408555984497,QA
374,"As a repository manager, I want to specify the remote replication policy for each collection. I want to be able to elect to either replicate remotely or not and possibly to replicate beyond the primary remote site. E.g., some collections may not leave Duke, some may be replicated to DuraCloud, and some may be replicated to both DuraCloud and Glacier.",0.9998717308044434,QA
375,"As a user, I want to be able to access the site and do all the other stuffs on all of my electronic devices.",0.9999545812606812,QA
376,"As a data depositor, I'd like to use the Simple Ingest Format to update existing items and components creating new versions where they already exist and creating new ones where the don't.",0.99993896484375,QA
377,"As an OlderPerson, I want to decide who has access to my vital data. ",0.9997043013572693,QA
378,"As an Agency user, I want to receive a more helpful file-level error when I upload a file with the wrong extension.",0.9999545812606812,QA
379,"As a Researcher, I want to get a Data Package into Excel in seconds, so that I can start using the data for doing analysis and visualizations. ",0.9999545812606812,QA
380,"As a developer, I want to have the ALFRED API to reduce the work to achieve my goals. ",0.9996460676193237,QA
381,"As a Developer, I want HDF5 integration, so that I can integrate data-packaged data with pipelines that use HDF5.",0.9999545812606812,QA
382,"As a Staff member, I want to Send or Post Citations and Fines, so that I can successfully send the Notice Of Violation document to the property owner and log information about the action.",0.999180257320404,QA
383,"As a DB/IR administrator, I want to login to personal account with access to authorized functions.",0.9999545812606812,QA
384,"As a collection curator, I would like an easy way to create groups of users to manage permissions in the repository.",0.9999281167984009,QA
385,"As a team member, I want to have a platform that allows me to rapidly prototype HTML ideas.",0.9998548030853271,QA
386,"As a Data Consuming User, I want to be able to have stepped zoom on map visualisations, So that I can have better control over the navigation experience inside a map view.",0.9999545812606812,QA
387,"As an Archivist, I want to import Agent information from EAC-CPF records.",0.9998574256896973,QA
388,"As a Researcher, I want to get a Data Package into SPSS in seconds, so that I can start using the data for doing analysis and visualizations. ",0.999945878982544,QA
389,"As a faculty member, I want to go to my repository dashboard to manage members of my classes. I want to be able to grant submit permissions by pasting in a list of NetIDs, see confirmation that DDR recognizes the NetIDs, ability to manually remove permissions, ability to set begin and end dates for a submission window, and a have a status screen to clearly illustrate who has and hasn't submitted.",0.9999545812606812,QA
390,"As a DeveloperWrangler, I want to use a command line tool that allows me to validate data, so that I can feel trust in the validity and usefulness of the data quickly and in the context of my command line workflow. ",0.9999545812606812,QA
391,"As a developer, I want to present my App in several ways. ",0.9999545812606812,QA
