,US,pred,label
0,"As a Developer, I want to get a Data Package into Python in seconds, so that I can start using the data for doing analysis and visualizations. ",0.9999545812606812,performance
1,"As a developer, I want to have created database indexes, so that the queries run as fast as possible.",0.9999545812606812,performance
2,"As a repository operator, I want to know about the kind of data, so that I can evaluate the storage size and system.",0.9999545812606812,performance
3,"As a PI, I want to plan what kind of data I want to record/store, so that I can ensure it will possible to store it.",0.9999545812606812,performance
4,"As an institutional data manager, I want to know about the privacy and security requirements of the data, so that I can plan the right storage system and sharing permissions.",0.9998418092727661,performance
5,"As an Agency user, I want to be able to include a large number of flexfields without performance impact.",0.9998514652252197,performance
6,"As a Researcher, I want to get a Data Package into Excel in seconds, so that I can start using the data for doing analysis and visualizations. ",0.9999545812606812,performance
7,"As an OlderPerson, I want to have a very good battery for ALFRED so I can keep him on the whole day.",0.9998947381973267,performance
8,"As a Researcher, I want to get a Data Package into LibreOffice/OpenOffice in seconds, so that I can start using the data for doing analysis and visualizations. ",0.9999545812606812,performance
9,"As a user, I want to have the application respond quickly to my actions, so that I don't get bored.",0.9997535347938538,performance
10,"As a user, I want to upload large files of over 1GB in size.",0.9998569488525391,performance
11,"As a Researcher, I want to get a Data Package into Julia in seconds, so that I can start using the data for doing analysis and visualizations. ",0.9999545812606812,performance
12,"As a Researcher, I want to get a Data Package into LibreOffice/OpenOffice in seconds, so that I can start using the data for doing analysis and visualizations. ",0.9999545812606812,performance
13,"As a Cornell faculty member, I want to share on the repository files that are larger than 1GB in a way that still allows users to download them if I want to use them, so that I can meet funder requirements.",0.9999545812606812,performance
14,"As an institutional data manager, I want to know about the privacy and security requirements of the data, so that I can plan the right storage system and sharing permissions.",0.9998418092727661,performance
15,"As a depositor, I want to deposit arbitrarily large files, so that I am not limited in what files I can and cannot deposit.",0.9996986389160156,performance
16,"As a Developer, I want to get a Data Package into Julia in seconds, so that I can start using the data in doing analysis and visualizations. ",0.9999545812606812,performance
17,"As a Developer, I want to get a Data Package into Julia in seconds, so that I can start using the data in doing analysis and visualizations. ",0.9999545812606812,performance
0,"As a Developer, I want to get a Data Package into Python in seconds, so that I can start using the data for doing analysis and visualizations. ",0.9993416666984558,compatibility
1,"As a developer, I want to have the API components to be on a high level so that I don't have to deal with their details. ",0.9925145506858826,compatibility
2,"As a Technical Staff member, I want to update the GIS Property Management, so that I can successfully update the transactional Parcel Pin to reference the GIS layer where the Split or Merged Parcel Pin exists.",0.9996495246887207,compatibility
3,"As a User , I want to authenticate using LDAP.",0.9981483221054077,compatibility
4,"As a Research Information manager, I want to track citation counts for published datasets, so that impact of datasets within academia can be demonstrated.",0.9958265423774719,compatibility
5,"As an OlderPerson, I want to have my data stored directly on the phone.",0.9988393187522888,compatibility
6,"As a Developer, I want to do exploratory data analysis in R and operationalize that analysis in Python, so that I can use the best tool for the job.",0.9991889595985413,compatibility
7,"As Metadata Architect, I want to be able to use batch tools to ingest, update, and export descriptive and administrative metadata in lieu of METS ingest.",0.99403977394104,compatibility
8,"As an Archivist, I want to import EAD files that were exported by the Archivists' Toolkit.",0.998863697052002,compatibility
9,"As a data reuser, I want to search the archive through Primo , so that I can search books, articles and data all in one place.",0.997701108455658,compatibility
10,"As a Zooniverse admin, I want to perform automatic animal species preclassification in Snapshot Serengeti.",0.9977155923843384,compatibility
11,"As an agency user, I want the maximum length allowed for LegalEntityAddressLine3 to match Schema v1.1.",0.9994595646858215,compatibility
12,"As a Zooniverse admin, I want to detect when a scientist should be prompted to look at a subject, based on annotations and information from Talk comments.",0.9996140599250793,compatibility
13,"As a Data Publishing User, I want to be able to edit the model of data I have already imported, So that I can fix bugs or make enhancements in the API built for my data.",0.9984501600265503,compatibility
14,"As an agency user, I want to use the schema v1.1 headers in my FABS file.",0.9993813037872314,compatibility
15,"As a data depositor, I'd like to use the Simple Ingest Format to update existing items and components creating new versions where they already exist and creating new ones where the don't.",0.9962060451507568,compatibility
16,"As a user, I want to have that my Twitter Tweets to appear in Neurohub, so that other researchers in the centre can see what I am up to.",0.999177873134613,compatibility
17,"As a Researcher, I want to get a Data Package into Excel in seconds, so that I can start using the data for doing analysis and visualizations. ",0.9990798234939575,compatibility
18,"As a researcher, I want the DMP to prepopulate information that I have already entered in other institutional systems, so that I do not have to re-enter information ensuring the DMP contains accurate and standardized information.",0.9956902861595154,compatibility
19,"As a user, I want to click on the address, so that it takes me to a new tab with Google Maps.",0.9982641339302063,compatibility
20,"As a Researcher, I want to get a Data Package into LibreOffice/OpenOffice in seconds, so that I can start using the data for doing analysis and visualizations. ",0.9991235136985779,compatibility
21,"As a ResearcherDeveloper, would like the ability import/export from MS-SQL, so that I can use Data Packages in workflows that involve MS-SQL. ",0.999954342842102,compatibility
22,"As a user, I want to specify schema as a SQL schema string.",0.9996912479400635,compatibility
23,"As a researcher, I want to access files stored in my Neurohub workspace, using a network drive attached to my workstation.",0.997967541217804,compatibility
24,"As a developer, I want to deposit and maintain datasets via an API such as SWORD2, so that my service can interact with the archive. ",0.9964182376861572,compatibility
25,"As a Researcher, I want to be able to translate my EML dataset to a Data Package, so that I can benefit from the wide array of tools available for Data Packages. ",0.9963323473930359,compatibility
26,"As a Researcher, I want to get a Data Package into Julia in seconds, so that I can start using the data for doing analysis and visualizations. ",0.9990097284317017,compatibility
27,"As an API User, I want to be able to get a CSV output of any cube-based query, So that I can use work with tools that read CSV.",0.9989418387413025,compatibility
28,"As a user, I want to have the option to tell Neurohub to push posted content to my Twitter feed at the same time.",0.9993519186973572,compatibility
29,"As a Developer, I want the data loaded from historical FABS to include the FREC derivations, so that I can have consistent FREC data for USASpending.gov.",0.9987778067588806,compatibility
30,"As a Researcher, I want to get a Data Package into LibreOffice/OpenOffice in seconds, so that I can start using the data for doing analysis and visualizations. ",0.9991235136985779,compatibility
31,"As a Planning Staff member, I want to Generate Planning-related Reports, so that I can access, analyze and/or export the needed information in the format I requested.",0.9998395442962646,compatibility
32,"As a developer, I would like to create a web socket protocol for Frictionless data tools, so that I can easily use data packages with additional data analysis tools. ",0.9994199275970459,compatibility
33,"As a Developer , I want to develop a custom importer.",0.9977752566337585,compatibility
34,"As an archivist, I want to automatically create access derivatives of digital objects, so that I don't have to do this manually.",0.9935185313224792,compatibility
35,"As an Archivist, I want to import Resources from MARCXML records.",0.9992857575416565,compatibility
36,"As a researcher,  I want to have the ability to interact with a revision control system so that I can keep track of changes to files over time.",0.9914104342460632,compatibility
37,"As a repository administrator, I would like Symplectic Elements to be able to communicate bidirectionally with the repository.",0.9975284934043884,compatibility
38,"As a Data Publishing User, I want to have a functioning Python Client, So that I can add data to the datastore in bulk from the command line or my own programs.",0.9999059438705444,compatibility
39,"As an agency user, I want to be confident that the data coming from SAM is complete.",0.99703049659729,compatibility
40,"As a Developer, I want an EPrints integration, so that I can integrate data-packaged data with pipelines that use EPrints. ",0.999297022819519,compatibility
41,"As an Archivist, I want to import Accessions data in CSV.",0.9988818764686584,compatibility
42,"As a Data Publishing User, I want to be able to import data from a Google Spreadsheet, So that I do not have to convert data formats in order to use the data packager.",0.9999545812606812,compatibility
43,"As a library staff member, I want to make digital items held in trusted external system searchable within our system, so that I can provide seamless access to disparate collections.",0.9987565279006958,compatibility
44,"As a research facility manager, I want to deposit data from my facility directly into the archive on behalf of researchers, so that I am no longer required to maintain my own archive of facility data and researchers can access their own data as needed. ",0.9990750551223755,compatibility
45,"As a developer, I want an DSpace integration, so that I can integrate data-packaged data with pipelines that use Dspace. ",0.9994522929191589,compatibility
46,"As a researcher, I want to import metadata that I captured with a metadata tool, so that I do not have to capture it again in a DMP.",0.9921038150787354,compatibility
47,"As a User , I want to authenticate using LDAP.",0.9981483221054077,compatibility
48,"As a patron, I want to download report/dataset release calendar to load into own calendar.",0.9984900951385498,compatibility
49,"As a Researcher, I want to be able to reference a remote-controlled vocabulary for my dataset, so that I can be sure that column of my dataset are valid against a single shared list of terms. ",0.9948877692222595,compatibility
50,"As an Archivist, I want to import Agent information from EAC-CPF records.",0.9988566637039185,compatibility
51,"As a team member, I want to have a platform that allows me to rapidly prototype HTML ideas.",0.9989738464355469,compatibility
52,"As a collection curator, I would like metadata changes made to items with repository-assigned DOIs to be propagated to the EZID.",0.998224675655365,compatibility
53,"As a depositor, I want to deposit arbitrarily large files, so that I am not limited in what files I can and cannot deposit.",0.9957418441772461,compatibility
54,"As a Zooniverse admin, I want to perform automatic preclassification of plankton species in Plankton Portal images.",0.9994822144508362,compatibility
55,"As a developer, I want to have the application function correctly in Internet Explorer 6 and 7, Firefox 1.5 and 2, and Safari 2, so that as many people as possible can fully use the application.",0.9994624257087708,compatibility
56,"As a collection curator, I want to deposit items into the repository from within ArchivesSpace and to view the status of those objects in ArchivesSpace.",0.9981908202171326,compatibility
57,"As a repository administrator, I want author/creator to store the DUID of the person to allow for name authority control and interoperability with other systems like Symplectic Elements.",0.9991251826286316,compatibility
58,"As a research facility manager, I want to deposit data from my facility directly into the archive on behalf of researchers, so that I am no longer required to maintain my own archive of facility data and researchers can access their own data as needed. ",0.9990750551223755,compatibility
59,"As a developer, I want to use bootstrap in the process of developing, so that I can easily design my website.",0.9953662157058716,compatibility
60,"As a repository administrator, I want Symplectic Elements to integrate with DDR. They provide a Fedora Connector and Emory is using a hidden Fedora instance that Hydra collects objects for. Note that there is bidirectional communication with Elements.",0.9997074007987976,compatibility
61,"As a Data Publishing User, I want to be able to import data in JSON, So that I do not have to convert data formats in order to use the data packager.",0.9990314245223999,compatibility
62,"As a moderator, I want to import stories from a spreadsheet, so that I don't have to copy and paste each individual story.",0.9997005462646484,compatibility
63,"As a Developer, I want to get a Data Package into Julia in seconds, so that I can start using the data in doing analysis and visualizations. ",0.9994804263114929,compatibility
64,"As a user, I want to sync events created in NeuroHub with a web-based Calendar such as Google Calendar.",0.9997835755348206,compatibility
65,"As a metadata batch editor, I want to export the CSV, remove the fields I'm not editing, edit the remaining fields, and upload the remediated file to overwrite values",0.9997618794441223,compatibility
66,"As a repository manager, I'd like to be able to export a spreadsheet of technical metadata at the repository, collection, or item level.",0.9961344003677368,compatibility
67,"As a institutional data steward, I want to be able to extract the data sets that are submitted to external repositories, so that I can add them to an institutional data catalogue.",0.9976050853729248,compatibility
68,"As a user, I want to upload my week's schedule, so that I can get recommendations for recycling centers that best fit my availability.",0.9986473917961121,compatibility
69,"As a user, I want to view the group's shared calendars via the Neurohub Nodes' Web page as well as on my mobile device.",0.9978629946708679,compatibility
70,"As a Visitor, I want to sign up via github or google, so that that I don't have to enter lots of information and remember my password for yet another website.",0.995225191116333,compatibility
71,"As a researcher, I want to point my Mendeley client at a group-wide shared repository of research papers and get notifications via Mendeley when new content is added.",0.9978504180908203,compatibility
72,"As a Zooniverse admin, I want to perform automatic detection of plankton size or orientation in Plankton Portal images.",0.9952310919761658,compatibility
73,"As a Developer, I want to get a Data Package into Julia in seconds, so that I can start using the data in doing analysis and visualizations. ",0.9994804263114929,compatibility
74,"As a depositor, I want to link datasets to publications in Opus, so that both my data and publications are more easily discovered.",0.9989098310470581,compatibility
75,"As a Zooniverse admin, I want to perform automatic segmentation or localization of plankton in Plankton Portal.",0.9990149736404419,compatibility
76,"As a Data Publishing User, I want to be able to import data in Excel, So that I do not have to convert data formats in order to use the data packager.",0.9989113807678223,compatibility
77,"As a DeveloperWrangler, I want to use a command line tool that allows me to validate data, so that I can feel trust in the validity and usefulness of the data quickly and in the context of my command line workflow. ",0.9987976551055908,compatibility
78,"As an owner, I want to be sure that USAspending only send grant records to my system.",0.9962654709815979,compatibility
79,"As a user, I want to view the group's shared calendars via the Neurohub Nodes' Web page as well as on my mobile device.",0.9978629946708679,compatibility
80,"As a Data Publishing User, I want to be able to provide the Platform Administrator with additional GeoJSON sources, So that I can improve the map-based visualisations of my data.",0.9971610307693481,compatibility
81,"As a Developer, I want a DAT integration, so that I can integrate data-packaged data with pipelines that use DAT. ",0.9992637038230896,compatibility
82,"As an assistant archivist, I want to easily access interdepartmental forms.",0.9977745413780212,compatibility
0,"As an administrator, I want to have researchers reset their own passwords, so that I don't have to send passwords in cleartext.",0.9982929825782776,security
1,"As lab administrator, I want to have increased access to the system to support regular users. ",0.9996460676193237,security
2,"As a User , I want to authenticate using LDAP.",0.9994516968727112,security
3,"As a non-Duke researcher, I and my team need to describe our objects in the repository after they've been deposited if we've been assigned permission to edit metadata.",0.998254120349884,security
4,"As a collection curator, I want to restrict access to my collection or items to Duke IP addresses.",0.9992018342018127,security
5,"As a parent, I want to be able to create an account, so that I can sign up my kids for camp online.",0.9989039897918701,security
6,"As an archivist, I want to restrict access to certain files by user, so that I can allow donor representatives to see certain files.",0.9989603757858276,security
7,"As a DB/IR administrator, I want to set up or delete accounts for other administrators with various levels of permission.",0.9993410706520081,security
8,"As an institutional data manager, I want to know about the privacy and security requirements of the data, so that I can plan the right storage system and sharing permissions.",0.9988452196121216,security
9,"As an administrator, I want to check that all data has the appropriate security level, so that I can demonstrate compliance.",0.9995285272598267,security
10,"As a faculty member, I want to go to my repository dashboard to manage members of my classes. I want to be able to grant submit permissions by pasting in a list of NetIDs, see confirmation that DDR recognizes the NetIDs, ability to manually remove permissions, ability to set begin and end dates for a submission window, and a have a status screen to clearly illustrate who has and hasn't submitted.",0.9999492168426514,security
11,"As a Researcher, I want results to be stored in a non-identifiable way, so that I can study the data to see things like whether estimates converged around the first opinion given by ""estimator A"" for example.",0.9985185265541077,security
12,"As a collection curator, I want users to be able to contact me directly from the repository to request access to restricted objects.",0.9971122741699219,security
13,"As an administrator, I want to create user groups, so that I can control user permissions.",0.9995939135551453,security
14,"As a DB/IR administrator, I want to have a personal account with the ability to change passwords to make them more secure or to retrieve forgotten ones.",0.9994381070137024,security
15,"As a superuser, I should be able to enter and exit the superuser scope.",0.9991552829742432,security
16,"As an administrator, I want to limit who can see certain metadata fields, so that I can show or hide things from display based on user groups.",0.99954754114151,security
17,"As a repository manager, I want to know all the collections and objects in the DAMS for which I have custodial responsibility.  ",0.9984748959541321,security
18,"As a site member, I want to mark my email address as private even if the rest of my profile is not, so that no one can contact me.",0.9976911544799805,security
19,"As a researcher,  I want to have the ability to restrict the data I share to certain researchers or groups of researchers.",0.9992477893829346,security
20,"As a member, I want to have the system email me a new password or a password reminder since i have short-term memory problems.",0.999472439289093,security
21,"As a collection curator, I want to be able require authentication to access objects unless the request is coming from a whitelisted IP address, list of addresses (like the Special Collections Reading Room, or range.",0.9993775486946106,security
22,"As a site editor, I want to be able to indicate whether an article is publicly available or for members only, so that visitors are incentivized to become members.",0.9988960027694702,security
23,"As an Application Administrator, I want to assign Users to an Advanced Data Entry and ensure that the appropriate permissions are enforced.",0.999103307723999,security
24,"As a user, I want to be able to create an account, so that I can create my own profile.",0.9974316954612732,security
25,"As a user,  I want to have the ability to keep my data private on the system, and only share data that I deem should be shared.",0.9977203011512756,security
26,"As a Consumer, I want to know that the data I am downloading is good and can be relied on, so that that I don't have to check it myself or run into annoying bugs later on.",0.9972739815711975,security
27,"As an institutional data manager, I want to know about the privacy and security requirements of the data, so that I can plan the right storage system and sharing permissions.",0.9988452196121216,security
28,"As a parent, I want to be able to sign and submit consent forms online, so that I don't have to deal with my child losing a consent form.",0.9985061287879944,security
29,"As a research facility manager, I want to deposit data from my facility directly into the archive on behalf of researchers, so that I am no longer required to maintain my own archive of facility data and researchers can access their own data as needed. ",0.9994617104530334,security
30,"As a authenticateduser, I want to Enter payment information and have my card charged for an individual sponsorship, so that I can pay for an individual sponsorship.",0.9991756081581116,security
31,"As a User , I want to authenticate using LDAP.",0.9994516968727112,security
32,"As an archivist, I want to add detailed restrictions to groups of files, so that I know if and how they can be shared.",0.9986217021942139,security
33,"As a moderator, I want to get a password reminder by email, so that I can get back to using the application when I've forgotten my password.",0.997584342956543,security
34,"As a researcher, I want to secure remote access to the Neurohub node when working away from the laboratory",0.997288703918457,security
35,"As a research facility manager, I want to deposit data from my facility directly into the archive on behalf of researchers, so that I am no longer required to maintain my own archive of facility data and researchers can access their own data as needed. ",0.9994617104530334,security
36,"As a fundingbody, I want to be reassured that researchers I fund have robust archival plans for their data, so that I can be sure that funding them is a worthwhile investment.",0.998108983039856,security
37,"As an IT staff member, I want to know the security requirements of the data, so that I know which kind of security measures to apply.",0.9992454051971436,security
38,"As a library staff member, I want to upload material to the repository on the author's behalf, so that I can fulfill a service obligation.",0.9981424808502197,security
39,"As a user, I want to have my personal information kept securely in the database of the website, so that I will not suffer from identity theft or telephone harassment.",0.9986003041267395,security
40,"As repository manager, I'd like to be able to view authenticated, active users and anonymous users.",0.9964428544044495,security
41,"As a MedicalCaregiver, I want to be sure that the user can decide who has access to her data. ",0.9969774484634399,security
42,"As an externalcollaborator, I want to gain privileged access to data for projects in which I am involved, so that I can collaborate effectively.",0.9993072748184204,security
43,"As an administrator, I want to assign rights to user groups or roles, so that I can control what users can and can't do.",0.998406708240509,security
44,"As the Digital Records Archivist, I want to be able to grant embargo privileges to other repository administrators.",0.9965842962265015,security
45,"As a Publisher, I want to have private data packages, so that I can share just with my team.",0.9975619316101074,security
46,"As a Customer, I want to Create a Customer Portal User Account, so that I can log on to the Customer Portal and perform transactions that first require user authentication.",0.9998834133148193,security
47,"As User, I want to be able to log in.",0.9960913062095642,security
0,"As an app developer, I want to only depend on the interface of a dataset type in my app and have the system inject the implementation at runtime.",0.9994768500328064,maintainability
1,"As a developer, I want to have the API components to be on a high level so that I don't have to deal with their details. ",0.9999545812606812,maintainability
2,"As a user, I want to update the properties of a dataset instance and I expect this to fail if the new properties are not compatible with a meaningful error message.",0.9999356269836426,maintainability
3,"As a UI designer, I want to track the issues that come up in Tech Thursday, so that I know what to test and what want s to be fixed.",0.9994717240333557,maintainability
4,"As a dataset developer, I want to deploy a new version of a dataset type without affecting the dataset instances of that type.",0.9995948672294617,maintainability
5,"As Metadata Architect, I want to be able to use batch tools to ingest, update, and export descriptive and administrative metadata in lieu of METS ingest.",0.9999545812606812,maintainability
6,"As a release engineer, I want to configure nightly builds that automatically perform a Neurohub installation on a virgin operating system, execute tests and report back results, without requiring any manual input/interaction.",0.9998557567596436,maintainability
7,"As a Web Developer, I want to be able to install multiple versions of the same datapackage separately, so that that all my projects could be developed independently and deployed locally.",0.9999545812606812,maintainability
8,"As a plugin developer, I want to upgrade the code of a dataset type used by a dataset instance created by that plugin when I deploy a new version of the plugin and update the pipeline to use that version.",0.9998923540115356,maintainability
9,"As a Data Publishing User, I want to be able to edit the model of data I have already imported, So that I can fix bugs or make enhancements in the API built for my data.",0.9999545812606812,maintainability
10,"As a developer, I want a dummy app to test DDR models on Fedora 4.",0.9998310804367065,maintainability
11,"As an NSF administrator, I want to shadow the CMS implementation, so that I can learn as the prototype is developed further.",0.9994913339614868,maintainability
12,"As a developer, I want a version of the DDR models gem that uses Active Fedora 9 and passes all tests on Fedora 4.",0.9999408721923828,maintainability
13,"As an app developer, I want to deploy a new version of a dataset type as part of an app artifact, without affecting other datasets of this type.",0.9995983242988586,maintainability
14,"As a developer, I want to deposit and maintain datasets via an API such as SWORD2, so that my service can interact with the archive. ",0.9999545812606812,maintainability
15,"As repository developer, I want to find opportunities to merge functionality in batch tools.",0.9998892545700073,maintainability
16,"As a developer, I want a dummy app to test DDR models on Fedora 4.",0.9998310804367065,maintainability
17,"As an Owner, I want to create a user testing summary from the UI SME, so that I can know what UI improvements we will follow through on.",0.9997218251228333,maintainability
18,"As a dataset developer, I want to separate the interface from the implementation of a dataset type.",0.9991342425346375,maintainability
19,"As an admin, I want to view user error logs, so that I can fix or review any issues that are being faced by users of the system.",0.9997345805168152,maintainability
20,"As a UI designer, I want to report to the Agencies about user testing, so that they are aware of their contributions to making Broker a better UX.",0.9995883107185364,maintainability
21,"As a plugin developer, I want to use a custom dataset type that was deployed independently or as part of an app inside the plugin. ",0.9997925162315369,maintainability
22,"As a Developer I want to quickly access Broker application data, so that I can investigate issues.",0.9997979998588562,maintainability
23,"As a Web Developer, I want to be able to install multiple versions of the same datapackage separately, so that that all my projects could be developed independently and deployed locally.",0.9999545812606812,maintainability
24,"As a UI designer, I want to begin user testing, so that I can validate stakeholder UI improvement requests.",0.9998377561569214,maintainability
25,"As a Developer, I want to be able to customise the Brand Name and Icon, and Primary Color of all frontend Javascript apps, So that I can customise the branding for my own needs.",0.999891996383667,maintainability
26,"As a dataset developer, I want to have the option of forcing applications to have the dataset code injected at runtime.",0.9998505115509033,maintainability
27,"As a team member, I want to have a platform that allows me to rapidly prototype HTML ideas.",0.9999545812606812,maintainability
28,"As a dataset developer, I want to deploy a dataset type independent from any app and allow apps to create and use dataset instances of that type.",0.999580442905426,maintainability
29,"As an app developer, I want to deploy a new version of a dataset type as part of deploying a new version of the app that includes it and I expect that all dataset instances of that type that were created as part of the app deployment start using the new code.",0.9999545812606812,maintainability
30,"As a developer, I want to use a configuration that is not prepackaged within a built version of application.",0.9982876181602478,maintainability
31,"As a developer, I want to have the API to be well defined and well documented. ",0.9998509883880615,maintainability
32,"As a data scientist, I want to be able to upgrade a dataset instance to a new version of its code.",0.9996680021286011,maintainability
0,"As a release engineer, I want to configure nightly builds that automatically perform a Neurohub installation on a virgin operating system, execute tests and report back results, without requiring any manual input/interaction.",0.9987647533416748,portability
1,"As a Web Developer, I want to be able to install multiple versions of the same datapackage separately, so that that all my projects could be developed independently and deployed locally.",0.9995881915092468,portability
2,"As a plugin developer, I want to upgrade the code of a dataset type used by a dataset instance created by that plugin when I deploy a new version of the plugin and update the pipeline to use that version.",0.9960950016975403,portability
3,"As a repository developer, I would like to upgrade to Fedora 4 and migrate our applications and data.",0.9975433349609375,portability
4,"As a developer, I want a dummy app to test DDR models on Fedora 4.",0.997090220451355,portability
5,"As an NSF administrator, I want to shadow the CMS implementation, so that I can learn as the prototype is developed further.",0.9959128499031067,portability
6,"As a developer, I want a version of the DDR models gem that uses Active Fedora 9 and passes all tests on Fedora 4.",0.9988625049591064,portability
7,"As a developer, I want a dummy app to test DDR models on Fedora 4.",0.997090220451355,portability
8,"As a plugin developer, I want to use a custom dataset type that was deployed independently or as part of an app inside the plugin. ",0.9965103268623352,portability
9,"As an Admin, I want to set key configuration parameters for my site deployment, so that that I can change key information like the site title.",0.9996688365936279,portability
10,"As a Web Developer, I want to be able to install multiple versions of the same datapackage separately, so that that all my projects could be developed independently and deployed locally.",0.9995881915092468,portability
11,"As an app developer, I want to deploy a new version of a dataset type as part of deploying a new version of the app that includes it and I expect that all dataset instances of that type that were created as part of the app deployment start using the new code.",0.9975950121879578,portability
12,"As a system administrator, I want to migrate data from an older version of NeuroHub to the current version.",0.9962673783302307,portability
