,US,pred,label
0,"As a Data Publishing User, I want to be able to edit the model of data I have already imported, So that I can fix bugs or make enhancements in the API built for my data.",0.9999545812606812,maintainability
1,"As a developer, I want to deposit and maintain datasets via an API such as SWORD2, so that my service can interact with the archive. ",0.9999545812606812,maintainability
2,"As a Data Publishing User, I want to be able to edit the data source of data I have already imported, So that I can fix bugs or make enhancements in the API built for my data.",0.9999545812606812,maintainability
3,"As an UnivITservice, I want to store archived data on existing storage systems, so that university data storage is consistent and maintainable and future availability of data can be guaranteed.",0.9999545812606812,maintainability
4,"As a Data Publishing User, I want to have the Packager support Constants, So that I can model dimensions that may not exist in the source file.",0.9999545812606812,maintainability
5,"As Metadata Architect, I want to be able to use batch tools to ingest, update, and export descriptive and administrative metadata in lieu of METS ingest.",0.9998288154602051,maintainability
6,"As a developer, I want to have the API components to be on a high level so that I don't have to deal with their details. ",0.9999545812606812,maintainability
7,"As a UI designer, I want to report to the Agencies about user testing, so that they are aware of their contributions to making Broker a better UX.",0.9999545812606812,maintainability
8,"As a Developer I want to quickly access Broker application data, so that I can investigate issues.",0.9999545812606812,maintainability
9,"As a developer, I want a dummy app to test DDR models on Fedora 4.",0.9999545812606812,maintainability
10,"As repository developer, I want to find opportunities to merge functionality in batch tools.",0.9998689889907837,maintainability
11,"As a developer, I want to have the ALFRED API to reduce the work to achieve my goals. ",0.9987714886665344,maintainability
12,"As a dataset developer, I want to deploy a new version of a dataset type without affecting the dataset instances of that type.",0.9999479055404663,maintainability
13,"As an app developer, I want to ensure that when I deploy a new version of an app that includes an older version of a dataset type deployed by another app and I expect that the dataset instances created by this app use the dataset type code included in this app.",0.9999545812606812,maintainability
14,"As a tester, I want to have access to test features in environments other than Staging, so that I can test any nonProd feature in any environment.",0.9999545812606812,maintainability
15,"As a user, I want to update the properties of a dataset instance and I expect this to fail if the new properties are not compatible with a meaningful error message.",0.9999545812606812,maintainability
16,"As Metadata Architect, I want to be able to use batch tools to ingest, update, and export descriptive and administrative metadata in lieu of METS ingest.",0.9998288154602051,maintainability
17,"As a Developer I want to quickly access Broker application data, so that I can investigate issues.",0.9999545812606812,maintainability
18,"As a Web Developer, I want to be able to install multiple versions of the same datapackage separately, so that that all my projects could be developed independently and deployed locally.",0.9999545812606812,maintainability
19,"As a plugin developer, I want to use a custom dataset type that was deployed independently or as part of an app inside the plugin. ",0.9999456405639648,maintainability
20,"As a developer, I want to have the API to be well defined and well documented. ",0.9999545812606812,maintainability
21,"As a UI designer, I want to report to the Agencies about user testing, so that they are aware of their contributions to making Broker a better UX.",0.9999545812606812,maintainability
22,"As an Owner, I want to reset the environment to only take Staging MAX permissions, so that I can ensure that the FABS testers no longer have access.",0.9999545812606812,maintainability
23,"As a Developer , I want to be able to log better, so that I can troubleshoot issues with particular submissions and functions.",0.9999545812606812,maintainability
24,"As a dataset developer, I want to have the option of implementing a migration procedure that can be run after an upgrade of a dataset instance to a new version of it type. ",0.9999492168426514,maintainability
25,"As an app developer, I want to deploy a new version of a dataset type as part of an app artifact, without affecting other datasets of this type.",0.9999511241912842,maintainability
26,"As a dataset developer, I want to separate the interface from the implementation of a dataset type.",0.9999545812606812,maintainability
27,"As a developer, I want a version of the DDR Batch gem that works with Active Fedora 9 and passes all tests on Fedora 4.",0.9999545812606812,maintainability
28,"As a developer, I want to deposit and maintain datasets via an API such as SWORD2, so that my service can interact with the archive. ",0.9999545812606812,maintainability
29,"As a UI designer, I want to track the issues that come up in Tech Thursday, so that I know what to test and what want s to be fixed.",0.9999545812606812,maintainability
30,"As a team member, I want to have a platform that allows me to rapidly prototype HTML ideas.",0.9999545812606812,maintainability
31,"As an NSF administrator, I want to shadow the CMS implementation, so that I can learn as the prototype is developed further.",0.9999545812606812,maintainability
32,"As an app developer, I want to deploy a new version of a dataset type as part of deploying a new version of the app that includes it and I expect that all dataset instances of that type that were created as part of the app deployment start using the new code.",0.9999545812606812,maintainability
33,"As an app developer, I want to ensure that when I deploy a new version of an app that includes a shared dataset type that all dataset instances created by this app start using the new code but all dataset instances created by other apps remain unchanged.",0.9999545812606812,maintainability
34,"As a dataset developer, I want to deploy a dataset type independent from any app and allow apps to create and use dataset instances of that type.",0.9999545812606812,maintainability
35,"As a Developer, I want to be able to customise the Brand Name and Icon, and Primary Color of all frontend Javascript apps, So that I can customise the branding for my own needs.",0.9999545812606812,maintainability
36,"As a developer, I want to use a configuration that is not prepackaged within a built version of application.",0.9999178647994995,maintainability
37,"As an Owner, I want to create a user testing summary from the UI SME, so that I can know what UI improvements we will follow through on.",0.9999545812606812,maintainability
38,"As a UI designer, I want to begin user testing, so that I can validate stakeholder UI improvement requests.",0.9999545812606812,maintainability
39,"As a dataset developer, I want to have the option of forcing applications to have the dataset code injected at runtime.",0.9999545812606812,maintainability
40,"As a Data Publishing User, I want to be able to edit the data source of data I have already imported, So that I can fix bugs or make enhancements in the API built for my data.",0.9999545812606812,maintainability
41,"As a developer, I want a version of the DDR models gem that uses Active Fedora 9 and passes all tests on Fedora 4.",0.9999545812606812,maintainability
42,"As an app developer, I want to ensure that when I deploy a new version of an app that includes a different version of a dataset type deployed by another app and this app shares a dataset instance of this type with the other app the deployment will fail with a version conflict error. ",0.9999545812606812,maintainability
43,"As an app developer, I want to only depend on the interface of a dataset type in my app and have the system inject the implementation at runtime.",0.9999545812606812,maintainability
44,"As a data scientist, I want to be able to upgrade a dataset instance to a new version of its code.",0.9998687505722046,maintainability
45,"As a broker team member, I want to make some updates to the SQL codes for clarity.",0.9999545812606812,maintainability
46,"As an admin, I want to view user error logs, so that I can fix or review any issues that are being faced by users of the system.",0.9999469518661499,maintainability
47,"As a plugin developer, I want to upgrade the code of a dataset type used by a dataset instance created by that plugin when I deploy a new version of the plugin and update the pipeline to use that version.",0.9999545812606812,maintainability
48,"As a developer, I want a dummy app to test DDR models on Fedora 4.",0.9999545812606812,maintainability
49,"As a developer, I want a version of the DDR models gem that uses Active Fedora 9 and passes all tests on Fedora 4.",0.9999545812606812,maintainability
50,"As an NSF administrator, I want to shadow the CMS implementation, so that I can learn as the prototype is developed further.",0.9999545812606812,maintainability
51,"As a developer, I want a version of the DDR Batch gem that works with Active Fedora 9 and passes all tests on Fedora 4.",0.9999545812606812,maintainability
52,"As a release engineer, I want to configure nightly builds that automatically perform a Neurohub installation on a virgin operating system, execute tests and report back results, without requiring any manual input/interaction.",0.9999545812606812,maintainability
53,"As a Web Developer, I want to be able to install multiple versions of the same datapackage separately, so that that all my projects could be developed independently and deployed locally.",0.9999545812606812,maintainability
