,US,pred,label
0,"As a Developer, I want to get a Data Package into Python in seconds, so that I can start using the data for doing analysis and visualizations. ",0.9999148845672607,performance
1,"As a developer, I want to have created database indexes, so that the queries run as fast as possible.",0.9999464750289917,performance
2,"As a repository operator, I want to know about the kind of data, so that I can evaluate the storage size and system.",0.9999109506607056,performance
3,"As a PI, I want to plan what kind of data I want to record/store, so that I can ensure it will possible to store it.",0.9995298385620117,performance
4,"As an institutional data manager, I want to know about the privacy and security requirements of the data, so that I can plan the right storage system and sharing permissions.",0.9992629885673523,performance
5,"As an Agency user, I want to be able to include a large number of flexfields without performance impact.",0.9997919201850891,performance
6,"As a Researcher, I want to get a Data Package into Excel in seconds, so that I can start using the data for doing analysis and visualizations. ",0.9999254941940308,performance
7,"As an OlderPerson, I want to have a very good battery for ALFRED so I can keep him on the whole day.",0.998965859413147,performance
8,"As a Researcher, I want to get a Data Package into LibreOffice/OpenOffice in seconds, so that I can start using the data for doing analysis and visualizations. ",0.9999445676803589,performance
9,"As a user, I want to have the application respond quickly to my actions, so that I don't get bored.",0.9996651411056519,performance
10,"As a user, I want to upload large files of over 1GB in size.",0.9991201758384705,performance
11,"As a Researcher, I want to get a Data Package into Julia in seconds, so that I can start using the data for doing analysis and visualizations. ",0.999941349029541,performance
12,"As a Researcher, I want to get a Data Package into LibreOffice/OpenOffice in seconds, so that I can start using the data for doing analysis and visualizations. ",0.9999445676803589,performance
13,"As a Cornell faculty member, I want to share on the repository files that are larger than 1GB in a way that still allows users to download them if I want to use them, so that I can meet funder requirements.",0.9991933703422546,performance
0,"As a Developer, I want to get a Data Package into Python in seconds, so that I can start using the data for doing analysis and visualizations. ",0.9999186992645264,compatibility
1,"As a developer, I want to have the API components to be on a high level so that I don't have to deal with their details. ",0.9992009997367859,compatibility
2,"As a Technical Staff member, I want to update the GIS Property Management, so that I can successfully update the transactional Parcel Pin to reference the GIS layer where the Split or Merged Parcel Pin exists.",0.9996347427368164,compatibility
3,"As a User , I want to authenticate using LDAP.",0.9998704195022583,compatibility
4,"As a Research Information manager, I want to track citation counts for published datasets, so that impact of datasets within academia can be demonstrated.",0.9998102784156799,compatibility
5,"As an OlderPerson, I want to have my data stored directly on the phone.",0.999758780002594,compatibility
6,"As a Developer, I want to do exploratory data analysis in R and operationalize that analysis in Python, so that I can use the best tool for the job.",0.9997335076332092,compatibility
7,"As Metadata Architect, I want to be able to use batch tools to ingest, update, and export descriptive and administrative metadata in lieu of METS ingest.",0.9990750551223755,compatibility
8,"As an Archivist, I want to import EAD files that were exported by the Archivists' Toolkit.",0.9999145269393921,compatibility
9,"As a data reuser, I want to search the archive through Primo , so that I can search books, articles and data all in one place.",0.9992941617965698,compatibility
10,"As a Zooniverse admin, I want to perform automatic animal species preclassification in Snapshot Serengeti.",0.9996594190597534,compatibility
11,"As an agency user, I want the maximum length allowed for LegalEntityAddressLine3 to match Schema v1.1.",0.9999130964279175,compatibility
12,"As a Zooniverse admin, I want to detect when a scientist should be prompted to look at a subject, based on annotations and information from Talk comments.",0.9969567060470581,compatibility
13,"As a Data Publishing User, I want to be able to edit the model of data I have already imported, So that I can fix bugs or make enhancements in the API built for my data.",0.9989354014396667,compatibility
14,"As an agency user, I want to use the schema v1.1 headers in my FABS file.",0.9999216794967651,compatibility
15,"As a data depositor, I'd like to use the Simple Ingest Format to update existing items and components creating new versions where they already exist and creating new ones where the don't.",0.9998170733451843,compatibility
16,"As a user, I want to have that my Twitter Tweets to appear in Neurohub, so that other researchers in the centre can see what I am up to.",0.9999407529830933,compatibility
17,"As a Researcher, I want to get a Data Package into Excel in seconds, so that I can start using the data for doing analysis and visualizations. ",0.9998867511749268,compatibility
18,"As a researcher, I want the DMP to prepopulate information that I have already entered in other institutional systems, so that I do not have to re-enter information ensuring the DMP contains accurate and standardized information.",0.9983127117156982,compatibility
19,"As a user, I want to click on the address, so that it takes me to a new tab with Google Maps.",0.9997209906578064,compatibility
20,"As a Researcher, I want to get a Data Package into LibreOffice/OpenOffice in seconds, so that I can start using the data for doing analysis and visualizations. ",0.9998873472213745,compatibility
21,"As a ResearcherDeveloper, would like the ability import/export from MS-SQL, so that I can use Data Packages in workflows that involve MS-SQL. ",0.9999545812606812,compatibility
22,"As a user, I want to specify schema as a SQL schema string.",0.9998800754547119,compatibility
23,"As a researcher, I want to access files stored in my Neurohub workspace, using a network drive attached to my workstation.",0.9990610480308533,compatibility
24,"As a developer, I want to deposit and maintain datasets via an API such as SWORD2, so that my service can interact with the archive. ",0.9995794892311096,compatibility
25,"As a Researcher, I want to be able to translate my EML dataset to a Data Package, so that I can benefit from the wide array of tools available for Data Packages. ",0.9999150037765503,compatibility
26,"As a Researcher, I want to get a Data Package into Julia in seconds, so that I can start using the data for doing analysis and visualizations. ",0.9998358488082886,compatibility
27,"As an API User, I want to be able to get a CSV output of any cube-based query, So that I can use work with tools that read CSV.",0.9995348453521729,compatibility
28,"As a user, I want to have the option to tell Neurohub to push posted content to my Twitter feed at the same time.",0.999887228012085,compatibility
29,"As a Developer, I want the data loaded from historical FABS to include the FREC derivations, so that I can have consistent FREC data for USASpending.gov.",0.9994164705276489,compatibility
30,"As a Researcher, I want to get a Data Package into LibreOffice/OpenOffice in seconds, so that I can start using the data for doing analysis and visualizations. ",0.9998873472213745,compatibility
31,"As a Planning Staff member, I want to Generate Planning-related Reports, so that I can access, analyze and/or export the needed information in the format I requested.",0.9996722936630249,compatibility
32,"As a developer, I would like to create a web socket protocol for Frictionless data tools, so that I can easily use data packages with additional data analysis tools. ",0.9998034834861755,compatibility
0,"As a participant, I want to have a small thumbnail photo displayed near where my cards are played, so that the game is more personal because I see who I'm estimating with.",0.9999425411224365,usability
1,"As a user, I want the flexfields in my submission file to appear in the warning and error files when the only error is a missing required element.",0.9999474287033081,usability
2,"As a FABS user, I want the frontend URLs to more accurately reflect the page I'm accessing, so that I'm not confused.",0.9996232986450195,usability
3,"As a user, I want to be able to use Unicode, so that I can use any language I like.",0.9995753169059753,usability
4,"As a Publisher, I want to see real examples of published packages so that I can understand how useful and simple the datapackage format and the registry is.",0.9998881816864014,usability
5,"As a depositor, I want to have a user interface that is familiar to me, so that I feel like all the University systems are joined up.",0.9995549321174622,usability
6,"As a ResearcherPublisher, I want to understand the ways in which my data is invalid, so that I can know how to fix it. ",0.9997578263282776,usability
7,"As an OlderPerson, I want to use ALFRED as much as possible with speech interaction.",0.9990584254264832,usability
8,"As an archivist, I want to search images by uploading an image, so that so I can find images when i don't have any metadata.",0.9997193217277527,usability
9,"As a site visitor, I want to be able to get back to the home page quickly and easily, so that I don't get lost navigating.",0.9999545812606812,usability
10,"As an Applicant, I want to Check the Status of a transaction, so that I can understand where the provisioning of my service is in the process, such as information related to service levels, fees, plan review, permit, or inspection results.",0.9993211030960083,usability
11,"As an Owner, I want to create a user testing summary from the UI SME, so that I can know what UI improvements we will follow through on.",0.9947913885116577,usability
12,"As an Agency user, I want to receive a more helpful file-level error when I upload a file with the wrong extension.",0.9997953772544861,usability
13,"As a Platform administrator, I want to be able to translate the data types hierarchies of the Viewer while in embed mode, So that my users can understand the interface in their native language.",0.9995244741439819,usability
14,"As a repository manager, I want to have metadata in additional languages, so that I can allow for multilingual data archive.",0.9997583031654358,usability
15,"As an OlderPerson, I want to use only well-visible buttons.",0.9995310306549072,usability
16,"As a UI designer, I want to report to the Agencies about user testing, so that they are aware of their contributions to making Broker a better UX.",0.9993529915809631,usability
17,"As a Data Consuming User, I want to be able to have stepped zoom on map visualisations, So that I can have better control over the navigation experience inside a map view.",0.9999405145645142,usability
0,"As a data manager, I want to know whether the data can be reproduced efficiently, so that I can determine whether and how the data has to be stored.",0.9989435076713562,reliability
1,"As an asset manager, I want to be assured that the digital copy I deposit is stored redundantly, so that when one copy suffers destruction or unwanted changes, I still have other good copies to restore from.",0.9974493384361267,reliability
2,"As a Consumer, I want to be able to get the data for a data package even if the original data has been moved or removed, so that that I can still use is and my app or analysis keeps working.",0.9987205266952515,reliability
3,"As a library staff member, I want to deliver streaming media from within the repository, so that I can deliver such content in the manner expected and ensure continued access to said content.",0.9988648891448975,reliability
0,"As an app developer, I want to only depend on the interface of a dataset type in my app and have the system inject the implementation at runtime.",0.9974473714828491,maintainability
1,"As a developer, I want to have the API components to be on a high level so that I don't have to deal with their details. ",0.9996682405471802,maintainability
2,"As a user, I want to update the properties of a dataset instance and I expect this to fail if the new properties are not compatible with a meaningful error message.",0.9998036026954651,maintainability
3,"As a UI designer, I want to track the issues that come up in Tech Thursday, so that I know what to test and what want s to be fixed.",0.9993734955787659,maintainability
4,"As a dataset developer, I want to deploy a new version of a dataset type without affecting the dataset instances of that type.",0.9990641474723816,maintainability
5,"As Metadata Architect, I want to be able to use batch tools to ingest, update, and export descriptive and administrative metadata in lieu of METS ingest.",0.9996808767318726,maintainability
6,"As a release engineer, I want to configure nightly builds that automatically perform a Neurohub installation on a virgin operating system, execute tests and report back results, without requiring any manual input/interaction.",0.9993674159049988,maintainability
7,"As a Web Developer, I want to be able to install multiple versions of the same datapackage separately, so that that all my projects could be developed independently and deployed locally.",0.9995782971382141,maintainability
8,"As a plugin developer, I want to upgrade the code of a dataset type used by a dataset instance created by that plugin when I deploy a new version of the plugin and update the pipeline to use that version.",0.9971436858177185,maintainability
9,"As a Data Publishing User, I want to be able to edit the model of data I have already imported, So that I can fix bugs or make enhancements in the API built for my data.",0.9996028542518616,maintainability
10,"As a developer, I want a dummy app to test DDR models on Fedora 4.",0.9997801184654236,maintainability
11,"As an NSF administrator, I want to shadow the CMS implementation, so that I can learn as the prototype is developed further.",0.9989010095596313,maintainability
12,"As a developer, I want a version of the DDR models gem that uses Active Fedora 9 and passes all tests on Fedora 4.",0.9989041090011597,maintainability
13,"As an app developer, I want to deploy a new version of a dataset type as part of an app artifact, without affecting other datasets of this type.",0.9981266856193542,maintainability
14,"As a developer, I want to deposit and maintain datasets via an API such as SWORD2, so that my service can interact with the archive. ",0.9988270401954651,maintainability
15,"As repository developer, I want to find opportunities to merge functionality in batch tools.",0.9988895058631897,maintainability
16,"As a developer, I want a dummy app to test DDR models on Fedora 4.",0.9997801184654236,maintainability
17,"As an Owner, I want to create a user testing summary from the UI SME, so that I can know what UI improvements we will follow through on.",0.9974888563156128,maintainability
18,"As a dataset developer, I want to separate the interface from the implementation of a dataset type.",0.9981693029403687,maintainability
19,"As an admin, I want to view user error logs, so that I can fix or review any issues that are being faced by users of the system.",0.9997039437294006,maintainability
20,"As a UI designer, I want to report to the Agencies about user testing, so that they are aware of their contributions to making Broker a better UX.",0.983669638633728,maintainability
0,"As a release engineer, I want to configure nightly builds that automatically perform a Neurohub installation on a virgin operating system, execute tests and report back results, without requiring any manual input/interaction.",0.995511531829834,portability
1,"As a Web Developer, I want to be able to install multiple versions of the same datapackage separately, so that that all my projects could be developed independently and deployed locally.",0.9985274076461792,portability
2,"As a plugin developer, I want to upgrade the code of a dataset type used by a dataset instance created by that plugin when I deploy a new version of the plugin and update the pipeline to use that version.",0.994429886341095,portability
3,"As a repository developer, I would like to upgrade to Fedora 4 and migrate our applications and data.",0.9945494532585144,portability
4,"As a developer, I want a dummy app to test DDR models on Fedora 4.",0.996505856513977,portability
5,"As an NSF administrator, I want to shadow the CMS implementation, so that I can learn as the prototype is developed further.",0.9983108043670654,portability
6,"As a developer, I want a version of the DDR models gem that uses Active Fedora 9 and passes all tests on Fedora 4.",0.9994755387306213,portability
7,"As a developer, I want a dummy app to test DDR models on Fedora 4.",0.996505856513977,portability
