,eval,epoch
0,"{'performance': {'tp': 0.0, 'fp': 1e-08, 'fn': 9.00000001, 'tn': 160.0, 'tot': 9.00000001, 'eval': {'textcat_p': 0.0, 'textcat_r': 0.0, 'textcat_f': 0}}, 'compatibility': {'tp': 0.0, 'fp': 1e-08, 'fn': 42.00000001, 'tn': 127.0, 'tot': 42.00000001, 'eval': {'textcat_p': 0.0, 'textcat_r': 0.0, 'textcat_f': 0}}, 'usability': {'tp': 0.0, 'fp': 1e-08, 'fn': 15.00000001, 'tn': 154.0, 'tot': 15.00000001, 'eval': {'textcat_p': 0.0, 'textcat_r': 0.0, 'textcat_f': 0}}, 'reliability': {'tp': 0.0, 'fp': 1e-08, 'fn': 4.00000001, 'tn': 165.0, 'tot': 4.00000001, 'eval': {'textcat_p': 0.0, 'textcat_r': 0.0, 'textcat_f': 0}}, 'security': {'tp': 0.0, 'fp': 1e-08, 'fn': 19.00000001, 'tn': 150.0, 'tot': 19.00000001, 'eval': {'textcat_p': 0.0, 'textcat_r': 0.0, 'textcat_f': 0}}, 'maintainability': {'tp': 0.0, 'fp': 1e-08, 'fn': 14.00000001, 'tn': 155.0, 'tot': 14.00000001, 'eval': {'textcat_p': 0.0, 'textcat_r': 0.0, 'textcat_f': 0}}, 'portability': {'tp': 0.0, 'fp': 1e-08, 'fn': 7.00000001, 'tn': 162.0, 'tot': 7.00000001, 'eval': {'textcat_p': 0.0, 'textcat_r': 0.0, 'textcat_f': 0}}}",0
1,"{'performance': {'tp': 0.0, 'fp': 1e-08, 'fn': 9.00000001, 'tn': 160.0, 'tot': 9.00000001, 'eval': {'textcat_p': 0.0, 'textcat_r': 0.0, 'textcat_f': 0}}, 'compatibility': {'tp': 0.0, 'fp': 1e-08, 'fn': 42.00000001, 'tn': 127.0, 'tot': 42.00000001, 'eval': {'textcat_p': 0.0, 'textcat_r': 0.0, 'textcat_f': 0}}, 'usability': {'tp': 0.0, 'fp': 1e-08, 'fn': 15.00000001, 'tn': 154.0, 'tot': 15.00000001, 'eval': {'textcat_p': 0.0, 'textcat_r': 0.0, 'textcat_f': 0}}, 'reliability': {'tp': 0.0, 'fp': 1e-08, 'fn': 4.00000001, 'tn': 165.0, 'tot': 4.00000001, 'eval': {'textcat_p': 0.0, 'textcat_r': 0.0, 'textcat_f': 0}}, 'security': {'tp': 0.0, 'fp': 1e-08, 'fn': 19.00000001, 'tn': 150.0, 'tot': 19.00000001, 'eval': {'textcat_p': 0.0, 'textcat_r': 0.0, 'textcat_f': 0}}, 'maintainability': {'tp': 0.0, 'fp': 1e-08, 'fn': 14.00000001, 'tn': 155.0, 'tot': 14.00000001, 'eval': {'textcat_p': 0.0, 'textcat_r': 0.0, 'textcat_f': 0}}, 'portability': {'tp': 0.0, 'fp': 1e-08, 'fn': 7.00000001, 'tn': 162.0, 'tot': 7.00000001, 'eval': {'textcat_p': 0.0, 'textcat_r': 0.0, 'textcat_f': 0}}}",1
2,"{'performance': {'tp': 0.0, 'fp': 1e-08, 'fn': 9.00000001, 'tn': 160.0, 'tot': 9.00000001, 'eval': {'textcat_p': 0.0, 'textcat_r': 0.0, 'textcat_f': 0}}, 'compatibility': {'tp': 4.0, 'fp': 1e-08, 'fn': 38.00000001, 'tn': 127.0, 'tot': 42.00000001, 'eval': {'textcat_p': 0.9999999975, 'textcat_r': 0.0952380952154195, 'textcat_f': 0.1739130434026465}}, 'usability': {'tp': 0.0, 'fp': 1e-08, 'fn': 15.00000001, 'tn': 154.0, 'tot': 15.00000001, 'eval': {'textcat_p': 0.0, 'textcat_r': 0.0, 'textcat_f': 0}}, 'reliability': {'tp': 0.0, 'fp': 1e-08, 'fn': 4.00000001, 'tn': 165.0, 'tot': 4.00000001, 'eval': {'textcat_p': 0.0, 'textcat_r': 0.0, 'textcat_f': 0}}, 'security': {'tp': 0.0, 'fp': 1e-08, 'fn': 19.00000001, 'tn': 150.0, 'tot': 19.00000001, 'eval': {'textcat_p': 0.0, 'textcat_r': 0.0, 'textcat_f': 0}}, 'maintainability': {'tp': 0.0, 'fp': 1e-08, 'fn': 14.00000001, 'tn': 155.0, 'tot': 14.00000001, 'eval': {'textcat_p': 0.0, 'textcat_r': 0.0, 'textcat_f': 0}}, 'portability': {'tp': 0.0, 'fp': 1e-08, 'fn': 7.00000001, 'tn': 162.0, 'tot': 7.00000001, 'eval': {'textcat_p': 0.0, 'textcat_r': 0.0, 'textcat_f': 0}}}",2
3,"{'performance': {'tp': 4.0, 'fp': 1e-08, 'fn': 5.00000001, 'tn': 160.0, 'tot': 9.00000001, 'eval': {'textcat_p': 0.9999999975, 'textcat_r': 0.4444444439506172, 'textcat_f': 0.6153846144378697}}, 'compatibility': {'tp': 13.0, 'fp': 1e-08, 'fn': 29.00000001, 'tn': 127.0, 'tot': 42.00000001, 'eval': {'textcat_p': 0.9999999992307692, 'textcat_r': 0.3095238094501134, 'textcat_f': 0.47272727255537184}}, 'usability': {'tp': 0.0, 'fp': 1e-08, 'fn': 15.00000001, 'tn': 154.0, 'tot': 15.00000001, 'eval': {'textcat_p': 0.0, 'textcat_r': 0.0, 'textcat_f': 0}}, 'reliability': {'tp': 0.0, 'fp': 1e-08, 'fn': 4.00000001, 'tn': 165.0, 'tot': 4.00000001, 'eval': {'textcat_p': 0.0, 'textcat_r': 0.0, 'textcat_f': 0}}, 'security': {'tp': 0.0, 'fp': 1e-08, 'fn': 19.00000001, 'tn': 150.0, 'tot': 19.00000001, 'eval': {'textcat_p': 0.0, 'textcat_r': 0.0, 'textcat_f': 0}}, 'maintainability': {'tp': 0.0, 'fp': 1e-08, 'fn': 14.00000001, 'tn': 155.0, 'tot': 14.00000001, 'eval': {'textcat_p': 0.0, 'textcat_r': 0.0, 'textcat_f': 0}}, 'portability': {'tp': 0.0, 'fp': 1e-08, 'fn': 7.00000001, 'tn': 162.0, 'tot': 7.00000001, 'eval': {'textcat_p': 0.0, 'textcat_r': 0.0, 'textcat_f': 0}}}",3
4,"{'performance': {'tp': 4.0, 'fp': 1.00000001, 'fn': 5.00000001, 'tn': 159.0, 'tot': 9.00000001, 'eval': {'textcat_p': 0.7999999984, 'textcat_r': 0.4444444439506172, 'textcat_f': 0.571428570612245}}, 'compatibility': {'tp': 16.0, 'fp': 2.00000001, 'fn': 26.00000001, 'tn': 125.0, 'tot': 42.00000001, 'eval': {'textcat_p': 0.8888888883950616, 'textcat_r': 0.380952380861678, 'textcat_f': 0.5333333331555555}}, 'usability': {'tp': 0.0, 'fp': 1e-08, 'fn': 15.00000001, 'tn': 154.0, 'tot': 15.00000001, 'eval': {'textcat_p': 0.0, 'textcat_r': 0.0, 'textcat_f': 0}}, 'reliability': {'tp': 0.0, 'fp': 1e-08, 'fn': 4.00000001, 'tn': 165.0, 'tot': 4.00000001, 'eval': {'textcat_p': 0.0, 'textcat_r': 0.0, 'textcat_f': 0}}, 'security': {'tp': 0.0, 'fp': 1e-08, 'fn': 19.00000001, 'tn': 150.0, 'tot': 19.00000001, 'eval': {'textcat_p': 0.0, 'textcat_r': 0.0, 'textcat_f': 0}}, 'maintainability': {'tp': 0.0, 'fp': 1e-08, 'fn': 14.00000001, 'tn': 155.0, 'tot': 14.00000001, 'eval': {'textcat_p': 0.0, 'textcat_r': 0.0, 'textcat_f': 0}}, 'portability': {'tp': 0.0, 'fp': 1e-08, 'fn': 7.00000001, 'tn': 162.0, 'tot': 7.00000001, 'eval': {'textcat_p': 0.0, 'textcat_r': 0.0, 'textcat_f': 0}}}",4
5,"{'performance': {'tp': 4.0, 'fp': 1e-08, 'fn': 5.00000001, 'tn': 160.0, 'tot': 9.00000001, 'eval': {'textcat_p': 0.9999999975, 'textcat_r': 0.4444444439506172, 'textcat_f': 0.6153846144378697}}, 'compatibility': {'tp': 15.0, 'fp': 4.00000001, 'fn': 27.00000001, 'tn': 123.0, 'tot': 42.00000001, 'eval': {'textcat_p': 0.7894736837950138, 'textcat_r': 0.3571428570578231, 'textcat_f': 0.4918032785272775}}, 'usability': {'tp': 0.0, 'fp': 1e-08, 'fn': 15.00000001, 'tn': 154.0, 'tot': 15.00000001, 'eval': {'textcat_p': 0.0, 'textcat_r': 0.0, 'textcat_f': 0}}, 'reliability': {'tp': 0.0, 'fp': 1e-08, 'fn': 4.00000001, 'tn': 165.0, 'tot': 4.00000001, 'eval': {'textcat_p': 0.0, 'textcat_r': 0.0, 'textcat_f': 0}}, 'security': {'tp': 0.0, 'fp': 1e-08, 'fn': 19.00000001, 'tn': 150.0, 'tot': 19.00000001, 'eval': {'textcat_p': 0.0, 'textcat_r': 0.0, 'textcat_f': 0}}, 'maintainability': {'tp': 0.0, 'fp': 1e-08, 'fn': 14.00000001, 'tn': 155.0, 'tot': 14.00000001, 'eval': {'textcat_p': 0.0, 'textcat_r': 0.0, 'textcat_f': 0}}, 'portability': {'tp': 0.0, 'fp': 1e-08, 'fn': 7.00000001, 'tn': 162.0, 'tot': 7.00000001, 'eval': {'textcat_p': 0.0, 'textcat_r': 0.0, 'textcat_f': 0}}}",5
6,"{'performance': {'tp': 4.0, 'fp': 1e-08, 'fn': 5.00000001, 'tn': 160.0, 'tot': 9.00000001, 'eval': {'textcat_p': 0.9999999975, 'textcat_r': 0.4444444439506172, 'textcat_f': 0.6153846144378697}}, 'compatibility': {'tp': 17.0, 'fp': 4.00000001, 'fn': 25.00000001, 'tn': 123.0, 'tot': 42.00000001, 'eval': {'textcat_p': 0.809523809138322, 'textcat_r': 0.40476190466553286, 'textcat_f': 0.5396825395112118}}, 'usability': {'tp': 0.0, 'fp': 1e-08, 'fn': 15.00000001, 'tn': 154.0, 'tot': 15.00000001, 'eval': {'textcat_p': 0.0, 'textcat_r': 0.0, 'textcat_f': 0}}, 'reliability': {'tp': 0.0, 'fp': 1e-08, 'fn': 4.00000001, 'tn': 165.0, 'tot': 4.00000001, 'eval': {'textcat_p': 0.0, 'textcat_r': 0.0, 'textcat_f': 0}}, 'security': {'tp': 3.0, 'fp': 1e-08, 'fn': 16.00000001, 'tn': 150.0, 'tot': 19.00000001, 'eval': {'textcat_p': 0.9999999966666667, 'textcat_r': 0.15789473675900276, 'textcat_f': 0.2727272724793388}}, 'maintainability': {'tp': 0.0, 'fp': 1e-08, 'fn': 14.00000001, 'tn': 155.0, 'tot': 14.00000001, 'eval': {'textcat_p': 0.0, 'textcat_r': 0.0, 'textcat_f': 0}}, 'portability': {'tp': 0.0, 'fp': 1e-08, 'fn': 7.00000001, 'tn': 162.0, 'tot': 7.00000001, 'eval': {'textcat_p': 0.0, 'textcat_r': 0.0, 'textcat_f': 0}}}",6
7,"{'performance': {'tp': 4.0, 'fp': 1e-08, 'fn': 5.00000001, 'tn': 160.0, 'tot': 9.00000001, 'eval': {'textcat_p': 0.9999999975, 'textcat_r': 0.4444444439506172, 'textcat_f': 0.6153846144378697}}, 'compatibility': {'tp': 19.0, 'fp': 3.00000001, 'fn': 23.00000001, 'tn': 124.0, 'tot': 42.00000001, 'eval': {'textcat_p': 0.8636363632438017, 'textcat_r': 0.4523809522732426, 'textcat_f': 0.5937499998144531}}, 'usability': {'tp': 0.0, 'fp': 1e-08, 'fn': 15.00000001, 'tn': 154.0, 'tot': 15.00000001, 'eval': {'textcat_p': 0.0, 'textcat_r': 0.0, 'textcat_f': 0}}, 'reliability': {'tp': 0.0, 'fp': 1e-08, 'fn': 4.00000001, 'tn': 165.0, 'tot': 4.00000001, 'eval': {'textcat_p': 0.0, 'textcat_r': 0.0, 'textcat_f': 0}}, 'security': {'tp': 3.0, 'fp': 1e-08, 'fn': 16.00000001, 'tn': 150.0, 'tot': 19.00000001, 'eval': {'textcat_p': 0.9999999966666667, 'textcat_r': 0.15789473675900276, 'textcat_f': 0.2727272724793388}}, 'maintainability': {'tp': 0.0, 'fp': 1e-08, 'fn': 14.00000001, 'tn': 155.0, 'tot': 14.00000001, 'eval': {'textcat_p': 0.0, 'textcat_r': 0.0, 'textcat_f': 0}}, 'portability': {'tp': 0.0, 'fp': 1e-08, 'fn': 7.00000001, 'tn': 162.0, 'tot': 7.00000001, 'eval': {'textcat_p': 0.0, 'textcat_r': 0.0, 'textcat_f': 0}}}",7
8,"{'performance': {'tp': 4.0, 'fp': 1e-08, 'fn': 5.00000001, 'tn': 160.0, 'tot': 9.00000001, 'eval': {'textcat_p': 0.9999999975, 'textcat_r': 0.4444444439506172, 'textcat_f': 0.6153846144378697}}, 'compatibility': {'tp': 18.0, 'fp': 3.00000001, 'fn': 24.00000001, 'tn': 124.0, 'tot': 42.00000001, 'eval': {'textcat_p': 0.8571428567346938, 'textcat_r': 0.4285714284693877, 'textcat_f': 0.5714285712471655}}, 'usability': {'tp': 0.0, 'fp': 1e-08, 'fn': 15.00000001, 'tn': 154.0, 'tot': 15.00000001, 'eval': {'textcat_p': 0.0, 'textcat_r': 0.0, 'textcat_f': 0}}, 'reliability': {'tp': 0.0, 'fp': 1e-08, 'fn': 4.00000001, 'tn': 165.0, 'tot': 4.00000001, 'eval': {'textcat_p': 0.0, 'textcat_r': 0.0, 'textcat_f': 0}}, 'security': {'tp': 3.0, 'fp': 1e-08, 'fn': 16.00000001, 'tn': 150.0, 'tot': 19.00000001, 'eval': {'textcat_p': 0.9999999966666667, 'textcat_r': 0.15789473675900276, 'textcat_f': 0.2727272724793388}}, 'maintainability': {'tp': 1.0, 'fp': 1e-08, 'fn': 13.00000001, 'tn': 155.0, 'tot': 14.00000001, 'eval': {'textcat_p': 0.9999999900000002, 'textcat_r': 0.07142857137755101, 'textcat_f': 0.13333333315555554}}, 'portability': {'tp': 0.0, 'fp': 1e-08, 'fn': 7.00000001, 'tn': 162.0, 'tot': 7.00000001, 'eval': {'textcat_p': 0.0, 'textcat_r': 0.0, 'textcat_f': 0}}}",8
9,"{'performance': {'tp': 4.0, 'fp': 1e-08, 'fn': 5.00000001, 'tn': 160.0, 'tot': 9.00000001, 'eval': {'textcat_p': 0.9999999975, 'textcat_r': 0.4444444439506172, 'textcat_f': 0.6153846144378697}}, 'compatibility': {'tp': 22.0, 'fp': 3.00000001, 'fn': 20.00000001, 'tn': 124.0, 'tot': 42.00000001, 'eval': {'textcat_p': 0.879999999648, 'textcat_r': 0.5238095236848073, 'textcat_f': 0.656716417714413}}, 'usability': {'tp': 0.0, 'fp': 1e-08, 'fn': 15.00000001, 'tn': 154.0, 'tot': 15.00000001, 'eval': {'textcat_p': 0.0, 'textcat_r': 0.0, 'textcat_f': 0}}, 'reliability': {'tp': 0.0, 'fp': 1e-08, 'fn': 4.00000001, 'tn': 165.0, 'tot': 4.00000001, 'eval': {'textcat_p': 0.0, 'textcat_r': 0.0, 'textcat_f': 0}}, 'security': {'tp': 7.0, 'fp': 1e-08, 'fn': 12.00000001, 'tn': 150.0, 'tot': 19.00000001, 'eval': {'textcat_p': 0.9999999985714286, 'textcat_r': 0.3684210524376731, 'textcat_f': 0.5384615380473372}}, 'maintainability': {'tp': 1.0, 'fp': 1e-08, 'fn': 13.00000001, 'tn': 155.0, 'tot': 14.00000001, 'eval': {'textcat_p': 0.9999999900000002, 'textcat_r': 0.07142857137755101, 'textcat_f': 0.13333333315555554}}, 'portability': {'tp': 0.0, 'fp': 1e-08, 'fn': 7.00000001, 'tn': 162.0, 'tot': 7.00000001, 'eval': {'textcat_p': 0.0, 'textcat_r': 0.0, 'textcat_f': 0}}}",9
10,"{'performance': {'tp': 4.0, 'fp': 1e-08, 'fn': 5.00000001, 'tn': 160.0, 'tot': 9.00000001, 'eval': {'textcat_p': 0.9999999975, 'textcat_r': 0.4444444439506172, 'textcat_f': 0.6153846144378697}}, 'compatibility': {'tp': 20.0, 'fp': 3.00000001, 'fn': 22.00000001, 'tn': 124.0, 'tot': 42.00000001, 'eval': {'textcat_p': 0.8695652170132325, 'textcat_r': 0.47619047607709747, 'textcat_f': 0.6153846151952662}}, 'usability': {'tp': 0.0, 'fp': 1e-08, 'fn': 15.00000001, 'tn': 154.0, 'tot': 15.00000001, 'eval': {'textcat_p': 0.0, 'textcat_r': 0.0, 'textcat_f': 0}}, 'reliability': {'tp': 0.0, 'fp': 1e-08, 'fn': 4.00000001, 'tn': 165.0, 'tot': 4.00000001, 'eval': {'textcat_p': 0.0, 'textcat_r': 0.0, 'textcat_f': 0}}, 'security': {'tp': 7.0, 'fp': 1.00000001, 'fn': 12.00000001, 'tn': 149.0, 'tot': 19.00000001, 'eval': {'textcat_p': 0.8749999989062499, 'textcat_r': 0.3684210524376731, 'textcat_f': 0.5185185181344307}}, 'maintainability': {'tp': 3.0, 'fp': 1e-08, 'fn': 11.00000001, 'tn': 155.0, 'tot': 14.00000001, 'eval': {'textcat_p': 0.9999999966666667, 'textcat_r': 0.21428571413265304, 'textcat_f': 0.3529411760553633}}, 'portability': {'tp': 0.0, 'fp': 1e-08, 'fn': 7.00000001, 'tn': 162.0, 'tot': 7.00000001, 'eval': {'textcat_p': 0.0, 'textcat_r': 0.0, 'textcat_f': 0}}}",10
11,"{'performance': {'tp': 4.0, 'fp': 1e-08, 'fn': 5.00000001, 'tn': 160.0, 'tot': 9.00000001, 'eval': {'textcat_p': 0.9999999975, 'textcat_r': 0.4444444439506172, 'textcat_f': 0.6153846144378697}}, 'compatibility': {'tp': 20.0, 'fp': 3.00000001, 'fn': 22.00000001, 'tn': 124.0, 'tot': 42.00000001, 'eval': {'textcat_p': 0.8695652170132325, 'textcat_r': 0.47619047607709747, 'textcat_f': 0.6153846151952662}}, 'usability': {'tp': 1.0, 'fp': 1e-08, 'fn': 14.00000001, 'tn': 154.0, 'tot': 15.00000001, 'eval': {'textcat_p': 0.9999999900000002, 'textcat_r': 0.06666666662222222, 'textcat_f': 0.12499999984374999}}, 'reliability': {'tp': 0.0, 'fp': 1e-08, 'fn': 4.00000001, 'tn': 165.0, 'tot': 4.00000001, 'eval': {'textcat_p': 0.0, 'textcat_r': 0.0, 'textcat_f': 0}}, 'security': {'tp': 8.0, 'fp': 1.00000001, 'fn': 11.00000001, 'tn': 149.0, 'tot': 19.00000001, 'eval': {'textcat_p': 0.8888888879012344, 'textcat_r': 0.4210526313573407, 'textcat_f': 0.5714285710204082}}, 'maintainability': {'tp': 3.0, 'fp': 1e-08, 'fn': 11.00000001, 'tn': 155.0, 'tot': 14.00000001, 'eval': {'textcat_p': 0.9999999966666667, 'textcat_r': 0.21428571413265304, 'textcat_f': 0.3529411760553633}}, 'portability': {'tp': 0.0, 'fp': 1e-08, 'fn': 7.00000001, 'tn': 162.0, 'tot': 7.00000001, 'eval': {'textcat_p': 0.0, 'textcat_r': 0.0, 'textcat_f': 0}}}",11
12,"{'performance': {'tp': 4.0, 'fp': 1e-08, 'fn': 5.00000001, 'tn': 160.0, 'tot': 9.00000001, 'eval': {'textcat_p': 0.9999999975, 'textcat_r': 0.4444444439506172, 'textcat_f': 0.6153846144378697}}, 'compatibility': {'tp': 21.0, 'fp': 3.00000001, 'fn': 21.00000001, 'tn': 124.0, 'tot': 42.00000001, 'eval': {'textcat_p': 0.8749999996354166, 'textcat_r': 0.4999999998809524, 'textcat_f': 0.6363636361707988}}, 'usability': {'tp': 1.0, 'fp': 1e-08, 'fn': 14.00000001, 'tn': 154.0, 'tot': 15.00000001, 'eval': {'textcat_p': 0.9999999900000002, 'textcat_r': 0.06666666662222222, 'textcat_f': 0.12499999984374999}}, 'reliability': {'tp': 0.0, 'fp': 1e-08, 'fn': 4.00000001, 'tn': 165.0, 'tot': 4.00000001, 'eval': {'textcat_p': 0.0, 'textcat_r': 0.0, 'textcat_f': 0}}, 'security': {'tp': 8.0, 'fp': 3.00000001, 'fn': 11.00000001, 'tn': 147.0, 'tot': 19.00000001, 'eval': {'textcat_p': 0.7272727266115702, 'textcat_r': 0.4210526313573407, 'textcat_f': 0.5333333329777779}}, 'maintainability': {'tp': 3.0, 'fp': 1e-08, 'fn': 11.00000001, 'tn': 155.0, 'tot': 14.00000001, 'eval': {'textcat_p': 0.9999999966666667, 'textcat_r': 0.21428571413265304, 'textcat_f': 0.3529411760553633}}, 'portability': {'tp': 0.0, 'fp': 1e-08, 'fn': 7.00000001, 'tn': 162.0, 'tot': 7.00000001, 'eval': {'textcat_p': 0.0, 'textcat_r': 0.0, 'textcat_f': 0}}}",12
13,"{'performance': {'tp': 4.0, 'fp': 1e-08, 'fn': 5.00000001, 'tn': 160.0, 'tot': 9.00000001, 'eval': {'textcat_p': 0.9999999975, 'textcat_r': 0.4444444439506172, 'textcat_f': 0.6153846144378697}}, 'compatibility': {'tp': 20.0, 'fp': 2.00000001, 'fn': 22.00000001, 'tn': 125.0, 'tot': 42.00000001, 'eval': {'textcat_p': 0.9090909086776859, 'textcat_r': 0.47619047607709747, 'textcat_f': 0.6249999998046875}}, 'usability': {'tp': 1.0, 'fp': 1.00000001, 'fn': 14.00000001, 'tn': 153.0, 'tot': 15.00000001, 'eval': {'textcat_p': 0.4999999975, 'textcat_r': 0.06666666662222222, 'textcat_f': 0.1176470586851211}}, 'reliability': {'tp': 0.0, 'fp': 1e-08, 'fn': 4.00000001, 'tn': 165.0, 'tot': 4.00000001, 'eval': {'textcat_p': 0.0, 'textcat_r': 0.0, 'textcat_f': 0}}, 'security': {'tp': 10.0, 'fp': 3.00000001, 'fn': 9.00000001, 'tn': 147.0, 'tot': 19.00000001, 'eval': {'textcat_p': 0.7692307686390532, 'textcat_r': 0.5263157891966759, 'textcat_f': 0.624999999609375}}, 'maintainability': {'tp': 3.0, 'fp': 1e-08, 'fn': 11.00000001, 'tn': 155.0, 'tot': 14.00000001, 'eval': {'textcat_p': 0.9999999966666667, 'textcat_r': 0.21428571413265304, 'textcat_f': 0.3529411760553633}}, 'portability': {'tp': 0.0, 'fp': 1e-08, 'fn': 7.00000001, 'tn': 162.0, 'tot': 7.00000001, 'eval': {'textcat_p': 0.0, 'textcat_r': 0.0, 'textcat_f': 0}}}",13
14,"{'performance': {'tp': 4.0, 'fp': 1e-08, 'fn': 5.00000001, 'tn': 160.0, 'tot': 9.00000001, 'eval': {'textcat_p': 0.9999999975, 'textcat_r': 0.4444444439506172, 'textcat_f': 0.6153846144378697}}, 'compatibility': {'tp': 21.0, 'fp': 4.00000001, 'fn': 21.00000001, 'tn': 123.0, 'tot': 42.00000001, 'eval': {'textcat_p': 0.839999999664, 'textcat_r': 0.4999999998809524, 'textcat_f': 0.626865671454667}}, 'usability': {'tp': 1.0, 'fp': 1.00000001, 'fn': 14.00000001, 'tn': 153.0, 'tot': 15.00000001, 'eval': {'textcat_p': 0.4999999975, 'textcat_r': 0.06666666662222222, 'textcat_f': 0.1176470586851211}}, 'reliability': {'tp': 0.0, 'fp': 1e-08, 'fn': 4.00000001, 'tn': 165.0, 'tot': 4.00000001, 'eval': {'textcat_p': 0.0, 'textcat_r': 0.0, 'textcat_f': 0}}, 'security': {'tp': 9.0, 'fp': 3.00000001, 'fn': 10.00000001, 'tn': 147.0, 'tot': 19.00000001, 'eval': {'textcat_p': 0.749999999375, 'textcat_r': 0.4736842102770083, 'textcat_f': 0.5806451609157128}}, 'maintainability': {'tp': 3.0, 'fp': 1e-08, 'fn': 11.00000001, 'tn': 155.0, 'tot': 14.00000001, 'eval': {'textcat_p': 0.9999999966666667, 'textcat_r': 0.21428571413265304, 'textcat_f': 0.3529411760553633}}, 'portability': {'tp': 0.0, 'fp': 1e-08, 'fn': 7.00000001, 'tn': 162.0, 'tot': 7.00000001, 'eval': {'textcat_p': 0.0, 'textcat_r': 0.0, 'textcat_f': 0}}}",14
15,"{'performance': {'tp': 4.0, 'fp': 1e-08, 'fn': 5.00000001, 'tn': 160.0, 'tot': 9.00000001, 'eval': {'textcat_p': 0.9999999975, 'textcat_r': 0.4444444439506172, 'textcat_f': 0.6153846144378697}}, 'compatibility': {'tp': 21.0, 'fp': 5.00000001, 'fn': 21.00000001, 'tn': 122.0, 'tot': 42.00000001, 'eval': {'textcat_p': 0.8076923073816568, 'textcat_r': 0.4999999998809524, 'textcat_f': 0.6176470586418685}}, 'usability': {'tp': 1.0, 'fp': 1.00000001, 'fn': 14.00000001, 'tn': 153.0, 'tot': 15.00000001, 'eval': {'textcat_p': 0.4999999975, 'textcat_r': 0.06666666662222222, 'textcat_f': 0.1176470586851211}}, 'reliability': {'tp': 0.0, 'fp': 1e-08, 'fn': 4.00000001, 'tn': 165.0, 'tot': 4.00000001, 'eval': {'textcat_p': 0.0, 'textcat_r': 0.0, 'textcat_f': 0}}, 'security': {'tp': 9.0, 'fp': 3.00000001, 'fn': 10.00000001, 'tn': 147.0, 'tot': 19.00000001, 'eval': {'textcat_p': 0.749999999375, 'textcat_r': 0.4736842102770083, 'textcat_f': 0.5806451609157128}}, 'maintainability': {'tp': 3.0, 'fp': 1e-08, 'fn': 11.00000001, 'tn': 155.0, 'tot': 14.00000001, 'eval': {'textcat_p': 0.9999999966666667, 'textcat_r': 0.21428571413265304, 'textcat_f': 0.3529411760553633}}, 'portability': {'tp': 0.0, 'fp': 1e-08, 'fn': 7.00000001, 'tn': 162.0, 'tot': 7.00000001, 'eval': {'textcat_p': 0.0, 'textcat_r': 0.0, 'textcat_f': 0}}}",15
16,"{'performance': {'tp': 4.0, 'fp': 1e-08, 'fn': 5.00000001, 'tn': 160.0, 'tot': 9.00000001, 'eval': {'textcat_p': 0.9999999975, 'textcat_r': 0.4444444439506172, 'textcat_f': 0.6153846144378697}}, 'compatibility': {'tp': 21.0, 'fp': 5.00000001, 'fn': 21.00000001, 'tn': 122.0, 'tot': 42.00000001, 'eval': {'textcat_p': 0.8076923073816568, 'textcat_r': 0.4999999998809524, 'textcat_f': 0.6176470586418685}}, 'usability': {'tp': 1.0, 'fp': 1.00000001, 'fn': 14.00000001, 'tn': 153.0, 'tot': 15.00000001, 'eval': {'textcat_p': 0.4999999975, 'textcat_r': 0.06666666662222222, 'textcat_f': 0.1176470586851211}}, 'reliability': {'tp': 0.0, 'fp': 1e-08, 'fn': 4.00000001, 'tn': 165.0, 'tot': 4.00000001, 'eval': {'textcat_p': 0.0, 'textcat_r': 0.0, 'textcat_f': 0}}, 'security': {'tp': 9.0, 'fp': 4.00000001, 'fn': 10.00000001, 'tn': 146.0, 'tot': 19.00000001, 'eval': {'textcat_p': 0.6923076917751478, 'textcat_r': 0.4736842102770083, 'textcat_f': 0.5624999996484376}}, 'maintainability': {'tp': 3.0, 'fp': 1e-08, 'fn': 11.00000001, 'tn': 155.0, 'tot': 14.00000001, 'eval': {'textcat_p': 0.9999999966666667, 'textcat_r': 0.21428571413265304, 'textcat_f': 0.3529411760553633}}, 'portability': {'tp': 0.0, 'fp': 1e-08, 'fn': 7.00000001, 'tn': 162.0, 'tot': 7.00000001, 'eval': {'textcat_p': 0.0, 'textcat_r': 0.0, 'textcat_f': 0}}}",16
17,"{'performance': {'tp': 4.0, 'fp': 1e-08, 'fn': 5.00000001, 'tn': 160.0, 'tot': 9.00000001, 'eval': {'textcat_p': 0.9999999975, 'textcat_r': 0.4444444439506172, 'textcat_f': 0.6153846144378697}}, 'compatibility': {'tp': 21.0, 'fp': 3.00000001, 'fn': 21.00000001, 'tn': 124.0, 'tot': 42.00000001, 'eval': {'textcat_p': 0.8749999996354166, 'textcat_r': 0.4999999998809524, 'textcat_f': 0.6363636361707988}}, 'usability': {'tp': 1.0, 'fp': 1.00000001, 'fn': 14.00000001, 'tn': 153.0, 'tot': 15.00000001, 'eval': {'textcat_p': 0.4999999975, 'textcat_r': 0.06666666662222222, 'textcat_f': 0.1176470586851211}}, 'reliability': {'tp': 0.0, 'fp': 1e-08, 'fn': 4.00000001, 'tn': 165.0, 'tot': 4.00000001, 'eval': {'textcat_p': 0.0, 'textcat_r': 0.0, 'textcat_f': 0}}, 'security': {'tp': 9.0, 'fp': 5.00000001, 'fn': 10.00000001, 'tn': 145.0, 'tot': 19.00000001, 'eval': {'textcat_p': 0.6428571423979591, 'textcat_r': 0.4736842102770083, 'textcat_f': 0.5454545451239668}}, 'maintainability': {'tp': 3.0, 'fp': 1e-08, 'fn': 11.00000001, 'tn': 155.0, 'tot': 14.00000001, 'eval': {'textcat_p': 0.9999999966666667, 'textcat_r': 0.21428571413265304, 'textcat_f': 0.3529411760553633}}, 'portability': {'tp': 0.0, 'fp': 1e-08, 'fn': 7.00000001, 'tn': 162.0, 'tot': 7.00000001, 'eval': {'textcat_p': 0.0, 'textcat_r': 0.0, 'textcat_f': 0}}}",17
18,"{'performance': {'tp': 4.0, 'fp': 1e-08, 'fn': 5.00000001, 'tn': 160.0, 'tot': 9.00000001, 'eval': {'textcat_p': 0.9999999975, 'textcat_r': 0.4444444439506172, 'textcat_f': 0.6153846144378697}}, 'compatibility': {'tp': 19.0, 'fp': 3.00000001, 'fn': 23.00000001, 'tn': 124.0, 'tot': 42.00000001, 'eval': {'textcat_p': 0.8636363632438017, 'textcat_r': 0.4523809522732426, 'textcat_f': 0.5937499998144531}}, 'usability': {'tp': 1.0, 'fp': 3.00000001, 'fn': 14.00000001, 'tn': 151.0, 'tot': 15.00000001, 'eval': {'textcat_p': 0.249999999375, 'textcat_r': 0.06666666662222222, 'textcat_f': 0.10526315778393351}}, 'reliability': {'tp': 0.0, 'fp': 1e-08, 'fn': 4.00000001, 'tn': 165.0, 'tot': 4.00000001, 'eval': {'textcat_p': 0.0, 'textcat_r': 0.0, 'textcat_f': 0}}, 'security': {'tp': 12.0, 'fp': 5.00000001, 'fn': 7.00000001, 'tn': 145.0, 'tot': 19.00000001, 'eval': {'textcat_p': 0.7058823525259516, 'textcat_r': 0.631578947036011, 'textcat_f': 0.6666666662962962}}, 'maintainability': {'tp': 3.0, 'fp': 1e-08, 'fn': 11.00000001, 'tn': 155.0, 'tot': 14.00000001, 'eval': {'textcat_p': 0.9999999966666667, 'textcat_r': 0.21428571413265304, 'textcat_f': 0.3529411760553633}}, 'portability': {'tp': 0.0, 'fp': 1e-08, 'fn': 7.00000001, 'tn': 162.0, 'tot': 7.00000001, 'eval': {'textcat_p': 0.0, 'textcat_r': 0.0, 'textcat_f': 0}}}",18
19,"{'performance': {'tp': 4.0, 'fp': 1e-08, 'fn': 5.00000001, 'tn': 160.0, 'tot': 9.00000001, 'eval': {'textcat_p': 0.9999999975, 'textcat_r': 0.4444444439506172, 'textcat_f': 0.6153846144378697}}, 'compatibility': {'tp': 19.0, 'fp': 5.00000001, 'fn': 23.00000001, 'tn': 122.0, 'tot': 42.00000001, 'eval': {'textcat_p': 0.7916666663368055, 'textcat_r': 0.4523809522732426, 'textcat_f': 0.5757575755831037}}, 'usability': {'tp': 1.0, 'fp': 2.00000001, 'fn': 14.00000001, 'tn': 152.0, 'tot': 15.00000001, 'eval': {'textcat_p': 0.3333333322222222, 'textcat_r': 0.06666666662222222, 'textcat_f': 0.1111111109876543}}, 'reliability': {'tp': 0.0, 'fp': 1e-08, 'fn': 4.00000001, 'tn': 165.0, 'tot': 4.00000001, 'eval': {'textcat_p': 0.0, 'textcat_r': 0.0, 'textcat_f': 0}}, 'security': {'tp': 12.0, 'fp': 5.00000001, 'fn': 7.00000001, 'tn': 145.0, 'tot': 19.00000001, 'eval': {'textcat_p': 0.7058823525259516, 'textcat_r': 0.631578947036011, 'textcat_f': 0.6666666662962962}}, 'maintainability': {'tp': 3.0, 'fp': 1e-08, 'fn': 11.00000001, 'tn': 155.0, 'tot': 14.00000001, 'eval': {'textcat_p': 0.9999999966666667, 'textcat_r': 0.21428571413265304, 'textcat_f': 0.3529411760553633}}, 'portability': {'tp': 0.0, 'fp': 1e-08, 'fn': 7.00000001, 'tn': 162.0, 'tot': 7.00000001, 'eval': {'textcat_p': 0.0, 'textcat_r': 0.0, 'textcat_f': 0}}}",19
20,"{'performance': {'tp': 4.0, 'fp': 1e-08, 'fn': 5.00000001, 'tn': 160.0, 'tot': 9.00000001, 'eval': {'textcat_p': 0.9999999975, 'textcat_r': 0.4444444439506172, 'textcat_f': 0.6153846144378697}}, 'compatibility': {'tp': 20.0, 'fp': 5.00000001, 'fn': 22.00000001, 'tn': 122.0, 'tot': 42.00000001, 'eval': {'textcat_p': 0.79999999968, 'textcat_r': 0.47619047607709747, 'textcat_f': 0.5970149251949209}}, 'usability': {'tp': 1.0, 'fp': 3.00000001, 'fn': 14.00000001, 'tn': 151.0, 'tot': 15.00000001, 'eval': {'textcat_p': 0.249999999375, 'textcat_r': 0.06666666662222222, 'textcat_f': 0.10526315778393351}}, 'reliability': {'tp': 0.0, 'fp': 1e-08, 'fn': 4.00000001, 'tn': 165.0, 'tot': 4.00000001, 'eval': {'textcat_p': 0.0, 'textcat_r': 0.0, 'textcat_f': 0}}, 'security': {'tp': 12.0, 'fp': 5.00000001, 'fn': 7.00000001, 'tn': 145.0, 'tot': 19.00000001, 'eval': {'textcat_p': 0.7058823525259516, 'textcat_r': 0.631578947036011, 'textcat_f': 0.6666666662962962}}, 'maintainability': {'tp': 3.0, 'fp': 1e-08, 'fn': 11.00000001, 'tn': 155.0, 'tot': 14.00000001, 'eval': {'textcat_p': 0.9999999966666667, 'textcat_r': 0.21428571413265304, 'textcat_f': 0.3529411760553633}}, 'portability': {'tp': 2.0, 'fp': 1e-08, 'fn': 5.00000001, 'tn': 162.0, 'tot': 7.00000001, 'eval': {'textcat_p': 0.999999995, 'textcat_r': 0.2857142853061225, 'textcat_f': 0.44444444345679013}}}",20
21,"{'performance': {'tp': 4.0, 'fp': 1e-08, 'fn': 5.00000001, 'tn': 160.0, 'tot': 9.00000001, 'eval': {'textcat_p': 0.9999999975, 'textcat_r': 0.4444444439506172, 'textcat_f': 0.6153846144378697}}, 'compatibility': {'tp': 20.0, 'fp': 5.00000001, 'fn': 22.00000001, 'tn': 122.0, 'tot': 42.00000001, 'eval': {'textcat_p': 0.79999999968, 'textcat_r': 0.47619047607709747, 'textcat_f': 0.5970149251949209}}, 'usability': {'tp': 1.0, 'fp': 3.00000001, 'fn': 14.00000001, 'tn': 151.0, 'tot': 15.00000001, 'eval': {'textcat_p': 0.249999999375, 'textcat_r': 0.06666666662222222, 'textcat_f': 0.10526315778393351}}, 'reliability': {'tp': 0.0, 'fp': 1e-08, 'fn': 4.00000001, 'tn': 165.0, 'tot': 4.00000001, 'eval': {'textcat_p': 0.0, 'textcat_r': 0.0, 'textcat_f': 0}}, 'security': {'tp': 12.0, 'fp': 5.00000001, 'fn': 7.00000001, 'tn': 145.0, 'tot': 19.00000001, 'eval': {'textcat_p': 0.7058823525259516, 'textcat_r': 0.631578947036011, 'textcat_f': 0.6666666662962962}}, 'maintainability': {'tp': 4.0, 'fp': 1e-08, 'fn': 10.00000001, 'tn': 155.0, 'tot': 14.00000001, 'eval': {'textcat_p': 0.9999999975, 'textcat_r': 0.28571428551020406, 'textcat_f': 0.4444444439506173}}, 'portability': {'tp': 2.0, 'fp': 1e-08, 'fn': 5.00000001, 'tn': 162.0, 'tot': 7.00000001, 'eval': {'textcat_p': 0.999999995, 'textcat_r': 0.2857142853061225, 'textcat_f': 0.44444444345679013}}}",21
22,"{'performance': {'tp': 4.0, 'fp': 1e-08, 'fn': 5.00000001, 'tn': 160.0, 'tot': 9.00000001, 'eval': {'textcat_p': 0.9999999975, 'textcat_r': 0.4444444439506172, 'textcat_f': 0.6153846144378697}}, 'compatibility': {'tp': 20.0, 'fp': 5.00000001, 'fn': 22.00000001, 'tn': 122.0, 'tot': 42.00000001, 'eval': {'textcat_p': 0.79999999968, 'textcat_r': 0.47619047607709747, 'textcat_f': 0.5970149251949209}}, 'usability': {'tp': 1.0, 'fp': 3.00000001, 'fn': 14.00000001, 'tn': 151.0, 'tot': 15.00000001, 'eval': {'textcat_p': 0.249999999375, 'textcat_r': 0.06666666662222222, 'textcat_f': 0.10526315778393351}}, 'reliability': {'tp': 0.0, 'fp': 1e-08, 'fn': 4.00000001, 'tn': 165.0, 'tot': 4.00000001, 'eval': {'textcat_p': 0.0, 'textcat_r': 0.0, 'textcat_f': 0}}, 'security': {'tp': 14.0, 'fp': 7.00000001, 'fn': 5.00000001, 'tn': 143.0, 'tot': 19.00000001, 'eval': {'textcat_p': 0.6666666663492063, 'textcat_r': 0.7368421048753462, 'textcat_f': 0.6999999996499999}}, 'maintainability': {'tp': 5.0, 'fp': 1e-08, 'fn': 9.00000001, 'tn': 155.0, 'tot': 14.00000001, 'eval': {'textcat_p': 0.9999999980000001, 'textcat_r': 0.3571428568877551, 'textcat_f': 0.5263157889196677}}, 'portability': {'tp': 2.0, 'fp': 1e-08, 'fn': 5.00000001, 'tn': 162.0, 'tot': 7.00000001, 'eval': {'textcat_p': 0.999999995, 'textcat_r': 0.2857142853061225, 'textcat_f': 0.44444444345679013}}}",22
23,"{'performance': {'tp': 4.0, 'fp': 1e-08, 'fn': 5.00000001, 'tn': 160.0, 'tot': 9.00000001, 'eval': {'textcat_p': 0.9999999975, 'textcat_r': 0.4444444439506172, 'textcat_f': 0.6153846144378697}}, 'compatibility': {'tp': 20.0, 'fp': 5.00000001, 'fn': 22.00000001, 'tn': 122.0, 'tot': 42.00000001, 'eval': {'textcat_p': 0.79999999968, 'textcat_r': 0.47619047607709747, 'textcat_f': 0.5970149251949209}}, 'usability': {'tp': 1.0, 'fp': 5.00000001, 'fn': 14.00000001, 'tn': 149.0, 'tot': 15.00000001, 'eval': {'textcat_p': 0.16666666638888888, 'textcat_r': 0.06666666662222222, 'textcat_f': 0.09523809514739229}}, 'reliability': {'tp': 0.0, 'fp': 1e-08, 'fn': 4.00000001, 'tn': 165.0, 'tot': 4.00000001, 'eval': {'textcat_p': 0.0, 'textcat_r': 0.0, 'textcat_f': 0}}, 'security': {'tp': 13.0, 'fp': 7.00000001, 'fn': 6.00000001, 'tn': 143.0, 'tot': 19.00000001, 'eval': {'textcat_p': 0.649999999675, 'textcat_r': 0.6842105259556787, 'textcat_f': 0.6666666663247863}}, 'maintainability': {'tp': 5.0, 'fp': 1e-08, 'fn': 9.00000001, 'tn': 155.0, 'tot': 14.00000001, 'eval': {'textcat_p': 0.9999999980000001, 'textcat_r': 0.3571428568877551, 'textcat_f': 0.5263157889196677}}, 'portability': {'tp': 2.0, 'fp': 1e-08, 'fn': 5.00000001, 'tn': 162.0, 'tot': 7.00000001, 'eval': {'textcat_p': 0.999999995, 'textcat_r': 0.2857142853061225, 'textcat_f': 0.44444444345679013}}}",23
24,"{'performance': {'tp': 4.0, 'fp': 1e-08, 'fn': 5.00000001, 'tn': 160.0, 'tot': 9.00000001, 'eval': {'textcat_p': 0.9999999975, 'textcat_r': 0.4444444439506172, 'textcat_f': 0.6153846144378697}}, 'compatibility': {'tp': 20.0, 'fp': 5.00000001, 'fn': 22.00000001, 'tn': 122.0, 'tot': 42.00000001, 'eval': {'textcat_p': 0.79999999968, 'textcat_r': 0.47619047607709747, 'textcat_f': 0.5970149251949209}}, 'usability': {'tp': 1.0, 'fp': 5.00000001, 'fn': 14.00000001, 'tn': 149.0, 'tot': 15.00000001, 'eval': {'textcat_p': 0.16666666638888888, 'textcat_r': 0.06666666662222222, 'textcat_f': 0.09523809514739229}}, 'reliability': {'tp': 0.0, 'fp': 1e-08, 'fn': 4.00000001, 'tn': 165.0, 'tot': 4.00000001, 'eval': {'textcat_p': 0.0, 'textcat_r': 0.0, 'textcat_f': 0}}, 'security': {'tp': 15.0, 'fp': 6.00000001, 'fn': 4.00000001, 'tn': 144.0, 'tot': 19.00000001, 'eval': {'textcat_p': 0.7142857139455782, 'textcat_r': 0.7894736837950138, 'textcat_f': 0.7499999996249999}}, 'maintainability': {'tp': 5.0, 'fp': 1e-08, 'fn': 9.00000001, 'tn': 155.0, 'tot': 14.00000001, 'eval': {'textcat_p': 0.9999999980000001, 'textcat_r': 0.3571428568877551, 'textcat_f': 0.5263157889196677}}, 'portability': {'tp': 2.0, 'fp': 1e-08, 'fn': 5.00000001, 'tn': 162.0, 'tot': 7.00000001, 'eval': {'textcat_p': 0.999999995, 'textcat_r': 0.2857142853061225, 'textcat_f': 0.44444444345679013}}}",24
25,"{'performance': {'tp': 4.0, 'fp': 1e-08, 'fn': 5.00000001, 'tn': 160.0, 'tot': 9.00000001, 'eval': {'textcat_p': 0.9999999975, 'textcat_r': 0.4444444439506172, 'textcat_f': 0.6153846144378697}}, 'compatibility': {'tp': 20.0, 'fp': 5.00000001, 'fn': 22.00000001, 'tn': 122.0, 'tot': 42.00000001, 'eval': {'textcat_p': 0.79999999968, 'textcat_r': 0.47619047607709747, 'textcat_f': 0.5970149251949209}}, 'usability': {'tp': 2.0, 'fp': 6.00000001, 'fn': 13.00000001, 'tn': 148.0, 'tot': 15.00000001, 'eval': {'textcat_p': 0.24999999968749997, 'textcat_r': 0.13333333324444444, 'textcat_f': 0.17391304332703214}}, 'reliability': {'tp': 0.0, 'fp': 1e-08, 'fn': 4.00000001, 'tn': 165.0, 'tot': 4.00000001, 'eval': {'textcat_p': 0.0, 'textcat_r': 0.0, 'textcat_f': 0}}, 'security': {'tp': 15.0, 'fp': 6.00000001, 'fn': 4.00000001, 'tn': 144.0, 'tot': 19.00000001, 'eval': {'textcat_p': 0.7142857139455782, 'textcat_r': 0.7894736837950138, 'textcat_f': 0.7499999996249999}}, 'maintainability': {'tp': 5.0, 'fp': 1e-08, 'fn': 9.00000001, 'tn': 155.0, 'tot': 14.00000001, 'eval': {'textcat_p': 0.9999999980000001, 'textcat_r': 0.3571428568877551, 'textcat_f': 0.5263157889196677}}, 'portability': {'tp': 2.0, 'fp': 1e-08, 'fn': 5.00000001, 'tn': 162.0, 'tot': 7.00000001, 'eval': {'textcat_p': 0.999999995, 'textcat_r': 0.2857142853061225, 'textcat_f': 0.44444444345679013}}}",25
26,"{'performance': {'tp': 4.0, 'fp': 1e-08, 'fn': 5.00000001, 'tn': 160.0, 'tot': 9.00000001, 'eval': {'textcat_p': 0.9999999975, 'textcat_r': 0.4444444439506172, 'textcat_f': 0.6153846144378697}}, 'compatibility': {'tp': 20.0, 'fp': 5.00000001, 'fn': 22.00000001, 'tn': 122.0, 'tot': 42.00000001, 'eval': {'textcat_p': 0.79999999968, 'textcat_r': 0.47619047607709747, 'textcat_f': 0.5970149251949209}}, 'usability': {'tp': 2.0, 'fp': 6.00000001, 'fn': 13.00000001, 'tn': 148.0, 'tot': 15.00000001, 'eval': {'textcat_p': 0.24999999968749997, 'textcat_r': 0.13333333324444444, 'textcat_f': 0.17391304332703214}}, 'reliability': {'tp': 0.0, 'fp': 1e-08, 'fn': 4.00000001, 'tn': 165.0, 'tot': 4.00000001, 'eval': {'textcat_p': 0.0, 'textcat_r': 0.0, 'textcat_f': 0}}, 'security': {'tp': 15.0, 'fp': 7.00000001, 'fn': 4.00000001, 'tn': 143.0, 'tot': 19.00000001, 'eval': {'textcat_p': 0.6818181815082645, 'textcat_r': 0.7894736837950138, 'textcat_f': 0.7317073167162403}}, 'maintainability': {'tp': 5.0, 'fp': 1e-08, 'fn': 9.00000001, 'tn': 155.0, 'tot': 14.00000001, 'eval': {'textcat_p': 0.9999999980000001, 'textcat_r': 0.3571428568877551, 'textcat_f': 0.5263157889196677}}, 'portability': {'tp': 2.0, 'fp': 1e-08, 'fn': 5.00000001, 'tn': 162.0, 'tot': 7.00000001, 'eval': {'textcat_p': 0.999999995, 'textcat_r': 0.2857142853061225, 'textcat_f': 0.44444444345679013}}}",26
27,"{'performance': {'tp': 4.0, 'fp': 1e-08, 'fn': 5.00000001, 'tn': 160.0, 'tot': 9.00000001, 'eval': {'textcat_p': 0.9999999975, 'textcat_r': 0.4444444439506172, 'textcat_f': 0.6153846144378697}}, 'compatibility': {'tp': 20.0, 'fp': 6.00000001, 'fn': 22.00000001, 'tn': 121.0, 'tot': 42.00000001, 'eval': {'textcat_p': 0.7692307689349113, 'textcat_r': 0.47619047607709747, 'textcat_f': 0.5882352939446367}}, 'usability': {'tp': 2.0, 'fp': 6.00000001, 'fn': 13.00000001, 'tn': 148.0, 'tot': 15.00000001, 'eval': {'textcat_p': 0.24999999968749997, 'textcat_r': 0.13333333324444444, 'textcat_f': 0.17391304332703214}}, 'reliability': {'tp': 0.0, 'fp': 1e-08, 'fn': 4.00000001, 'tn': 165.0, 'tot': 4.00000001, 'eval': {'textcat_p': 0.0, 'textcat_r': 0.0, 'textcat_f': 0}}, 'security': {'tp': 15.0, 'fp': 7.00000001, 'fn': 4.00000001, 'tn': 143.0, 'tot': 19.00000001, 'eval': {'textcat_p': 0.6818181815082645, 'textcat_r': 0.7894736837950138, 'textcat_f': 0.7317073167162403}}, 'maintainability': {'tp': 5.0, 'fp': 1.00000001, 'fn': 9.00000001, 'tn': 154.0, 'tot': 14.00000001, 'eval': {'textcat_p': 0.8333333319444445, 'textcat_r': 0.3571428568877551, 'textcat_f': 0.4999999995}}, 'portability': {'tp': 3.0, 'fp': 1e-08, 'fn': 4.00000001, 'tn': 162.0, 'tot': 7.00000001, 'eval': {'textcat_p': 0.9999999966666667, 'textcat_r': 0.4285714279591837, 'textcat_f': 0.5999999988}}}",27
28,"{'performance': {'tp': 4.0, 'fp': 1e-08, 'fn': 5.00000001, 'tn': 160.0, 'tot': 9.00000001, 'eval': {'textcat_p': 0.9999999975, 'textcat_r': 0.4444444439506172, 'textcat_f': 0.6153846144378697}}, 'compatibility': {'tp': 20.0, 'fp': 5.00000001, 'fn': 22.00000001, 'tn': 122.0, 'tot': 42.00000001, 'eval': {'textcat_p': 0.79999999968, 'textcat_r': 0.47619047607709747, 'textcat_f': 0.5970149251949209}}, 'usability': {'tp': 2.0, 'fp': 5.00000001, 'fn': 13.00000001, 'tn': 149.0, 'tot': 15.00000001, 'eval': {'textcat_p': 0.2857142853061225, 'textcat_r': 0.13333333324444444, 'textcat_f': 0.18181818165289254}}, 'reliability': {'tp': 0.0, 'fp': 1e-08, 'fn': 4.00000001, 'tn': 165.0, 'tot': 4.00000001, 'eval': {'textcat_p': 0.0, 'textcat_r': 0.0, 'textcat_f': 0}}, 'security': {'tp': 15.0, 'fp': 7.00000001, 'fn': 4.00000001, 'tn': 143.0, 'tot': 19.00000001, 'eval': {'textcat_p': 0.6818181815082645, 'textcat_r': 0.7894736837950138, 'textcat_f': 0.7317073167162403}}, 'maintainability': {'tp': 5.0, 'fp': 2.00000001, 'fn': 9.00000001, 'tn': 153.0, 'tot': 14.00000001, 'eval': {'textcat_p': 0.7142857132653061, 'textcat_r': 0.3571428568877551, 'textcat_f': 0.47619047573696144}}, 'portability': {'tp': 3.0, 'fp': 1e-08, 'fn': 4.00000001, 'tn': 162.0, 'tot': 7.00000001, 'eval': {'textcat_p': 0.9999999966666667, 'textcat_r': 0.4285714279591837, 'textcat_f': 0.5999999988}}}",28
29,"{'performance': {'tp': 4.0, 'fp': 1e-08, 'fn': 5.00000001, 'tn': 160.0, 'tot': 9.00000001, 'eval': {'textcat_p': 0.9999999975, 'textcat_r': 0.4444444439506172, 'textcat_f': 0.6153846144378697}}, 'compatibility': {'tp': 20.0, 'fp': 5.00000001, 'fn': 22.00000001, 'tn': 122.0, 'tot': 42.00000001, 'eval': {'textcat_p': 0.79999999968, 'textcat_r': 0.47619047607709747, 'textcat_f': 0.5970149251949209}}, 'usability': {'tp': 2.0, 'fp': 5.00000001, 'fn': 13.00000001, 'tn': 149.0, 'tot': 15.00000001, 'eval': {'textcat_p': 0.2857142853061225, 'textcat_r': 0.13333333324444444, 'textcat_f': 0.18181818165289254}}, 'reliability': {'tp': 0.0, 'fp': 1e-08, 'fn': 4.00000001, 'tn': 165.0, 'tot': 4.00000001, 'eval': {'textcat_p': 0.0, 'textcat_r': 0.0, 'textcat_f': 0}}, 'security': {'tp': 15.0, 'fp': 6.00000001, 'fn': 4.00000001, 'tn': 144.0, 'tot': 19.00000001, 'eval': {'textcat_p': 0.7142857139455782, 'textcat_r': 0.7894736837950138, 'textcat_f': 0.7499999996249999}}, 'maintainability': {'tp': 5.0, 'fp': 2.00000001, 'fn': 9.00000001, 'tn': 153.0, 'tot': 14.00000001, 'eval': {'textcat_p': 0.7142857132653061, 'textcat_r': 0.3571428568877551, 'textcat_f': 0.47619047573696144}}, 'portability': {'tp': 3.0, 'fp': 1e-08, 'fn': 4.00000001, 'tn': 162.0, 'tot': 7.00000001, 'eval': {'textcat_p': 0.9999999966666667, 'textcat_r': 0.4285714279591837, 'textcat_f': 0.5999999988}}}",29
30,"{'performance': {'tp': 4.0, 'fp': 1e-08, 'fn': 5.00000001, 'tn': 160.0, 'tot': 9.00000001, 'eval': {'textcat_p': 0.9999999975, 'textcat_r': 0.4444444439506172, 'textcat_f': 0.6153846144378697}}, 'compatibility': {'tp': 20.0, 'fp': 5.00000001, 'fn': 22.00000001, 'tn': 122.0, 'tot': 42.00000001, 'eval': {'textcat_p': 0.79999999968, 'textcat_r': 0.47619047607709747, 'textcat_f': 0.5970149251949209}}, 'usability': {'tp': 3.0, 'fp': 5.00000001, 'fn': 12.00000001, 'tn': 149.0, 'tot': 15.00000001, 'eval': {'textcat_p': 0.37499999953124996, 'textcat_r': 0.19999999986666667, 'textcat_f': 0.2608695649905482}}, 'reliability': {'tp': 0.0, 'fp': 1e-08, 'fn': 4.00000001, 'tn': 165.0, 'tot': 4.00000001, 'eval': {'textcat_p': 0.0, 'textcat_r': 0.0, 'textcat_f': 0}}, 'security': {'tp': 15.0, 'fp': 6.00000001, 'fn': 4.00000001, 'tn': 144.0, 'tot': 19.00000001, 'eval': {'textcat_p': 0.7142857139455782, 'textcat_r': 0.7894736837950138, 'textcat_f': 0.7499999996249999}}, 'maintainability': {'tp': 5.0, 'fp': 1.00000001, 'fn': 9.00000001, 'tn': 154.0, 'tot': 14.00000001, 'eval': {'textcat_p': 0.8333333319444445, 'textcat_r': 0.3571428568877551, 'textcat_f': 0.4999999995}}, 'portability': {'tp': 3.0, 'fp': 1e-08, 'fn': 4.00000001, 'tn': 162.0, 'tot': 7.00000001, 'eval': {'textcat_p': 0.9999999966666667, 'textcat_r': 0.4285714279591837, 'textcat_f': 0.5999999988}}}",30
31,"{'performance': {'tp': 4.0, 'fp': 1e-08, 'fn': 5.00000001, 'tn': 160.0, 'tot': 9.00000001, 'eval': {'textcat_p': 0.9999999975, 'textcat_r': 0.4444444439506172, 'textcat_f': 0.6153846144378697}}, 'compatibility': {'tp': 20.0, 'fp': 5.00000001, 'fn': 22.00000001, 'tn': 122.0, 'tot': 42.00000001, 'eval': {'textcat_p': 0.79999999968, 'textcat_r': 0.47619047607709747, 'textcat_f': 0.5970149251949209}}, 'usability': {'tp': 3.0, 'fp': 5.00000001, 'fn': 12.00000001, 'tn': 149.0, 'tot': 15.00000001, 'eval': {'textcat_p': 0.37499999953124996, 'textcat_r': 0.19999999986666667, 'textcat_f': 0.2608695649905482}}, 'reliability': {'tp': 0.0, 'fp': 1e-08, 'fn': 4.00000001, 'tn': 165.0, 'tot': 4.00000001, 'eval': {'textcat_p': 0.0, 'textcat_r': 0.0, 'textcat_f': 0}}, 'security': {'tp': 15.0, 'fp': 7.00000001, 'fn': 4.00000001, 'tn': 143.0, 'tot': 19.00000001, 'eval': {'textcat_p': 0.6818181815082645, 'textcat_r': 0.7894736837950138, 'textcat_f': 0.7317073167162403}}, 'maintainability': {'tp': 5.0, 'fp': 1.00000001, 'fn': 9.00000001, 'tn': 154.0, 'tot': 14.00000001, 'eval': {'textcat_p': 0.8333333319444445, 'textcat_r': 0.3571428568877551, 'textcat_f': 0.4999999995}}, 'portability': {'tp': 3.0, 'fp': 1e-08, 'fn': 4.00000001, 'tn': 162.0, 'tot': 7.00000001, 'eval': {'textcat_p': 0.9999999966666667, 'textcat_r': 0.4285714279591837, 'textcat_f': 0.5999999988}}}",31
32,"{'performance': {'tp': 4.0, 'fp': 1e-08, 'fn': 5.00000001, 'tn': 160.0, 'tot': 9.00000001, 'eval': {'textcat_p': 0.9999999975, 'textcat_r': 0.4444444439506172, 'textcat_f': 0.6153846144378697}}, 'compatibility': {'tp': 19.0, 'fp': 5.00000001, 'fn': 23.00000001, 'tn': 122.0, 'tot': 42.00000001, 'eval': {'textcat_p': 0.7916666663368055, 'textcat_r': 0.4523809522732426, 'textcat_f': 0.5757575755831037}}, 'usability': {'tp': 3.0, 'fp': 6.00000001, 'fn': 12.00000001, 'tn': 148.0, 'tot': 15.00000001, 'eval': {'textcat_p': 0.3333333329629629, 'textcat_r': 0.19999999986666667, 'textcat_f': 0.24999999979166665}}, 'reliability': {'tp': 0.0, 'fp': 1.00000001, 'fn': 4.00000001, 'tn': 164.0, 'tot': 4.00000001, 'eval': {'textcat_p': 0.0, 'textcat_r': 0.0, 'textcat_f': 0}}, 'security': {'tp': 15.0, 'fp': 7.00000001, 'fn': 4.00000001, 'tn': 143.0, 'tot': 19.00000001, 'eval': {'textcat_p': 0.6818181815082645, 'textcat_r': 0.7894736837950138, 'textcat_f': 0.7317073167162403}}, 'maintainability': {'tp': 5.0, 'fp': 1.00000001, 'fn': 9.00000001, 'tn': 154.0, 'tot': 14.00000001, 'eval': {'textcat_p': 0.8333333319444445, 'textcat_r': 0.3571428568877551, 'textcat_f': 0.4999999995}}, 'portability': {'tp': 3.0, 'fp': 1e-08, 'fn': 4.00000001, 'tn': 162.0, 'tot': 7.00000001, 'eval': {'textcat_p': 0.9999999966666667, 'textcat_r': 0.4285714279591837, 'textcat_f': 0.5999999988}}}",32
33,"{'performance': {'tp': 4.0, 'fp': 1e-08, 'fn': 5.00000001, 'tn': 160.0, 'tot': 9.00000001, 'eval': {'textcat_p': 0.9999999975, 'textcat_r': 0.4444444439506172, 'textcat_f': 0.6153846144378697}}, 'compatibility': {'tp': 19.0, 'fp': 5.00000001, 'fn': 23.00000001, 'tn': 122.0, 'tot': 42.00000001, 'eval': {'textcat_p': 0.7916666663368055, 'textcat_r': 0.4523809522732426, 'textcat_f': 0.5757575755831037}}, 'usability': {'tp': 3.0, 'fp': 6.00000001, 'fn': 12.00000001, 'tn': 148.0, 'tot': 15.00000001, 'eval': {'textcat_p': 0.3333333329629629, 'textcat_r': 0.19999999986666667, 'textcat_f': 0.24999999979166665}}, 'reliability': {'tp': 0.0, 'fp': 1.00000001, 'fn': 4.00000001, 'tn': 164.0, 'tot': 4.00000001, 'eval': {'textcat_p': 0.0, 'textcat_r': 0.0, 'textcat_f': 0}}, 'security': {'tp': 16.0, 'fp': 7.00000001, 'fn': 3.00000001, 'tn': 143.0, 'tot': 19.00000001, 'eval': {'textcat_p': 0.695652173610586, 'textcat_r': 0.8421052627146814, 'textcat_f': 0.76190476154195}}, 'maintainability': {'tp': 5.0, 'fp': 1.00000001, 'fn': 9.00000001, 'tn': 154.0, 'tot': 14.00000001, 'eval': {'textcat_p': 0.8333333319444445, 'textcat_r': 0.3571428568877551, 'textcat_f': 0.4999999995}}, 'portability': {'tp': 3.0, 'fp': 1e-08, 'fn': 4.00000001, 'tn': 162.0, 'tot': 7.00000001, 'eval': {'textcat_p': 0.9999999966666667, 'textcat_r': 0.4285714279591837, 'textcat_f': 0.5999999988}}}",33
34,"{'performance': {'tp': 4.0, 'fp': 1e-08, 'fn': 5.00000001, 'tn': 160.0, 'tot': 9.00000001, 'eval': {'textcat_p': 0.9999999975, 'textcat_r': 0.4444444439506172, 'textcat_f': 0.6153846144378697}}, 'compatibility': {'tp': 19.0, 'fp': 5.00000001, 'fn': 23.00000001, 'tn': 122.0, 'tot': 42.00000001, 'eval': {'textcat_p': 0.7916666663368055, 'textcat_r': 0.4523809522732426, 'textcat_f': 0.5757575755831037}}, 'usability': {'tp': 3.0, 'fp': 6.00000001, 'fn': 12.00000001, 'tn': 148.0, 'tot': 15.00000001, 'eval': {'textcat_p': 0.3333333329629629, 'textcat_r': 0.19999999986666667, 'textcat_f': 0.24999999979166665}}, 'reliability': {'tp': 0.0, 'fp': 1.00000001, 'fn': 4.00000001, 'tn': 164.0, 'tot': 4.00000001, 'eval': {'textcat_p': 0.0, 'textcat_r': 0.0, 'textcat_f': 0}}, 'security': {'tp': 15.0, 'fp': 6.00000001, 'fn': 4.00000001, 'tn': 144.0, 'tot': 19.00000001, 'eval': {'textcat_p': 0.7142857139455782, 'textcat_r': 0.7894736837950138, 'textcat_f': 0.7499999996249999}}, 'maintainability': {'tp': 5.0, 'fp': 1.00000001, 'fn': 9.00000001, 'tn': 154.0, 'tot': 14.00000001, 'eval': {'textcat_p': 0.8333333319444445, 'textcat_r': 0.3571428568877551, 'textcat_f': 0.4999999995}}, 'portability': {'tp': 3.0, 'fp': 1e-08, 'fn': 4.00000001, 'tn': 162.0, 'tot': 7.00000001, 'eval': {'textcat_p': 0.9999999966666667, 'textcat_r': 0.4285714279591837, 'textcat_f': 0.5999999988}}}",34
35,"{'performance': {'tp': 4.0, 'fp': 1e-08, 'fn': 5.00000001, 'tn': 160.0, 'tot': 9.00000001, 'eval': {'textcat_p': 0.9999999975, 'textcat_r': 0.4444444439506172, 'textcat_f': 0.6153846144378697}}, 'compatibility': {'tp': 19.0, 'fp': 5.00000001, 'fn': 23.00000001, 'tn': 122.0, 'tot': 42.00000001, 'eval': {'textcat_p': 0.7916666663368055, 'textcat_r': 0.4523809522732426, 'textcat_f': 0.5757575755831037}}, 'usability': {'tp': 3.0, 'fp': 5.00000001, 'fn': 12.00000001, 'tn': 149.0, 'tot': 15.00000001, 'eval': {'textcat_p': 0.37499999953124996, 'textcat_r': 0.19999999986666667, 'textcat_f': 0.2608695649905482}}, 'reliability': {'tp': 0.0, 'fp': 1.00000001, 'fn': 4.00000001, 'tn': 164.0, 'tot': 4.00000001, 'eval': {'textcat_p': 0.0, 'textcat_r': 0.0, 'textcat_f': 0}}, 'security': {'tp': 15.0, 'fp': 6.00000001, 'fn': 4.00000001, 'tn': 144.0, 'tot': 19.00000001, 'eval': {'textcat_p': 0.7142857139455782, 'textcat_r': 0.7894736837950138, 'textcat_f': 0.7499999996249999}}, 'maintainability': {'tp': 5.0, 'fp': 1.00000001, 'fn': 9.00000001, 'tn': 154.0, 'tot': 14.00000001, 'eval': {'textcat_p': 0.8333333319444445, 'textcat_r': 0.3571428568877551, 'textcat_f': 0.4999999995}}, 'portability': {'tp': 3.0, 'fp': 1e-08, 'fn': 4.00000001, 'tn': 162.0, 'tot': 7.00000001, 'eval': {'textcat_p': 0.9999999966666667, 'textcat_r': 0.4285714279591837, 'textcat_f': 0.5999999988}}}",35
36,"{'performance': {'tp': 4.0, 'fp': 1e-08, 'fn': 5.00000001, 'tn': 160.0, 'tot': 9.00000001, 'eval': {'textcat_p': 0.9999999975, 'textcat_r': 0.4444444439506172, 'textcat_f': 0.6153846144378697}}, 'compatibility': {'tp': 19.0, 'fp': 5.00000001, 'fn': 23.00000001, 'tn': 122.0, 'tot': 42.00000001, 'eval': {'textcat_p': 0.7916666663368055, 'textcat_r': 0.4523809522732426, 'textcat_f': 0.5757575755831037}}, 'usability': {'tp': 4.0, 'fp': 5.00000001, 'fn': 11.00000001, 'tn': 149.0, 'tot': 15.00000001, 'eval': {'textcat_p': 0.4444444439506172, 'textcat_r': 0.26666666648888887, 'textcat_f': 0.3333333330555555}}, 'reliability': {'tp': 0.0, 'fp': 1.00000001, 'fn': 4.00000001, 'tn': 164.0, 'tot': 4.00000001, 'eval': {'textcat_p': 0.0, 'textcat_r': 0.0, 'textcat_f': 0}}, 'security': {'tp': 15.0, 'fp': 6.00000001, 'fn': 4.00000001, 'tn': 144.0, 'tot': 19.00000001, 'eval': {'textcat_p': 0.7142857139455782, 'textcat_r': 0.7894736837950138, 'textcat_f': 0.7499999996249999}}, 'maintainability': {'tp': 5.0, 'fp': 1.00000001, 'fn': 9.00000001, 'tn': 154.0, 'tot': 14.00000001, 'eval': {'textcat_p': 0.8333333319444445, 'textcat_r': 0.3571428568877551, 'textcat_f': 0.4999999995}}, 'portability': {'tp': 3.0, 'fp': 1e-08, 'fn': 4.00000001, 'tn': 162.0, 'tot': 7.00000001, 'eval': {'textcat_p': 0.9999999966666667, 'textcat_r': 0.4285714279591837, 'textcat_f': 0.5999999988}}}",36
37,"{'performance': {'tp': 4.0, 'fp': 1e-08, 'fn': 5.00000001, 'tn': 160.0, 'tot': 9.00000001, 'eval': {'textcat_p': 0.9999999975, 'textcat_r': 0.4444444439506172, 'textcat_f': 0.6153846144378697}}, 'compatibility': {'tp': 19.0, 'fp': 5.00000001, 'fn': 23.00000001, 'tn': 122.0, 'tot': 42.00000001, 'eval': {'textcat_p': 0.7916666663368055, 'textcat_r': 0.4523809522732426, 'textcat_f': 0.5757575755831037}}, 'usability': {'tp': 4.0, 'fp': 5.00000001, 'fn': 11.00000001, 'tn': 149.0, 'tot': 15.00000001, 'eval': {'textcat_p': 0.4444444439506172, 'textcat_r': 0.26666666648888887, 'textcat_f': 0.3333333330555555}}, 'reliability': {'tp': 0.0, 'fp': 1.00000001, 'fn': 4.00000001, 'tn': 164.0, 'tot': 4.00000001, 'eval': {'textcat_p': 0.0, 'textcat_r': 0.0, 'textcat_f': 0}}, 'security': {'tp': 14.0, 'fp': 6.00000001, 'fn': 5.00000001, 'tn': 144.0, 'tot': 19.00000001, 'eval': {'textcat_p': 0.6999999996499999, 'textcat_r': 0.7368421048753462, 'textcat_f': 0.7179487175805391}}, 'maintainability': {'tp': 5.0, 'fp': 1.00000001, 'fn': 9.00000001, 'tn': 154.0, 'tot': 14.00000001, 'eval': {'textcat_p': 0.8333333319444445, 'textcat_r': 0.3571428568877551, 'textcat_f': 0.4999999995}}, 'portability': {'tp': 3.0, 'fp': 1e-08, 'fn': 4.00000001, 'tn': 162.0, 'tot': 7.00000001, 'eval': {'textcat_p': 0.9999999966666667, 'textcat_r': 0.4285714279591837, 'textcat_f': 0.5999999988}}}",37
38,"{'performance': {'tp': 4.0, 'fp': 1e-08, 'fn': 5.00000001, 'tn': 160.0, 'tot': 9.00000001, 'eval': {'textcat_p': 0.9999999975, 'textcat_r': 0.4444444439506172, 'textcat_f': 0.6153846144378697}}, 'compatibility': {'tp': 19.0, 'fp': 5.00000001, 'fn': 23.00000001, 'tn': 122.0, 'tot': 42.00000001, 'eval': {'textcat_p': 0.7916666663368055, 'textcat_r': 0.4523809522732426, 'textcat_f': 0.5757575755831037}}, 'usability': {'tp': 4.0, 'fp': 5.00000001, 'fn': 11.00000001, 'tn': 149.0, 'tot': 15.00000001, 'eval': {'textcat_p': 0.4444444439506172, 'textcat_r': 0.26666666648888887, 'textcat_f': 0.3333333330555555}}, 'reliability': {'tp': 0.0, 'fp': 1.00000001, 'fn': 4.00000001, 'tn': 164.0, 'tot': 4.00000001, 'eval': {'textcat_p': 0.0, 'textcat_r': 0.0, 'textcat_f': 0}}, 'security': {'tp': 14.0, 'fp': 6.00000001, 'fn': 5.00000001, 'tn': 144.0, 'tot': 19.00000001, 'eval': {'textcat_p': 0.6999999996499999, 'textcat_r': 0.7368421048753462, 'textcat_f': 0.7179487175805391}}, 'maintainability': {'tp': 5.0, 'fp': 1.00000001, 'fn': 9.00000001, 'tn': 154.0, 'tot': 14.00000001, 'eval': {'textcat_p': 0.8333333319444445, 'textcat_r': 0.3571428568877551, 'textcat_f': 0.4999999995}}, 'portability': {'tp': 3.0, 'fp': 1e-08, 'fn': 4.00000001, 'tn': 162.0, 'tot': 7.00000001, 'eval': {'textcat_p': 0.9999999966666667, 'textcat_r': 0.4285714279591837, 'textcat_f': 0.5999999988}}}",38
39,"{'performance': {'tp': 4.0, 'fp': 1e-08, 'fn': 5.00000001, 'tn': 160.0, 'tot': 9.00000001, 'eval': {'textcat_p': 0.9999999975, 'textcat_r': 0.4444444439506172, 'textcat_f': 0.6153846144378697}}, 'compatibility': {'tp': 19.0, 'fp': 5.00000001, 'fn': 23.00000001, 'tn': 122.0, 'tot': 42.00000001, 'eval': {'textcat_p': 0.7916666663368055, 'textcat_r': 0.4523809522732426, 'textcat_f': 0.5757575755831037}}, 'usability': {'tp': 4.0, 'fp': 5.00000001, 'fn': 11.00000001, 'tn': 149.0, 'tot': 15.00000001, 'eval': {'textcat_p': 0.4444444439506172, 'textcat_r': 0.26666666648888887, 'textcat_f': 0.3333333330555555}}, 'reliability': {'tp': 0.0, 'fp': 1.00000001, 'fn': 4.00000001, 'tn': 164.0, 'tot': 4.00000001, 'eval': {'textcat_p': 0.0, 'textcat_r': 0.0, 'textcat_f': 0}}, 'security': {'tp': 15.0, 'fp': 6.00000001, 'fn': 4.00000001, 'tn': 144.0, 'tot': 19.00000001, 'eval': {'textcat_p': 0.7142857139455782, 'textcat_r': 0.7894736837950138, 'textcat_f': 0.7499999996249999}}, 'maintainability': {'tp': 5.0, 'fp': 1.00000001, 'fn': 9.00000001, 'tn': 154.0, 'tot': 14.00000001, 'eval': {'textcat_p': 0.8333333319444445, 'textcat_r': 0.3571428568877551, 'textcat_f': 0.4999999995}}, 'portability': {'tp': 3.0, 'fp': 1e-08, 'fn': 4.00000001, 'tn': 162.0, 'tot': 7.00000001, 'eval': {'textcat_p': 0.9999999966666667, 'textcat_r': 0.4285714279591837, 'textcat_f': 0.5999999988}}}",39
40,"{'performance': {'tp': 4.0, 'fp': 1e-08, 'fn': 5.00000001, 'tn': 160.0, 'tot': 9.00000001, 'eval': {'textcat_p': 0.9999999975, 'textcat_r': 0.4444444439506172, 'textcat_f': 0.6153846144378697}}, 'compatibility': {'tp': 19.0, 'fp': 5.00000001, 'fn': 23.00000001, 'tn': 122.0, 'tot': 42.00000001, 'eval': {'textcat_p': 0.7916666663368055, 'textcat_r': 0.4523809522732426, 'textcat_f': 0.5757575755831037}}, 'usability': {'tp': 4.0, 'fp': 5.00000001, 'fn': 11.00000001, 'tn': 149.0, 'tot': 15.00000001, 'eval': {'textcat_p': 0.4444444439506172, 'textcat_r': 0.26666666648888887, 'textcat_f': 0.3333333330555555}}, 'reliability': {'tp': 0.0, 'fp': 1.00000001, 'fn': 4.00000001, 'tn': 164.0, 'tot': 4.00000001, 'eval': {'textcat_p': 0.0, 'textcat_r': 0.0, 'textcat_f': 0}}, 'security': {'tp': 15.0, 'fp': 6.00000001, 'fn': 4.00000001, 'tn': 144.0, 'tot': 19.00000001, 'eval': {'textcat_p': 0.7142857139455782, 'textcat_r': 0.7894736837950138, 'textcat_f': 0.7499999996249999}}, 'maintainability': {'tp': 5.0, 'fp': 1.00000001, 'fn': 9.00000001, 'tn': 154.0, 'tot': 14.00000001, 'eval': {'textcat_p': 0.8333333319444445, 'textcat_r': 0.3571428568877551, 'textcat_f': 0.4999999995}}, 'portability': {'tp': 3.0, 'fp': 1e-08, 'fn': 4.00000001, 'tn': 162.0, 'tot': 7.00000001, 'eval': {'textcat_p': 0.9999999966666667, 'textcat_r': 0.4285714279591837, 'textcat_f': 0.5999999988}}}",40
41,"{'performance': {'tp': 4.0, 'fp': 1e-08, 'fn': 5.00000001, 'tn': 160.0, 'tot': 9.00000001, 'eval': {'textcat_p': 0.9999999975, 'textcat_r': 0.4444444439506172, 'textcat_f': 0.6153846144378697}}, 'compatibility': {'tp': 19.0, 'fp': 5.00000001, 'fn': 23.00000001, 'tn': 122.0, 'tot': 42.00000001, 'eval': {'textcat_p': 0.7916666663368055, 'textcat_r': 0.4523809522732426, 'textcat_f': 0.5757575755831037}}, 'usability': {'tp': 4.0, 'fp': 5.00000001, 'fn': 11.00000001, 'tn': 149.0, 'tot': 15.00000001, 'eval': {'textcat_p': 0.4444444439506172, 'textcat_r': 0.26666666648888887, 'textcat_f': 0.3333333330555555}}, 'reliability': {'tp': 0.0, 'fp': 1.00000001, 'fn': 4.00000001, 'tn': 164.0, 'tot': 4.00000001, 'eval': {'textcat_p': 0.0, 'textcat_r': 0.0, 'textcat_f': 0}}, 'security': {'tp': 15.0, 'fp': 6.00000001, 'fn': 4.00000001, 'tn': 144.0, 'tot': 19.00000001, 'eval': {'textcat_p': 0.7142857139455782, 'textcat_r': 0.7894736837950138, 'textcat_f': 0.7499999996249999}}, 'maintainability': {'tp': 5.0, 'fp': 1.00000001, 'fn': 9.00000001, 'tn': 154.0, 'tot': 14.00000001, 'eval': {'textcat_p': 0.8333333319444445, 'textcat_r': 0.3571428568877551, 'textcat_f': 0.4999999995}}, 'portability': {'tp': 3.0, 'fp': 1e-08, 'fn': 4.00000001, 'tn': 162.0, 'tot': 7.00000001, 'eval': {'textcat_p': 0.9999999966666667, 'textcat_r': 0.4285714279591837, 'textcat_f': 0.5999999988}}}",41
42,"{'performance': {'tp': 4.0, 'fp': 1e-08, 'fn': 5.00000001, 'tn': 160.0, 'tot': 9.00000001, 'eval': {'textcat_p': 0.9999999975, 'textcat_r': 0.4444444439506172, 'textcat_f': 0.6153846144378697}}, 'compatibility': {'tp': 19.0, 'fp': 5.00000001, 'fn': 23.00000001, 'tn': 122.0, 'tot': 42.00000001, 'eval': {'textcat_p': 0.7916666663368055, 'textcat_r': 0.4523809522732426, 'textcat_f': 0.5757575755831037}}, 'usability': {'tp': 4.0, 'fp': 5.00000001, 'fn': 11.00000001, 'tn': 149.0, 'tot': 15.00000001, 'eval': {'textcat_p': 0.4444444439506172, 'textcat_r': 0.26666666648888887, 'textcat_f': 0.3333333330555555}}, 'reliability': {'tp': 0.0, 'fp': 1.00000001, 'fn': 4.00000001, 'tn': 164.0, 'tot': 4.00000001, 'eval': {'textcat_p': 0.0, 'textcat_r': 0.0, 'textcat_f': 0}}, 'security': {'tp': 15.0, 'fp': 6.00000001, 'fn': 4.00000001, 'tn': 144.0, 'tot': 19.00000001, 'eval': {'textcat_p': 0.7142857139455782, 'textcat_r': 0.7894736837950138, 'textcat_f': 0.7499999996249999}}, 'maintainability': {'tp': 5.0, 'fp': 1.00000001, 'fn': 9.00000001, 'tn': 154.0, 'tot': 14.00000001, 'eval': {'textcat_p': 0.8333333319444445, 'textcat_r': 0.3571428568877551, 'textcat_f': 0.4999999995}}, 'portability': {'tp': 3.0, 'fp': 1e-08, 'fn': 4.00000001, 'tn': 162.0, 'tot': 7.00000001, 'eval': {'textcat_p': 0.9999999966666667, 'textcat_r': 0.4285714279591837, 'textcat_f': 0.5999999988}}}",42
43,"{'performance': {'tp': 4.0, 'fp': 1e-08, 'fn': 5.00000001, 'tn': 160.0, 'tot': 9.00000001, 'eval': {'textcat_p': 0.9999999975, 'textcat_r': 0.4444444439506172, 'textcat_f': 0.6153846144378697}}, 'compatibility': {'tp': 19.0, 'fp': 5.00000001, 'fn': 23.00000001, 'tn': 122.0, 'tot': 42.00000001, 'eval': {'textcat_p': 0.7916666663368055, 'textcat_r': 0.4523809522732426, 'textcat_f': 0.5757575755831037}}, 'usability': {'tp': 4.0, 'fp': 5.00000001, 'fn': 11.00000001, 'tn': 149.0, 'tot': 15.00000001, 'eval': {'textcat_p': 0.4444444439506172, 'textcat_r': 0.26666666648888887, 'textcat_f': 0.3333333330555555}}, 'reliability': {'tp': 0.0, 'fp': 1.00000001, 'fn': 4.00000001, 'tn': 164.0, 'tot': 4.00000001, 'eval': {'textcat_p': 0.0, 'textcat_r': 0.0, 'textcat_f': 0}}, 'security': {'tp': 15.0, 'fp': 6.00000001, 'fn': 4.00000001, 'tn': 144.0, 'tot': 19.00000001, 'eval': {'textcat_p': 0.7142857139455782, 'textcat_r': 0.7894736837950138, 'textcat_f': 0.7499999996249999}}, 'maintainability': {'tp': 5.0, 'fp': 1.00000001, 'fn': 9.00000001, 'tn': 154.0, 'tot': 14.00000001, 'eval': {'textcat_p': 0.8333333319444445, 'textcat_r': 0.3571428568877551, 'textcat_f': 0.4999999995}}, 'portability': {'tp': 3.0, 'fp': 1e-08, 'fn': 4.00000001, 'tn': 162.0, 'tot': 7.00000001, 'eval': {'textcat_p': 0.9999999966666667, 'textcat_r': 0.4285714279591837, 'textcat_f': 0.5999999988}}}",43
44,"{'performance': {'tp': 4.0, 'fp': 1e-08, 'fn': 5.00000001, 'tn': 160.0, 'tot': 9.00000001, 'eval': {'textcat_p': 0.9999999975, 'textcat_r': 0.4444444439506172, 'textcat_f': 0.6153846144378697}}, 'compatibility': {'tp': 19.0, 'fp': 5.00000001, 'fn': 23.00000001, 'tn': 122.0, 'tot': 42.00000001, 'eval': {'textcat_p': 0.7916666663368055, 'textcat_r': 0.4523809522732426, 'textcat_f': 0.5757575755831037}}, 'usability': {'tp': 4.0, 'fp': 5.00000001, 'fn': 11.00000001, 'tn': 149.0, 'tot': 15.00000001, 'eval': {'textcat_p': 0.4444444439506172, 'textcat_r': 0.26666666648888887, 'textcat_f': 0.3333333330555555}}, 'reliability': {'tp': 1.0, 'fp': 1.00000001, 'fn': 3.00000001, 'tn': 164.0, 'tot': 4.00000001, 'eval': {'textcat_p': 0.4999999975, 'textcat_r': 0.249999999375, 'textcat_f': 0.3333333322222222}}, 'security': {'tp': 15.0, 'fp': 6.00000001, 'fn': 4.00000001, 'tn': 144.0, 'tot': 19.00000001, 'eval': {'textcat_p': 0.7142857139455782, 'textcat_r': 0.7894736837950138, 'textcat_f': 0.7499999996249999}}, 'maintainability': {'tp': 5.0, 'fp': 1.00000001, 'fn': 9.00000001, 'tn': 154.0, 'tot': 14.00000001, 'eval': {'textcat_p': 0.8333333319444445, 'textcat_r': 0.3571428568877551, 'textcat_f': 0.4999999995}}, 'portability': {'tp': 3.0, 'fp': 1e-08, 'fn': 4.00000001, 'tn': 162.0, 'tot': 7.00000001, 'eval': {'textcat_p': 0.9999999966666667, 'textcat_r': 0.4285714279591837, 'textcat_f': 0.5999999988}}}",44
45,"{'performance': {'tp': 4.0, 'fp': 1e-08, 'fn': 5.00000001, 'tn': 160.0, 'tot': 9.00000001, 'eval': {'textcat_p': 0.9999999975, 'textcat_r': 0.4444444439506172, 'textcat_f': 0.6153846144378697}}, 'compatibility': {'tp': 19.0, 'fp': 5.00000001, 'fn': 23.00000001, 'tn': 122.0, 'tot': 42.00000001, 'eval': {'textcat_p': 0.7916666663368055, 'textcat_r': 0.4523809522732426, 'textcat_f': 0.5757575755831037}}, 'usability': {'tp': 4.0, 'fp': 5.00000001, 'fn': 11.00000001, 'tn': 149.0, 'tot': 15.00000001, 'eval': {'textcat_p': 0.4444444439506172, 'textcat_r': 0.26666666648888887, 'textcat_f': 0.3333333330555555}}, 'reliability': {'tp': 1.0, 'fp': 1.00000001, 'fn': 3.00000001, 'tn': 164.0, 'tot': 4.00000001, 'eval': {'textcat_p': 0.4999999975, 'textcat_r': 0.249999999375, 'textcat_f': 0.3333333322222222}}, 'security': {'tp': 14.0, 'fp': 5.00000001, 'fn': 5.00000001, 'tn': 145.0, 'tot': 19.00000001, 'eval': {'textcat_p': 0.7368421048753462, 'textcat_r': 0.7368421048753462, 'textcat_f': 0.7368421048753462}}, 'maintainability': {'tp': 5.0, 'fp': 1.00000001, 'fn': 9.00000001, 'tn': 154.0, 'tot': 14.00000001, 'eval': {'textcat_p': 0.8333333319444445, 'textcat_r': 0.3571428568877551, 'textcat_f': 0.4999999995}}, 'portability': {'tp': 3.0, 'fp': 1e-08, 'fn': 4.00000001, 'tn': 162.0, 'tot': 7.00000001, 'eval': {'textcat_p': 0.9999999966666667, 'textcat_r': 0.4285714279591837, 'textcat_f': 0.5999999988}}}",45
46,"{'performance': {'tp': 4.0, 'fp': 1e-08, 'fn': 5.00000001, 'tn': 160.0, 'tot': 9.00000001, 'eval': {'textcat_p': 0.9999999975, 'textcat_r': 0.4444444439506172, 'textcat_f': 0.6153846144378697}}, 'compatibility': {'tp': 19.0, 'fp': 5.00000001, 'fn': 23.00000001, 'tn': 122.0, 'tot': 42.00000001, 'eval': {'textcat_p': 0.7916666663368055, 'textcat_r': 0.4523809522732426, 'textcat_f': 0.5757575755831037}}, 'usability': {'tp': 4.0, 'fp': 5.00000001, 'fn': 11.00000001, 'tn': 149.0, 'tot': 15.00000001, 'eval': {'textcat_p': 0.4444444439506172, 'textcat_r': 0.26666666648888887, 'textcat_f': 0.3333333330555555}}, 'reliability': {'tp': 1.0, 'fp': 1.00000001, 'fn': 3.00000001, 'tn': 164.0, 'tot': 4.00000001, 'eval': {'textcat_p': 0.4999999975, 'textcat_r': 0.249999999375, 'textcat_f': 0.3333333322222222}}, 'security': {'tp': 14.0, 'fp': 5.00000001, 'fn': 5.00000001, 'tn': 145.0, 'tot': 19.00000001, 'eval': {'textcat_p': 0.7368421048753462, 'textcat_r': 0.7368421048753462, 'textcat_f': 0.7368421048753462}}, 'maintainability': {'tp': 5.0, 'fp': 1.00000001, 'fn': 9.00000001, 'tn': 154.0, 'tot': 14.00000001, 'eval': {'textcat_p': 0.8333333319444445, 'textcat_r': 0.3571428568877551, 'textcat_f': 0.4999999995}}, 'portability': {'tp': 3.0, 'fp': 1e-08, 'fn': 4.00000001, 'tn': 162.0, 'tot': 7.00000001, 'eval': {'textcat_p': 0.9999999966666667, 'textcat_r': 0.4285714279591837, 'textcat_f': 0.5999999988}}}",46
47,"{'performance': {'tp': 4.0, 'fp': 1e-08, 'fn': 5.00000001, 'tn': 160.0, 'tot': 9.00000001, 'eval': {'textcat_p': 0.9999999975, 'textcat_r': 0.4444444439506172, 'textcat_f': 0.6153846144378697}}, 'compatibility': {'tp': 20.0, 'fp': 5.00000001, 'fn': 22.00000001, 'tn': 122.0, 'tot': 42.00000001, 'eval': {'textcat_p': 0.79999999968, 'textcat_r': 0.47619047607709747, 'textcat_f': 0.5970149251949209}}, 'usability': {'tp': 4.0, 'fp': 5.00000001, 'fn': 11.00000001, 'tn': 149.0, 'tot': 15.00000001, 'eval': {'textcat_p': 0.4444444439506172, 'textcat_r': 0.26666666648888887, 'textcat_f': 0.3333333330555555}}, 'reliability': {'tp': 1.0, 'fp': 1.00000001, 'fn': 3.00000001, 'tn': 164.0, 'tot': 4.00000001, 'eval': {'textcat_p': 0.4999999975, 'textcat_r': 0.249999999375, 'textcat_f': 0.3333333322222222}}, 'security': {'tp': 14.0, 'fp': 5.00000001, 'fn': 5.00000001, 'tn': 145.0, 'tot': 19.00000001, 'eval': {'textcat_p': 0.7368421048753462, 'textcat_r': 0.7368421048753462, 'textcat_f': 0.7368421048753462}}, 'maintainability': {'tp': 5.0, 'fp': 1.00000001, 'fn': 9.00000001, 'tn': 154.0, 'tot': 14.00000001, 'eval': {'textcat_p': 0.8333333319444445, 'textcat_r': 0.3571428568877551, 'textcat_f': 0.4999999995}}, 'portability': {'tp': 3.0, 'fp': 1e-08, 'fn': 4.00000001, 'tn': 162.0, 'tot': 7.00000001, 'eval': {'textcat_p': 0.9999999966666667, 'textcat_r': 0.4285714279591837, 'textcat_f': 0.5999999988}}}",47
48,"{'performance': {'tp': 4.0, 'fp': 1e-08, 'fn': 5.00000001, 'tn': 160.0, 'tot': 9.00000001, 'eval': {'textcat_p': 0.9999999975, 'textcat_r': 0.4444444439506172, 'textcat_f': 0.6153846144378697}}, 'compatibility': {'tp': 20.0, 'fp': 5.00000001, 'fn': 22.00000001, 'tn': 122.0, 'tot': 42.00000001, 'eval': {'textcat_p': 0.79999999968, 'textcat_r': 0.47619047607709747, 'textcat_f': 0.5970149251949209}}, 'usability': {'tp': 4.0, 'fp': 5.00000001, 'fn': 11.00000001, 'tn': 149.0, 'tot': 15.00000001, 'eval': {'textcat_p': 0.4444444439506172, 'textcat_r': 0.26666666648888887, 'textcat_f': 0.3333333330555555}}, 'reliability': {'tp': 1.0, 'fp': 1.00000001, 'fn': 3.00000001, 'tn': 164.0, 'tot': 4.00000001, 'eval': {'textcat_p': 0.4999999975, 'textcat_r': 0.249999999375, 'textcat_f': 0.3333333322222222}}, 'security': {'tp': 14.0, 'fp': 5.00000001, 'fn': 5.00000001, 'tn': 145.0, 'tot': 19.00000001, 'eval': {'textcat_p': 0.7368421048753462, 'textcat_r': 0.7368421048753462, 'textcat_f': 0.7368421048753462}}, 'maintainability': {'tp': 5.0, 'fp': 1.00000001, 'fn': 9.00000001, 'tn': 154.0, 'tot': 14.00000001, 'eval': {'textcat_p': 0.8333333319444445, 'textcat_r': 0.3571428568877551, 'textcat_f': 0.4999999995}}, 'portability': {'tp': 3.0, 'fp': 1e-08, 'fn': 4.00000001, 'tn': 162.0, 'tot': 7.00000001, 'eval': {'textcat_p': 0.9999999966666667, 'textcat_r': 0.4285714279591837, 'textcat_f': 0.5999999988}}}",48
49,"{'performance': {'tp': 4.0, 'fp': 1e-08, 'fn': 5.00000001, 'tn': 160.0, 'tot': 9.00000001, 'eval': {'textcat_p': 0.9999999975, 'textcat_r': 0.4444444439506172, 'textcat_f': 0.6153846144378697}}, 'compatibility': {'tp': 20.0, 'fp': 5.00000001, 'fn': 22.00000001, 'tn': 122.0, 'tot': 42.00000001, 'eval': {'textcat_p': 0.79999999968, 'textcat_r': 0.47619047607709747, 'textcat_f': 0.5970149251949209}}, 'usability': {'tp': 4.0, 'fp': 5.00000001, 'fn': 11.00000001, 'tn': 149.0, 'tot': 15.00000001, 'eval': {'textcat_p': 0.4444444439506172, 'textcat_r': 0.26666666648888887, 'textcat_f': 0.3333333330555555}}, 'reliability': {'tp': 1.0, 'fp': 1.00000001, 'fn': 3.00000001, 'tn': 164.0, 'tot': 4.00000001, 'eval': {'textcat_p': 0.4999999975, 'textcat_r': 0.249999999375, 'textcat_f': 0.3333333322222222}}, 'security': {'tp': 14.0, 'fp': 6.00000001, 'fn': 5.00000001, 'tn': 144.0, 'tot': 19.00000001, 'eval': {'textcat_p': 0.6999999996499999, 'textcat_r': 0.7368421048753462, 'textcat_f': 0.7179487175805391}}, 'maintainability': {'tp': 5.0, 'fp': 1.00000001, 'fn': 9.00000001, 'tn': 154.0, 'tot': 14.00000001, 'eval': {'textcat_p': 0.8333333319444445, 'textcat_r': 0.3571428568877551, 'textcat_f': 0.4999999995}}, 'portability': {'tp': 3.0, 'fp': 1e-08, 'fn': 4.00000001, 'tn': 162.0, 'tot': 7.00000001, 'eval': {'textcat_p': 0.9999999966666667, 'textcat_r': 0.4285714279591837, 'textcat_f': 0.5999999988}}}",49
