,eval,epoch
0,"{'reliability': {'tp': 0.0, 'fp': 1e-08, 'fn': 8.00000001, 'tn': 260.0, 'tot': 8.00000001, 'eval': {'textcat_p': 0.0, 'textcat_r': 0.0, 'textcat_f': 0}}}",0
1,"{'reliability': {'tp': 0.0, 'fp': 1e-08, 'fn': 8.00000001, 'tn': 260.0, 'tot': 8.00000001, 'eval': {'textcat_p': 0.0, 'textcat_r': 0.0, 'textcat_f': 0}}}",1
2,"{'reliability': {'tp': 0.0, 'fp': 1e-08, 'fn': 8.00000001, 'tn': 260.0, 'tot': 8.00000001, 'eval': {'textcat_p': 0.0, 'textcat_r': 0.0, 'textcat_f': 0}}}",2
3,"{'reliability': {'tp': 0.0, 'fp': 1e-08, 'fn': 8.00000001, 'tn': 260.0, 'tot': 8.00000001, 'eval': {'textcat_p': 0.0, 'textcat_r': 0.0, 'textcat_f': 0}}}",3
4,"{'reliability': {'tp': 0.0, 'fp': 1e-08, 'fn': 8.00000001, 'tn': 260.0, 'tot': 8.00000001, 'eval': {'textcat_p': 0.0, 'textcat_r': 0.0, 'textcat_f': 0}}}",4
5,"{'reliability': {'tp': 0.0, 'fp': 1e-08, 'fn': 8.00000001, 'tn': 260.0, 'tot': 8.00000001, 'eval': {'textcat_p': 0.0, 'textcat_r': 0.0, 'textcat_f': 0}}}",5
6,"{'reliability': {'tp': 0.0, 'fp': 1e-08, 'fn': 8.00000001, 'tn': 260.0, 'tot': 8.00000001, 'eval': {'textcat_p': 0.0, 'textcat_r': 0.0, 'textcat_f': 0}}}",6
7,"{'reliability': {'tp': 0.0, 'fp': 1e-08, 'fn': 8.00000001, 'tn': 260.0, 'tot': 8.00000001, 'eval': {'textcat_p': 0.0, 'textcat_r': 0.0, 'textcat_f': 0}}}",7
8,"{'reliability': {'tp': 0.0, 'fp': 1e-08, 'fn': 8.00000001, 'tn': 260.0, 'tot': 8.00000001, 'eval': {'textcat_p': 0.0, 'textcat_r': 0.0, 'textcat_f': 0}}}",8
9,"{'reliability': {'tp': 0.0, 'fp': 1e-08, 'fn': 8.00000001, 'tn': 260.0, 'tot': 8.00000001, 'eval': {'textcat_p': 0.0, 'textcat_r': 0.0, 'textcat_f': 0}}}",9
10,"{'reliability': {'tp': 0.0, 'fp': 1e-08, 'fn': 8.00000001, 'tn': 260.0, 'tot': 8.00000001, 'eval': {'textcat_p': 0.0, 'textcat_r': 0.0, 'textcat_f': 0}}}",10
11,"{'reliability': {'tp': 0.0, 'fp': 1e-08, 'fn': 8.00000001, 'tn': 260.0, 'tot': 8.00000001, 'eval': {'textcat_p': 0.0, 'textcat_r': 0.0, 'textcat_f': 0}}}",11
12,"{'reliability': {'tp': 1.0, 'fp': 1e-08, 'fn': 7.00000001, 'tn': 260.0, 'tot': 8.00000001, 'eval': {'textcat_p': 0.9999999900000002, 'textcat_r': 0.12499999984374999, 'textcat_f': 0.22222222172839504}}}",12
13,"{'reliability': {'tp': 1.0, 'fp': 1.00000001, 'fn': 7.00000001, 'tn': 259.0, 'tot': 8.00000001, 'eval': {'textcat_p': 0.4999999975, 'textcat_r': 0.12499999984374999, 'textcat_f': 0.19999999959999998}}}",13
14,"{'reliability': {'tp': 1.0, 'fp': 1.00000001, 'fn': 7.00000001, 'tn': 259.0, 'tot': 8.00000001, 'eval': {'textcat_p': 0.4999999975, 'textcat_r': 0.12499999984374999, 'textcat_f': 0.19999999959999998}}}",14
15,"{'reliability': {'tp': 0.0, 'fp': 1.00000001, 'fn': 8.00000001, 'tn': 259.0, 'tot': 8.00000001, 'eval': {'textcat_p': 0.0, 'textcat_r': 0.0, 'textcat_f': 0}}}",15
16,"{'reliability': {'tp': 1.0, 'fp': 1.00000001, 'fn': 7.00000001, 'tn': 259.0, 'tot': 8.00000001, 'eval': {'textcat_p': 0.4999999975, 'textcat_r': 0.12499999984374999, 'textcat_f': 0.19999999959999998}}}",16
17,"{'reliability': {'tp': 1.0, 'fp': 1.00000001, 'fn': 7.00000001, 'tn': 259.0, 'tot': 8.00000001, 'eval': {'textcat_p': 0.4999999975, 'textcat_r': 0.12499999984374999, 'textcat_f': 0.19999999959999998}}}",17
18,"{'reliability': {'tp': 1.0, 'fp': 1.00000001, 'fn': 7.00000001, 'tn': 259.0, 'tot': 8.00000001, 'eval': {'textcat_p': 0.4999999975, 'textcat_r': 0.12499999984374999, 'textcat_f': 0.19999999959999998}}}",18
19,"{'reliability': {'tp': 1.0, 'fp': 1.00000001, 'fn': 7.00000001, 'tn': 259.0, 'tot': 8.00000001, 'eval': {'textcat_p': 0.4999999975, 'textcat_r': 0.12499999984374999, 'textcat_f': 0.19999999959999998}}}",19
20,"{'reliability': {'tp': 1.0, 'fp': 2.00000001, 'fn': 7.00000001, 'tn': 258.0, 'tot': 8.00000001, 'eval': {'textcat_p': 0.3333333322222222, 'textcat_r': 0.12499999984374999, 'textcat_f': 0.1818181814876033}}}",20
21,"{'reliability': {'tp': 1.0, 'fp': 2.00000001, 'fn': 7.00000001, 'tn': 258.0, 'tot': 8.00000001, 'eval': {'textcat_p': 0.3333333322222222, 'textcat_r': 0.12499999984374999, 'textcat_f': 0.1818181814876033}}}",21
22,"{'reliability': {'tp': 2.0, 'fp': 3.00000001, 'fn': 6.00000001, 'tn': 257.0, 'tot': 8.00000001, 'eval': {'textcat_p': 0.3999999992, 'textcat_r': 0.24999999968749997, 'textcat_f': 0.30769230721893487}}}",22
23,"{'reliability': {'tp': 2.0, 'fp': 3.00000001, 'fn': 6.00000001, 'tn': 257.0, 'tot': 8.00000001, 'eval': {'textcat_p': 0.3999999992, 'textcat_r': 0.24999999968749997, 'textcat_f': 0.30769230721893487}}}",23
24,"{'reliability': {'tp': 2.0, 'fp': 3.00000001, 'fn': 6.00000001, 'tn': 257.0, 'tot': 8.00000001, 'eval': {'textcat_p': 0.3999999992, 'textcat_r': 0.24999999968749997, 'textcat_f': 0.30769230721893487}}}",24
25,"{'reliability': {'tp': 2.0, 'fp': 3.00000001, 'fn': 6.00000001, 'tn': 257.0, 'tot': 8.00000001, 'eval': {'textcat_p': 0.3999999992, 'textcat_r': 0.24999999968749997, 'textcat_f': 0.30769230721893487}}}",25
26,"{'reliability': {'tp': 2.0, 'fp': 4.00000001, 'fn': 6.00000001, 'tn': 256.0, 'tot': 8.00000001, 'eval': {'textcat_p': 0.33333333277777777, 'textcat_r': 0.24999999968749997, 'textcat_f': 0.2857142853061224}}}",26
27,"{'reliability': {'tp': 2.0, 'fp': 4.00000001, 'fn': 6.00000001, 'tn': 256.0, 'tot': 8.00000001, 'eval': {'textcat_p': 0.33333333277777777, 'textcat_r': 0.24999999968749997, 'textcat_f': 0.2857142853061224}}}",27
28,"{'reliability': {'tp': 2.0, 'fp': 4.00000001, 'fn': 6.00000001, 'tn': 256.0, 'tot': 8.00000001, 'eval': {'textcat_p': 0.33333333277777777, 'textcat_r': 0.24999999968749997, 'textcat_f': 0.2857142853061224}}}",28
29,"{'reliability': {'tp': 2.0, 'fp': 5.00000001, 'fn': 6.00000001, 'tn': 255.0, 'tot': 8.00000001, 'eval': {'textcat_p': 0.2857142853061225, 'textcat_r': 0.24999999968749997, 'textcat_f': 0.2666666663111111}}}",29
30,"{'reliability': {'tp': 2.0, 'fp': 5.00000001, 'fn': 6.00000001, 'tn': 255.0, 'tot': 8.00000001, 'eval': {'textcat_p': 0.2857142853061225, 'textcat_r': 0.24999999968749997, 'textcat_f': 0.2666666663111111}}}",30
31,"{'reliability': {'tp': 2.0, 'fp': 5.00000001, 'fn': 6.00000001, 'tn': 255.0, 'tot': 8.00000001, 'eval': {'textcat_p': 0.2857142853061225, 'textcat_r': 0.24999999968749997, 'textcat_f': 0.2666666663111111}}}",31
32,"{'reliability': {'tp': 2.0, 'fp': 5.00000001, 'fn': 6.00000001, 'tn': 255.0, 'tot': 8.00000001, 'eval': {'textcat_p': 0.2857142853061225, 'textcat_r': 0.24999999968749997, 'textcat_f': 0.2666666663111111}}}",32
33,"{'reliability': {'tp': 2.0, 'fp': 4.00000001, 'fn': 6.00000001, 'tn': 256.0, 'tot': 8.00000001, 'eval': {'textcat_p': 0.33333333277777777, 'textcat_r': 0.24999999968749997, 'textcat_f': 0.2857142853061224}}}",33
34,"{'reliability': {'tp': 2.0, 'fp': 4.00000001, 'fn': 6.00000001, 'tn': 256.0, 'tot': 8.00000001, 'eval': {'textcat_p': 0.33333333277777777, 'textcat_r': 0.24999999968749997, 'textcat_f': 0.2857142853061224}}}",34
35,"{'reliability': {'tp': 2.0, 'fp': 4.00000001, 'fn': 6.00000001, 'tn': 256.0, 'tot': 8.00000001, 'eval': {'textcat_p': 0.33333333277777777, 'textcat_r': 0.24999999968749997, 'textcat_f': 0.2857142853061224}}}",35
36,"{'reliability': {'tp': 2.0, 'fp': 4.00000001, 'fn': 6.00000001, 'tn': 256.0, 'tot': 8.00000001, 'eval': {'textcat_p': 0.33333333277777777, 'textcat_r': 0.24999999968749997, 'textcat_f': 0.2857142853061224}}}",36
37,"{'reliability': {'tp': 2.0, 'fp': 4.00000001, 'fn': 6.00000001, 'tn': 256.0, 'tot': 8.00000001, 'eval': {'textcat_p': 0.33333333277777777, 'textcat_r': 0.24999999968749997, 'textcat_f': 0.2857142853061224}}}",37
38,"{'reliability': {'tp': 2.0, 'fp': 3.00000001, 'fn': 6.00000001, 'tn': 257.0, 'tot': 8.00000001, 'eval': {'textcat_p': 0.3999999992, 'textcat_r': 0.24999999968749997, 'textcat_f': 0.30769230721893487}}}",38
39,"{'reliability': {'tp': 2.0, 'fp': 3.00000001, 'fn': 6.00000001, 'tn': 257.0, 'tot': 8.00000001, 'eval': {'textcat_p': 0.3999999992, 'textcat_r': 0.24999999968749997, 'textcat_f': 0.30769230721893487}}}",39
40,"{'reliability': {'tp': 2.0, 'fp': 3.00000001, 'fn': 6.00000001, 'tn': 257.0, 'tot': 8.00000001, 'eval': {'textcat_p': 0.3999999992, 'textcat_r': 0.24999999968749997, 'textcat_f': 0.30769230721893487}}}",40
41,"{'reliability': {'tp': 2.0, 'fp': 3.00000001, 'fn': 6.00000001, 'tn': 257.0, 'tot': 8.00000001, 'eval': {'textcat_p': 0.3999999992, 'textcat_r': 0.24999999968749997, 'textcat_f': 0.30769230721893487}}}",41
42,"{'reliability': {'tp': 2.0, 'fp': 3.00000001, 'fn': 6.00000001, 'tn': 257.0, 'tot': 8.00000001, 'eval': {'textcat_p': 0.3999999992, 'textcat_r': 0.24999999968749997, 'textcat_f': 0.30769230721893487}}}",42
43,"{'reliability': {'tp': 2.0, 'fp': 2.00000001, 'fn': 6.00000001, 'tn': 258.0, 'tot': 8.00000001, 'eval': {'textcat_p': 0.49999999875, 'textcat_r': 0.24999999968749997, 'textcat_f': 0.33333333277777777}}}",43
44,"{'reliability': {'tp': 1.0, 'fp': 2.00000001, 'fn': 7.00000001, 'tn': 258.0, 'tot': 8.00000001, 'eval': {'textcat_p': 0.3333333322222222, 'textcat_r': 0.12499999984374999, 'textcat_f': 0.1818181814876033}}}",44
45,"{'reliability': {'tp': 1.0, 'fp': 2.00000001, 'fn': 7.00000001, 'tn': 258.0, 'tot': 8.00000001, 'eval': {'textcat_p': 0.3333333322222222, 'textcat_r': 0.12499999984374999, 'textcat_f': 0.1818181814876033}}}",45
46,"{'reliability': {'tp': 1.0, 'fp': 2.00000001, 'fn': 7.00000001, 'tn': 258.0, 'tot': 8.00000001, 'eval': {'textcat_p': 0.3333333322222222, 'textcat_r': 0.12499999984374999, 'textcat_f': 0.1818181814876033}}}",46
47,"{'reliability': {'tp': 2.0, 'fp': 2.00000001, 'fn': 6.00000001, 'tn': 258.0, 'tot': 8.00000001, 'eval': {'textcat_p': 0.49999999875, 'textcat_r': 0.24999999968749997, 'textcat_f': 0.33333333277777777}}}",47
48,"{'reliability': {'tp': 2.0, 'fp': 2.00000001, 'fn': 6.00000001, 'tn': 258.0, 'tot': 8.00000001, 'eval': {'textcat_p': 0.49999999875, 'textcat_r': 0.24999999968749997, 'textcat_f': 0.33333333277777777}}}",48
49,"{'reliability': {'tp': 2.0, 'fp': 2.00000001, 'fn': 6.00000001, 'tn': 258.0, 'tot': 8.00000001, 'eval': {'textcat_p': 0.49999999875, 'textcat_r': 0.24999999968749997, 'textcat_f': 0.33333333277777777}}}",49
50,"{'reliability': {'tp': 2.0, 'fp': 2.00000001, 'fn': 6.00000001, 'tn': 258.0, 'tot': 8.00000001, 'eval': {'textcat_p': 0.49999999875, 'textcat_r': 0.24999999968749997, 'textcat_f': 0.33333333277777777}}}",50
51,"{'reliability': {'tp': 2.0, 'fp': 2.00000001, 'fn': 6.00000001, 'tn': 258.0, 'tot': 8.00000001, 'eval': {'textcat_p': 0.49999999875, 'textcat_r': 0.24999999968749997, 'textcat_f': 0.33333333277777777}}}",51
52,"{'reliability': {'tp': 2.0, 'fp': 2.00000001, 'fn': 6.00000001, 'tn': 258.0, 'tot': 8.00000001, 'eval': {'textcat_p': 0.49999999875, 'textcat_r': 0.24999999968749997, 'textcat_f': 0.33333333277777777}}}",52
53,"{'reliability': {'tp': 2.0, 'fp': 2.00000001, 'fn': 6.00000001, 'tn': 258.0, 'tot': 8.00000001, 'eval': {'textcat_p': 0.49999999875, 'textcat_r': 0.24999999968749997, 'textcat_f': 0.33333333277777777}}}",53
54,"{'reliability': {'tp': 2.0, 'fp': 2.00000001, 'fn': 6.00000001, 'tn': 258.0, 'tot': 8.00000001, 'eval': {'textcat_p': 0.49999999875, 'textcat_r': 0.24999999968749997, 'textcat_f': 0.33333333277777777}}}",54
55,"{'reliability': {'tp': 2.0, 'fp': 2.00000001, 'fn': 6.00000001, 'tn': 258.0, 'tot': 8.00000001, 'eval': {'textcat_p': 0.49999999875, 'textcat_r': 0.24999999968749997, 'textcat_f': 0.33333333277777777}}}",55
56,"{'reliability': {'tp': 2.0, 'fp': 2.00000001, 'fn': 6.00000001, 'tn': 258.0, 'tot': 8.00000001, 'eval': {'textcat_p': 0.49999999875, 'textcat_r': 0.24999999968749997, 'textcat_f': 0.33333333277777777}}}",56
57,"{'reliability': {'tp': 2.0, 'fp': 2.00000001, 'fn': 6.00000001, 'tn': 258.0, 'tot': 8.00000001, 'eval': {'textcat_p': 0.49999999875, 'textcat_r': 0.24999999968749997, 'textcat_f': 0.33333333277777777}}}",57
58,"{'reliability': {'tp': 2.0, 'fp': 2.00000001, 'fn': 6.00000001, 'tn': 258.0, 'tot': 8.00000001, 'eval': {'textcat_p': 0.49999999875, 'textcat_r': 0.24999999968749997, 'textcat_f': 0.33333333277777777}}}",58
59,"{'reliability': {'tp': 2.0, 'fp': 2.00000001, 'fn': 6.00000001, 'tn': 258.0, 'tot': 8.00000001, 'eval': {'textcat_p': 0.49999999875, 'textcat_r': 0.24999999968749997, 'textcat_f': 0.33333333277777777}}}",59
60,"{'reliability': {'tp': 2.0, 'fp': 2.00000001, 'fn': 6.00000001, 'tn': 258.0, 'tot': 8.00000001, 'eval': {'textcat_p': 0.49999999875, 'textcat_r': 0.24999999968749997, 'textcat_f': 0.33333333277777777}}}",60
61,"{'reliability': {'tp': 2.0, 'fp': 2.00000001, 'fn': 6.00000001, 'tn': 258.0, 'tot': 8.00000001, 'eval': {'textcat_p': 0.49999999875, 'textcat_r': 0.24999999968749997, 'textcat_f': 0.33333333277777777}}}",61
62,"{'reliability': {'tp': 2.0, 'fp': 2.00000001, 'fn': 6.00000001, 'tn': 258.0, 'tot': 8.00000001, 'eval': {'textcat_p': 0.49999999875, 'textcat_r': 0.24999999968749997, 'textcat_f': 0.33333333277777777}}}",62
63,"{'reliability': {'tp': 2.0, 'fp': 2.00000001, 'fn': 6.00000001, 'tn': 258.0, 'tot': 8.00000001, 'eval': {'textcat_p': 0.49999999875, 'textcat_r': 0.24999999968749997, 'textcat_f': 0.33333333277777777}}}",63
64,"{'reliability': {'tp': 2.0, 'fp': 2.00000001, 'fn': 6.00000001, 'tn': 258.0, 'tot': 8.00000001, 'eval': {'textcat_p': 0.49999999875, 'textcat_r': 0.24999999968749997, 'textcat_f': 0.33333333277777777}}}",64
65,"{'reliability': {'tp': 2.0, 'fp': 3.00000001, 'fn': 6.00000001, 'tn': 257.0, 'tot': 8.00000001, 'eval': {'textcat_p': 0.3999999992, 'textcat_r': 0.24999999968749997, 'textcat_f': 0.30769230721893487}}}",65
66,"{'reliability': {'tp': 2.0, 'fp': 3.00000001, 'fn': 6.00000001, 'tn': 257.0, 'tot': 8.00000001, 'eval': {'textcat_p': 0.3999999992, 'textcat_r': 0.24999999968749997, 'textcat_f': 0.30769230721893487}}}",66
67,"{'reliability': {'tp': 2.0, 'fp': 2.00000001, 'fn': 6.00000001, 'tn': 258.0, 'tot': 8.00000001, 'eval': {'textcat_p': 0.49999999875, 'textcat_r': 0.24999999968749997, 'textcat_f': 0.33333333277777777}}}",67
68,"{'reliability': {'tp': 2.0, 'fp': 2.00000001, 'fn': 6.00000001, 'tn': 258.0, 'tot': 8.00000001, 'eval': {'textcat_p': 0.49999999875, 'textcat_r': 0.24999999968749997, 'textcat_f': 0.33333333277777777}}}",68
69,"{'reliability': {'tp': 2.0, 'fp': 2.00000001, 'fn': 6.00000001, 'tn': 258.0, 'tot': 8.00000001, 'eval': {'textcat_p': 0.49999999875, 'textcat_r': 0.24999999968749997, 'textcat_f': 0.33333333277777777}}}",69
70,"{'reliability': {'tp': 2.0, 'fp': 2.00000001, 'fn': 6.00000001, 'tn': 258.0, 'tot': 8.00000001, 'eval': {'textcat_p': 0.49999999875, 'textcat_r': 0.24999999968749997, 'textcat_f': 0.33333333277777777}}}",70
71,"{'reliability': {'tp': 2.0, 'fp': 4.00000001, 'fn': 6.00000001, 'tn': 256.0, 'tot': 8.00000001, 'eval': {'textcat_p': 0.33333333277777777, 'textcat_r': 0.24999999968749997, 'textcat_f': 0.2857142853061224}}}",71
72,"{'reliability': {'tp': 2.0, 'fp': 3.00000001, 'fn': 6.00000001, 'tn': 257.0, 'tot': 8.00000001, 'eval': {'textcat_p': 0.3999999992, 'textcat_r': 0.24999999968749997, 'textcat_f': 0.30769230721893487}}}",72
73,"{'reliability': {'tp': 2.0, 'fp': 3.00000001, 'fn': 6.00000001, 'tn': 257.0, 'tot': 8.00000001, 'eval': {'textcat_p': 0.3999999992, 'textcat_r': 0.24999999968749997, 'textcat_f': 0.30769230721893487}}}",73
74,"{'reliability': {'tp': 2.0, 'fp': 3.00000001, 'fn': 6.00000001, 'tn': 257.0, 'tot': 8.00000001, 'eval': {'textcat_p': 0.3999999992, 'textcat_r': 0.24999999968749997, 'textcat_f': 0.30769230721893487}}}",74
75,"{'reliability': {'tp': 2.0, 'fp': 3.00000001, 'fn': 6.00000001, 'tn': 257.0, 'tot': 8.00000001, 'eval': {'textcat_p': 0.3999999992, 'textcat_r': 0.24999999968749997, 'textcat_f': 0.30769230721893487}}}",75
76,"{'reliability': {'tp': 2.0, 'fp': 3.00000001, 'fn': 6.00000001, 'tn': 257.0, 'tot': 8.00000001, 'eval': {'textcat_p': 0.3999999992, 'textcat_r': 0.24999999968749997, 'textcat_f': 0.30769230721893487}}}",76
77,"{'reliability': {'tp': 2.0, 'fp': 3.00000001, 'fn': 6.00000001, 'tn': 257.0, 'tot': 8.00000001, 'eval': {'textcat_p': 0.3999999992, 'textcat_r': 0.24999999968749997, 'textcat_f': 0.30769230721893487}}}",77
78,"{'reliability': {'tp': 2.0, 'fp': 2.00000001, 'fn': 6.00000001, 'tn': 258.0, 'tot': 8.00000001, 'eval': {'textcat_p': 0.49999999875, 'textcat_r': 0.24999999968749997, 'textcat_f': 0.33333333277777777}}}",78
79,"{'reliability': {'tp': 2.0, 'fp': 3.00000001, 'fn': 6.00000001, 'tn': 257.0, 'tot': 8.00000001, 'eval': {'textcat_p': 0.3999999992, 'textcat_r': 0.24999999968749997, 'textcat_f': 0.30769230721893487}}}",79
80,"{'reliability': {'tp': 2.0, 'fp': 3.00000001, 'fn': 6.00000001, 'tn': 257.0, 'tot': 8.00000001, 'eval': {'textcat_p': 0.3999999992, 'textcat_r': 0.24999999968749997, 'textcat_f': 0.30769230721893487}}}",80
81,"{'reliability': {'tp': 2.0, 'fp': 3.00000001, 'fn': 6.00000001, 'tn': 257.0, 'tot': 8.00000001, 'eval': {'textcat_p': 0.3999999992, 'textcat_r': 0.24999999968749997, 'textcat_f': 0.30769230721893487}}}",81
82,"{'reliability': {'tp': 2.0, 'fp': 3.00000001, 'fn': 6.00000001, 'tn': 257.0, 'tot': 8.00000001, 'eval': {'textcat_p': 0.3999999992, 'textcat_r': 0.24999999968749997, 'textcat_f': 0.30769230721893487}}}",82
83,"{'reliability': {'tp': 2.0, 'fp': 2.00000001, 'fn': 6.00000001, 'tn': 258.0, 'tot': 8.00000001, 'eval': {'textcat_p': 0.49999999875, 'textcat_r': 0.24999999968749997, 'textcat_f': 0.33333333277777777}}}",83
84,"{'reliability': {'tp': 2.0, 'fp': 2.00000001, 'fn': 6.00000001, 'tn': 258.0, 'tot': 8.00000001, 'eval': {'textcat_p': 0.49999999875, 'textcat_r': 0.24999999968749997, 'textcat_f': 0.33333333277777777}}}",84
85,"{'reliability': {'tp': 2.0, 'fp': 2.00000001, 'fn': 6.00000001, 'tn': 258.0, 'tot': 8.00000001, 'eval': {'textcat_p': 0.49999999875, 'textcat_r': 0.24999999968749997, 'textcat_f': 0.33333333277777777}}}",85
86,"{'reliability': {'tp': 2.0, 'fp': 2.00000001, 'fn': 6.00000001, 'tn': 258.0, 'tot': 8.00000001, 'eval': {'textcat_p': 0.49999999875, 'textcat_r': 0.24999999968749997, 'textcat_f': 0.33333333277777777}}}",86
87,"{'reliability': {'tp': 2.0, 'fp': 2.00000001, 'fn': 6.00000001, 'tn': 258.0, 'tot': 8.00000001, 'eval': {'textcat_p': 0.49999999875, 'textcat_r': 0.24999999968749997, 'textcat_f': 0.33333333277777777}}}",87
88,"{'reliability': {'tp': 2.0, 'fp': 2.00000001, 'fn': 6.00000001, 'tn': 258.0, 'tot': 8.00000001, 'eval': {'textcat_p': 0.49999999875, 'textcat_r': 0.24999999968749997, 'textcat_f': 0.33333333277777777}}}",88
89,"{'reliability': {'tp': 2.0, 'fp': 2.00000001, 'fn': 6.00000001, 'tn': 258.0, 'tot': 8.00000001, 'eval': {'textcat_p': 0.49999999875, 'textcat_r': 0.24999999968749997, 'textcat_f': 0.33333333277777777}}}",89
90,"{'reliability': {'tp': 3.0, 'fp': 2.00000001, 'fn': 5.00000001, 'tn': 258.0, 'tot': 8.00000001, 'eval': {'textcat_p': 0.5999999988, 'textcat_r': 0.37499999953124996, 'textcat_f': 0.46153846082840233}}}",90
91,"{'reliability': {'tp': 3.0, 'fp': 2.00000001, 'fn': 5.00000001, 'tn': 258.0, 'tot': 8.00000001, 'eval': {'textcat_p': 0.5999999988, 'textcat_r': 0.37499999953124996, 'textcat_f': 0.46153846082840233}}}",91
92,"{'reliability': {'tp': 3.0, 'fp': 3.00000001, 'fn': 5.00000001, 'tn': 257.0, 'tot': 8.00000001, 'eval': {'textcat_p': 0.49999999916666665, 'textcat_r': 0.37499999953124996, 'textcat_f': 0.4285714279591836}}}",92
93,"{'reliability': {'tp': 3.0, 'fp': 3.00000001, 'fn': 5.00000001, 'tn': 257.0, 'tot': 8.00000001, 'eval': {'textcat_p': 0.49999999916666665, 'textcat_r': 0.37499999953124996, 'textcat_f': 0.4285714279591836}}}",93
94,"{'reliability': {'tp': 3.0, 'fp': 3.00000001, 'fn': 5.00000001, 'tn': 257.0, 'tot': 8.00000001, 'eval': {'textcat_p': 0.49999999916666665, 'textcat_r': 0.37499999953124996, 'textcat_f': 0.4285714279591836}}}",94
95,"{'reliability': {'tp': 3.0, 'fp': 3.00000001, 'fn': 5.00000001, 'tn': 257.0, 'tot': 8.00000001, 'eval': {'textcat_p': 0.49999999916666665, 'textcat_r': 0.37499999953124996, 'textcat_f': 0.4285714279591836}}}",95
96,"{'reliability': {'tp': 3.0, 'fp': 3.00000001, 'fn': 5.00000001, 'tn': 257.0, 'tot': 8.00000001, 'eval': {'textcat_p': 0.49999999916666665, 'textcat_r': 0.37499999953124996, 'textcat_f': 0.4285714279591836}}}",96
97,"{'reliability': {'tp': 3.0, 'fp': 3.00000001, 'fn': 5.00000001, 'tn': 257.0, 'tot': 8.00000001, 'eval': {'textcat_p': 0.49999999916666665, 'textcat_r': 0.37499999953124996, 'textcat_f': 0.4285714279591836}}}",97
98,"{'reliability': {'tp': 3.0, 'fp': 3.00000001, 'fn': 5.00000001, 'tn': 257.0, 'tot': 8.00000001, 'eval': {'textcat_p': 0.49999999916666665, 'textcat_r': 0.37499999953124996, 'textcat_f': 0.4285714279591836}}}",98
99,"{'reliability': {'tp': 3.0, 'fp': 3.00000001, 'fn': 5.00000001, 'tn': 257.0, 'tot': 8.00000001, 'eval': {'textcat_p': 0.49999999916666665, 'textcat_r': 0.37499999953124996, 'textcat_f': 0.4285714279591836}}}",99
