,eval,epoch
0,"{'performance': {'tp': 0.0, 'fp': 1e-08, 'fn': 8.00000001, 'tn': 161.0, 'tot': 8.00000001, 'eval': {'textcat_p': 0.0, 'textcat_r': 0.0, 'textcat_f': 0}}, 'compatibility': {'tp': 0.0, 'fp': 1e-08, 'fn': 34.00000001, 'tn': 135.0, 'tot': 34.00000001, 'eval': {'textcat_p': 0.0, 'textcat_r': 0.0, 'textcat_f': 0}}, 'usability': {'tp': 0.0, 'fp': 1e-08, 'fn': 18.00000001, 'tn': 151.0, 'tot': 18.00000001, 'eval': {'textcat_p': 0.0, 'textcat_r': 0.0, 'textcat_f': 0}}, 'reliability': {'tp': 0.0, 'fp': 1e-08, 'fn': 5.00000001, 'tn': 164.0, 'tot': 5.00000001, 'eval': {'textcat_p': 0.0, 'textcat_r': 0.0, 'textcat_f': 0}}, 'security': {'tp': 0.0, 'fp': 1.00000001, 'fn': 17.00000001, 'tn': 151.0, 'tot': 17.00000001, 'eval': {'textcat_p': 0.0, 'textcat_r': 0.0, 'textcat_f': 0}}, 'maintainability': {'tp': 0.0, 'fp': 1e-08, 'fn': 17.00000001, 'tn': 152.0, 'tot': 17.00000001, 'eval': {'textcat_p': 0.0, 'textcat_r': 0.0, 'textcat_f': 0}}, 'portability': {'tp': 0.0, 'fp': 1.00000001, 'fn': 9.00000001, 'tn': 159.0, 'tot': 9.00000001, 'eval': {'textcat_p': 0.0, 'textcat_r': 0.0, 'textcat_f': 0}}}",0
1,"{'performance': {'tp': 0.0, 'fp': 1e-08, 'fn': 8.00000001, 'tn': 161.0, 'tot': 8.00000001, 'eval': {'textcat_p': 0.0, 'textcat_r': 0.0, 'textcat_f': 0}}, 'compatibility': {'tp': 0.0, 'fp': 1.00000001, 'fn': 34.00000001, 'tn': 134.0, 'tot': 34.00000001, 'eval': {'textcat_p': 0.0, 'textcat_r': 0.0, 'textcat_f': 0}}, 'usability': {'tp': 0.0, 'fp': 1e-08, 'fn': 18.00000001, 'tn': 151.0, 'tot': 18.00000001, 'eval': {'textcat_p': 0.0, 'textcat_r': 0.0, 'textcat_f': 0}}, 'reliability': {'tp': 0.0, 'fp': 1e-08, 'fn': 5.00000001, 'tn': 164.0, 'tot': 5.00000001, 'eval': {'textcat_p': 0.0, 'textcat_r': 0.0, 'textcat_f': 0}}, 'security': {'tp': 0.0, 'fp': 1e-08, 'fn': 17.00000001, 'tn': 152.0, 'tot': 17.00000001, 'eval': {'textcat_p': 0.0, 'textcat_r': 0.0, 'textcat_f': 0}}, 'maintainability': {'tp': 0.0, 'fp': 1e-08, 'fn': 17.00000001, 'tn': 152.0, 'tot': 17.00000001, 'eval': {'textcat_p': 0.0, 'textcat_r': 0.0, 'textcat_f': 0}}, 'portability': {'tp': 0.0, 'fp': 1e-08, 'fn': 9.00000001, 'tn': 160.0, 'tot': 9.00000001, 'eval': {'textcat_p': 0.0, 'textcat_r': 0.0, 'textcat_f': 0}}}",1
2,"{'performance': {'tp': 0.0, 'fp': 1e-08, 'fn': 8.00000001, 'tn': 161.0, 'tot': 8.00000001, 'eval': {'textcat_p': 0.0, 'textcat_r': 0.0, 'textcat_f': 0}}, 'compatibility': {'tp': 8.0, 'fp': 2.00000001, 'fn': 26.00000001, 'tn': 133.0, 'tot': 34.00000001, 'eval': {'textcat_p': 0.7999999992, 'textcat_r': 0.23529411757785468, 'textcat_f': 0.36363636347107436}}, 'usability': {'tp': 0.0, 'fp': 1e-08, 'fn': 18.00000001, 'tn': 151.0, 'tot': 18.00000001, 'eval': {'textcat_p': 0.0, 'textcat_r': 0.0, 'textcat_f': 0}}, 'reliability': {'tp': 0.0, 'fp': 1e-08, 'fn': 5.00000001, 'tn': 164.0, 'tot': 5.00000001, 'eval': {'textcat_p': 0.0, 'textcat_r': 0.0, 'textcat_f': 0}}, 'security': {'tp': 0.0, 'fp': 1e-08, 'fn': 17.00000001, 'tn': 152.0, 'tot': 17.00000001, 'eval': {'textcat_p': 0.0, 'textcat_r': 0.0, 'textcat_f': 0}}, 'maintainability': {'tp': 0.0, 'fp': 1e-08, 'fn': 17.00000001, 'tn': 152.0, 'tot': 17.00000001, 'eval': {'textcat_p': 0.0, 'textcat_r': 0.0, 'textcat_f': 0}}, 'portability': {'tp': 0.0, 'fp': 1e-08, 'fn': 9.00000001, 'tn': 160.0, 'tot': 9.00000001, 'eval': {'textcat_p': 0.0, 'textcat_r': 0.0, 'textcat_f': 0}}}",2
3,"{'performance': {'tp': 0.0, 'fp': 1e-08, 'fn': 8.00000001, 'tn': 161.0, 'tot': 8.00000001, 'eval': {'textcat_p': 0.0, 'textcat_r': 0.0, 'textcat_f': 0}}, 'compatibility': {'tp': 9.0, 'fp': 4.00000001, 'fn': 25.00000001, 'tn': 131.0, 'tot': 34.00000001, 'eval': {'textcat_p': 0.6923076917751478, 'textcat_r': 0.2647058822750865, 'textcat_f': 0.3829787232412857}}, 'usability': {'tp': 0.0, 'fp': 1e-08, 'fn': 18.00000001, 'tn': 151.0, 'tot': 18.00000001, 'eval': {'textcat_p': 0.0, 'textcat_r': 0.0, 'textcat_f': 0}}, 'reliability': {'tp': 0.0, 'fp': 1e-08, 'fn': 5.00000001, 'tn': 164.0, 'tot': 5.00000001, 'eval': {'textcat_p': 0.0, 'textcat_r': 0.0, 'textcat_f': 0}}, 'security': {'tp': 0.0, 'fp': 1e-08, 'fn': 17.00000001, 'tn': 152.0, 'tot': 17.00000001, 'eval': {'textcat_p': 0.0, 'textcat_r': 0.0, 'textcat_f': 0}}, 'maintainability': {'tp': 0.0, 'fp': 1e-08, 'fn': 17.00000001, 'tn': 152.0, 'tot': 17.00000001, 'eval': {'textcat_p': 0.0, 'textcat_r': 0.0, 'textcat_f': 0}}, 'portability': {'tp': 0.0, 'fp': 1e-08, 'fn': 9.00000001, 'tn': 160.0, 'tot': 9.00000001, 'eval': {'textcat_p': 0.0, 'textcat_r': 0.0, 'textcat_f': 0}}}",3
4,"{'performance': {'tp': 0.0, 'fp': 1e-08, 'fn': 8.00000001, 'tn': 161.0, 'tot': 8.00000001, 'eval': {'textcat_p': 0.0, 'textcat_r': 0.0, 'textcat_f': 0}}, 'compatibility': {'tp': 12.0, 'fp': 7.00000001, 'fn': 22.00000001, 'tn': 128.0, 'tot': 34.00000001, 'eval': {'textcat_p': 0.631578947036011, 'textcat_r': 0.352941176366782, 'textcat_f': 0.452830188508366}}, 'usability': {'tp': 0.0, 'fp': 1e-08, 'fn': 18.00000001, 'tn': 151.0, 'tot': 18.00000001, 'eval': {'textcat_p': 0.0, 'textcat_r': 0.0, 'textcat_f': 0}}, 'reliability': {'tp': 0.0, 'fp': 1e-08, 'fn': 5.00000001, 'tn': 164.0, 'tot': 5.00000001, 'eval': {'textcat_p': 0.0, 'textcat_r': 0.0, 'textcat_f': 0}}, 'security': {'tp': 0.0, 'fp': 1e-08, 'fn': 17.00000001, 'tn': 152.0, 'tot': 17.00000001, 'eval': {'textcat_p': 0.0, 'textcat_r': 0.0, 'textcat_f': 0}}, 'maintainability': {'tp': 0.0, 'fp': 1e-08, 'fn': 17.00000001, 'tn': 152.0, 'tot': 17.00000001, 'eval': {'textcat_p': 0.0, 'textcat_r': 0.0, 'textcat_f': 0}}, 'portability': {'tp': 0.0, 'fp': 1e-08, 'fn': 9.00000001, 'tn': 160.0, 'tot': 9.00000001, 'eval': {'textcat_p': 0.0, 'textcat_r': 0.0, 'textcat_f': 0}}}",4
5,"{'performance': {'tp': 0.0, 'fp': 1e-08, 'fn': 8.00000001, 'tn': 161.0, 'tot': 8.00000001, 'eval': {'textcat_p': 0.0, 'textcat_r': 0.0, 'textcat_f': 0}}, 'compatibility': {'tp': 14.0, 'fp': 5.00000001, 'fn': 20.00000001, 'tn': 130.0, 'tot': 34.00000001, 'eval': {'textcat_p': 0.7368421048753462, 'textcat_r': 0.4117647057612457, 'textcat_f': 0.5283018865930936}}, 'usability': {'tp': 0.0, 'fp': 1e-08, 'fn': 18.00000001, 'tn': 151.0, 'tot': 18.00000001, 'eval': {'textcat_p': 0.0, 'textcat_r': 0.0, 'textcat_f': 0}}, 'reliability': {'tp': 0.0, 'fp': 1e-08, 'fn': 5.00000001, 'tn': 164.0, 'tot': 5.00000001, 'eval': {'textcat_p': 0.0, 'textcat_r': 0.0, 'textcat_f': 0}}, 'security': {'tp': 0.0, 'fp': 1.00000001, 'fn': 17.00000001, 'tn': 151.0, 'tot': 17.00000001, 'eval': {'textcat_p': 0.0, 'textcat_r': 0.0, 'textcat_f': 0}}, 'maintainability': {'tp': 1.0, 'fp': 1e-08, 'fn': 16.00000001, 'tn': 152.0, 'tot': 17.00000001, 'eval': {'textcat_p': 0.9999999900000002, 'textcat_r': 0.05882352937716263, 'textcat_f': 0.1111111109876543}}, 'portability': {'tp': 0.0, 'fp': 1e-08, 'fn': 9.00000001, 'tn': 160.0, 'tot': 9.00000001, 'eval': {'textcat_p': 0.0, 'textcat_r': 0.0, 'textcat_f': 0}}}",5
6,"{'performance': {'tp': 0.0, 'fp': 1e-08, 'fn': 8.00000001, 'tn': 161.0, 'tot': 8.00000001, 'eval': {'textcat_p': 0.0, 'textcat_r': 0.0, 'textcat_f': 0}}, 'compatibility': {'tp': 14.0, 'fp': 6.00000001, 'fn': 20.00000001, 'tn': 129.0, 'tot': 34.00000001, 'eval': {'textcat_p': 0.6999999996499999, 'textcat_r': 0.4117647057612457, 'textcat_f': 0.5185185183264746}}, 'usability': {'tp': 1.0, 'fp': 1e-08, 'fn': 17.00000001, 'tn': 151.0, 'tot': 18.00000001, 'eval': {'textcat_p': 0.9999999900000002, 'textcat_r': 0.05555555552469135, 'textcat_f': 0.10526315778393351}}, 'reliability': {'tp': 0.0, 'fp': 1e-08, 'fn': 5.00000001, 'tn': 164.0, 'tot': 5.00000001, 'eval': {'textcat_p': 0.0, 'textcat_r': 0.0, 'textcat_f': 0}}, 'security': {'tp': 1.0, 'fp': 1.00000001, 'fn': 16.00000001, 'tn': 151.0, 'tot': 17.00000001, 'eval': {'textcat_p': 0.4999999975, 'textcat_r': 0.05882352937716263, 'textcat_f': 0.10526315778393351}}, 'maintainability': {'tp': 2.0, 'fp': 1e-08, 'fn': 15.00000001, 'tn': 152.0, 'tot': 17.00000001, 'eval': {'textcat_p': 0.999999995, 'textcat_r': 0.11764705875432525, 'textcat_f': 0.21052631556786702}}, 'portability': {'tp': 0.0, 'fp': 1e-08, 'fn': 9.00000001, 'tn': 160.0, 'tot': 9.00000001, 'eval': {'textcat_p': 0.0, 'textcat_r': 0.0, 'textcat_f': 0}}}",6
7,"{'performance': {'tp': 0.0, 'fp': 1e-08, 'fn': 8.00000001, 'tn': 161.0, 'tot': 8.00000001, 'eval': {'textcat_p': 0.0, 'textcat_r': 0.0, 'textcat_f': 0}}, 'compatibility': {'tp': 21.0, 'fp': 10.00000001, 'fn': 13.00000001, 'tn': 125.0, 'tot': 34.00000001, 'eval': {'textcat_p': 0.6774193546201873, 'textcat_r': 0.6176470586418685, 'textcat_f': 0.6461538459550296}}, 'usability': {'tp': 1.0, 'fp': 1e-08, 'fn': 17.00000001, 'tn': 151.0, 'tot': 18.00000001, 'eval': {'textcat_p': 0.9999999900000002, 'textcat_r': 0.05555555552469135, 'textcat_f': 0.10526315778393351}}, 'reliability': {'tp': 0.0, 'fp': 1e-08, 'fn': 5.00000001, 'tn': 164.0, 'tot': 5.00000001, 'eval': {'textcat_p': 0.0, 'textcat_r': 0.0, 'textcat_f': 0}}, 'security': {'tp': 2.0, 'fp': 1.00000001, 'fn': 15.00000001, 'tn': 151.0, 'tot': 17.00000001, 'eval': {'textcat_p': 0.6666666644444444, 'textcat_r': 0.11764705875432525, 'textcat_f': 0.1999999998}}, 'maintainability': {'tp': 2.0, 'fp': 1e-08, 'fn': 15.00000001, 'tn': 152.0, 'tot': 17.00000001, 'eval': {'textcat_p': 0.999999995, 'textcat_r': 0.11764705875432525, 'textcat_f': 0.21052631556786702}}, 'portability': {'tp': 0.0, 'fp': 1e-08, 'fn': 9.00000001, 'tn': 160.0, 'tot': 9.00000001, 'eval': {'textcat_p': 0.0, 'textcat_r': 0.0, 'textcat_f': 0}}}",7
8,"{'performance': {'tp': 6.0, 'fp': 1e-08, 'fn': 2.00000001, 'tn': 161.0, 'tot': 8.00000001, 'eval': {'textcat_p': 0.9999999983333333, 'textcat_r': 0.7499999990624999, 'textcat_f': 0.8571428559183673}}, 'compatibility': {'tp': 19.0, 'fp': 6.00000001, 'fn': 15.00000001, 'tn': 129.0, 'tot': 34.00000001, 'eval': {'textcat_p': 0.759999999696, 'textcat_r': 0.5588235292474049, 'textcat_f': 0.6440677963918414}}, 'usability': {'tp': 1.0, 'fp': 1e-08, 'fn': 17.00000001, 'tn': 151.0, 'tot': 18.00000001, 'eval': {'textcat_p': 0.9999999900000002, 'textcat_r': 0.05555555552469135, 'textcat_f': 0.10526315778393351}}, 'reliability': {'tp': 0.0, 'fp': 1e-08, 'fn': 5.00000001, 'tn': 164.0, 'tot': 5.00000001, 'eval': {'textcat_p': 0.0, 'textcat_r': 0.0, 'textcat_f': 0}}, 'security': {'tp': 3.0, 'fp': 1e-08, 'fn': 14.00000001, 'tn': 152.0, 'tot': 17.00000001, 'eval': {'textcat_p': 0.9999999966666667, 'textcat_r': 0.1764705881314879, 'textcat_f': 0.29999999969999996}}, 'maintainability': {'tp': 2.0, 'fp': 1e-08, 'fn': 15.00000001, 'tn': 152.0, 'tot': 17.00000001, 'eval': {'textcat_p': 0.999999995, 'textcat_r': 0.11764705875432525, 'textcat_f': 0.21052631556786702}}, 'portability': {'tp': 0.0, 'fp': 1e-08, 'fn': 9.00000001, 'tn': 160.0, 'tot': 9.00000001, 'eval': {'textcat_p': 0.0, 'textcat_r': 0.0, 'textcat_f': 0}}}",8
9,"{'performance': {'tp': 6.0, 'fp': 1e-08, 'fn': 2.00000001, 'tn': 161.0, 'tot': 8.00000001, 'eval': {'textcat_p': 0.9999999983333333, 'textcat_r': 0.7499999990624999, 'textcat_f': 0.8571428559183673}}, 'compatibility': {'tp': 19.0, 'fp': 9.00000001, 'fn': 15.00000001, 'tn': 126.0, 'tot': 34.00000001, 'eval': {'textcat_p': 0.6785714283290816, 'textcat_r': 0.5588235292474049, 'textcat_f': 0.6129032256087409}}, 'usability': {'tp': 1.0, 'fp': 1.00000001, 'fn': 17.00000001, 'tn': 150.0, 'tot': 18.00000001, 'eval': {'textcat_p': 0.4999999975, 'textcat_r': 0.05555555552469135, 'textcat_f': 0.0999999999}}, 'reliability': {'tp': 0.0, 'fp': 1e-08, 'fn': 5.00000001, 'tn': 164.0, 'tot': 5.00000001, 'eval': {'textcat_p': 0.0, 'textcat_r': 0.0, 'textcat_f': 0}}, 'security': {'tp': 3.0, 'fp': 1e-08, 'fn': 14.00000001, 'tn': 152.0, 'tot': 17.00000001, 'eval': {'textcat_p': 0.9999999966666667, 'textcat_r': 0.1764705881314879, 'textcat_f': 0.29999999969999996}}, 'maintainability': {'tp': 2.0, 'fp': 1e-08, 'fn': 15.00000001, 'tn': 152.0, 'tot': 17.00000001, 'eval': {'textcat_p': 0.999999995, 'textcat_r': 0.11764705875432525, 'textcat_f': 0.21052631556786702}}, 'portability': {'tp': 0.0, 'fp': 1e-08, 'fn': 9.00000001, 'tn': 160.0, 'tot': 9.00000001, 'eval': {'textcat_p': 0.0, 'textcat_r': 0.0, 'textcat_f': 0}}}",9
10,"{'performance': {'tp': 6.0, 'fp': 1e-08, 'fn': 2.00000001, 'tn': 161.0, 'tot': 8.00000001, 'eval': {'textcat_p': 0.9999999983333333, 'textcat_r': 0.7499999990624999, 'textcat_f': 0.8571428559183673}}, 'compatibility': {'tp': 19.0, 'fp': 6.00000001, 'fn': 15.00000001, 'tn': 129.0, 'tot': 34.00000001, 'eval': {'textcat_p': 0.759999999696, 'textcat_r': 0.5588235292474049, 'textcat_f': 0.6440677963918414}}, 'usability': {'tp': 0.0, 'fp': 1e-08, 'fn': 18.00000001, 'tn': 151.0, 'tot': 18.00000001, 'eval': {'textcat_p': 0.0, 'textcat_r': 0.0, 'textcat_f': 0}}, 'reliability': {'tp': 0.0, 'fp': 1e-08, 'fn': 5.00000001, 'tn': 164.0, 'tot': 5.00000001, 'eval': {'textcat_p': 0.0, 'textcat_r': 0.0, 'textcat_f': 0}}, 'security': {'tp': 3.0, 'fp': 1e-08, 'fn': 14.00000001, 'tn': 152.0, 'tot': 17.00000001, 'eval': {'textcat_p': 0.9999999966666667, 'textcat_r': 0.1764705881314879, 'textcat_f': 0.29999999969999996}}, 'maintainability': {'tp': 2.0, 'fp': 1e-08, 'fn': 15.00000001, 'tn': 152.0, 'tot': 17.00000001, 'eval': {'textcat_p': 0.999999995, 'textcat_r': 0.11764705875432525, 'textcat_f': 0.21052631556786702}}, 'portability': {'tp': 0.0, 'fp': 1e-08, 'fn': 9.00000001, 'tn': 160.0, 'tot': 9.00000001, 'eval': {'textcat_p': 0.0, 'textcat_r': 0.0, 'textcat_f': 0}}}",10
11,"{'performance': {'tp': 6.0, 'fp': 1e-08, 'fn': 2.00000001, 'tn': 161.0, 'tot': 8.00000001, 'eval': {'textcat_p': 0.9999999983333333, 'textcat_r': 0.7499999990624999, 'textcat_f': 0.8571428559183673}}, 'compatibility': {'tp': 19.0, 'fp': 6.00000001, 'fn': 15.00000001, 'tn': 129.0, 'tot': 34.00000001, 'eval': {'textcat_p': 0.759999999696, 'textcat_r': 0.5588235292474049, 'textcat_f': 0.6440677963918414}}, 'usability': {'tp': 0.0, 'fp': 1.00000001, 'fn': 18.00000001, 'tn': 150.0, 'tot': 18.00000001, 'eval': {'textcat_p': 0.0, 'textcat_r': 0.0, 'textcat_f': 0}}, 'reliability': {'tp': 0.0, 'fp': 1e-08, 'fn': 5.00000001, 'tn': 164.0, 'tot': 5.00000001, 'eval': {'textcat_p': 0.0, 'textcat_r': 0.0, 'textcat_f': 0}}, 'security': {'tp': 3.0, 'fp': 1.00000001, 'fn': 14.00000001, 'tn': 151.0, 'tot': 17.00000001, 'eval': {'textcat_p': 0.7499999981250001, 'textcat_r': 0.1764705881314879, 'textcat_f': 0.28571428544217686}}, 'maintainability': {'tp': 3.0, 'fp': 1e-08, 'fn': 14.00000001, 'tn': 152.0, 'tot': 17.00000001, 'eval': {'textcat_p': 0.9999999966666667, 'textcat_r': 0.1764705881314879, 'textcat_f': 0.29999999969999996}}, 'portability': {'tp': 0.0, 'fp': 1e-08, 'fn': 9.00000001, 'tn': 160.0, 'tot': 9.00000001, 'eval': {'textcat_p': 0.0, 'textcat_r': 0.0, 'textcat_f': 0}}}",11
12,"{'performance': {'tp': 6.0, 'fp': 1e-08, 'fn': 2.00000001, 'tn': 161.0, 'tot': 8.00000001, 'eval': {'textcat_p': 0.9999999983333333, 'textcat_r': 0.7499999990624999, 'textcat_f': 0.8571428559183673}}, 'compatibility': {'tp': 19.0, 'fp': 7.00000001, 'fn': 15.00000001, 'tn': 128.0, 'tot': 34.00000001, 'eval': {'textcat_p': 0.7307692304881657, 'textcat_r': 0.5588235292474049, 'textcat_f': 0.6333333331222223}}, 'usability': {'tp': 2.0, 'fp': 1.00000001, 'fn': 16.00000001, 'tn': 150.0, 'tot': 18.00000001, 'eval': {'textcat_p': 0.6666666644444444, 'textcat_r': 0.1111111110493827, 'textcat_f': 0.19047619029478458}}, 'reliability': {'tp': 0.0, 'fp': 1e-08, 'fn': 5.00000001, 'tn': 164.0, 'tot': 5.00000001, 'eval': {'textcat_p': 0.0, 'textcat_r': 0.0, 'textcat_f': 0}}, 'security': {'tp': 3.0, 'fp': 3.00000001, 'fn': 14.00000001, 'tn': 149.0, 'tot': 17.00000001, 'eval': {'textcat_p': 0.49999999916666665, 'textcat_r': 0.1764705881314879, 'textcat_f': 0.2608695649905482}}, 'maintainability': {'tp': 3.0, 'fp': 1e-08, 'fn': 14.00000001, 'tn': 152.0, 'tot': 17.00000001, 'eval': {'textcat_p': 0.9999999966666667, 'textcat_r': 0.1764705881314879, 'textcat_f': 0.29999999969999996}}, 'portability': {'tp': 0.0, 'fp': 1e-08, 'fn': 9.00000001, 'tn': 160.0, 'tot': 9.00000001, 'eval': {'textcat_p': 0.0, 'textcat_r': 0.0, 'textcat_f': 0}}}",12
13,"{'performance': {'tp': 6.0, 'fp': 1e-08, 'fn': 2.00000001, 'tn': 161.0, 'tot': 8.00000001, 'eval': {'textcat_p': 0.9999999983333333, 'textcat_r': 0.7499999990624999, 'textcat_f': 0.8571428559183673}}, 'compatibility': {'tp': 21.0, 'fp': 7.00000001, 'fn': 13.00000001, 'tn': 128.0, 'tot': 34.00000001, 'eval': {'textcat_p': 0.7499999997321428, 'textcat_r': 0.6176470586418685, 'textcat_f': 0.6774193546201873}}, 'usability': {'tp': 3.0, 'fp': 1.00000001, 'fn': 15.00000001, 'tn': 150.0, 'tot': 18.00000001, 'eval': {'textcat_p': 0.7499999981250001, 'textcat_r': 0.16666666657407406, 'textcat_f': 0.2727272724793388}}, 'reliability': {'tp': 0.0, 'fp': 1e-08, 'fn': 5.00000001, 'tn': 164.0, 'tot': 5.00000001, 'eval': {'textcat_p': 0.0, 'textcat_r': 0.0, 'textcat_f': 0}}, 'security': {'tp': 3.0, 'fp': 3.00000001, 'fn': 14.00000001, 'tn': 149.0, 'tot': 17.00000001, 'eval': {'textcat_p': 0.49999999916666665, 'textcat_r': 0.1764705881314879, 'textcat_f': 0.2608695649905482}}, 'maintainability': {'tp': 2.0, 'fp': 1e-08, 'fn': 15.00000001, 'tn': 152.0, 'tot': 17.00000001, 'eval': {'textcat_p': 0.999999995, 'textcat_r': 0.11764705875432525, 'textcat_f': 0.21052631556786702}}, 'portability': {'tp': 0.0, 'fp': 1e-08, 'fn': 9.00000001, 'tn': 160.0, 'tot': 9.00000001, 'eval': {'textcat_p': 0.0, 'textcat_r': 0.0, 'textcat_f': 0}}}",13
14,"{'performance': {'tp': 6.0, 'fp': 1e-08, 'fn': 2.00000001, 'tn': 161.0, 'tot': 8.00000001, 'eval': {'textcat_p': 0.9999999983333333, 'textcat_r': 0.7499999990624999, 'textcat_f': 0.8571428559183673}}, 'compatibility': {'tp': 21.0, 'fp': 7.00000001, 'fn': 13.00000001, 'tn': 128.0, 'tot': 34.00000001, 'eval': {'textcat_p': 0.7499999997321428, 'textcat_r': 0.6176470586418685, 'textcat_f': 0.6774193546201873}}, 'usability': {'tp': 3.0, 'fp': 1.00000001, 'fn': 15.00000001, 'tn': 150.0, 'tot': 18.00000001, 'eval': {'textcat_p': 0.7499999981250001, 'textcat_r': 0.16666666657407406, 'textcat_f': 0.2727272724793388}}, 'reliability': {'tp': 0.0, 'fp': 1e-08, 'fn': 5.00000001, 'tn': 164.0, 'tot': 5.00000001, 'eval': {'textcat_p': 0.0, 'textcat_r': 0.0, 'textcat_f': 0}}, 'security': {'tp': 5.0, 'fp': 4.00000001, 'fn': 12.00000001, 'tn': 148.0, 'tot': 17.00000001, 'eval': {'textcat_p': 0.5555555549382716, 'textcat_r': 0.29411764688581316, 'textcat_f': 0.38461538431952663}}, 'maintainability': {'tp': 2.0, 'fp': 1e-08, 'fn': 15.00000001, 'tn': 152.0, 'tot': 17.00000001, 'eval': {'textcat_p': 0.999999995, 'textcat_r': 0.11764705875432525, 'textcat_f': 0.21052631556786702}}, 'portability': {'tp': 0.0, 'fp': 1e-08, 'fn': 9.00000001, 'tn': 160.0, 'tot': 9.00000001, 'eval': {'textcat_p': 0.0, 'textcat_r': 0.0, 'textcat_f': 0}}}",14
15,"{'performance': {'tp': 6.0, 'fp': 1e-08, 'fn': 2.00000001, 'tn': 161.0, 'tot': 8.00000001, 'eval': {'textcat_p': 0.9999999983333333, 'textcat_r': 0.7499999990624999, 'textcat_f': 0.8571428559183673}}, 'compatibility': {'tp': 22.0, 'fp': 9.00000001, 'fn': 12.00000001, 'tn': 126.0, 'tot': 34.00000001, 'eval': {'textcat_p': 0.7096774191259105, 'textcat_r': 0.6470588233391004, 'textcat_f': 0.6769230767147929}}, 'usability': {'tp': 3.0, 'fp': 1.00000001, 'fn': 15.00000001, 'tn': 150.0, 'tot': 18.00000001, 'eval': {'textcat_p': 0.7499999981250001, 'textcat_r': 0.16666666657407406, 'textcat_f': 0.2727272724793388}}, 'reliability': {'tp': 0.0, 'fp': 1e-08, 'fn': 5.00000001, 'tn': 164.0, 'tot': 5.00000001, 'eval': {'textcat_p': 0.0, 'textcat_r': 0.0, 'textcat_f': 0}}, 'security': {'tp': 6.0, 'fp': 5.00000001, 'fn': 11.00000001, 'tn': 147.0, 'tot': 17.00000001, 'eval': {'textcat_p': 0.5454545449586776, 'textcat_r': 0.3529411762629758, 'textcat_f': 0.4285714282653061}}, 'maintainability': {'tp': 3.0, 'fp': 1e-08, 'fn': 14.00000001, 'tn': 152.0, 'tot': 17.00000001, 'eval': {'textcat_p': 0.9999999966666667, 'textcat_r': 0.1764705881314879, 'textcat_f': 0.29999999969999996}}, 'portability': {'tp': 0.0, 'fp': 1e-08, 'fn': 9.00000001, 'tn': 160.0, 'tot': 9.00000001, 'eval': {'textcat_p': 0.0, 'textcat_r': 0.0, 'textcat_f': 0}}}",15
16,"{'performance': {'tp': 6.0, 'fp': 1e-08, 'fn': 2.00000001, 'tn': 161.0, 'tot': 8.00000001, 'eval': {'textcat_p': 0.9999999983333333, 'textcat_r': 0.7499999990624999, 'textcat_f': 0.8571428559183673}}, 'compatibility': {'tp': 22.0, 'fp': 9.00000001, 'fn': 12.00000001, 'tn': 126.0, 'tot': 34.00000001, 'eval': {'textcat_p': 0.7096774191259105, 'textcat_r': 0.6470588233391004, 'textcat_f': 0.6769230767147929}}, 'usability': {'tp': 3.0, 'fp': 1.00000001, 'fn': 15.00000001, 'tn': 150.0, 'tot': 18.00000001, 'eval': {'textcat_p': 0.7499999981250001, 'textcat_r': 0.16666666657407406, 'textcat_f': 0.2727272724793388}}, 'reliability': {'tp': 0.0, 'fp': 1e-08, 'fn': 5.00000001, 'tn': 164.0, 'tot': 5.00000001, 'eval': {'textcat_p': 0.0, 'textcat_r': 0.0, 'textcat_f': 0}}, 'security': {'tp': 6.0, 'fp': 5.00000001, 'fn': 11.00000001, 'tn': 147.0, 'tot': 17.00000001, 'eval': {'textcat_p': 0.5454545449586776, 'textcat_r': 0.3529411762629758, 'textcat_f': 0.4285714282653061}}, 'maintainability': {'tp': 4.0, 'fp': 1e-08, 'fn': 13.00000001, 'tn': 152.0, 'tot': 17.00000001, 'eval': {'textcat_p': 0.9999999975, 'textcat_r': 0.2352941175086505, 'textcat_f': 0.38095238058956915}}, 'portability': {'tp': 0.0, 'fp': 1e-08, 'fn': 9.00000001, 'tn': 160.0, 'tot': 9.00000001, 'eval': {'textcat_p': 0.0, 'textcat_r': 0.0, 'textcat_f': 0}}}",16
17,"{'performance': {'tp': 6.0, 'fp': 1e-08, 'fn': 2.00000001, 'tn': 161.0, 'tot': 8.00000001, 'eval': {'textcat_p': 0.9999999983333333, 'textcat_r': 0.7499999990624999, 'textcat_f': 0.8571428559183673}}, 'compatibility': {'tp': 23.0, 'fp': 11.00000001, 'fn': 11.00000001, 'tn': 124.0, 'tot': 34.00000001, 'eval': {'textcat_p': 0.6764705880363322, 'textcat_r': 0.6764705880363322, 'textcat_f': 0.6764705880363322}}, 'usability': {'tp': 3.0, 'fp': 1.00000001, 'fn': 15.00000001, 'tn': 150.0, 'tot': 18.00000001, 'eval': {'textcat_p': 0.7499999981250001, 'textcat_r': 0.16666666657407406, 'textcat_f': 0.2727272724793388}}, 'reliability': {'tp': 0.0, 'fp': 1e-08, 'fn': 5.00000001, 'tn': 164.0, 'tot': 5.00000001, 'eval': {'textcat_p': 0.0, 'textcat_r': 0.0, 'textcat_f': 0}}, 'security': {'tp': 6.0, 'fp': 5.00000001, 'fn': 11.00000001, 'tn': 147.0, 'tot': 17.00000001, 'eval': {'textcat_p': 0.5454545449586776, 'textcat_r': 0.3529411762629758, 'textcat_f': 0.4285714282653061}}, 'maintainability': {'tp': 4.0, 'fp': 1e-08, 'fn': 13.00000001, 'tn': 152.0, 'tot': 17.00000001, 'eval': {'textcat_p': 0.9999999975, 'textcat_r': 0.2352941175086505, 'textcat_f': 0.38095238058956915}}, 'portability': {'tp': 0.0, 'fp': 1e-08, 'fn': 9.00000001, 'tn': 160.0, 'tot': 9.00000001, 'eval': {'textcat_p': 0.0, 'textcat_r': 0.0, 'textcat_f': 0}}}",17
18,"{'performance': {'tp': 6.0, 'fp': 1e-08, 'fn': 2.00000001, 'tn': 161.0, 'tot': 8.00000001, 'eval': {'textcat_p': 0.9999999983333333, 'textcat_r': 0.7499999990624999, 'textcat_f': 0.8571428559183673}}, 'compatibility': {'tp': 23.0, 'fp': 10.00000001, 'fn': 11.00000001, 'tn': 125.0, 'tot': 34.00000001, 'eval': {'textcat_p': 0.696969696758494, 'textcat_r': 0.6764705880363322, 'textcat_f': 0.6865671639741591}}, 'usability': {'tp': 3.0, 'fp': 1.00000001, 'fn': 15.00000001, 'tn': 150.0, 'tot': 18.00000001, 'eval': {'textcat_p': 0.7499999981250001, 'textcat_r': 0.16666666657407406, 'textcat_f': 0.2727272724793388}}, 'reliability': {'tp': 0.0, 'fp': 1e-08, 'fn': 5.00000001, 'tn': 164.0, 'tot': 5.00000001, 'eval': {'textcat_p': 0.0, 'textcat_r': 0.0, 'textcat_f': 0}}, 'security': {'tp': 7.0, 'fp': 5.00000001, 'fn': 10.00000001, 'tn': 147.0, 'tot': 17.00000001, 'eval': {'textcat_p': 0.5833333328472222, 'textcat_r': 0.4117647056401384, 'textcat_f': 0.4827586203567182}}, 'maintainability': {'tp': 5.0, 'fp': 1e-08, 'fn': 12.00000001, 'tn': 152.0, 'tot': 17.00000001, 'eval': {'textcat_p': 0.9999999980000001, 'textcat_r': 0.29411764688581316, 'textcat_f': 0.4545454541322314}}, 'portability': {'tp': 0.0, 'fp': 1e-08, 'fn': 9.00000001, 'tn': 160.0, 'tot': 9.00000001, 'eval': {'textcat_p': 0.0, 'textcat_r': 0.0, 'textcat_f': 0}}}",18
19,"{'performance': {'tp': 6.0, 'fp': 1e-08, 'fn': 2.00000001, 'tn': 161.0, 'tot': 8.00000001, 'eval': {'textcat_p': 0.9999999983333333, 'textcat_r': 0.7499999990624999, 'textcat_f': 0.8571428559183673}}, 'compatibility': {'tp': 22.0, 'fp': 9.00000001, 'fn': 12.00000001, 'tn': 126.0, 'tot': 34.00000001, 'eval': {'textcat_p': 0.7096774191259105, 'textcat_r': 0.6470588233391004, 'textcat_f': 0.6769230767147929}}, 'usability': {'tp': 3.0, 'fp': 1.00000001, 'fn': 15.00000001, 'tn': 150.0, 'tot': 18.00000001, 'eval': {'textcat_p': 0.7499999981250001, 'textcat_r': 0.16666666657407406, 'textcat_f': 0.2727272724793388}}, 'reliability': {'tp': 0.0, 'fp': 1e-08, 'fn': 5.00000001, 'tn': 164.0, 'tot': 5.00000001, 'eval': {'textcat_p': 0.0, 'textcat_r': 0.0, 'textcat_f': 0}}, 'security': {'tp': 10.0, 'fp': 4.00000001, 'fn': 7.00000001, 'tn': 148.0, 'tot': 17.00000001, 'eval': {'textcat_p': 0.7142857137755102, 'textcat_r': 0.5882352937716263, 'textcat_f': 0.6451612899063476}}, 'maintainability': {'tp': 7.0, 'fp': 1e-08, 'fn': 10.00000001, 'tn': 152.0, 'tot': 17.00000001, 'eval': {'textcat_p': 0.9999999985714286, 'textcat_r': 0.4117647056401384, 'textcat_f': 0.5833333328472221}}, 'portability': {'tp': 0.0, 'fp': 1e-08, 'fn': 9.00000001, 'tn': 160.0, 'tot': 9.00000001, 'eval': {'textcat_p': 0.0, 'textcat_r': 0.0, 'textcat_f': 0}}}",19
20,"{'performance': {'tp': 6.0, 'fp': 1e-08, 'fn': 2.00000001, 'tn': 161.0, 'tot': 8.00000001, 'eval': {'textcat_p': 0.9999999983333333, 'textcat_r': 0.7499999990624999, 'textcat_f': 0.8571428559183673}}, 'compatibility': {'tp': 21.0, 'fp': 9.00000001, 'fn': 13.00000001, 'tn': 126.0, 'tot': 34.00000001, 'eval': {'textcat_p': 0.6999999997666666, 'textcat_r': 0.6176470586418685, 'textcat_f': 0.6562499997949218}}, 'usability': {'tp': 3.0, 'fp': 1.00000001, 'fn': 15.00000001, 'tn': 150.0, 'tot': 18.00000001, 'eval': {'textcat_p': 0.7499999981250001, 'textcat_r': 0.16666666657407406, 'textcat_f': 0.2727272724793388}}, 'reliability': {'tp': 0.0, 'fp': 1e-08, 'fn': 5.00000001, 'tn': 164.0, 'tot': 5.00000001, 'eval': {'textcat_p': 0.0, 'textcat_r': 0.0, 'textcat_f': 0}}, 'security': {'tp': 10.0, 'fp': 3.00000001, 'fn': 7.00000001, 'tn': 149.0, 'tot': 17.00000001, 'eval': {'textcat_p': 0.7692307686390532, 'textcat_r': 0.5882352937716263, 'textcat_f': 0.6666666662222223}}, 'maintainability': {'tp': 9.0, 'fp': 1e-08, 'fn': 8.00000001, 'tn': 152.0, 'tot': 17.00000001, 'eval': {'textcat_p': 0.9999999988888888, 'textcat_r': 0.5294117643944637, 'textcat_f': 0.6923076917751478}}, 'portability': {'tp': 0.0, 'fp': 1e-08, 'fn': 9.00000001, 'tn': 160.0, 'tot': 9.00000001, 'eval': {'textcat_p': 0.0, 'textcat_r': 0.0, 'textcat_f': 0}}}",20
21,"{'performance': {'tp': 6.0, 'fp': 1e-08, 'fn': 2.00000001, 'tn': 161.0, 'tot': 8.00000001, 'eval': {'textcat_p': 0.9999999983333333, 'textcat_r': 0.7499999990624999, 'textcat_f': 0.8571428559183673}}, 'compatibility': {'tp': 20.0, 'fp': 9.00000001, 'fn': 14.00000001, 'tn': 126.0, 'tot': 34.00000001, 'eval': {'textcat_p': 0.6896551721759809, 'textcat_r': 0.5882352939446367, 'textcat_f': 0.6349206347190728}}, 'usability': {'tp': 3.0, 'fp': 1.00000001, 'fn': 15.00000001, 'tn': 150.0, 'tot': 18.00000001, 'eval': {'textcat_p': 0.7499999981250001, 'textcat_r': 0.16666666657407406, 'textcat_f': 0.2727272724793388}}, 'reliability': {'tp': 0.0, 'fp': 1e-08, 'fn': 5.00000001, 'tn': 164.0, 'tot': 5.00000001, 'eval': {'textcat_p': 0.0, 'textcat_r': 0.0, 'textcat_f': 0}}, 'security': {'tp': 10.0, 'fp': 3.00000001, 'fn': 7.00000001, 'tn': 149.0, 'tot': 17.00000001, 'eval': {'textcat_p': 0.7692307686390532, 'textcat_r': 0.5882352937716263, 'textcat_f': 0.6666666662222223}}, 'maintainability': {'tp': 9.0, 'fp': 1e-08, 'fn': 8.00000001, 'tn': 152.0, 'tot': 17.00000001, 'eval': {'textcat_p': 0.9999999988888888, 'textcat_r': 0.5294117643944637, 'textcat_f': 0.6923076917751478}}, 'portability': {'tp': 0.0, 'fp': 1e-08, 'fn': 9.00000001, 'tn': 160.0, 'tot': 9.00000001, 'eval': {'textcat_p': 0.0, 'textcat_r': 0.0, 'textcat_f': 0}}}",21
22,"{'performance': {'tp': 6.0, 'fp': 1e-08, 'fn': 2.00000001, 'tn': 161.0, 'tot': 8.00000001, 'eval': {'textcat_p': 0.9999999983333333, 'textcat_r': 0.7499999990624999, 'textcat_f': 0.8571428559183673}}, 'compatibility': {'tp': 20.0, 'fp': 9.00000001, 'fn': 14.00000001, 'tn': 126.0, 'tot': 34.00000001, 'eval': {'textcat_p': 0.6896551721759809, 'textcat_r': 0.5882352939446367, 'textcat_f': 0.6349206347190728}}, 'usability': {'tp': 3.0, 'fp': 1.00000001, 'fn': 15.00000001, 'tn': 150.0, 'tot': 18.00000001, 'eval': {'textcat_p': 0.7499999981250001, 'textcat_r': 0.16666666657407406, 'textcat_f': 0.2727272724793388}}, 'reliability': {'tp': 0.0, 'fp': 1e-08, 'fn': 5.00000001, 'tn': 164.0, 'tot': 5.00000001, 'eval': {'textcat_p': 0.0, 'textcat_r': 0.0, 'textcat_f': 0}}, 'security': {'tp': 10.0, 'fp': 3.00000001, 'fn': 7.00000001, 'tn': 149.0, 'tot': 17.00000001, 'eval': {'textcat_p': 0.7692307686390532, 'textcat_r': 0.5882352937716263, 'textcat_f': 0.6666666662222223}}, 'maintainability': {'tp': 8.0, 'fp': 1e-08, 'fn': 9.00000001, 'tn': 152.0, 'tot': 17.00000001, 'eval': {'textcat_p': 0.9999999987499999, 'textcat_r': 0.470588235017301, 'textcat_f': 0.639999999488}}, 'portability': {'tp': 0.0, 'fp': 1e-08, 'fn': 9.00000001, 'tn': 160.0, 'tot': 9.00000001, 'eval': {'textcat_p': 0.0, 'textcat_r': 0.0, 'textcat_f': 0}}}",22
23,"{'performance': {'tp': 6.0, 'fp': 1e-08, 'fn': 2.00000001, 'tn': 161.0, 'tot': 8.00000001, 'eval': {'textcat_p': 0.9999999983333333, 'textcat_r': 0.7499999990624999, 'textcat_f': 0.8571428559183673}}, 'compatibility': {'tp': 20.0, 'fp': 11.00000001, 'fn': 14.00000001, 'tn': 124.0, 'tot': 34.00000001, 'eval': {'textcat_p': 0.6451612901144641, 'textcat_r': 0.5882352939446367, 'textcat_f': 0.6153846151952662}}, 'usability': {'tp': 3.0, 'fp': 1.00000001, 'fn': 15.00000001, 'tn': 150.0, 'tot': 18.00000001, 'eval': {'textcat_p': 0.7499999981250001, 'textcat_r': 0.16666666657407406, 'textcat_f': 0.2727272724793388}}, 'reliability': {'tp': 0.0, 'fp': 1e-08, 'fn': 5.00000001, 'tn': 164.0, 'tot': 5.00000001, 'eval': {'textcat_p': 0.0, 'textcat_r': 0.0, 'textcat_f': 0}}, 'security': {'tp': 10.0, 'fp': 2.00000001, 'fn': 7.00000001, 'tn': 150.0, 'tot': 17.00000001, 'eval': {'textcat_p': 0.8333333326388889, 'textcat_r': 0.5882352937716263, 'textcat_f': 0.6896551719381688}}, 'maintainability': {'tp': 8.0, 'fp': 1e-08, 'fn': 9.00000001, 'tn': 152.0, 'tot': 17.00000001, 'eval': {'textcat_p': 0.9999999987499999, 'textcat_r': 0.470588235017301, 'textcat_f': 0.639999999488}}, 'portability': {'tp': 0.0, 'fp': 1e-08, 'fn': 9.00000001, 'tn': 160.0, 'tot': 9.00000001, 'eval': {'textcat_p': 0.0, 'textcat_r': 0.0, 'textcat_f': 0}}}",23
24,"{'performance': {'tp': 6.0, 'fp': 1e-08, 'fn': 2.00000001, 'tn': 161.0, 'tot': 8.00000001, 'eval': {'textcat_p': 0.9999999983333333, 'textcat_r': 0.7499999990624999, 'textcat_f': 0.8571428559183673}}, 'compatibility': {'tp': 20.0, 'fp': 10.00000001, 'fn': 14.00000001, 'tn': 125.0, 'tot': 34.00000001, 'eval': {'textcat_p': 0.6666666664444444, 'textcat_r': 0.5882352939446367, 'textcat_f': 0.6249999998046876}}, 'usability': {'tp': 3.0, 'fp': 2.00000001, 'fn': 15.00000001, 'tn': 149.0, 'tot': 18.00000001, 'eval': {'textcat_p': 0.5999999988, 'textcat_r': 0.16666666657407406, 'textcat_f': 0.2608695649905482}}, 'reliability': {'tp': 0.0, 'fp': 1e-08, 'fn': 5.00000001, 'tn': 164.0, 'tot': 5.00000001, 'eval': {'textcat_p': 0.0, 'textcat_r': 0.0, 'textcat_f': 0}}, 'security': {'tp': 8.0, 'fp': 2.00000001, 'fn': 9.00000001, 'tn': 150.0, 'tot': 17.00000001, 'eval': {'textcat_p': 0.7999999992, 'textcat_r': 0.470588235017301, 'textcat_f': 0.5925925921536351}}, 'maintainability': {'tp': 8.0, 'fp': 1e-08, 'fn': 9.00000001, 'tn': 152.0, 'tot': 17.00000001, 'eval': {'textcat_p': 0.9999999987499999, 'textcat_r': 0.470588235017301, 'textcat_f': 0.639999999488}}, 'portability': {'tp': 0.0, 'fp': 1e-08, 'fn': 9.00000001, 'tn': 160.0, 'tot': 9.00000001, 'eval': {'textcat_p': 0.0, 'textcat_r': 0.0, 'textcat_f': 0}}}",24
25,"{'performance': {'tp': 6.0, 'fp': 1e-08, 'fn': 2.00000001, 'tn': 161.0, 'tot': 8.00000001, 'eval': {'textcat_p': 0.9999999983333333, 'textcat_r': 0.7499999990624999, 'textcat_f': 0.8571428559183673}}, 'compatibility': {'tp': 21.0, 'fp': 11.00000001, 'fn': 13.00000001, 'tn': 124.0, 'tot': 34.00000001, 'eval': {'textcat_p': 0.6562499997949218, 'textcat_r': 0.6176470586418685, 'textcat_f': 0.6363636361707989}}, 'usability': {'tp': 3.0, 'fp': 2.00000001, 'fn': 15.00000001, 'tn': 149.0, 'tot': 18.00000001, 'eval': {'textcat_p': 0.5999999988, 'textcat_r': 0.16666666657407406, 'textcat_f': 0.2608695649905482}}, 'reliability': {'tp': 0.0, 'fp': 1e-08, 'fn': 5.00000001, 'tn': 164.0, 'tot': 5.00000001, 'eval': {'textcat_p': 0.0, 'textcat_r': 0.0, 'textcat_f': 0}}, 'security': {'tp': 8.0, 'fp': 2.00000001, 'fn': 9.00000001, 'tn': 150.0, 'tot': 17.00000001, 'eval': {'textcat_p': 0.7999999992, 'textcat_r': 0.470588235017301, 'textcat_f': 0.5925925921536351}}, 'maintainability': {'tp': 8.0, 'fp': 1e-08, 'fn': 9.00000001, 'tn': 152.0, 'tot': 17.00000001, 'eval': {'textcat_p': 0.9999999987499999, 'textcat_r': 0.470588235017301, 'textcat_f': 0.639999999488}}, 'portability': {'tp': 2.0, 'fp': 1e-08, 'fn': 7.00000001, 'tn': 160.0, 'tot': 9.00000001, 'eval': {'textcat_p': 0.999999995, 'textcat_r': 0.2222222219753086, 'textcat_f': 0.3636363629752066}}}",25
26,"{'performance': {'tp': 6.0, 'fp': 1e-08, 'fn': 2.00000001, 'tn': 161.0, 'tot': 8.00000001, 'eval': {'textcat_p': 0.9999999983333333, 'textcat_r': 0.7499999990624999, 'textcat_f': 0.8571428559183673}}, 'compatibility': {'tp': 22.0, 'fp': 12.00000001, 'fn': 12.00000001, 'tn': 123.0, 'tot': 34.00000001, 'eval': {'textcat_p': 0.6470588233391004, 'textcat_r': 0.6470588233391004, 'textcat_f': 0.6470588233391004}}, 'usability': {'tp': 3.0, 'fp': 2.00000001, 'fn': 15.00000001, 'tn': 149.0, 'tot': 18.00000001, 'eval': {'textcat_p': 0.5999999988, 'textcat_r': 0.16666666657407406, 'textcat_f': 0.2608695649905482}}, 'reliability': {'tp': 0.0, 'fp': 1e-08, 'fn': 5.00000001, 'tn': 164.0, 'tot': 5.00000001, 'eval': {'textcat_p': 0.0, 'textcat_r': 0.0, 'textcat_f': 0}}, 'security': {'tp': 9.0, 'fp': 2.00000001, 'fn': 8.00000001, 'tn': 150.0, 'tot': 17.00000001, 'eval': {'textcat_p': 0.8181818174380164, 'textcat_r': 0.5294117643944637, 'textcat_f': 0.6428571423979591}}, 'maintainability': {'tp': 7.0, 'fp': 1e-08, 'fn': 10.00000001, 'tn': 152.0, 'tot': 17.00000001, 'eval': {'textcat_p': 0.9999999985714286, 'textcat_r': 0.4117647056401384, 'textcat_f': 0.5833333328472221}}, 'portability': {'tp': 2.0, 'fp': 1e-08, 'fn': 7.00000001, 'tn': 160.0, 'tot': 9.00000001, 'eval': {'textcat_p': 0.999999995, 'textcat_r': 0.2222222219753086, 'textcat_f': 0.3636363629752066}}}",26
27,"{'performance': {'tp': 6.0, 'fp': 1e-08, 'fn': 2.00000001, 'tn': 161.0, 'tot': 8.00000001, 'eval': {'textcat_p': 0.9999999983333333, 'textcat_r': 0.7499999990624999, 'textcat_f': 0.8571428559183673}}, 'compatibility': {'tp': 21.0, 'fp': 12.00000001, 'fn': 13.00000001, 'tn': 123.0, 'tot': 34.00000001, 'eval': {'textcat_p': 0.6363636361707988, 'textcat_r': 0.6176470586418685, 'textcat_f': 0.6268656714546669}}, 'usability': {'tp': 3.0, 'fp': 2.00000001, 'fn': 15.00000001, 'tn': 149.0, 'tot': 18.00000001, 'eval': {'textcat_p': 0.5999999988, 'textcat_r': 0.16666666657407406, 'textcat_f': 0.2608695649905482}}, 'reliability': {'tp': 0.0, 'fp': 1e-08, 'fn': 5.00000001, 'tn': 164.0, 'tot': 5.00000001, 'eval': {'textcat_p': 0.0, 'textcat_r': 0.0, 'textcat_f': 0}}, 'security': {'tp': 9.0, 'fp': 2.00000001, 'fn': 8.00000001, 'tn': 150.0, 'tot': 17.00000001, 'eval': {'textcat_p': 0.8181818174380164, 'textcat_r': 0.5294117643944637, 'textcat_f': 0.6428571423979591}}, 'maintainability': {'tp': 8.0, 'fp': 1e-08, 'fn': 9.00000001, 'tn': 152.0, 'tot': 17.00000001, 'eval': {'textcat_p': 0.9999999987499999, 'textcat_r': 0.470588235017301, 'textcat_f': 0.639999999488}}, 'portability': {'tp': 2.0, 'fp': 1e-08, 'fn': 7.00000001, 'tn': 160.0, 'tot': 9.00000001, 'eval': {'textcat_p': 0.999999995, 'textcat_r': 0.2222222219753086, 'textcat_f': 0.3636363629752066}}}",27
28,"{'performance': {'tp': 6.0, 'fp': 1e-08, 'fn': 2.00000001, 'tn': 161.0, 'tot': 8.00000001, 'eval': {'textcat_p': 0.9999999983333333, 'textcat_r': 0.7499999990624999, 'textcat_f': 0.8571428559183673}}, 'compatibility': {'tp': 21.0, 'fp': 11.00000001, 'fn': 13.00000001, 'tn': 124.0, 'tot': 34.00000001, 'eval': {'textcat_p': 0.6562499997949218, 'textcat_r': 0.6176470586418685, 'textcat_f': 0.6363636361707989}}, 'usability': {'tp': 3.0, 'fp': 2.00000001, 'fn': 15.00000001, 'tn': 149.0, 'tot': 18.00000001, 'eval': {'textcat_p': 0.5999999988, 'textcat_r': 0.16666666657407406, 'textcat_f': 0.2608695649905482}}, 'reliability': {'tp': 0.0, 'fp': 1e-08, 'fn': 5.00000001, 'tn': 164.0, 'tot': 5.00000001, 'eval': {'textcat_p': 0.0, 'textcat_r': 0.0, 'textcat_f': 0}}, 'security': {'tp': 9.0, 'fp': 4.00000001, 'fn': 8.00000001, 'tn': 148.0, 'tot': 17.00000001, 'eval': {'textcat_p': 0.6923076917751478, 'textcat_r': 0.5294117643944637, 'textcat_f': 0.5999999996}}, 'maintainability': {'tp': 8.0, 'fp': 1e-08, 'fn': 9.00000001, 'tn': 152.0, 'tot': 17.00000001, 'eval': {'textcat_p': 0.9999999987499999, 'textcat_r': 0.470588235017301, 'textcat_f': 0.639999999488}}, 'portability': {'tp': 2.0, 'fp': 1e-08, 'fn': 7.00000001, 'tn': 160.0, 'tot': 9.00000001, 'eval': {'textcat_p': 0.999999995, 'textcat_r': 0.2222222219753086, 'textcat_f': 0.3636363629752066}}}",28
29,"{'performance': {'tp': 6.0, 'fp': 1e-08, 'fn': 2.00000001, 'tn': 161.0, 'tot': 8.00000001, 'eval': {'textcat_p': 0.9999999983333333, 'textcat_r': 0.7499999990624999, 'textcat_f': 0.8571428559183673}}, 'compatibility': {'tp': 21.0, 'fp': 11.00000001, 'fn': 13.00000001, 'tn': 124.0, 'tot': 34.00000001, 'eval': {'textcat_p': 0.6562499997949218, 'textcat_r': 0.6176470586418685, 'textcat_f': 0.6363636361707989}}, 'usability': {'tp': 3.0, 'fp': 2.00000001, 'fn': 15.00000001, 'tn': 149.0, 'tot': 18.00000001, 'eval': {'textcat_p': 0.5999999988, 'textcat_r': 0.16666666657407406, 'textcat_f': 0.2608695649905482}}, 'reliability': {'tp': 0.0, 'fp': 1e-08, 'fn': 5.00000001, 'tn': 164.0, 'tot': 5.00000001, 'eval': {'textcat_p': 0.0, 'textcat_r': 0.0, 'textcat_f': 0}}, 'security': {'tp': 11.0, 'fp': 4.00000001, 'fn': 6.00000001, 'tn': 148.0, 'tot': 17.00000001, 'eval': {'textcat_p': 0.7333333328444444, 'textcat_r': 0.6470588231487889, 'textcat_f': 0.6874999995703124}}, 'maintainability': {'tp': 7.0, 'fp': 1e-08, 'fn': 10.00000001, 'tn': 152.0, 'tot': 17.00000001, 'eval': {'textcat_p': 0.9999999985714286, 'textcat_r': 0.4117647056401384, 'textcat_f': 0.5833333328472221}}, 'portability': {'tp': 2.0, 'fp': 1e-08, 'fn': 7.00000001, 'tn': 160.0, 'tot': 9.00000001, 'eval': {'textcat_p': 0.999999995, 'textcat_r': 0.2222222219753086, 'textcat_f': 0.3636363629752066}}}",29
30,"{'performance': {'tp': 6.0, 'fp': 1e-08, 'fn': 2.00000001, 'tn': 161.0, 'tot': 8.00000001, 'eval': {'textcat_p': 0.9999999983333333, 'textcat_r': 0.7499999990624999, 'textcat_f': 0.8571428559183673}}, 'compatibility': {'tp': 20.0, 'fp': 11.00000001, 'fn': 14.00000001, 'tn': 124.0, 'tot': 34.00000001, 'eval': {'textcat_p': 0.6451612901144641, 'textcat_r': 0.5882352939446367, 'textcat_f': 0.6153846151952662}}, 'usability': {'tp': 3.0, 'fp': 2.00000001, 'fn': 15.00000001, 'tn': 149.0, 'tot': 18.00000001, 'eval': {'textcat_p': 0.5999999988, 'textcat_r': 0.16666666657407406, 'textcat_f': 0.2608695649905482}}, 'reliability': {'tp': 0.0, 'fp': 1e-08, 'fn': 5.00000001, 'tn': 164.0, 'tot': 5.00000001, 'eval': {'textcat_p': 0.0, 'textcat_r': 0.0, 'textcat_f': 0}}, 'security': {'tp': 11.0, 'fp': 3.00000001, 'fn': 6.00000001, 'tn': 149.0, 'tot': 17.00000001, 'eval': {'textcat_p': 0.7857142851530612, 'textcat_r': 0.6470588231487889, 'textcat_f': 0.7096774188969822}}, 'maintainability': {'tp': 7.0, 'fp': 1e-08, 'fn': 10.00000001, 'tn': 152.0, 'tot': 17.00000001, 'eval': {'textcat_p': 0.9999999985714286, 'textcat_r': 0.4117647056401384, 'textcat_f': 0.5833333328472221}}, 'portability': {'tp': 2.0, 'fp': 1e-08, 'fn': 7.00000001, 'tn': 160.0, 'tot': 9.00000001, 'eval': {'textcat_p': 0.999999995, 'textcat_r': 0.2222222219753086, 'textcat_f': 0.3636363629752066}}}",30
31,"{'performance': {'tp': 6.0, 'fp': 1e-08, 'fn': 2.00000001, 'tn': 161.0, 'tot': 8.00000001, 'eval': {'textcat_p': 0.9999999983333333, 'textcat_r': 0.7499999990624999, 'textcat_f': 0.8571428559183673}}, 'compatibility': {'tp': 21.0, 'fp': 11.00000001, 'fn': 13.00000001, 'tn': 124.0, 'tot': 34.00000001, 'eval': {'textcat_p': 0.6562499997949218, 'textcat_r': 0.6176470586418685, 'textcat_f': 0.6363636361707989}}, 'usability': {'tp': 3.0, 'fp': 2.00000001, 'fn': 15.00000001, 'tn': 149.0, 'tot': 18.00000001, 'eval': {'textcat_p': 0.5999999988, 'textcat_r': 0.16666666657407406, 'textcat_f': 0.2608695649905482}}, 'reliability': {'tp': 0.0, 'fp': 1e-08, 'fn': 5.00000001, 'tn': 164.0, 'tot': 5.00000001, 'eval': {'textcat_p': 0.0, 'textcat_r': 0.0, 'textcat_f': 0}}, 'security': {'tp': 11.0, 'fp': 4.00000001, 'fn': 6.00000001, 'tn': 148.0, 'tot': 17.00000001, 'eval': {'textcat_p': 0.7333333328444444, 'textcat_r': 0.6470588231487889, 'textcat_f': 0.6874999995703124}}, 'maintainability': {'tp': 7.0, 'fp': 1e-08, 'fn': 10.00000001, 'tn': 152.0, 'tot': 17.00000001, 'eval': {'textcat_p': 0.9999999985714286, 'textcat_r': 0.4117647056401384, 'textcat_f': 0.5833333328472221}}, 'portability': {'tp': 2.0, 'fp': 1e-08, 'fn': 7.00000001, 'tn': 160.0, 'tot': 9.00000001, 'eval': {'textcat_p': 0.999999995, 'textcat_r': 0.2222222219753086, 'textcat_f': 0.3636363629752066}}}",31
32,"{'performance': {'tp': 6.0, 'fp': 1e-08, 'fn': 2.00000001, 'tn': 161.0, 'tot': 8.00000001, 'eval': {'textcat_p': 0.9999999983333333, 'textcat_r': 0.7499999990624999, 'textcat_f': 0.8571428559183673}}, 'compatibility': {'tp': 21.0, 'fp': 11.00000001, 'fn': 13.00000001, 'tn': 124.0, 'tot': 34.00000001, 'eval': {'textcat_p': 0.6562499997949218, 'textcat_r': 0.6176470586418685, 'textcat_f': 0.6363636361707989}}, 'usability': {'tp': 3.0, 'fp': 2.00000001, 'fn': 15.00000001, 'tn': 149.0, 'tot': 18.00000001, 'eval': {'textcat_p': 0.5999999988, 'textcat_r': 0.16666666657407406, 'textcat_f': 0.2608695649905482}}, 'reliability': {'tp': 0.0, 'fp': 1e-08, 'fn': 5.00000001, 'tn': 164.0, 'tot': 5.00000001, 'eval': {'textcat_p': 0.0, 'textcat_r': 0.0, 'textcat_f': 0}}, 'security': {'tp': 10.0, 'fp': 3.00000001, 'fn': 7.00000001, 'tn': 149.0, 'tot': 17.00000001, 'eval': {'textcat_p': 0.7692307686390532, 'textcat_r': 0.5882352937716263, 'textcat_f': 0.6666666662222223}}, 'maintainability': {'tp': 7.0, 'fp': 1e-08, 'fn': 10.00000001, 'tn': 152.0, 'tot': 17.00000001, 'eval': {'textcat_p': 0.9999999985714286, 'textcat_r': 0.4117647056401384, 'textcat_f': 0.5833333328472221}}, 'portability': {'tp': 3.0, 'fp': 1e-08, 'fn': 6.00000001, 'tn': 160.0, 'tot': 9.00000001, 'eval': {'textcat_p': 0.9999999966666667, 'textcat_r': 0.3333333329629629, 'textcat_f': 0.4999999991666666}}}",32
33,"{'performance': {'tp': 6.0, 'fp': 1e-08, 'fn': 2.00000001, 'tn': 161.0, 'tot': 8.00000001, 'eval': {'textcat_p': 0.9999999983333333, 'textcat_r': 0.7499999990624999, 'textcat_f': 0.8571428559183673}}, 'compatibility': {'tp': 21.0, 'fp': 11.00000001, 'fn': 13.00000001, 'tn': 124.0, 'tot': 34.00000001, 'eval': {'textcat_p': 0.6562499997949218, 'textcat_r': 0.6176470586418685, 'textcat_f': 0.6363636361707989}}, 'usability': {'tp': 3.0, 'fp': 2.00000001, 'fn': 15.00000001, 'tn': 149.0, 'tot': 18.00000001, 'eval': {'textcat_p': 0.5999999988, 'textcat_r': 0.16666666657407406, 'textcat_f': 0.2608695649905482}}, 'reliability': {'tp': 0.0, 'fp': 1e-08, 'fn': 5.00000001, 'tn': 164.0, 'tot': 5.00000001, 'eval': {'textcat_p': 0.0, 'textcat_r': 0.0, 'textcat_f': 0}}, 'security': {'tp': 10.0, 'fp': 4.00000001, 'fn': 7.00000001, 'tn': 148.0, 'tot': 17.00000001, 'eval': {'textcat_p': 0.7142857137755102, 'textcat_r': 0.5882352937716263, 'textcat_f': 0.6451612899063476}}, 'maintainability': {'tp': 7.0, 'fp': 1e-08, 'fn': 10.00000001, 'tn': 152.0, 'tot': 17.00000001, 'eval': {'textcat_p': 0.9999999985714286, 'textcat_r': 0.4117647056401384, 'textcat_f': 0.5833333328472221}}, 'portability': {'tp': 3.0, 'fp': 1e-08, 'fn': 6.00000001, 'tn': 160.0, 'tot': 9.00000001, 'eval': {'textcat_p': 0.9999999966666667, 'textcat_r': 0.3333333329629629, 'textcat_f': 0.4999999991666666}}}",33
34,"{'performance': {'tp': 6.0, 'fp': 1e-08, 'fn': 2.00000001, 'tn': 161.0, 'tot': 8.00000001, 'eval': {'textcat_p': 0.9999999983333333, 'textcat_r': 0.7499999990624999, 'textcat_f': 0.8571428559183673}}, 'compatibility': {'tp': 21.0, 'fp': 10.00000001, 'fn': 13.00000001, 'tn': 125.0, 'tot': 34.00000001, 'eval': {'textcat_p': 0.6774193546201873, 'textcat_r': 0.6176470586418685, 'textcat_f': 0.6461538459550296}}, 'usability': {'tp': 3.0, 'fp': 2.00000001, 'fn': 15.00000001, 'tn': 149.0, 'tot': 18.00000001, 'eval': {'textcat_p': 0.5999999988, 'textcat_r': 0.16666666657407406, 'textcat_f': 0.2608695649905482}}, 'reliability': {'tp': 0.0, 'fp': 1e-08, 'fn': 5.00000001, 'tn': 164.0, 'tot': 5.00000001, 'eval': {'textcat_p': 0.0, 'textcat_r': 0.0, 'textcat_f': 0}}, 'security': {'tp': 10.0, 'fp': 4.00000001, 'fn': 7.00000001, 'tn': 148.0, 'tot': 17.00000001, 'eval': {'textcat_p': 0.7142857137755102, 'textcat_r': 0.5882352937716263, 'textcat_f': 0.6451612899063476}}, 'maintainability': {'tp': 7.0, 'fp': 1e-08, 'fn': 10.00000001, 'tn': 152.0, 'tot': 17.00000001, 'eval': {'textcat_p': 0.9999999985714286, 'textcat_r': 0.4117647056401384, 'textcat_f': 0.5833333328472221}}, 'portability': {'tp': 3.0, 'fp': 1e-08, 'fn': 6.00000001, 'tn': 160.0, 'tot': 9.00000001, 'eval': {'textcat_p': 0.9999999966666667, 'textcat_r': 0.3333333329629629, 'textcat_f': 0.4999999991666666}}}",34
35,"{'performance': {'tp': 6.0, 'fp': 1e-08, 'fn': 2.00000001, 'tn': 161.0, 'tot': 8.00000001, 'eval': {'textcat_p': 0.9999999983333333, 'textcat_r': 0.7499999990624999, 'textcat_f': 0.8571428559183673}}, 'compatibility': {'tp': 22.0, 'fp': 10.00000001, 'fn': 12.00000001, 'tn': 125.0, 'tot': 34.00000001, 'eval': {'textcat_p': 0.6874999997851562, 'textcat_r': 0.6470588233391004, 'textcat_f': 0.6666666664646465}}, 'usability': {'tp': 3.0, 'fp': 3.00000001, 'fn': 15.00000001, 'tn': 148.0, 'tot': 18.00000001, 'eval': {'textcat_p': 0.49999999916666665, 'textcat_r': 0.16666666657407406, 'textcat_f': 0.24999999979166665}}, 'reliability': {'tp': 0.0, 'fp': 1e-08, 'fn': 5.00000001, 'tn': 164.0, 'tot': 5.00000001, 'eval': {'textcat_p': 0.0, 'textcat_r': 0.0, 'textcat_f': 0}}, 'security': {'tp': 10.0, 'fp': 4.00000001, 'fn': 7.00000001, 'tn': 148.0, 'tot': 17.00000001, 'eval': {'textcat_p': 0.7142857137755102, 'textcat_r': 0.5882352937716263, 'textcat_f': 0.6451612899063476}}, 'maintainability': {'tp': 7.0, 'fp': 1e-08, 'fn': 10.00000001, 'tn': 152.0, 'tot': 17.00000001, 'eval': {'textcat_p': 0.9999999985714286, 'textcat_r': 0.4117647056401384, 'textcat_f': 0.5833333328472221}}, 'portability': {'tp': 3.0, 'fp': 1.00000001, 'fn': 6.00000001, 'tn': 159.0, 'tot': 9.00000001, 'eval': {'textcat_p': 0.7499999981250001, 'textcat_r': 0.3333333329629629, 'textcat_f': 0.46153846082840233}}}",35
36,"{'performance': {'tp': 6.0, 'fp': 1e-08, 'fn': 2.00000001, 'tn': 161.0, 'tot': 8.00000001, 'eval': {'textcat_p': 0.9999999983333333, 'textcat_r': 0.7499999990624999, 'textcat_f': 0.8571428559183673}}, 'compatibility': {'tp': 22.0, 'fp': 11.00000001, 'fn': 12.00000001, 'tn': 124.0, 'tot': 34.00000001, 'eval': {'textcat_p': 0.6666666664646465, 'textcat_r': 0.6470588233391004, 'textcat_f': 0.6567164177144131}}, 'usability': {'tp': 3.0, 'fp': 3.00000001, 'fn': 15.00000001, 'tn': 148.0, 'tot': 18.00000001, 'eval': {'textcat_p': 0.49999999916666665, 'textcat_r': 0.16666666657407406, 'textcat_f': 0.24999999979166665}}, 'reliability': {'tp': 0.0, 'fp': 1e-08, 'fn': 5.00000001, 'tn': 164.0, 'tot': 5.00000001, 'eval': {'textcat_p': 0.0, 'textcat_r': 0.0, 'textcat_f': 0}}, 'security': {'tp': 10.0, 'fp': 4.00000001, 'fn': 7.00000001, 'tn': 148.0, 'tot': 17.00000001, 'eval': {'textcat_p': 0.7142857137755102, 'textcat_r': 0.5882352937716263, 'textcat_f': 0.6451612899063476}}, 'maintainability': {'tp': 7.0, 'fp': 1e-08, 'fn': 10.00000001, 'tn': 152.0, 'tot': 17.00000001, 'eval': {'textcat_p': 0.9999999985714286, 'textcat_r': 0.4117647056401384, 'textcat_f': 0.5833333328472221}}, 'portability': {'tp': 3.0, 'fp': 1.00000001, 'fn': 6.00000001, 'tn': 159.0, 'tot': 9.00000001, 'eval': {'textcat_p': 0.7499999981250001, 'textcat_r': 0.3333333329629629, 'textcat_f': 0.46153846082840233}}}",36
37,"{'performance': {'tp': 6.0, 'fp': 1e-08, 'fn': 2.00000001, 'tn': 161.0, 'tot': 8.00000001, 'eval': {'textcat_p': 0.9999999983333333, 'textcat_r': 0.7499999990624999, 'textcat_f': 0.8571428559183673}}, 'compatibility': {'tp': 22.0, 'fp': 10.00000001, 'fn': 12.00000001, 'tn': 125.0, 'tot': 34.00000001, 'eval': {'textcat_p': 0.6874999997851562, 'textcat_r': 0.6470588233391004, 'textcat_f': 0.6666666664646465}}, 'usability': {'tp': 3.0, 'fp': 3.00000001, 'fn': 15.00000001, 'tn': 148.0, 'tot': 18.00000001, 'eval': {'textcat_p': 0.49999999916666665, 'textcat_r': 0.16666666657407406, 'textcat_f': 0.24999999979166665}}, 'reliability': {'tp': 0.0, 'fp': 1e-08, 'fn': 5.00000001, 'tn': 164.0, 'tot': 5.00000001, 'eval': {'textcat_p': 0.0, 'textcat_r': 0.0, 'textcat_f': 0}}, 'security': {'tp': 10.0, 'fp': 4.00000001, 'fn': 7.00000001, 'tn': 148.0, 'tot': 17.00000001, 'eval': {'textcat_p': 0.7142857137755102, 'textcat_r': 0.5882352937716263, 'textcat_f': 0.6451612899063476}}, 'maintainability': {'tp': 7.0, 'fp': 1e-08, 'fn': 10.00000001, 'tn': 152.0, 'tot': 17.00000001, 'eval': {'textcat_p': 0.9999999985714286, 'textcat_r': 0.4117647056401384, 'textcat_f': 0.5833333328472221}}, 'portability': {'tp': 3.0, 'fp': 1.00000001, 'fn': 6.00000001, 'tn': 159.0, 'tot': 9.00000001, 'eval': {'textcat_p': 0.7499999981250001, 'textcat_r': 0.3333333329629629, 'textcat_f': 0.46153846082840233}}}",37
38,"{'performance': {'tp': 6.0, 'fp': 1e-08, 'fn': 2.00000001, 'tn': 161.0, 'tot': 8.00000001, 'eval': {'textcat_p': 0.9999999983333333, 'textcat_r': 0.7499999990624999, 'textcat_f': 0.8571428559183673}}, 'compatibility': {'tp': 22.0, 'fp': 9.00000001, 'fn': 12.00000001, 'tn': 126.0, 'tot': 34.00000001, 'eval': {'textcat_p': 0.7096774191259105, 'textcat_r': 0.6470588233391004, 'textcat_f': 0.6769230767147929}}, 'usability': {'tp': 3.0, 'fp': 3.00000001, 'fn': 15.00000001, 'tn': 148.0, 'tot': 18.00000001, 'eval': {'textcat_p': 0.49999999916666665, 'textcat_r': 0.16666666657407406, 'textcat_f': 0.24999999979166665}}, 'reliability': {'tp': 0.0, 'fp': 1e-08, 'fn': 5.00000001, 'tn': 164.0, 'tot': 5.00000001, 'eval': {'textcat_p': 0.0, 'textcat_r': 0.0, 'textcat_f': 0}}, 'security': {'tp': 10.0, 'fp': 4.00000001, 'fn': 7.00000001, 'tn': 148.0, 'tot': 17.00000001, 'eval': {'textcat_p': 0.7142857137755102, 'textcat_r': 0.5882352937716263, 'textcat_f': 0.6451612899063476}}, 'maintainability': {'tp': 7.0, 'fp': 1e-08, 'fn': 10.00000001, 'tn': 152.0, 'tot': 17.00000001, 'eval': {'textcat_p': 0.9999999985714286, 'textcat_r': 0.4117647056401384, 'textcat_f': 0.5833333328472221}}, 'portability': {'tp': 3.0, 'fp': 2.00000001, 'fn': 6.00000001, 'tn': 158.0, 'tot': 9.00000001, 'eval': {'textcat_p': 0.5999999988, 'textcat_r': 0.3333333329629629, 'textcat_f': 0.4285714279591836}}}",38
39,"{'performance': {'tp': 6.0, 'fp': 1e-08, 'fn': 2.00000001, 'tn': 161.0, 'tot': 8.00000001, 'eval': {'textcat_p': 0.9999999983333333, 'textcat_r': 0.7499999990624999, 'textcat_f': 0.8571428559183673}}, 'compatibility': {'tp': 22.0, 'fp': 10.00000001, 'fn': 12.00000001, 'tn': 125.0, 'tot': 34.00000001, 'eval': {'textcat_p': 0.6874999997851562, 'textcat_r': 0.6470588233391004, 'textcat_f': 0.6666666664646465}}, 'usability': {'tp': 3.0, 'fp': 3.00000001, 'fn': 15.00000001, 'tn': 148.0, 'tot': 18.00000001, 'eval': {'textcat_p': 0.49999999916666665, 'textcat_r': 0.16666666657407406, 'textcat_f': 0.24999999979166665}}, 'reliability': {'tp': 0.0, 'fp': 1e-08, 'fn': 5.00000001, 'tn': 164.0, 'tot': 5.00000001, 'eval': {'textcat_p': 0.0, 'textcat_r': 0.0, 'textcat_f': 0}}, 'security': {'tp': 10.0, 'fp': 4.00000001, 'fn': 7.00000001, 'tn': 148.0, 'tot': 17.00000001, 'eval': {'textcat_p': 0.7142857137755102, 'textcat_r': 0.5882352937716263, 'textcat_f': 0.6451612899063476}}, 'maintainability': {'tp': 7.0, 'fp': 1e-08, 'fn': 10.00000001, 'tn': 152.0, 'tot': 17.00000001, 'eval': {'textcat_p': 0.9999999985714286, 'textcat_r': 0.4117647056401384, 'textcat_f': 0.5833333328472221}}, 'portability': {'tp': 3.0, 'fp': 2.00000001, 'fn': 6.00000001, 'tn': 158.0, 'tot': 9.00000001, 'eval': {'textcat_p': 0.5999999988, 'textcat_r': 0.3333333329629629, 'textcat_f': 0.4285714279591836}}}",39
40,"{'performance': {'tp': 6.0, 'fp': 1e-08, 'fn': 2.00000001, 'tn': 161.0, 'tot': 8.00000001, 'eval': {'textcat_p': 0.9999999983333333, 'textcat_r': 0.7499999990624999, 'textcat_f': 0.8571428559183673}}, 'compatibility': {'tp': 22.0, 'fp': 7.00000001, 'fn': 12.00000001, 'tn': 128.0, 'tot': 34.00000001, 'eval': {'textcat_p': 0.7586206893935791, 'textcat_r': 0.6470588233391004, 'textcat_f': 0.6984126981909801}}, 'usability': {'tp': 3.0, 'fp': 3.00000001, 'fn': 15.00000001, 'tn': 148.0, 'tot': 18.00000001, 'eval': {'textcat_p': 0.49999999916666665, 'textcat_r': 0.16666666657407406, 'textcat_f': 0.24999999979166665}}, 'reliability': {'tp': 0.0, 'fp': 1e-08, 'fn': 5.00000001, 'tn': 164.0, 'tot': 5.00000001, 'eval': {'textcat_p': 0.0, 'textcat_r': 0.0, 'textcat_f': 0}}, 'security': {'tp': 10.0, 'fp': 4.00000001, 'fn': 7.00000001, 'tn': 148.0, 'tot': 17.00000001, 'eval': {'textcat_p': 0.7142857137755102, 'textcat_r': 0.5882352937716263, 'textcat_f': 0.6451612899063476}}, 'maintainability': {'tp': 7.0, 'fp': 1e-08, 'fn': 10.00000001, 'tn': 152.0, 'tot': 17.00000001, 'eval': {'textcat_p': 0.9999999985714286, 'textcat_r': 0.4117647056401384, 'textcat_f': 0.5833333328472221}}, 'portability': {'tp': 3.0, 'fp': 2.00000001, 'fn': 6.00000001, 'tn': 158.0, 'tot': 9.00000001, 'eval': {'textcat_p': 0.5999999988, 'textcat_r': 0.3333333329629629, 'textcat_f': 0.4285714279591836}}}",40
41,"{'performance': {'tp': 6.0, 'fp': 1e-08, 'fn': 2.00000001, 'tn': 161.0, 'tot': 8.00000001, 'eval': {'textcat_p': 0.9999999983333333, 'textcat_r': 0.7499999990624999, 'textcat_f': 0.8571428559183673}}, 'compatibility': {'tp': 22.0, 'fp': 11.00000001, 'fn': 12.00000001, 'tn': 124.0, 'tot': 34.00000001, 'eval': {'textcat_p': 0.6666666664646465, 'textcat_r': 0.6470588233391004, 'textcat_f': 0.6567164177144131}}, 'usability': {'tp': 3.0, 'fp': 3.00000001, 'fn': 15.00000001, 'tn': 148.0, 'tot': 18.00000001, 'eval': {'textcat_p': 0.49999999916666665, 'textcat_r': 0.16666666657407406, 'textcat_f': 0.24999999979166665}}, 'reliability': {'tp': 0.0, 'fp': 1e-08, 'fn': 5.00000001, 'tn': 164.0, 'tot': 5.00000001, 'eval': {'textcat_p': 0.0, 'textcat_r': 0.0, 'textcat_f': 0}}, 'security': {'tp': 10.0, 'fp': 4.00000001, 'fn': 7.00000001, 'tn': 148.0, 'tot': 17.00000001, 'eval': {'textcat_p': 0.7142857137755102, 'textcat_r': 0.5882352937716263, 'textcat_f': 0.6451612899063476}}, 'maintainability': {'tp': 7.0, 'fp': 1e-08, 'fn': 10.00000001, 'tn': 152.0, 'tot': 17.00000001, 'eval': {'textcat_p': 0.9999999985714286, 'textcat_r': 0.4117647056401384, 'textcat_f': 0.5833333328472221}}, 'portability': {'tp': 3.0, 'fp': 2.00000001, 'fn': 6.00000001, 'tn': 158.0, 'tot': 9.00000001, 'eval': {'textcat_p': 0.5999999988, 'textcat_r': 0.3333333329629629, 'textcat_f': 0.4285714279591836}}}",41
42,"{'performance': {'tp': 6.0, 'fp': 1e-08, 'fn': 2.00000001, 'tn': 161.0, 'tot': 8.00000001, 'eval': {'textcat_p': 0.9999999983333333, 'textcat_r': 0.7499999990624999, 'textcat_f': 0.8571428559183673}}, 'compatibility': {'tp': 22.0, 'fp': 9.00000001, 'fn': 12.00000001, 'tn': 126.0, 'tot': 34.00000001, 'eval': {'textcat_p': 0.7096774191259105, 'textcat_r': 0.6470588233391004, 'textcat_f': 0.6769230767147929}}, 'usability': {'tp': 3.0, 'fp': 3.00000001, 'fn': 15.00000001, 'tn': 148.0, 'tot': 18.00000001, 'eval': {'textcat_p': 0.49999999916666665, 'textcat_r': 0.16666666657407406, 'textcat_f': 0.24999999979166665}}, 'reliability': {'tp': 0.0, 'fp': 1e-08, 'fn': 5.00000001, 'tn': 164.0, 'tot': 5.00000001, 'eval': {'textcat_p': 0.0, 'textcat_r': 0.0, 'textcat_f': 0}}, 'security': {'tp': 10.0, 'fp': 4.00000001, 'fn': 7.00000001, 'tn': 148.0, 'tot': 17.00000001, 'eval': {'textcat_p': 0.7142857137755102, 'textcat_r': 0.5882352937716263, 'textcat_f': 0.6451612899063476}}, 'maintainability': {'tp': 7.0, 'fp': 1e-08, 'fn': 10.00000001, 'tn': 152.0, 'tot': 17.00000001, 'eval': {'textcat_p': 0.9999999985714286, 'textcat_r': 0.4117647056401384, 'textcat_f': 0.5833333328472221}}, 'portability': {'tp': 3.0, 'fp': 2.00000001, 'fn': 6.00000001, 'tn': 158.0, 'tot': 9.00000001, 'eval': {'textcat_p': 0.5999999988, 'textcat_r': 0.3333333329629629, 'textcat_f': 0.4285714279591836}}}",42
43,"{'performance': {'tp': 6.0, 'fp': 1e-08, 'fn': 2.00000001, 'tn': 161.0, 'tot': 8.00000001, 'eval': {'textcat_p': 0.9999999983333333, 'textcat_r': 0.7499999990624999, 'textcat_f': 0.8571428559183673}}, 'compatibility': {'tp': 22.0, 'fp': 9.00000001, 'fn': 12.00000001, 'tn': 126.0, 'tot': 34.00000001, 'eval': {'textcat_p': 0.7096774191259105, 'textcat_r': 0.6470588233391004, 'textcat_f': 0.6769230767147929}}, 'usability': {'tp': 3.0, 'fp': 3.00000001, 'fn': 15.00000001, 'tn': 148.0, 'tot': 18.00000001, 'eval': {'textcat_p': 0.49999999916666665, 'textcat_r': 0.16666666657407406, 'textcat_f': 0.24999999979166665}}, 'reliability': {'tp': 0.0, 'fp': 1e-08, 'fn': 5.00000001, 'tn': 164.0, 'tot': 5.00000001, 'eval': {'textcat_p': 0.0, 'textcat_r': 0.0, 'textcat_f': 0}}, 'security': {'tp': 9.0, 'fp': 4.00000001, 'fn': 8.00000001, 'tn': 148.0, 'tot': 17.00000001, 'eval': {'textcat_p': 0.6923076917751478, 'textcat_r': 0.5294117643944637, 'textcat_f': 0.5999999996}}, 'maintainability': {'tp': 7.0, 'fp': 1e-08, 'fn': 10.00000001, 'tn': 152.0, 'tot': 17.00000001, 'eval': {'textcat_p': 0.9999999985714286, 'textcat_r': 0.4117647056401384, 'textcat_f': 0.5833333328472221}}, 'portability': {'tp': 3.0, 'fp': 2.00000001, 'fn': 6.00000001, 'tn': 158.0, 'tot': 9.00000001, 'eval': {'textcat_p': 0.5999999988, 'textcat_r': 0.3333333329629629, 'textcat_f': 0.4285714279591836}}}",43
44,"{'performance': {'tp': 6.0, 'fp': 1e-08, 'fn': 2.00000001, 'tn': 161.0, 'tot': 8.00000001, 'eval': {'textcat_p': 0.9999999983333333, 'textcat_r': 0.7499999990624999, 'textcat_f': 0.8571428559183673}}, 'compatibility': {'tp': 22.0, 'fp': 9.00000001, 'fn': 12.00000001, 'tn': 126.0, 'tot': 34.00000001, 'eval': {'textcat_p': 0.7096774191259105, 'textcat_r': 0.6470588233391004, 'textcat_f': 0.6769230767147929}}, 'usability': {'tp': 3.0, 'fp': 3.00000001, 'fn': 15.00000001, 'tn': 148.0, 'tot': 18.00000001, 'eval': {'textcat_p': 0.49999999916666665, 'textcat_r': 0.16666666657407406, 'textcat_f': 0.24999999979166665}}, 'reliability': {'tp': 0.0, 'fp': 1e-08, 'fn': 5.00000001, 'tn': 164.0, 'tot': 5.00000001, 'eval': {'textcat_p': 0.0, 'textcat_r': 0.0, 'textcat_f': 0}}, 'security': {'tp': 9.0, 'fp': 4.00000001, 'fn': 8.00000001, 'tn': 148.0, 'tot': 17.00000001, 'eval': {'textcat_p': 0.6923076917751478, 'textcat_r': 0.5294117643944637, 'textcat_f': 0.5999999996}}, 'maintainability': {'tp': 7.0, 'fp': 1e-08, 'fn': 10.00000001, 'tn': 152.0, 'tot': 17.00000001, 'eval': {'textcat_p': 0.9999999985714286, 'textcat_r': 0.4117647056401384, 'textcat_f': 0.5833333328472221}}, 'portability': {'tp': 3.0, 'fp': 2.00000001, 'fn': 6.00000001, 'tn': 158.0, 'tot': 9.00000001, 'eval': {'textcat_p': 0.5999999988, 'textcat_r': 0.3333333329629629, 'textcat_f': 0.4285714279591836}}}",44
45,"{'performance': {'tp': 6.0, 'fp': 1e-08, 'fn': 2.00000001, 'tn': 161.0, 'tot': 8.00000001, 'eval': {'textcat_p': 0.9999999983333333, 'textcat_r': 0.7499999990624999, 'textcat_f': 0.8571428559183673}}, 'compatibility': {'tp': 22.0, 'fp': 8.00000001, 'fn': 12.00000001, 'tn': 127.0, 'tot': 34.00000001, 'eval': {'textcat_p': 0.7333333330888888, 'textcat_r': 0.6470588233391004, 'textcat_f': 0.6874999997851562}}, 'usability': {'tp': 3.0, 'fp': 3.00000001, 'fn': 15.00000001, 'tn': 148.0, 'tot': 18.00000001, 'eval': {'textcat_p': 0.49999999916666665, 'textcat_r': 0.16666666657407406, 'textcat_f': 0.24999999979166665}}, 'reliability': {'tp': 0.0, 'fp': 1e-08, 'fn': 5.00000001, 'tn': 164.0, 'tot': 5.00000001, 'eval': {'textcat_p': 0.0, 'textcat_r': 0.0, 'textcat_f': 0}}, 'security': {'tp': 9.0, 'fp': 4.00000001, 'fn': 8.00000001, 'tn': 148.0, 'tot': 17.00000001, 'eval': {'textcat_p': 0.6923076917751478, 'textcat_r': 0.5294117643944637, 'textcat_f': 0.5999999996}}, 'maintainability': {'tp': 7.0, 'fp': 1e-08, 'fn': 10.00000001, 'tn': 152.0, 'tot': 17.00000001, 'eval': {'textcat_p': 0.9999999985714286, 'textcat_r': 0.4117647056401384, 'textcat_f': 0.5833333328472221}}, 'portability': {'tp': 3.0, 'fp': 2.00000001, 'fn': 6.00000001, 'tn': 158.0, 'tot': 9.00000001, 'eval': {'textcat_p': 0.5999999988, 'textcat_r': 0.3333333329629629, 'textcat_f': 0.4285714279591836}}}",45
46,"{'performance': {'tp': 6.0, 'fp': 1e-08, 'fn': 2.00000001, 'tn': 161.0, 'tot': 8.00000001, 'eval': {'textcat_p': 0.9999999983333333, 'textcat_r': 0.7499999990624999, 'textcat_f': 0.8571428559183673}}, 'compatibility': {'tp': 22.0, 'fp': 8.00000001, 'fn': 12.00000001, 'tn': 127.0, 'tot': 34.00000001, 'eval': {'textcat_p': 0.7333333330888888, 'textcat_r': 0.6470588233391004, 'textcat_f': 0.6874999997851562}}, 'usability': {'tp': 3.0, 'fp': 3.00000001, 'fn': 15.00000001, 'tn': 148.0, 'tot': 18.00000001, 'eval': {'textcat_p': 0.49999999916666665, 'textcat_r': 0.16666666657407406, 'textcat_f': 0.24999999979166665}}, 'reliability': {'tp': 0.0, 'fp': 1e-08, 'fn': 5.00000001, 'tn': 164.0, 'tot': 5.00000001, 'eval': {'textcat_p': 0.0, 'textcat_r': 0.0, 'textcat_f': 0}}, 'security': {'tp': 9.0, 'fp': 4.00000001, 'fn': 8.00000001, 'tn': 148.0, 'tot': 17.00000001, 'eval': {'textcat_p': 0.6923076917751478, 'textcat_r': 0.5294117643944637, 'textcat_f': 0.5999999996}}, 'maintainability': {'tp': 7.0, 'fp': 1e-08, 'fn': 10.00000001, 'tn': 152.0, 'tot': 17.00000001, 'eval': {'textcat_p': 0.9999999985714286, 'textcat_r': 0.4117647056401384, 'textcat_f': 0.5833333328472221}}, 'portability': {'tp': 3.0, 'fp': 2.00000001, 'fn': 6.00000001, 'tn': 158.0, 'tot': 9.00000001, 'eval': {'textcat_p': 0.5999999988, 'textcat_r': 0.3333333329629629, 'textcat_f': 0.4285714279591836}}}",46
47,"{'performance': {'tp': 6.0, 'fp': 1e-08, 'fn': 2.00000001, 'tn': 161.0, 'tot': 8.00000001, 'eval': {'textcat_p': 0.9999999983333333, 'textcat_r': 0.7499999990624999, 'textcat_f': 0.8571428559183673}}, 'compatibility': {'tp': 22.0, 'fp': 8.00000001, 'fn': 12.00000001, 'tn': 127.0, 'tot': 34.00000001, 'eval': {'textcat_p': 0.7333333330888888, 'textcat_r': 0.6470588233391004, 'textcat_f': 0.6874999997851562}}, 'usability': {'tp': 4.0, 'fp': 3.00000001, 'fn': 14.00000001, 'tn': 148.0, 'tot': 18.00000001, 'eval': {'textcat_p': 0.571428570612245, 'textcat_r': 0.2222222220987654, 'textcat_f': 0.319999999744}}, 'reliability': {'tp': 0.0, 'fp': 1e-08, 'fn': 5.00000001, 'tn': 164.0, 'tot': 5.00000001, 'eval': {'textcat_p': 0.0, 'textcat_r': 0.0, 'textcat_f': 0}}, 'security': {'tp': 9.0, 'fp': 4.00000001, 'fn': 8.00000001, 'tn': 148.0, 'tot': 17.00000001, 'eval': {'textcat_p': 0.6923076917751478, 'textcat_r': 0.5294117643944637, 'textcat_f': 0.5999999996}}, 'maintainability': {'tp': 7.0, 'fp': 1e-08, 'fn': 10.00000001, 'tn': 152.0, 'tot': 17.00000001, 'eval': {'textcat_p': 0.9999999985714286, 'textcat_r': 0.4117647056401384, 'textcat_f': 0.5833333328472221}}, 'portability': {'tp': 3.0, 'fp': 2.00000001, 'fn': 6.00000001, 'tn': 158.0, 'tot': 9.00000001, 'eval': {'textcat_p': 0.5999999988, 'textcat_r': 0.3333333329629629, 'textcat_f': 0.4285714279591836}}}",47
48,"{'performance': {'tp': 6.0, 'fp': 1e-08, 'fn': 2.00000001, 'tn': 161.0, 'tot': 8.00000001, 'eval': {'textcat_p': 0.9999999983333333, 'textcat_r': 0.7499999990624999, 'textcat_f': 0.8571428559183673}}, 'compatibility': {'tp': 22.0, 'fp': 8.00000001, 'fn': 12.00000001, 'tn': 127.0, 'tot': 34.00000001, 'eval': {'textcat_p': 0.7333333330888888, 'textcat_r': 0.6470588233391004, 'textcat_f': 0.6874999997851562}}, 'usability': {'tp': 4.0, 'fp': 3.00000001, 'fn': 14.00000001, 'tn': 148.0, 'tot': 18.00000001, 'eval': {'textcat_p': 0.571428570612245, 'textcat_r': 0.2222222220987654, 'textcat_f': 0.319999999744}}, 'reliability': {'tp': 0.0, 'fp': 1e-08, 'fn': 5.00000001, 'tn': 164.0, 'tot': 5.00000001, 'eval': {'textcat_p': 0.0, 'textcat_r': 0.0, 'textcat_f': 0}}, 'security': {'tp': 9.0, 'fp': 4.00000001, 'fn': 8.00000001, 'tn': 148.0, 'tot': 17.00000001, 'eval': {'textcat_p': 0.6923076917751478, 'textcat_r': 0.5294117643944637, 'textcat_f': 0.5999999996}}, 'maintainability': {'tp': 7.0, 'fp': 1.00000001, 'fn': 10.00000001, 'tn': 151.0, 'tot': 17.00000001, 'eval': {'textcat_p': 0.8749999989062499, 'textcat_r': 0.4117647056401384, 'textcat_f': 0.5599999995519999}}, 'portability': {'tp': 3.0, 'fp': 1.00000001, 'fn': 6.00000001, 'tn': 159.0, 'tot': 9.00000001, 'eval': {'textcat_p': 0.7499999981250001, 'textcat_r': 0.3333333329629629, 'textcat_f': 0.46153846082840233}}}",48
49,"{'performance': {'tp': 6.0, 'fp': 1e-08, 'fn': 2.00000001, 'tn': 161.0, 'tot': 8.00000001, 'eval': {'textcat_p': 0.9999999983333333, 'textcat_r': 0.7499999990624999, 'textcat_f': 0.8571428559183673}}, 'compatibility': {'tp': 22.0, 'fp': 7.00000001, 'fn': 12.00000001, 'tn': 128.0, 'tot': 34.00000001, 'eval': {'textcat_p': 0.7586206893935791, 'textcat_r': 0.6470588233391004, 'textcat_f': 0.6984126981909801}}, 'usability': {'tp': 4.0, 'fp': 3.00000001, 'fn': 14.00000001, 'tn': 148.0, 'tot': 18.00000001, 'eval': {'textcat_p': 0.571428570612245, 'textcat_r': 0.2222222220987654, 'textcat_f': 0.319999999744}}, 'reliability': {'tp': 0.0, 'fp': 1e-08, 'fn': 5.00000001, 'tn': 164.0, 'tot': 5.00000001, 'eval': {'textcat_p': 0.0, 'textcat_r': 0.0, 'textcat_f': 0}}, 'security': {'tp': 9.0, 'fp': 5.00000001, 'fn': 8.00000001, 'tn': 147.0, 'tot': 17.00000001, 'eval': {'textcat_p': 0.6428571423979591, 'textcat_r': 0.5294117643944637, 'textcat_f': 0.5806451609157127}}, 'maintainability': {'tp': 7.0, 'fp': 1.00000001, 'fn': 10.00000001, 'tn': 151.0, 'tot': 17.00000001, 'eval': {'textcat_p': 0.8749999989062499, 'textcat_r': 0.4117647056401384, 'textcat_f': 0.5599999995519999}}, 'portability': {'tp': 3.0, 'fp': 1.00000001, 'fn': 6.00000001, 'tn': 159.0, 'tot': 9.00000001, 'eval': {'textcat_p': 0.7499999981250001, 'textcat_r': 0.3333333329629629, 'textcat_f': 0.46153846082840233}}}",49
