,US,pred,label
0,"As an UnivITservice, I want to be able to export all data to a different system, so that I am not tied into one system which may not be the most appropriate at some point in the future.",0.0013093537418171763,QA
1,"As a FABS user, I want additional helpful info in the submission dashboard, so that I can better manage submissions and IG requests.",5.528489054995589e-05,QA
2,"As an Archivist, I want to see Dates and Extents displayed in both the read and edit views for Accessions and/or Resources before the list of Subjects.",4.539787187241018e-05,QA
3,"As a user, I want access to content files that comprise an object.  ",4.539787187241018e-05,QA
4,"As an app developer, I want to share a dataset type that I had previously deployed as part of an app.",5.3265830501914024e-05,QA
5,"As a summit coordinator, I want to list an agenda for my summit, so that I can entice attendees and give positive feedback to presenters to encourage participation.",4.539787187241018e-05,QA
6,"As a developer, I want to be notified as soon as possible when the state of any of my Apps changes. ",4.539787187241018e-05,QA
7,"As a Publisher, I want to sign up for a given pricing plan, so that that I am entitled to what it allows.",4.539787187241018e-05,QA
8,"As an OlderPerson, I want to receive support to have a taxi on time. ",4.539787187241018e-05,QA
9,"As a camp worker, I'm able to report necessary repairs to the manager that the camp is needed of.",5.817464625579305e-05,QA
10,"As a repository manager, I want to indicate if the component has a copyright status different than that of of the object as a whole. ",4.539787187241018e-05,QA
11,"As a parent, I want to be able to see and edit my enrolled children to the camp year, so that I can know who I already enrolled to camp, who is still pending admission etc.",9.284955740440637e-05,QA
12,"As an admin, I want to filter and rank videos based on A/V quality aspects.",4.539787187241018e-05,QA
13,"As a site editor, I want to post information in a trainers-only section, so that only trainers see it.",4.539787187241018e-05,QA
14,"As a company accountant, I want to view all available activity fees online, so that I can easily create a bill statement.",4.539787187241018e-05,QA
15,"As an OlderPerson, I want to receive a message when my home care nurse is on her way. ",5.4560285207116976e-05,QA
16,"As a ResearcherGovernment Publisher, I want to add general reference data to my narrow dataset, so that my dataset is more useful. ",4.539787187241018e-05,QA
17,"As an archivist, I want to search index cards and other non-public finding aids, so that I can provide better research assistance.",4.539787187241018e-05,QA
18,"As a camp administrator, I want to be able to schedule tasks/activities for a specific camp group, so that I can track each groups daily/weekly and monthly activities.",4.539787187241018e-05,QA
19,"As a Cornell faculty member, I want to upload data and provide a cut and paste formatted citation for people who use it, so that I receive proper attribution for my work.",4.539787187241018e-05,QA
20,"As a JuniorResearcher,  I want to have the ability to harvest knowledge from within the group, so that I can learn from more experienced researchers.",0.0001704235328361392,QA
21,"As a site editor, I want to assign priority numbers to news items, so that I can indicate which articles I want featured most prominently on the site.",4.637832535081543e-05,QA
22,"As an asset manager, I want to be assured that the assets can be taken out of the repository, and that the assets taken out are the same as those that are put in.",4.539787187241018e-05,QA
23,"As a administrator, I want to assign a room to a time slot and a location, so that I can populate the schedule .",0.000147449056385085,QA
24,"As a user, I want to download multiple files from the search results in one go.",4.539787187241018e-05,QA
25,"As a repository manager, I want to indicate any external versions or descriptions of an object that may be of probable importance to an user.  ",4.539787187241018e-05,QA
26,"As an OlderPerson, I want to use ALFRED to send messages. ",8.866751886671409e-05,QA
27,"As a Broker user, I want to have updated error codes that accurately reflect the logic and provide enough information, so that I can fix my submission.",4.539787187241018e-05,QA
28,"As a Broker user, I want to Upload and Validate the error message to have accurate text.",7.423379429383203e-05,QA
29,"As a DAMS manager, I want to know when permitted and restricted acts and/or their active dates are modified.  ",0.00015201157657429576,QA
30,"As a Publisher, I want to publish a dataset, so that I can view just the dataset with a few people.",0.000167510675964877,QA
31,"As an NSF employee, I want to know how visual design directions were developed, so that I can make better design decisions in the future.",4.539787187241018e-05,QA
32,"As a DAMS manager, I want to know the agent(s) responsible for carrying out an event.  ",4.539787187241018e-05,QA
33,"As a user, I want to revert to an older version of an uploaded file.",0.00019829798839055002,QA
34,"As a repository manager, I want to register a name record for each unique identity associated with my repository's collections and objects ",5.158688509254716e-05,QA
35,"As a trainer, I want to copy one of my courses or events, so that I can create a new one.",4.539787187241018e-05,QA
36,"As an Owner, I want to design an audit from the UI SME, so that I know the potential scope of the UI improvements want ed.",4.539787187241018e-05,QA
37,"As a site admin, I want to edit and delete help wanted ads, so that I can correct small problems or make sure each ad complies with site guidelines.",4.539787187241018e-05,QA
38,"As an archivemanager, I want to reuse the information regarding file format, so that I can apply automated checks for the file validation.",4.539787187241018e-05,QA
39,"As a data manager, I want to have references to documentation of the data and its creation process, so that the data can be re-used and managed.",0.0006302791880443692,QA
40,"As a user, I want to scope my searches for collections, objects, or object components to a specific language. ",4.539787187241018e-05,QA
41,"As a researcher, I want to stream audio and video files in my web browser.",4.539787187241018e-05,QA
42,"As a user, I want to be able to browse through the list of facilities and see which ones are environment-friendly, so that I can know for sure my waste is not going to leave a negative ecological footprint.",4.539787187241018e-05,QA
43,"As a researcher, I want to indicate within my electronic log book which experimental data is good/bad, hide the bad data, but still keep it in the system just in case it is useful in the future.",4.539787187241018e-05,QA
44,"As an OlderPerson, I want to always keep control on the activities of ALFRED. ",0.00019958788470830768,QA
45,"As a Zooniverse admin, I want to know when I should interrupt a volunteer.",4.822780829272233e-05,QA
46,"As a MedicalCaregiver, I want to have videophone. ",5.118360058986582e-05,QA
47,"As a user, I want to access the raw agency published files from FABS via USAspending.",5.984459494356997e-05,QA
48,"As a user, I want to get info about similar video items and segments.",4.539787187241018e-05,QA
49,"As a authenticateduser, I want to update my user profile, so that I can connect with other Drupalists at BADCamp.",4.539787187241018e-05,QA
50,"As a team member, I want to have a prototype strategy, so that I understand how we will gain understandings from tests that will drive recommendations.",4.539787187241018e-05,QA
51,"As a Zooniverse admin,I want to know which piece of education I should give to a volunteer.",5.8314504713052884e-05,QA
52,"As a anonymoususer, I want to see a list of the sessions associated with sponsor attendees, so that I know where I can engage with this sponsor and where they are thought leaders.",4.539787187241018e-05,QA
53,"As an asset manager, I want to be assured that funding and staffing of the IR have a commitment to longevity of the repository through published plans and/or explicit contract clauses.",0.00018477188132237643,QA
54,"As an archivist, I want to automatically embed metadata in file headers, so that I avoid repetitive and easily-forgotten tasks.",4.539787187241018e-05,QA
55,"As a user, I want to walk around, access content using a geographical map and be informed if there are videos covering the area, monuments or any other relevant point of interest.",4.539787187241018e-05,QA
56,"As a Broker user, I want to submit records for individual recipients without receiving a DUNS error.",0.0007500887732021511,QA
57,"As a moderator, I want to delete an item from the list of items to be estimated, so that we can remove it and not estimate it.",4.539787187241018e-05,QA
58,"As a Staff member, I want to create each condo unit, so that I can associate it to the child parcel and address after the condominiums are recorded in the system.",4.539787187241018e-05,QA
59,"As a developer, I want to obtain Apps development support. ",4.539787187241018e-05,QA
60,"As an OlderPerson, I want to receive visual support, especially when looking at a list, map or agenda.",4.539787187241018e-05,QA
61,"As an Administrator, I want to create a new User account for someone else.",4.539787187241018e-05,QA
62,"As a Staff member, I want to Remove a Hold, so that I can allow progression through the workflow or other actions in the system now that the issue has been resolved.",4.539787187241018e-05,QA
63,"As a camp administrator, I want to be able to see medical forms, so that we can be prepared for an allergy attack",4.539787187241018e-05,QA
64,"As a user, I want to see all the component parts of an object. ",4.539787187241018e-05,QA
65,"As a developer, I want to have a list of definitions for commonly used terms, so that everyone working on the project can understand each other more easily.",4.539787187241018e-05,QA
66,"As a anonymoususer, I want to receive a notification when sessions have been evaluated, so that I know whether I've been accepted or rejected.",4.539787187241018e-05,QA
67,"As a repository manager, I'd like a way to track who is financially responsible for each item in the repository. That should probably be a person contact including name, phone, email, maybe title and address. I should be able to run a report periodically showing the storage consumed by each financial contact.",4.539787187241018e-05,QA
68,"As a Plan Review Staff member, I want to Review Plans, so that I can review them for compliance and either approve, or fail or deny the plans and record any conditions, clearances, or corrections needed from the Applicant.",4.539787187241018e-05,QA
69,"As a parent, I want to be able to connect with the staff in case of an emergency.",7.175707287387922e-05,QA
70,"As a student, I want to upload to the repository the data that is associated with my embargoed dissertation to meet requirements of a DMP I submitted with my NSF DDIG.",4.539787187241018e-05,QA
71,"As an employee from the HR department, I want to have access to the full information of all employees working for this business.",4.539787187241018e-05,QA
72,"As a website user, I want to see updated financial assistance data daily.",4.539787187241018e-05,QA
73,"As a administrator, I want to create blog posts, so that I can share the latest information about BADCamp with the public.",6.287696305662394e-05,QA
74,"As a authenticateduser, I want to edit my session, so that if I make a mistake, I can correct it.",5.158683779882267e-05,QA
75,"As a library staff member, I want to create collections which highlight rare, archival, or endangered material, so that I can preserve and provide access to this material.",4.539787187241018e-05,QA
76,"As a CSM, I want to be sent an email welcoming me to the Scrum Alliance and with instructions to register or activate my membership once my name has been loaded to the registry.",6.156940798973665e-05,QA
77,"As an OlderPerson, I want to receive a reminder from ALFRED on all the things I need to bring with me when I leave the house. ",8.520606206730008e-05,QA
78,"As an Applicant, I want to Pay Fee, so that I can satisfy outstanding charge associated with the service requested or received from the County.",6.834846135461703e-05,QA
79,"As a user, I want to search and discover music based on other users similar to myself.",0.0011378976050764322,QA
80,"As an estimator, I want to join a game by entering my name on the page I received the URL for, so that I can participate.",4.792265463038348e-05,QA
81,"As a researcher, I want to order copies of photos, so that I can use them in a publication.",0.00015524860646110028,QA
82,"As a DevOps engineer, I want New Relic to provide useful data across all applications.",4.539787187241018e-05,QA
83,"As a user, I want to be able to get the hours of each recycling facility, so that I can arrange drop-offs on my off days or during after-work hours.",7.851721602492034e-05,QA
84,"As a user (University Archivist or Secretary Office Staff member), I want to be able to add a date delimiter to a search string so that I can limit a search to return only results from before, after, or between a given date or dates.",0.0001695907994871959,QA
85,"As an archivemanager, I want to know in advance the conservation period of data, so that I can better organize the service by adapting the preservation actions.",4.539787187241018e-05,QA
86,"As a site member, I want to scroll through a listing of jobs, so that I can see if there any I am interested in.",6.11310315434821e-05,QA
87,"As a user, I want to be able to limit my search to specified collection(s) ",4.539787187241018e-05,QA
88,"As a researcher, I want to search OCRed text in all available digitized textual documents, so that I can more efficiently locate digitized documents relevant to my research.",4.539787187241018e-05,QA
89,"As a VisualDesigner, I want to concept different styles for the nsf.gov website, so that we can discuss different design concepts with stakeholders.",4.539787187241018e-05,QA
90,"As a MedicalCaregiver, I want to have ALFRED to offer training for specific muscle groups. ",4.539787187241018e-05,QA
91,"As a camp administrator, I want to be able to keep my information in one place, so that the admins next year can improve on the previous years.",4.539787187241018e-05,QA
92,"As an archivist, I want to make information about rights available to researchers and donors, so that they know what they can do with images.",7.508098497055471e-05,QA
93,"As a repository manager, I want to indicate any name (person, family, or corporate body) that is pertinent to the component. ",4.539787187241018e-05,QA
94,"As a SocialCaregiver, I want to have a step counter included into ALFRED. ",0.000475799897685647,QA
95,"As a user, I want to search for and download human-readable experimental protocols.",4.539787187241018e-05,QA
96,"As a moderator, I want to change my account details, so that I can keep my account details up-to-date.",4.939997961628251e-05,QA
97,"As a parent, I want to be able to see which consent forms I have submitted, so that I can know what I still need to do.",5.867395884706639e-05,QA
98,"As a camp administrator, I want to be able to remove campers if they don't attend the camp anymore, so that I can keep the records organized.",8.718923345440999e-05,QA
99,"As a user, I want to be able to view the safe disposal events currently being organised around my area.",0.0003428469935897738,QA
100,"As a researcher, I want to collect data as a library of data, which can then be used by one or multiple experiments that are defined at a later stage.",0.00021625806402880698,QA
101,"As an archivist, I want to upload a single file.",0.0007024405058473349,QA
102,"As a UI designer, I want to move on to round 3 of the Help page edits, so that I can get approvals from leadership.",6.629433482885361e-05,QA
103,"As a user, I want to limit my search results to one or more log book sections from one or more log books.",4.539787187241018e-05,QA
104,"As an archivist, I want to select existing rights statuses and statements, so that I can easily create uniform rights statements.",4.539787187241018e-05,QA
105,"As a data manager, I want to know what the content of the data is, so that I can decide to which collection or repository the data fits.",0.0009433742961846292,QA
106,"As a repository manager, I want to associate a content file with either an object or an object component. ",4.539787187241018e-05,QA
107,"As a donor representative, I want to supply incremental accruals to new and existing collections, so that material can be transferred on an ongoing basis.",4.539787187241018e-05,QA
108,"As a researcher, I want to know which topics are mandatory and similar in all DMPs, so that I can save time through quickly writing it.",4.539787187241018e-05,QA
109,"As an externalcoordinator, I want to have guarantees that my IP rights will not be breached, so that the risk of collaborating with Bath is acceptable to me.",8.061163680395111e-05,QA
110,"As an Archivist, I want to create and edit Event records.",0.0002453388296999037,QA
111,"As a site member, I want to describe myself on my own page in a semi-structured way, so that others can learn about me.",4.539787187241018e-05,QA
112,"As a researcher,  I want to have the ability to locate and access data that colleagues want to share.",0.00015442800940945745,QA
113,"As a DB/IR administrator, I want to have the system recognize/categorize document type (e.g. historical report still published, expired historical report, single topic dataset, broad topic dataset, report with subtopic, computer file), so that report/dataset is processed and displayed properly.",4.539787187241018e-05,QA
114,"As a researcher, I want to search within a repository or collection in an effective manner, including searching within subsets of a given collection, so that I can facilitate my use of the collection.",8.858469664119184e-05,QA
115,"As a Data Analyst, I want to update previously downloaded data package, so that that I can work with the most recent data.",4.539787187241018e-05,QA
116,"As a Developer, I want to update the Broker validation rule table to account for the rule updates in DB-2213.",5.582383164437488e-05,QA
117,"As a repository manager, I want to represent the physical and/or logical structure of an object.  ",0.00013510853750631213,QA
118,"As an archivist, I want to batch edit metadata about files.",6.809266051277518e-05,QA
119,"As a Staff member, I want to Manage Approved Proffers, so that I can ensure compliance with and satisfaction of the proffer in the future.",6.424567254725844e-05,QA
120,"As a depositor, I want to attach subject specific discoverability metadata to records, so that researchers in my discipline can find my data more easily.",4.539787187241018e-05,QA
121,"As a site member, I want to view the profiles of other members, so that I can find others I might want to connect with.",6.491026579169556e-05,QA
122,"As a Plan Review Staff Supervisor, I want to Manage Plan Reviewer Workload, so that I can monitor and effectively adjust workload as necessary and ensure service levels are met",4.539787187241018e-05,QA
123,"As a user researcher, I want to have a list of priority workflow candidates that we might test, so that I can make sure we're capturing the priority areas.",0.00039701606146991253,QA
124,"As an API User, I want to be able to use data to get results from multiple datasets, So that I can build user experiences based on more than one dataset more easily.",0.00034060172038152814,QA
125,"As an OlderPerson, I want to have video conversation with others. ",4.539787187241018e-05,QA
126,"As a Publisher, I want to version my Data Package and keep multiple versions around including older versions, so that that I do not break consumer systems when I change my datapackage.",4.539787187241018e-05,QA
127,"As an NSF employee, I want to understand the process of switching the cloud.gov hosting plan over from prototype to FISMA low.",4.539787187241018e-05,QA
128,"As a trainee, I want to see which trainings I have signed up for, so that they can schedule their event experience.",4.539787187241018e-05,QA
129,"As a user, I want to remove a single property of a dataset instance without knowing all other properties. ",0.00021225943055469543,QA
130,"As an archivist, I want to link electronic versions of researchers' publications to citations, so that I can share them with other researchers.",0.0005543467705138028,QA
131,"As a site visitor, I want to view lists on the site of all Certified Scrum Masters, Practitioners, Trainers, and Certified Scrum Product Owners.",4.539787187241018e-05,QA
132,"As the Digital Records Archivist, I want to be able to remove and instate embargoes.",0.0002213017869507894,QA
133,"As a repository administrator, I want users to be presented with a license or a selection of licenses, specific to the collection, and deposit to be denied if the submitter does not accept the license. The license should be recorded in metadata and displayed alongside the item.",4.539787187241018e-05,QA
134,"As a Data Publishing User, I want to be able to delete a dataset I have published, So that I can remove unwanted data from OpenSpending.",0.00018896693654824048,QA
135,"As a DAMS manager, I want to know if application of a library policy to an object or object component has been modified, either manually or automatically.  ",4.539787187241018e-05,QA
136,"As a anonymoususer, I want to sign up for the BADCamp newsletter, so that I can stay up to date with the latest communications about BADCamp.",4.539787187241018e-05,QA
137,"As an administrator, I want to have a platform that can support a variety of media file and text-based formats, so that the intellectual output of the school can be showcased and preserved in a more comprehensive way.",5.712033453164622e-05,QA
138,"As a user, I want to specify the schema of a dataset in a uniform way across all dataset types.",0.00011649755469989032,QA
139,"As a repository manager, I want to be able to update repository information in one place and be assured updates will be propagated to all relevant places. ",4.539787187241018e-05,QA
140,"As a researcher, I want to stay up to date on research related to a given topic at Cornell, including those in other departments/schools, so that my own research remains relevant and innovative.",6.663247040705755e-05,QA
141,"As a researcher, I want to know when only part of a folder has been digitized, so that I know if I am seeing everything or only a portion.",8.550453640054911e-05,QA
142,"As a participant, I want to scroll back through the stories and estimates from prior rounds, so that I can use this information when I estimate the item of the current round.",6.123798084445298e-05,QA
143,"As a researcher, I want to have electronic support for keeping track of which data sets were used/output/modified as part of a particular experiment.",4.539787187241018e-05,QA
144,"As a camp administrator, I want to be able to automatically create nametags for campers, so that I can lower the amount of work I need to do.",0.00011154815001646057,QA
145,"As a researcher, I want to view thumbnails of photos, so that I can make a selection of which one I want to license.",0.00015893553791102022,QA
146,"As an archivist, I want to rotate images, so that I can orient them correctly.",4.539787187241018e-05,QA
147,"As a CMS SME, I want to see the webmaster workflow report, so that I can understand how this might impact current direction.",0.00014153236406855285,QA
148,"As a repository manager, I want to provide a title, in all useful forms, for my repository's collections, objects, and object components.  ",4.539787187241018e-05,QA
149,"As a repository manager, I want to know of any changes made to the origin Info for an object, including its component parts. ",4.539787187241018e-05,QA
150,"As a researcher, I want to have at least some meta data to be automatically inserted when new data is added to the system.",4.888448893325403e-05,QA
151,"As a content designer, I want to demonstrate the value of user-centered content design to ensure it's an integral part of our recommendations.",4.539787187241018e-05,QA
152,"As an OlderPerson, I want to have ALFRED ask spontaneous questions but it would be better to programme it during certain times of the day. ",4.539787187241018e-05,QA
153,"As a authenticateduser, I want to view the job board, so that I can look for an interesting Drupal gig!.",0.0001297911221627146,QA
154,"As a DAMS manager, I want to indicate the source-capture information for a file where it is useful to do so. ",4.539787187241018e-05,QA
155,"As a pipeline developer, I want to upgrade a dataset instance to a newer version of the code after the pipeline was created.",0.00034944573417305946,QA
156,"As a repository manager, I want to know all events occurring to a component over its life cycle.  ",4.539787187241018e-05,QA
157,"As a faculty member, I want to maintain versioning of Extension brochures, FAQs, etc., so that only the most current are used/adapted by other CCE Educators in their work.",4.539787187241018e-05,QA
158,"As a hydrator user, I want to create a pipeline that reads or writes an existing dataset instance.",0.00016637047519907355,QA
159,"As a superuser, I want to update the recycling center information, so that I can provide the latest information about the recycling center.",0.0005836341297253966,QA
160,"As a user, I want to filter the files I get from search results based on their  type.",5.373745443648659e-05,QA
161,"As an admin, I want to annotate news video segments and extract a topic for each segment.",4.539787187241018e-05,QA
162,"As an archivist, I want to automatically create access copies of files, so that I don't have to do this manually.",0.0003909238730557263,QA
163,"As a data librarian, I want to extract pointers from the DMP to metadata held in other systems, so that I can import this metadata into a data catalogue.",0.00013710602070204914,QA
164,"As an OlderPerson, I want to have an ALFRED device that only listens to me when I ask it to. ",0.00016132291057147086,QA
165,"As an OlderPerson, I want to use ALFRED to watch movies. ",0.001227790955454111,QA
166,"As a faculty member, I want to upload my scholarly work to the repository, so that I can reach a non-academic audience, expand my influence within my academic community, and use it for teaching.",4.539787187241018e-05,QA
167,"As an owner, I want to remove someone from membership in my publisher, so that they no longer have ability to publish or modify my data packages.",4.539787187241018e-05,QA
168,"As a repository manager, I want to indicate if a statute pertains to the component, apart from the object as a whole. ",6.0263744671829045e-05,QA
169,"As a trainer, I want to read information of relevance only to trainers, so that the Scrum Alliance can share information with me easily.",4.539787187241018e-05,QA
170,"As a depositor, I'd like language I can easily add to grant proposals describing the preservation infrastructure, presrvation policy, and institutional commitment",9.716237400425598e-05,QA
171,"As a user, I want to modify or branch an experimental protocol, whilst retaining the original.",5.5836018873378634e-05,QA
172,"As a researcher, I want to search using structured data, so that I can find everything relevant to my inquiry across collections.",4.539787187241018e-05,QA
173,"As an OlderPerson, I want to be able to call someone with ALFRED. ",4.539787187241018e-05,QA
174,"As an archivist, I want to access inventories for unprocessed collections, so that I can provide reference services to donors.",5.114246960147284e-05,QA
175,"As a camp worker, I would be able to submit a completion report for the tasks which was assigned to me.",6.847704935353249e-05,QA
176,"As a camp administrator, I want to be able to create a registration form for both staff and kids, so that I can keep organized.",4.539787187241018e-05,QA
177,"As a team member, I want to have a schedule of more coworking slots, so that I can work in tandem with the rest of the team on a more regular basis.",5.279028118820861e-05,QA
178,"As an Applicant, I want to Submit Supporting Documentation, so that I can satisfy documentation requirements for my application.",4.539787187241018e-05,QA
179,"As a researcher, I want to store agreements relating to third party data used in a project, so that the data can be cited, attributed and used correctly.",4.539787187241018e-05,QA
180,"As a anonymoususer, I want to view a list of sponsors, so that I can thank all the awesome sponsors.",4.539787187241018e-05,QA
181,"As a user, I want to limit my search to a particular set of log books.",9.19226004043594e-05,QA
182,"As a ResearcherPublisher, I want to specify the funding that contributed to the creation of a given dataset, so that funding agencies can identify the funding, source for a given dataset. ",0.00020306982332840562,QA
183,"As an Applicant, I want to Satisfy Hearing Requirements, so that I can ensure all pre-hearing requirements are satisfied in time for the hearing.",4.539787187241018e-05,QA
184,"As an archivist, I want to access metadata and visual representations of index cards, so that I can use that information to assist researchers.",4.539787187241018e-05,QA
185,"As a Research Information manager, I want to segment the view and download statistics by country and sector so that impact of datasets outside academia can be demonstrated.",0.00037560719647444785,QA
186,"As a parent, I want to be able to share any photos the camp has taken of my child.",0.00031141526415012777,QA
187,"As a recyclingfacility, I want to be able to communicate directly with the site admin and convey any issues or concerns I have, so that they fix them.",8.071909542195499e-05,QA
188,"As a site admin, I want to stop publishing jobs on the site 30 days after being posted, so that jobs that may have been filled aren't still listed when the hiring party forgets to come back and delete the ad.",4.539787187241018e-05,QA
189,"As a participant, I want to see who gave what estimates during the current round, so that I know this when we're discussing the estimates.",5.931388295721263e-05,QA
190,"As a DAMS manager, I want to know, via preservation managers, of any object for which integrity or authenticity is in question or that has been updated to a more current file format.  ",0.00011630154767772183,QA
191,"As a camp administrator, I want to store campers' emergency information in a database, so that I can easily notify the necessary parties in case of an emergency.",5.142956069903448e-05,QA
192,"As a moderator, I want to start a round by entering an item in a single multi-line text field, so that we can estimate it.",0.00021741606178693473,QA
193,"As a user, I want to know what repository an object belongs to. ",4.539787187241018e-05,QA
194,"As a researcher, I want to recruit for the last round of user research, so that we can summarize our findings and synthesize results.",4.539787187241018e-05,QA
195,"As a user, I don't want to see NASA grants displayed as contracts.",4.539787187241018e-05,QA
196,"As a Staff member, I want to Record an Internal Note, so that I can share information with other Staff collaborating on the record.",4.539787187241018e-05,QA
197,"As a team member, I want to meet with DIS / cloud.gov, so that I can determine the requirements for the beta.nsf.gov ATO.",0.00012171202251920477,QA
198,"As a funder, I want to be able to read the costs for data management from the DMP, so that I can check whether our policies work as intended.",0.0005620570154860616,QA
199,"As a library staff member, I want to trace the list of revisors to determine who uploaded an item to the repository, so that I can confirm that proper procedures were followed.",4.539787187241018e-05,QA
200,"As a Publisher, I want to use a publish command to update a data package that is already in the registry, so that it appears there.",6.948201189516112e-05,QA
201,"As a Publisher, I want to know how many users have previewed a dataset, so that I know how interest in a dataset relates to its actual download numbers. ",0.0007331186207011342,QA
202,"As a user, I want to ensure that a dataset operation fails if it fails to make its required changes to explore.",0.00018618261674419045,QA
203,"As a user, I want to have access to the content files for an object. ",4.539787187241018e-05,QA
204,"As a Zooniverse admin, I want to identify the number of whales heard in a single audio file.",5.61405649932567e-05,QA
205,"As a DB/IR administrator, I want to upload revised report/dataset due to error in report/document.",4.539787187241018e-05,QA
206,"As a MedicalCaregiver, I want to give corrective feedback if exercises are performed wrong, too much or in any other way harmful to the user. ",4.539787187241018e-05,QA
207,"As a camp administrator, I want to be able to modify the information of added parents, so that I can keep parent's information up to date.",6.41025326331146e-05,QA
208,"As a anonymoususer, I want to fill out a user registration form, so that I can register for the camp and get an account on the website.",0.0002387412532698363,QA
209,"As a publisher, I want to show the world how my published data is, so that that it immediately catches consumer's attention. ",4.539787187241018e-05,QA
210,"As a user, I want backend changes to support loading enum value lists from the database.",5.685057840310037e-05,QA
211,"As a Data user, I want to have the 12-19-217 deletions processed.",0.00010029776603914797,QA
212,"As a Consumer, I want to be notified of changes to a package I care about, so that that I can check out what has changed and take action.",9.86796003417112e-05,QA
213,"As a Researcher, I want to be able to save new visualizations, so that I can share them with others or include them in the Data Package. ",0.0002622553438413888,QA
214,"As a Data Consuming User, I want to be able to search any dataset published and publicly accessible by their title and metadata, So that I can find the datasets I'm interested in.",4.539787187241018e-05,QA
215,"As a moderator, I want to show all estimates immediately, so that I can decide to show the estimates that have been given even though not all estimators have given their estimate.",4.539787187241018e-05,QA
216,"As a ResearcherPublisher, I want to add a DOI to a dataset, so that I can cite it in papers stored  with the data. ",0.0051948800683021545,QA
217,"As a user, I want to configure time-to-live in a uniform way across all dataset types.",4.539787187241018e-05,QA
218,"As a Staff member, I want to Assign an Application for Detailed Review, so that I can review the for compliance and subsequently approved or denied.",4.539787187241018e-05,QA
219,"As a site admin, I want to view all classes in a pending state, so that I can approve any that need to be approved.",4.539787187241018e-05,QA
220,"As a patron, I want to email system provider to report issues and ask questions.",4.539787187241018e-05,QA
221,"As a user, I want a mechanism for electronically sharing papers and notes with other researchers, so that we can collaborate effectively.",0.00017147015023510903,QA
222,"As a User, I want to be able to set my own username, So that my data is more easily discoverable.",0.0017552116187289357,QA
223,"As an NSF employee, I want to have an updated roadmap document, so that I can see prioritized areas to focus on for the next few months and beyond.",4.539787187241018e-05,QA
224,"As a repository manager, I want to know of all modifications made to notes for my repository's collections, objects, or object components.  ",4.539787187241018e-05,QA
225,"As a user researcher, I want to know when outreach to lists is successful, so that I can plan on a new release to the next listserv on the priority list.",4.77560970466584e-05,QA
226,"As an admin, I want to onboard recycling centers on the platform, so that I can increase information accuracy.",6.61766025586985e-05,QA
227,"As a library staff member, I want to access useful and comprehensive usage statistics and analytics, including altmetrics, at the repository, collection, author, and item level, so that I can assess the results of this service.",0.00010056688915938139,QA
228,"As the Digital Records Archivist, I want a method to add and remove individual people from deposit groups.",4.539787187241018e-05,QA
229,"As an archivist, I want to browse through files in a collection.",0.0011088051833212376,QA
230,"As a data reuser, I want to get a persistent URL for a dataset, so that I can get back to the data in future.",0.00010142468818230554,QA
231,"As an author, I want to be able to indent / outdent content.",7.092025771271437e-05,QA
232,"As a Staff member, I want to Perform a Completeness Review, so that I can validate when an application is complete and eligible for further technical review.",0.0004885076778009534,QA
233,"As a authenticateduser, I want to use a WYSIWYG editor for all long-form content, so that I don't have to know HTML to update my content.",0.00247858720831573,QA
234,"As a Data Publishing User, I want to have my dataset update automatically as the source file/files changes, So that OpenSpending always shows current data.",4.539787187241018e-05,QA
235,"As an Extension Administrator, I want to make resources that were developed for specific projects and geographic areas available to other faculty and educators across NYS.",4.539787187241018e-05,QA
236,"As an OlderPerson, I want to use ALFRED to get a personalized invitation to a social event, so that it motivates more to go. ",4.539787187241018e-05,QA
237,"As a site visitor, I want to click the link from the article teaser to take me directly to the body of the article. not to another teaser setup, so that I can easily finish the article.",0.0005774449673481286,QA
238,"As a faculty member, I want to easily collect my publications -- both those within the repository and without -- into a single online access point, so that I can raise the profile of my work.",0.001044882577843964,QA
239,"As a recyclingfacility representative, I want to be able to update my information and the type of material I accept, so that I can avoid any miscommunication with users.",0.00010973332246067002,QA
240,"As an admin, I want to be able to communicate directly with facilities, so that I can keep them updated about features we have on our website.",4.611019903677516e-05,QA
241,"As a developer, I want to easily create and to maintain my apps within the market place. ",0.00011341786739649251,QA
242,"As a MedicalCaregiver, I want to have a regular summary on how much exercise is performed by the user. ",8.410584268858656e-05,QA
243,"As a administrator, I want to refund sponsorship money that was processed via stripe, so that people get their monies back.",0.0006704112165607512,QA
244,"As a SocialCaregiver, I want to have ALFRED to be able to recognize pain and or stress by using skin conduction sensors. ",5.338120899978094e-05,QA
245,"As a user, I want to add a video to my article.",6.9911424361635e-05,QA
246,"As an InformalCaregiver, I want to have a game that the carer could play together with the user, so that it would enable to monitor the users' state of health but also have some fun time. ",4.539787187241018e-05,QA
247,"As a user, I want to manage the references / papers I have investigated.",0.0006512179388664663,QA
248,"As a trainer, I want to turn a course into an event or an event into a course, so that I can correctly classify anything that was entered incorrectly.",4.539787187241018e-05,QA
249,"As a researcher, I want to attach currently non-attached files to a log book page.",4.539787187241018e-05,QA
250,"As a faculty member, I want to direct students to an item within the repository, so that I can facilitate my teaching (i.e. desires ability to link to content).",4.539787187241018e-05,QA
251,"As a Data Consuming User, I want to be able to change the display of all monetary measures across a set of currencies, So that I can understand localised amounts in non-localised figures.",4.539787187241018e-05,QA
252,"As an Archivist, I want to create and edit a Resource record.",0.000593271164689213,QA
253,"As a anonymoususer, I want to find out where the coding lounge is and what time it is open, so that I can code with my friends.",4.539787187241018e-05,QA
254,"As a team member, I want to determine a design direction for the beta social page, so that we can implement a beta site quickly without established brand guidelines.",7.967612327774987e-05,QA
255,"As a Platform Administrator, I want to be able to delete any dataset published, So that I can deal with takedown requests, or clean up test datasets.",0.00020977586973458529,QA
256,"As a camp administrator, I want to be able to create groups and add campers to the groups, so that I can easily organize the campers.",0.00019421002070885152,QA
257,"As a user, I want to use the tags that I use are part of a controlled vocabulary.",0.00019496124878060073,QA
258,"As a lab administrator, I want a way of managing worm strain stocks that is integrated with Wormbase.",0.00010810469393618405,QA
259,"As a Plan Review Staff member, I want to Assign Plans for Review, so that I can ensure plans have been assigned to the appropriate Plan Reviewer.",5.247823355603032e-05,QA
260,"As a researcher, I want to generate structured citation data, so that so I can cite a file in a publication.",9.586956002749503e-05,QA
261,"As a collection curator, I'd like to be able to view the technical metadata for each component on the component page. I would not expect to see technical metadata at the item or collection level.",4.539787187241018e-05,QA
262,"As a content designer, I want to develop a better understanding of NSF's content types and editorial plan, so that I can make more informed recommendations going forward.",4.539787187241018e-05,QA
263,"As an Archivist, I want to specify the Source for a Name Form of an Agent and add new Sources and edit existing Sources.",0.0008385704713873565,QA
264,"As a developer, I want to take a dataset offline, so that I can perform a long-running maintenance or migration procedure.",0.0001143005647463724,QA
265,"As a trainee, I want to add to ""my schedule"" if there is a schedule feature on the site, so that they can schedule their event experience.",4.539787187241018e-05,QA
266,"As data contributor, I want to be able to refer to the Disaster Recovery Plan in grant proposals and Data Management Plans.",5.27277443325147e-05,QA
267,"As a depositor, I want to manage and share ""live"" research data, so that whole project workflow is linked together.",0.0004710634530056268,QA
268,"As a researcher, I want to see the sections on costing by other researchers in my department, so that I can see if we could share data manager posts.",0.0002251102851005271,QA
269,"As a researcher, I want to have the ability to attach standard meta data for behavioural observations (and video), so that my data can later be searched for and understood.",4.539787187241018e-05,QA
270,"As an Inspector, I want to Conduct Inspections, so that I can validate Customer compliance with code and regulations and provide results of the inspection to the Customer.",4.539787187241018e-05,QA
271,"As an administrator, I want to see comprehensive tracking statistics that can be presented to faculty in a digestible way, so that I can increase buy-in for contributing their work.",0.0001951544836629182,QA
272,"As an Extension Administrator or Staff Content Manager, I want to get periodic IR reminders, including when something needs attention (including next ingestion/approval steps), or something that might need to move from a current knowledge collection to Historical.",4.539787187241018e-05,QA
273,"As an OlderPerson, I want to games that require the combination of mental and physical exercise, such as opposing motion exercises of the arms and legs. ",4.539787187241018e-05,QA
274,"As a depositor, I'd like feedback post-ingest (after save if content changed) alerting me if files I submitted do not conform to their format specifications, if they are not valid, or if they are not well-formed. Notification should also go to the repository manager, possibly via an email list.",4.539787187241018e-05,QA
275,"As an OlderPerson, I want to buy ALFRED for a low price. ",0.002459525363519788,QA
276,"As a Developer, I want to customize an existing wizard for my specific type of data, so that I can give my users a great user experience.",0.00021604867652058601,QA
277,"As a trainingcoordinator, I want to have an admin view where all trainee information is shown and can be filtered to show a single training session, so that I can see WTF is happening.",0.00010882601054618135,QA
278,"As a research participant, I want to make sure that the appearance of the prototype does not distract from the workflow, so that I can complete the user interview.",0.00010626873699948192,QA
279,"As a user researcher, I want to set up a website recruitment test, so that I can see if we can recruit users in real time from the website.",0.0026302689220756292,QA
280,"As a researcher, I want to record my intention to share data I have collected under terms of a particular licence, so that other researchers who use the data understand the rights of use.",0.00016301828145515174,QA
281,"As an OlderPerson, I want to be able to customize my preferences in the different functionalities of the solution.",0.000663195620290935,QA
282,"As a repository manager, I want to indicate all subjects (title, genre/form, topic, geographical name, function, occupation, name, cartographics, etc.) that are pertinent to a collection, object, or object component. ",4.539787187241018e-05,QA
283,"As an API User, I want to be able to get bordering regions|cities when I query a region|city, So that I can provider wider visual context for mapping visualisations.",0.00023707086802460253,QA
284,"As a library staff member, I want to create a collection, sometimes with custom metadata fields, so that I can house digital material for wider distribution.",4.539787187241018e-05,QA
285,"As a moderator, I want to enter the agreed-upon estimate, so that we can move on to the next item when we agree.",4.539787187241018e-05,QA
286,"As a library staff member, I want to upload large batches of items simultaneously, including descriptive metadata, so that I can offer service to authors efficiently.",6.486880738520995e-05,QA
287,"As a moderator, I want to invite up to 15 estimators, so that we can play with large but not immense teams.",4.539787187241018e-05,QA
288,"As a anonymoususer, I want to see how many seats are left for the summit, so that I can make sure to register in-time to reserve my spot.",0.00016732519725337625,QA
289,"As a DAMS manager, I want to know when the copyright status for an object or object component is modified, either manually or automatically.  ",4.539787187241018e-05,QA
290,"As a MedicalCaregiver, I want to have ALFRED to be able to determine the user's blood pressure. ",0.00016970759315881878,QA
291,"As a researcher, I want to export descriptive data in a common format, so that I can use text mining tools on it.",0.0001286030310438946,QA
292,"As a Cornell faculty member, I want to create a collection for my documents, or my organization's documents, and apply some distinctive branding to that collection, so that I can promote my work, or that of my organization.",5.816094562760554e-05,QA
293,"As a DB/IR administrator, I want to see list of subscribers for specified report in order research missing report complaints.",0.00014429095608647913,QA
294,"As an Inspection Supervisor, I want to Manage Inspector Workload, so that I can meet service level and quality requirements.",4.539787187241018e-05,QA
295,"As a user, I want to have the system to also forward important news items to an external mailing list.",8.469449676340446e-05,QA
296,"As a summit coordinator, I want to list sponsors for my summit, so that I can make sure sponsors feel rewarded and will be interested in sponsoring in future years.",8.292908023577183e-05,QA
297,"As a Cornell faculty member, I want to search for the dissertations in the repository for which I have been a thesis committee member, to quickly find work by a former student.",4.539787187241018e-05,QA
298,"As a user, I want to scope by searches by name to a specific role such as illustrator, photographer, etc.",9.126073564402759e-05,QA
299,"As a repository manager, I want to indicate any other rights pertinent to an object. ",4.539787187241018e-05,QA
300,"As a user, I want to identify persons in videos, and receive related information about them.",4.539787187241018e-05,QA
301,"As a camp administrator, I want to be able to modify a group's information, so that I can keep the groups up to date.",0.0001525972766103223,QA
302,"As a repository manager, I want to indicate the language(s) for present in a collection, object, or object component. ",4.539787187241018e-05,QA
303,"As a repository manager, I want to indicate names (persons, families, corporate bodies) related to the collection either as creator, source, or subject.  ",4.539787187241018e-05,QA
304,"As a anonymoususer, I want to see a list of all the summits that include when they are, so that I can determine which summit I want to attend.",4.539787187241018e-05,QA
305,"As a site member, I want to fill out an application to become a Certified Scrum Trainer, so that I can teach CSM and CSPO courses and certify others.",7.467262912541628e-05,QA
306,"As a user, I want to upload tagged videos and have tags available for all further processing steps.",0.0006890281802043319,QA
307,"As a Platform Administrator, I want to have a view on all datasets published by all users, So that I can perform management actions on any dataset.",4.539787187241018e-05,QA
308,"As an NSF employee, I want to understand work performed, so that I can understand when and what I can use later.",4.539787187241018e-05,QA
309,"As an admin, I want to see, validate and edit segmentation of videos.",6.672530435025692e-05,QA
310,"As a developer, I want to present my app to as many people as Possible. ",0.00015788516611792147,QA
311,"As a DB/IR administrator, I want to search for administrator accounts using full/partial email or name.",0.0006706828135065734,QA
312,"As a Bath Data Archive administrator, I want to approve scheduled disposal of data, so that data which is still required is not destroyed.",0.0016330330399796367,QA
313,"As a repository manager, I need details on the type of data, so that I can check if the archiving can be arranged.",0.00028277962701395154,QA
314,"As an Archivist, I would like to indicate an Agent is either the creator or source or subject of an Accession or Resource or Resource Component.",0.00020876619964838028,QA
315,"As a FABS user, I want to make sure the historical data includes all necessary columns, so that the information in the database is correct.",0.00033794494811445475,QA
316,"As an Extension Administrator, I want to have easy, well documented and supported workflows that can be easily passed on to others when she/others retire, so that continuity can be maintained.",5.702808266505599e-05,QA
317,"As a anonymoususer, I want to easily find a link in the menu that links to the registration form, so that I can easily register for the camp.",5.7020086387638e-05,QA
318,"As an OlderPerson, I want to have ALFRED to suggest healthy recipes. ",4.539787187241018e-05,QA
319,"As an OpenSpending Community Member, I want to have an app where I can find examples of use of fiscal data visualisations, So that I can find guidance in creating my own with Open Spending.",0.00010431126429466531,QA
320,"As a researcher, I want to be able to search across photo collection images, so that I can prepare presentations.",5.598509596893564e-05,QA
321,"As a administrator, I want to mark a session as accepted, so that I can populate the schedule .",8.733635331736878e-05,QA
322,"As a anonymoususer, I want to receive a notification when I submit a session, so that know that my session went through ok.",4.539787187241018e-05,QA
323,"As a camp administrator, I want to be able to keep track of which camper submitted which forms, so that legal issues are avoided.",4.539787187241018e-05,QA
324,"As a researcher,  I want to have the ability to attach detailed meta data to the data and entries that I create.",7.47076774132438e-05,QA
325,"As an OlderPerson, I want to have ALFRED contact the nearest caregiver when I ask ALFRED for urgent help. ",4.539787187241018e-05,QA
326,"As an OlderPerson, I want to have training for specific muscle Groups. ",4.539787187241018e-05,QA
327,"As a VisualDesigner, I want to demonstrate the value of visual design to the NSF project team, so that visual design is an integral part of a redesign.",4.539787187241018e-05,QA
328,"As a team member, I want to understand what the MVP should look like, so that I can begin understanding workflow needs as they pertain to any CMS decision.",4.539787187241018e-05,QA
329,"As a researcher, I want to have any data that I have written to the VRE to be protected from modification or deletion, so that original data can always be traced back to an experiment and a point in time.",5.833619798067957e-05,QA
330,"As an OlderPerson, I want to have games that include my favourite sports. ",0.00014507013838738203,QA
331,"As an employee, I want to get quick notifications, so that I can process cases the first time.",4.539787187241018e-05,QA
332,"As a camp administrator, I want to keep track of the usage of internal camp facilities, so that I don't create conflicting schedules for the different camp groups.",4.539787187241018e-05,QA
333,"As a Developer , I want to ensure that attempts to correct or delete non-existent records don't create new published data.",0.00022608661674894392,QA
334,"As an NSF employee, I want to have a final workshop to identify key lessons and features for the content management system decision.",4.539787187241018e-05,QA
335,"As a collection curator, I want to a tool to perform author authority control.",0.0008891030447557569,QA
336,"As a collection curator, I want to be able to select any existing descriptive metadata element to be optional or required for that collection.",0.0005253602284938097,QA
337,"As a user, I want to list all the collections and objects in the DAMS that belong to a library unit.  ",0.000225078736548312,QA
338,"As a team member, I want to understand how work moves between UX/content > visual design > front end dev for a sprint cycle.",0.0003193627926521003,QA
339,"As a moderator, I want to estimate a story we estimated earlier in the session again, so that we can give a new estimate if we feel different about the story after estimating other related stories.",4.539787187241018e-05,QA
340,"As an OlderPerson, I want to buy ALFRED in a senior shop with special client support. ",4.786807403434068e-05,QA
341,"As a camp administrator, I want to be able to delete tasks/activities I scheduled, so that I can keep the schedule clean of unneeded activities.",4.539787187241018e-05,QA
342,"As a collection curator for collections that allow web deposit, I would like to be able to create deposit forms specific to the collection.",0.00019561276712920517,QA
343,"As a team member, I want to have a high-level sense of the project timeline, so that I can plan my work.",0.0008736885502003133,QA
344,"As a authenticateduser, I want to See a payment page to pay for my individual sponsorships as the third step of the registration process so that pay for my sponsorship.",0.00011492756311781704,QA
345,"As a moderator, I want to view a transcript of a game, so that I can see the stories and estimates.",0.0010007722303271294,QA
346,"As a dataset developer, I want to implement custom administrative operations such as ""compaction"" or ""rebalance"" that are no common to all dataset types.",0.00010306564945494756,QA
347,"As a camp administrator, I want to be able to assign different positions to the staff members, so that it is possible to organize activities in terms of responsibilities.",0.00013542505621444434,QA
348,"As a repository manager, I want to describe various facets of a collection, object, or object component that are not addressable via title, date, name, and subject entities.  ",4.539787187241018e-05,QA
349,"As a user, I want to attach multiple files at once to a log book page.",0.00016306835459545255,QA
350,"As a Postgraduate Convenor, I want to receive regular summary reports of research data, so that I understand trends in data use among staff and postgraduate students.",4.539787187241018e-05,QA
351,"As an API User, I want to be able to normalise measures by GDP, so I work with datasets in reference to their contextual constraints.",6.497498543467373e-05,QA
352,"As a researcher, I want to receive a notification if something I request in the reading room or for duplication is already digitized, so that I don't have to put in that request.",0.00022429830278269947,QA
353,"As a DB/IR administrator, I want to unpublish a report/dataset if requested to do so by USDA agency.",0.00010961577936541289,QA
354,"As a researcher, I want to know the date on which something was digitized, so that I know if it's been digitized since I last looked.",4.539787187241018e-05,QA
355,"As a repository administrator, I want to be able to update the repository index without disrupting access to the public interface. (See dul-hydra wiki)",4.539787187241018e-05,QA
356,"As an OlderPerson, I want to use ALFRED to learn about art expositions or a museum. ",5.374863030738197e-05,QA
357,"As an OlderPerson, I want to use ALFRED to turn on/off the lights. ",0.00016875055734999478,QA
358,"As a MedicalCaregiver, I want to have ALFRED to be able to determine the user's body temperature. ",7.415907748509198e-05,QA
359,"As a Developer , I want the historical FPDS data loader to include both extracted historical data and FPDS feed data.",4.539787187241018e-05,QA
360,"As a team member, I want to know when meetings are, so that I can plan accordingly.",5.100312773720361e-05,QA
361,"As a repository manager, I want to link, when appropriate, a component to another component or to a file. ",4.539787187241018e-05,QA
362,"As a user, I want to enter metadata / describe an experiment protocol before a file is even created.",0.000974862661678344,QA
363,"As a user, I want to specify the explore schema separately.",0.0002846262068487704,QA
364,"As an OlderPerson, I want to have an ALFRED device that helps me to communicate with my friends and family. ",0.0002353129821131006,QA
365,"As a developer, I want to be able to design my App on my own - though there will be a few rules I have to stand to. ",0.00026120126130990684,QA
366,"As an Owner, I want to edit my profile, so that that it is updated with new information.",0.0004346402420196682,QA
367,"As a depositor, I want to deposit and maintain datasets through a simple web interface, so that I don't need to install and learn new software to deposit.",0.0013337217969819903,QA
368,"As a Consumer, I want to search among all data packages owned by a publisher, so that that I can easily find one data package amongst all the data packages by this publisher.",5.71968630538322e-05,QA
369,"As a user, I want to view and update an inventory of of the equipment and consumables that are present in the centre.",0.00016584194963797927,QA
370,"As an archivemanager, I want to make sure that detailed metadata are associated to data so that it will be understandable by future users.",0.000711993605364114,QA
371,"As an asset manager, I want to have mechanism to pass ownership/management of the assets to a successor.",0.00021478346025105566,QA
372,"As a Website user, I want to access published FABS files, so that I can see the new files as they come in.",4.539787187241018e-05,QA
373,"As an Extension Educator, I want to have a place to store a variety of documents, presentations and data sets I've created, that doesn't require an extra step in making available on my own County/Region/Project site (i.e. a list or directory of materials there is automatically updated when placed in a central archive/repository).",0.00026181910652667284,QA
374,"As a user, I want to search specifically for files rather than log book pages.",0.00024233010481111705,QA
375,"As an API User, I want to have a flexible API using HASC codes for countries, regions and cities, So that I can visualise budget data on maps.",6.406085594790056e-05,QA
376,"As a parent, I want to be able to submit various type of forms to the camp management.",0.0003901991294696927,QA
377,"As an employee, I want to access the route planning system during work, so that I can be guided through the neighbourhood.",4.539787187241018e-05,QA
378,"As a data manager, I want to know what the content of the data is, so that I can check whether the necessary expertise for maintaining intellectual reusability is available.",0.0002506535383872688,QA
379,"As a researcher, I want to have remote access to my data for off-site working , so that I can still work effectively while away from the lab.",8.627310307929292e-05,QA
380,"As a trainer, I want to show my rating up on my profile page, so that site visitors can choose wisely.",4.539787187241018e-05,QA
381,"As an OlderPerson, I want to play online games together with other users. ",0.0019811673555523157,QA
382,"As a donor representative, I want to look at images that have been scanned from my collection, so that so that I can use them in my institutions exhibits, reports etc.",4.539787187241018e-05,QA
383,"As a researcher, I want to download reports, so that I can use them in immediate and future in talks and articles.",0.0003617207403294742,QA
384,"As an Applicant, I want to Request a Plan Review Meeting, so that I can meet with the Plan Review Staff regarding the plan review.",4.539787187241018e-05,QA
385,"As an archivist, I want to automatically generate technical metadata, so that I know the file size.",4.539787187241018e-05,QA
386,"As an API User, I want to be able to normalise measures by GINI and related socioeconomic indexes, So that I work with datasets in reference to their contextual constraints.",4.539787187241018e-05,QA
387,"As a repository manager, I want to know of any changes made to language(s) indicated for a collection, object, or object component.  ",4.539787187241018e-05,QA
388,"As a data submitter, I would like to be able to order components within an item.",0.0003104402858298272,QA
389,"As an MRI operator, I want to digitally record the responses that subjects make when completing paper-based forms.",4.539787187241018e-05,QA
390,"As a researcher, I want to understand the copyright status of the image, so that I know if I can use it.",0.0003229816793464124,QA
391,"As a site visitor, I want to see a list of the most popular items on the site, so that I am most likely to read the most important or best content.",4.539787187241018e-05,QA
