,eval,epoch
0,"{'QA': {'tp': 16.0, 'fp': 7.00000001, 'fn': 28.00000001, 'tn': 35.0, 'tot': 44.00000001, 'eval': {'textcat_p': 0.695652173610586, 'textcat_r': 0.363636363553719, 'textcat_f': 0.4776119401559366}}, 'eval_global': {'textcat_p': 0.695652173610586, 'textcat_r': 0.363636363553719, 'textcat_f': 0.4776119401559366}}",0
1,"{'QA': {'tp': 12.0, 'fp': 5.00000001, 'fn': 32.00000001, 'tn': 37.0, 'tot': 44.00000001, 'eval': {'textcat_p': 0.7058823525259516, 'textcat_r': 0.27272727266528923, 'textcat_f': 0.3934426228218221}}, 'eval_global': {'textcat_p': 0.7058823525259516, 'textcat_r': 0.27272727266528923, 'textcat_f': 0.3934426228218221}}",1
2,"{'QA': {'tp': 30.0, 'fp': 9.00000001, 'fn': 14.00000001, 'tn': 33.0, 'tot': 44.00000001, 'eval': {'textcat_p': 0.7692307690335306, 'textcat_r': 0.6818181816632232, 'textcat_f': 0.7228915660908695}}, 'eval_global': {'textcat_p': 0.7692307690335306, 'textcat_r': 0.6818181816632232, 'textcat_f': 0.7228915660908695}}",2
3,"{'QA': {'tp': 28.0, 'fp': 13.00000001, 'fn': 16.00000001, 'tn': 29.0, 'tot': 44.00000001, 'eval': {'textcat_p': 0.6829268291017252, 'textcat_r': 0.6363636362190083, 'textcat_f': 0.6588235292567474}}, 'eval_global': {'textcat_p': 0.6829268291017252, 'textcat_r': 0.6363636362190083, 'textcat_f': 0.6588235292567474}}",3
4,"{'QA': {'tp': 30.0, 'fp': 14.00000001, 'fn': 14.00000001, 'tn': 28.0, 'tot': 44.00000001, 'eval': {'textcat_p': 0.6818181816632232, 'textcat_r': 0.6818181816632232, 'textcat_f': 0.6818181816632232}}, 'eval_global': {'textcat_p': 0.6818181816632232, 'textcat_r': 0.6818181816632232, 'textcat_f': 0.6818181816632232}}",4
5,"{'QA': {'tp': 31.0, 'fp': 13.00000001, 'fn': 13.00000001, 'tn': 29.0, 'tot': 44.00000001, 'eval': {'textcat_p': 0.7045454543853306, 'textcat_r': 0.7045454543853306, 'textcat_f': 0.7045454543853306}}, 'eval_global': {'textcat_p': 0.7045454543853306, 'textcat_r': 0.7045454543853306, 'textcat_f': 0.7045454543853306}}",5
6,"{'QA': {'tp': 34.0, 'fp': 15.00000001, 'fn': 10.00000001, 'tn': 27.0, 'tot': 44.00000001, 'eval': {'textcat_p': 0.6938775508788005, 'textcat_r': 0.7727272725516529, 'textcat_f': 0.7311827955416811}}, 'eval_global': {'textcat_p': 0.6938775508788005, 'textcat_r': 0.7727272725516529, 'textcat_f': 0.7311827955416811}}",6
7,"{'QA': {'tp': 34.0, 'fp': 13.00000001, 'fn': 10.00000001, 'tn': 29.0, 'tot': 44.00000001, 'eval': {'textcat_p': 0.7234042551652331, 'textcat_r': 0.7727272725516529, 'textcat_f': 0.747252747088516}}, 'eval_global': {'textcat_p': 0.7234042551652331, 'textcat_r': 0.7727272725516529, 'textcat_f': 0.747252747088516}}",7
8,"{'QA': {'tp': 35.0, 'fp': 13.00000001, 'fn': 9.00000001, 'tn': 29.0, 'tot': 44.00000001, 'eval': {'textcat_p': 0.7291666665147569, 'textcat_r': 0.7954545452737604, 'textcat_f': 0.760869565051985}}, 'eval_global': {'textcat_p': 0.7291666665147569, 'textcat_r': 0.7954545452737604, 'textcat_f': 0.760869565051985}}",8
9,"{'QA': {'tp': 35.0, 'fp': 14.00000001, 'fn': 9.00000001, 'tn': 28.0, 'tot': 44.00000001, 'eval': {'textcat_p': 0.7142857141399417, 'textcat_r': 0.7954545452737604, 'textcat_f': 0.7526881718811425}}, 'eval_global': {'textcat_p': 0.7142857141399417, 'textcat_r': 0.7954545452737604, 'textcat_f': 0.7526881718811425}}",9
10,"{'QA': {'tp': 36.0, 'fp': 15.00000001, 'fn': 8.00000001, 'tn': 27.0, 'tot': 44.00000001, 'eval': {'textcat_p': 0.7058823528027681, 'textcat_r': 0.8181818179958678, 'textcat_f': 0.7578947366825485}}, 'eval_global': {'textcat_p': 0.7058823528027681, 'textcat_r': 0.8181818179958678, 'textcat_f': 0.7578947366825485}}",10
11,"{'QA': {'tp': 35.0, 'fp': 15.00000001, 'fn': 9.00000001, 'tn': 27.0, 'tot': 44.00000001, 'eval': {'textcat_p': 0.6999999998599999, 'textcat_r': 0.7954545452737604, 'textcat_f': 0.7446808509053869}}, 'eval_global': {'textcat_p': 0.6999999998599999, 'textcat_r': 0.7954545452737604, 'textcat_f': 0.7446808509053869}}",11
12,"{'QA': {'tp': 34.0, 'fp': 13.00000001, 'fn': 10.00000001, 'tn': 29.0, 'tot': 44.00000001, 'eval': {'textcat_p': 0.7234042551652331, 'textcat_r': 0.7727272725516529, 'textcat_f': 0.747252747088516}}, 'eval_global': {'textcat_p': 0.7234042551652331, 'textcat_r': 0.7727272725516529, 'textcat_f': 0.747252747088516}}",12
13,"{'QA': {'tp': 34.0, 'fp': 13.00000001, 'fn': 10.00000001, 'tn': 29.0, 'tot': 44.00000001, 'eval': {'textcat_p': 0.7234042551652331, 'textcat_r': 0.7727272725516529, 'textcat_f': 0.747252747088516}}, 'eval_global': {'textcat_p': 0.7234042551652331, 'textcat_r': 0.7727272725516529, 'textcat_f': 0.747252747088516}}",13
14,"{'QA': {'tp': 33.0, 'fp': 13.00000001, 'fn': 11.00000001, 'tn': 29.0, 'tot': 44.00000001, 'eval': {'textcat_p': 0.7173913041918715, 'textcat_r': 0.7499999998295455, 'textcat_f': 0.7333333331703703}}, 'eval_global': {'textcat_p': 0.7173913041918715, 'textcat_r': 0.7499999998295455, 'textcat_f': 0.7333333331703703}}",14
15,"{'QA': {'tp': 33.0, 'fp': 12.00000001, 'fn': 11.00000001, 'tn': 30.0, 'tot': 44.00000001, 'eval': {'textcat_p': 0.7333333331703703, 'textcat_r': 0.7499999998295455, 'textcat_f': 0.7415730335412195}}, 'eval_global': {'textcat_p': 0.7333333331703703, 'textcat_r': 0.7499999998295455, 'textcat_f': 0.7415730335412195}}",15
16,"{'QA': {'tp': 32.0, 'fp': 11.00000001, 'fn': 12.00000001, 'tn': 31.0, 'tot': 44.00000001, 'eval': {'textcat_p': 0.7441860463385613, 'textcat_r': 0.727272727107438, 'textcat_f': 0.735632183738935}}, 'eval_global': {'textcat_p': 0.7441860463385613, 'textcat_r': 0.727272727107438, 'textcat_f': 0.735632183738935}}",16
17,"{'QA': {'tp': 33.0, 'fp': 12.00000001, 'fn': 11.00000001, 'tn': 30.0, 'tot': 44.00000001, 'eval': {'textcat_p': 0.7333333331703703, 'textcat_r': 0.7499999998295455, 'textcat_f': 0.7415730335412195}}, 'eval_global': {'textcat_p': 0.7333333331703703, 'textcat_r': 0.7499999998295455, 'textcat_f': 0.7415730335412195}}",17
18,"{'QA': {'tp': 34.0, 'fp': 13.00000001, 'fn': 10.00000001, 'tn': 29.0, 'tot': 44.00000001, 'eval': {'textcat_p': 0.7234042551652331, 'textcat_r': 0.7727272725516529, 'textcat_f': 0.747252747088516}}, 'eval_global': {'textcat_p': 0.7234042551652331, 'textcat_r': 0.7727272725516529, 'textcat_f': 0.747252747088516}}",18
19,"{'QA': {'tp': 31.0, 'fp': 13.00000001, 'fn': 13.00000001, 'tn': 29.0, 'tot': 44.00000001, 'eval': {'textcat_p': 0.7045454543853306, 'textcat_r': 0.7045454543853306, 'textcat_f': 0.7045454543853306}}, 'eval_global': {'textcat_p': 0.7045454543853306, 'textcat_r': 0.7045454543853306, 'textcat_f': 0.7045454543853306}}",19
20,"{'QA': {'tp': 32.0, 'fp': 13.00000001, 'fn': 12.00000001, 'tn': 29.0, 'tot': 44.00000001, 'eval': {'textcat_p': 0.7111111109530864, 'textcat_r': 0.727272727107438, 'textcat_f': 0.7191011234339098}}, 'eval_global': {'textcat_p': 0.7111111109530864, 'textcat_r': 0.727272727107438, 'textcat_f': 0.7191011234339098}}",20
21,"{'QA': {'tp': 33.0, 'fp': 13.00000001, 'fn': 11.00000001, 'tn': 29.0, 'tot': 44.00000001, 'eval': {'textcat_p': 0.7173913041918715, 'textcat_r': 0.7499999998295455, 'textcat_f': 0.7333333331703703}}, 'eval_global': {'textcat_p': 0.7173913041918715, 'textcat_r': 0.7499999998295455, 'textcat_f': 0.7333333331703703}}",21
22,"{'QA': {'tp': 34.0, 'fp': 13.00000001, 'fn': 10.00000001, 'tn': 29.0, 'tot': 44.00000001, 'eval': {'textcat_p': 0.7234042551652331, 'textcat_r': 0.7727272725516529, 'textcat_f': 0.747252747088516}}, 'eval_global': {'textcat_p': 0.7234042551652331, 'textcat_r': 0.7727272725516529, 'textcat_f': 0.747252747088516}}",22
23,"{'QA': {'tp': 34.0, 'fp': 12.00000001, 'fn': 10.00000001, 'tn': 30.0, 'tot': 44.00000001, 'eval': {'textcat_p': 0.7391304346219282, 'textcat_r': 0.7727272725516529, 'textcat_f': 0.7555555553876543}}, 'eval_global': {'textcat_p': 0.7391304346219282, 'textcat_r': 0.7727272725516529, 'textcat_f': 0.7555555553876543}}",23
24,"{'QA': {'tp': 33.0, 'fp': 12.00000001, 'fn': 11.00000001, 'tn': 30.0, 'tot': 44.00000001, 'eval': {'textcat_p': 0.7333333331703703, 'textcat_r': 0.7499999998295455, 'textcat_f': 0.7415730335412195}}, 'eval_global': {'textcat_p': 0.7333333331703703, 'textcat_r': 0.7499999998295455, 'textcat_f': 0.7415730335412195}}",24
25,"{'QA': {'tp': 33.0, 'fp': 12.00000001, 'fn': 11.00000001, 'tn': 30.0, 'tot': 44.00000001, 'eval': {'textcat_p': 0.7333333331703703, 'textcat_r': 0.7499999998295455, 'textcat_f': 0.7415730335412195}}, 'eval_global': {'textcat_p': 0.7333333331703703, 'textcat_r': 0.7499999998295455, 'textcat_f': 0.7415730335412195}}",25
26,"{'QA': {'tp': 33.0, 'fp': 12.00000001, 'fn': 11.00000001, 'tn': 30.0, 'tot': 44.00000001, 'eval': {'textcat_p': 0.7333333331703703, 'textcat_r': 0.7499999998295455, 'textcat_f': 0.7415730335412195}}, 'eval_global': {'textcat_p': 0.7333333331703703, 'textcat_r': 0.7499999998295455, 'textcat_f': 0.7415730335412195}}",26
27,"{'QA': {'tp': 33.0, 'fp': 11.00000001, 'fn': 11.00000001, 'tn': 31.0, 'tot': 44.00000001, 'eval': {'textcat_p': 0.7499999998295455, 'textcat_r': 0.7499999998295455, 'textcat_f': 0.7499999998295455}}, 'eval_global': {'textcat_p': 0.7499999998295455, 'textcat_r': 0.7499999998295455, 'textcat_f': 0.7499999998295455}}",27
28,"{'QA': {'tp': 33.0, 'fp': 12.00000001, 'fn': 11.00000001, 'tn': 30.0, 'tot': 44.00000001, 'eval': {'textcat_p': 0.7333333331703703, 'textcat_r': 0.7499999998295455, 'textcat_f': 0.7415730335412195}}, 'eval_global': {'textcat_p': 0.7333333331703703, 'textcat_r': 0.7499999998295455, 'textcat_f': 0.7415730335412195}}",28
29,"{'QA': {'tp': 33.0, 'fp': 13.00000001, 'fn': 11.00000001, 'tn': 29.0, 'tot': 44.00000001, 'eval': {'textcat_p': 0.7173913041918715, 'textcat_r': 0.7499999998295455, 'textcat_f': 0.7333333331703703}}, 'eval_global': {'textcat_p': 0.7173913041918715, 'textcat_r': 0.7499999998295455, 'textcat_f': 0.7333333331703703}}",29
30,"{'QA': {'tp': 33.0, 'fp': 12.00000001, 'fn': 11.00000001, 'tn': 30.0, 'tot': 44.00000001, 'eval': {'textcat_p': 0.7333333331703703, 'textcat_r': 0.7499999998295455, 'textcat_f': 0.7415730335412195}}, 'eval_global': {'textcat_p': 0.7333333331703703, 'textcat_r': 0.7499999998295455, 'textcat_f': 0.7415730335412195}}",30
31,"{'QA': {'tp': 32.0, 'fp': 13.00000001, 'fn': 12.00000001, 'tn': 29.0, 'tot': 44.00000001, 'eval': {'textcat_p': 0.7111111109530864, 'textcat_r': 0.727272727107438, 'textcat_f': 0.7191011234339098}}, 'eval_global': {'textcat_p': 0.7111111109530864, 'textcat_r': 0.727272727107438, 'textcat_f': 0.7191011234339098}}",31
32,"{'QA': {'tp': 32.0, 'fp': 14.00000001, 'fn': 12.00000001, 'tn': 28.0, 'tot': 44.00000001, 'eval': {'textcat_p': 0.6956521737618148, 'textcat_r': 0.727272727107438, 'textcat_f': 0.7111111109530864}}, 'eval_global': {'textcat_p': 0.6956521737618148, 'textcat_r': 0.727272727107438, 'textcat_f': 0.7111111109530864}}",32
33,"{'QA': {'tp': 33.0, 'fp': 14.00000001, 'fn': 11.00000001, 'tn': 28.0, 'tot': 44.00000001, 'eval': {'textcat_p': 0.7021276594250792, 'textcat_r': 0.7499999998295455, 'textcat_f': 0.7252747251153242}}, 'eval_global': {'textcat_p': 0.7021276594250792, 'textcat_r': 0.7499999998295455, 'textcat_f': 0.7252747251153242}}",33
34,"{'QA': {'tp': 33.0, 'fp': 14.00000001, 'fn': 11.00000001, 'tn': 28.0, 'tot': 44.00000001, 'eval': {'textcat_p': 0.7021276594250792, 'textcat_r': 0.7499999998295455, 'textcat_f': 0.7252747251153242}}, 'eval_global': {'textcat_p': 0.7021276594250792, 'textcat_r': 0.7499999998295455, 'textcat_f': 0.7252747251153242}}",34
35,"{'QA': {'tp': 33.0, 'fp': 14.00000001, 'fn': 11.00000001, 'tn': 28.0, 'tot': 44.00000001, 'eval': {'textcat_p': 0.7021276594250792, 'textcat_r': 0.7499999998295455, 'textcat_f': 0.7252747251153242}}, 'eval_global': {'textcat_p': 0.7021276594250792, 'textcat_r': 0.7499999998295455, 'textcat_f': 0.7252747251153242}}",35
36,"{'QA': {'tp': 33.0, 'fp': 14.00000001, 'fn': 11.00000001, 'tn': 28.0, 'tot': 44.00000001, 'eval': {'textcat_p': 0.7021276594250792, 'textcat_r': 0.7499999998295455, 'textcat_f': 0.7252747251153242}}, 'eval_global': {'textcat_p': 0.7021276594250792, 'textcat_r': 0.7499999998295455, 'textcat_f': 0.7252747251153242}}",36
37,"{'QA': {'tp': 33.0, 'fp': 13.00000001, 'fn': 11.00000001, 'tn': 29.0, 'tot': 44.00000001, 'eval': {'textcat_p': 0.7173913041918715, 'textcat_r': 0.7499999998295455, 'textcat_f': 0.7333333331703703}}, 'eval_global': {'textcat_p': 0.7173913041918715, 'textcat_r': 0.7499999998295455, 'textcat_f': 0.7333333331703703}}",37
38,"{'QA': {'tp': 33.0, 'fp': 14.00000001, 'fn': 11.00000001, 'tn': 28.0, 'tot': 44.00000001, 'eval': {'textcat_p': 0.7021276594250792, 'textcat_r': 0.7499999998295455, 'textcat_f': 0.7252747251153242}}, 'eval_global': {'textcat_p': 0.7021276594250792, 'textcat_r': 0.7499999998295455, 'textcat_f': 0.7252747251153242}}",38
39,"{'QA': {'tp': 33.0, 'fp': 14.00000001, 'fn': 11.00000001, 'tn': 28.0, 'tot': 44.00000001, 'eval': {'textcat_p': 0.7021276594250792, 'textcat_r': 0.7499999998295455, 'textcat_f': 0.7252747251153242}}, 'eval_global': {'textcat_p': 0.7021276594250792, 'textcat_r': 0.7499999998295455, 'textcat_f': 0.7252747251153242}}",39
40,"{'QA': {'tp': 33.0, 'fp': 14.00000001, 'fn': 11.00000001, 'tn': 28.0, 'tot': 44.00000001, 'eval': {'textcat_p': 0.7021276594250792, 'textcat_r': 0.7499999998295455, 'textcat_f': 0.7252747251153242}}, 'eval_global': {'textcat_p': 0.7021276594250792, 'textcat_r': 0.7499999998295455, 'textcat_f': 0.7252747251153242}}",40
41,"{'QA': {'tp': 33.0, 'fp': 14.00000001, 'fn': 11.00000001, 'tn': 28.0, 'tot': 44.00000001, 'eval': {'textcat_p': 0.7021276594250792, 'textcat_r': 0.7499999998295455, 'textcat_f': 0.7252747251153242}}, 'eval_global': {'textcat_p': 0.7021276594250792, 'textcat_r': 0.7499999998295455, 'textcat_f': 0.7252747251153242}}",41
42,"{'QA': {'tp': 32.0, 'fp': 14.00000001, 'fn': 12.00000001, 'tn': 28.0, 'tot': 44.00000001, 'eval': {'textcat_p': 0.6956521737618148, 'textcat_r': 0.727272727107438, 'textcat_f': 0.7111111109530864}}, 'eval_global': {'textcat_p': 0.6956521737618148, 'textcat_r': 0.727272727107438, 'textcat_f': 0.7111111109530864}}",42
43,"{'QA': {'tp': 32.0, 'fp': 15.00000001, 'fn': 12.00000001, 'tn': 27.0, 'tot': 44.00000001, 'eval': {'textcat_p': 0.6808510636849253, 'textcat_r': 0.727272727107438, 'textcat_f': 0.7032967031421326}}, 'eval_global': {'textcat_p': 0.6808510636849253, 'textcat_r': 0.727272727107438, 'textcat_f': 0.7032967031421326}}",43
44,"{'QA': {'tp': 32.0, 'fp': 15.00000001, 'fn': 12.00000001, 'tn': 27.0, 'tot': 44.00000001, 'eval': {'textcat_p': 0.6808510636849253, 'textcat_r': 0.727272727107438, 'textcat_f': 0.7032967031421326}}, 'eval_global': {'textcat_p': 0.6808510636849253, 'textcat_r': 0.727272727107438, 'textcat_f': 0.7032967031421326}}",44
45,"{'QA': {'tp': 32.0, 'fp': 14.00000001, 'fn': 12.00000001, 'tn': 28.0, 'tot': 44.00000001, 'eval': {'textcat_p': 0.6956521737618148, 'textcat_r': 0.727272727107438, 'textcat_f': 0.7111111109530864}}, 'eval_global': {'textcat_p': 0.6956521737618148, 'textcat_r': 0.727272727107438, 'textcat_f': 0.7111111109530864}}",45
46,"{'QA': {'tp': 33.0, 'fp': 13.00000001, 'fn': 11.00000001, 'tn': 29.0, 'tot': 44.00000001, 'eval': {'textcat_p': 0.7173913041918715, 'textcat_r': 0.7499999998295455, 'textcat_f': 0.7333333331703703}}, 'eval_global': {'textcat_p': 0.7173913041918715, 'textcat_r': 0.7499999998295455, 'textcat_f': 0.7333333331703703}}",46
47,"{'QA': {'tp': 32.0, 'fp': 13.00000001, 'fn': 12.00000001, 'tn': 29.0, 'tot': 44.00000001, 'eval': {'textcat_p': 0.7111111109530864, 'textcat_r': 0.727272727107438, 'textcat_f': 0.7191011234339098}}, 'eval_global': {'textcat_p': 0.7111111109530864, 'textcat_r': 0.727272727107438, 'textcat_f': 0.7191011234339098}}",47
48,"{'QA': {'tp': 33.0, 'fp': 13.00000001, 'fn': 11.00000001, 'tn': 29.0, 'tot': 44.00000001, 'eval': {'textcat_p': 0.7173913041918715, 'textcat_r': 0.7499999998295455, 'textcat_f': 0.7333333331703703}}, 'eval_global': {'textcat_p': 0.7173913041918715, 'textcat_r': 0.7499999998295455, 'textcat_f': 0.7333333331703703}}",48
49,"{'QA': {'tp': 33.0, 'fp': 12.00000001, 'fn': 11.00000001, 'tn': 30.0, 'tot': 44.00000001, 'eval': {'textcat_p': 0.7333333331703703, 'textcat_r': 0.7499999998295455, 'textcat_f': 0.7415730335412195}}, 'eval_global': {'textcat_p': 0.7333333331703703, 'textcat_r': 0.7499999998295455, 'textcat_f': 0.7415730335412195}}",49
50,"{'QA': {'tp': 33.0, 'fp': 12.00000001, 'fn': 11.00000001, 'tn': 30.0, 'tot': 44.00000001, 'eval': {'textcat_p': 0.7333333331703703, 'textcat_r': 0.7499999998295455, 'textcat_f': 0.7415730335412195}}, 'eval_global': {'textcat_p': 0.7333333331703703, 'textcat_r': 0.7499999998295455, 'textcat_f': 0.7415730335412195}}",50
51,"{'QA': {'tp': 33.0, 'fp': 12.00000001, 'fn': 11.00000001, 'tn': 30.0, 'tot': 44.00000001, 'eval': {'textcat_p': 0.7333333331703703, 'textcat_r': 0.7499999998295455, 'textcat_f': 0.7415730335412195}}, 'eval_global': {'textcat_p': 0.7333333331703703, 'textcat_r': 0.7499999998295455, 'textcat_f': 0.7415730335412195}}",51
52,"{'QA': {'tp': 33.0, 'fp': 12.00000001, 'fn': 11.00000001, 'tn': 30.0, 'tot': 44.00000001, 'eval': {'textcat_p': 0.7333333331703703, 'textcat_r': 0.7499999998295455, 'textcat_f': 0.7415730335412195}}, 'eval_global': {'textcat_p': 0.7333333331703703, 'textcat_r': 0.7499999998295455, 'textcat_f': 0.7415730335412195}}",52
53,"{'QA': {'tp': 33.0, 'fp': 12.00000001, 'fn': 11.00000001, 'tn': 30.0, 'tot': 44.00000001, 'eval': {'textcat_p': 0.7333333331703703, 'textcat_r': 0.7499999998295455, 'textcat_f': 0.7415730335412195}}, 'eval_global': {'textcat_p': 0.7333333331703703, 'textcat_r': 0.7499999998295455, 'textcat_f': 0.7415730335412195}}",53
54,"{'QA': {'tp': 34.0, 'fp': 12.00000001, 'fn': 10.00000001, 'tn': 30.0, 'tot': 44.00000001, 'eval': {'textcat_p': 0.7391304346219282, 'textcat_r': 0.7727272725516529, 'textcat_f': 0.7555555553876543}}, 'eval_global': {'textcat_p': 0.7391304346219282, 'textcat_r': 0.7727272725516529, 'textcat_f': 0.7555555553876543}}",54
55,"{'QA': {'tp': 34.0, 'fp': 12.00000001, 'fn': 10.00000001, 'tn': 30.0, 'tot': 44.00000001, 'eval': {'textcat_p': 0.7391304346219282, 'textcat_r': 0.7727272725516529, 'textcat_f': 0.7555555553876543}}, 'eval_global': {'textcat_p': 0.7391304346219282, 'textcat_r': 0.7727272725516529, 'textcat_f': 0.7555555553876543}}",55
56,"{'QA': {'tp': 34.0, 'fp': 11.00000001, 'fn': 10.00000001, 'tn': 31.0, 'tot': 44.00000001, 'eval': {'textcat_p': 0.7555555553876543, 'textcat_r': 0.7727272725516529, 'textcat_f': 0.7640449436485292}}, 'eval_global': {'textcat_p': 0.7555555553876543, 'textcat_r': 0.7727272725516529, 'textcat_f': 0.7640449436485292}}",56
57,"{'QA': {'tp': 33.0, 'fp': 11.00000001, 'fn': 11.00000001, 'tn': 31.0, 'tot': 44.00000001, 'eval': {'textcat_p': 0.7499999998295455, 'textcat_r': 0.7499999998295455, 'textcat_f': 0.7499999998295455}}, 'eval_global': {'textcat_p': 0.7499999998295455, 'textcat_r': 0.7499999998295455, 'textcat_f': 0.7499999998295455}}",57
58,"{'QA': {'tp': 32.0, 'fp': 11.00000001, 'fn': 12.00000001, 'tn': 31.0, 'tot': 44.00000001, 'eval': {'textcat_p': 0.7441860463385613, 'textcat_r': 0.727272727107438, 'textcat_f': 0.735632183738935}}, 'eval_global': {'textcat_p': 0.7441860463385613, 'textcat_r': 0.727272727107438, 'textcat_f': 0.735632183738935}}",58
59,"{'QA': {'tp': 33.0, 'fp': 11.00000001, 'fn': 11.00000001, 'tn': 31.0, 'tot': 44.00000001, 'eval': {'textcat_p': 0.7499999998295455, 'textcat_r': 0.7499999998295455, 'textcat_f': 0.7499999998295455}}, 'eval_global': {'textcat_p': 0.7499999998295455, 'textcat_r': 0.7499999998295455, 'textcat_f': 0.7499999998295455}}",59
60,"{'QA': {'tp': 33.0, 'fp': 11.00000001, 'fn': 11.00000001, 'tn': 31.0, 'tot': 44.00000001, 'eval': {'textcat_p': 0.7499999998295455, 'textcat_r': 0.7499999998295455, 'textcat_f': 0.7499999998295455}}, 'eval_global': {'textcat_p': 0.7499999998295455, 'textcat_r': 0.7499999998295455, 'textcat_f': 0.7499999998295455}}",60
61,"{'QA': {'tp': 32.0, 'fp': 11.00000001, 'fn': 12.00000001, 'tn': 31.0, 'tot': 44.00000001, 'eval': {'textcat_p': 0.7441860463385613, 'textcat_r': 0.727272727107438, 'textcat_f': 0.735632183738935}}, 'eval_global': {'textcat_p': 0.7441860463385613, 'textcat_r': 0.727272727107438, 'textcat_f': 0.735632183738935}}",61
62,"{'QA': {'tp': 32.0, 'fp': 11.00000001, 'fn': 12.00000001, 'tn': 31.0, 'tot': 44.00000001, 'eval': {'textcat_p': 0.7441860463385613, 'textcat_r': 0.727272727107438, 'textcat_f': 0.735632183738935}}, 'eval_global': {'textcat_p': 0.7441860463385613, 'textcat_r': 0.727272727107438, 'textcat_f': 0.735632183738935}}",62
63,"{'QA': {'tp': 32.0, 'fp': 11.00000001, 'fn': 12.00000001, 'tn': 31.0, 'tot': 44.00000001, 'eval': {'textcat_p': 0.7441860463385613, 'textcat_r': 0.727272727107438, 'textcat_f': 0.735632183738935}}, 'eval_global': {'textcat_p': 0.7441860463385613, 'textcat_r': 0.727272727107438, 'textcat_f': 0.735632183738935}}",63
64,"{'QA': {'tp': 33.0, 'fp': 11.00000001, 'fn': 11.00000001, 'tn': 31.0, 'tot': 44.00000001, 'eval': {'textcat_p': 0.7499999998295455, 'textcat_r': 0.7499999998295455, 'textcat_f': 0.7499999998295455}}, 'eval_global': {'textcat_p': 0.7499999998295455, 'textcat_r': 0.7499999998295455, 'textcat_f': 0.7499999998295455}}",64
65,"{'QA': {'tp': 33.0, 'fp': 11.00000001, 'fn': 11.00000001, 'tn': 31.0, 'tot': 44.00000001, 'eval': {'textcat_p': 0.7499999998295455, 'textcat_r': 0.7499999998295455, 'textcat_f': 0.7499999998295455}}, 'eval_global': {'textcat_p': 0.7499999998295455, 'textcat_r': 0.7499999998295455, 'textcat_f': 0.7499999998295455}}",65
66,"{'QA': {'tp': 33.0, 'fp': 11.00000001, 'fn': 11.00000001, 'tn': 31.0, 'tot': 44.00000001, 'eval': {'textcat_p': 0.7499999998295455, 'textcat_r': 0.7499999998295455, 'textcat_f': 0.7499999998295455}}, 'eval_global': {'textcat_p': 0.7499999998295455, 'textcat_r': 0.7499999998295455, 'textcat_f': 0.7499999998295455}}",66
67,"{'QA': {'tp': 34.0, 'fp': 12.00000001, 'fn': 10.00000001, 'tn': 30.0, 'tot': 44.00000001, 'eval': {'textcat_p': 0.7391304346219282, 'textcat_r': 0.7727272725516529, 'textcat_f': 0.7555555553876543}}, 'eval_global': {'textcat_p': 0.7391304346219282, 'textcat_r': 0.7727272725516529, 'textcat_f': 0.7555555553876543}}",67
68,"{'QA': {'tp': 34.0, 'fp': 11.00000001, 'fn': 10.00000001, 'tn': 31.0, 'tot': 44.00000001, 'eval': {'textcat_p': 0.7555555553876543, 'textcat_r': 0.7727272725516529, 'textcat_f': 0.7640449436485292}}, 'eval_global': {'textcat_p': 0.7555555553876543, 'textcat_r': 0.7727272725516529, 'textcat_f': 0.7640449436485292}}",68
69,"{'QA': {'tp': 33.0, 'fp': 11.00000001, 'fn': 11.00000001, 'tn': 31.0, 'tot': 44.00000001, 'eval': {'textcat_p': 0.7499999998295455, 'textcat_r': 0.7499999998295455, 'textcat_f': 0.7499999998295455}}, 'eval_global': {'textcat_p': 0.7499999998295455, 'textcat_r': 0.7499999998295455, 'textcat_f': 0.7499999998295455}}",69
70,"{'QA': {'tp': 33.0, 'fp': 11.00000001, 'fn': 11.00000001, 'tn': 31.0, 'tot': 44.00000001, 'eval': {'textcat_p': 0.7499999998295455, 'textcat_r': 0.7499999998295455, 'textcat_f': 0.7499999998295455}}, 'eval_global': {'textcat_p': 0.7499999998295455, 'textcat_r': 0.7499999998295455, 'textcat_f': 0.7499999998295455}}",70
71,"{'QA': {'tp': 34.0, 'fp': 11.00000001, 'fn': 10.00000001, 'tn': 31.0, 'tot': 44.00000001, 'eval': {'textcat_p': 0.7555555553876543, 'textcat_r': 0.7727272725516529, 'textcat_f': 0.7640449436485292}}, 'eval_global': {'textcat_p': 0.7555555553876543, 'textcat_r': 0.7727272725516529, 'textcat_f': 0.7640449436485292}}",71
72,"{'QA': {'tp': 34.0, 'fp': 11.00000001, 'fn': 10.00000001, 'tn': 31.0, 'tot': 44.00000001, 'eval': {'textcat_p': 0.7555555553876543, 'textcat_r': 0.7727272725516529, 'textcat_f': 0.7640449436485292}}, 'eval_global': {'textcat_p': 0.7555555553876543, 'textcat_r': 0.7727272725516529, 'textcat_f': 0.7640449436485292}}",72
73,"{'QA': {'tp': 34.0, 'fp': 11.00000001, 'fn': 10.00000001, 'tn': 31.0, 'tot': 44.00000001, 'eval': {'textcat_p': 0.7555555553876543, 'textcat_r': 0.7727272725516529, 'textcat_f': 0.7640449436485292}}, 'eval_global': {'textcat_p': 0.7555555553876543, 'textcat_r': 0.7727272725516529, 'textcat_f': 0.7640449436485292}}",73
74,"{'QA': {'tp': 34.0, 'fp': 11.00000001, 'fn': 10.00000001, 'tn': 31.0, 'tot': 44.00000001, 'eval': {'textcat_p': 0.7555555553876543, 'textcat_r': 0.7727272725516529, 'textcat_f': 0.7640449436485292}}, 'eval_global': {'textcat_p': 0.7555555553876543, 'textcat_r': 0.7727272725516529, 'textcat_f': 0.7640449436485292}}",74
75,"{'QA': {'tp': 34.0, 'fp': 11.00000001, 'fn': 10.00000001, 'tn': 31.0, 'tot': 44.00000001, 'eval': {'textcat_p': 0.7555555553876543, 'textcat_r': 0.7727272725516529, 'textcat_f': 0.7640449436485292}}, 'eval_global': {'textcat_p': 0.7555555553876543, 'textcat_r': 0.7727272725516529, 'textcat_f': 0.7640449436485292}}",75
76,"{'QA': {'tp': 34.0, 'fp': 11.00000001, 'fn': 10.00000001, 'tn': 31.0, 'tot': 44.00000001, 'eval': {'textcat_p': 0.7555555553876543, 'textcat_r': 0.7727272725516529, 'textcat_f': 0.7640449436485292}}, 'eval_global': {'textcat_p': 0.7555555553876543, 'textcat_r': 0.7727272725516529, 'textcat_f': 0.7640449436485292}}",76
77,"{'QA': {'tp': 33.0, 'fp': 11.00000001, 'fn': 11.00000001, 'tn': 31.0, 'tot': 44.00000001, 'eval': {'textcat_p': 0.7499999998295455, 'textcat_r': 0.7499999998295455, 'textcat_f': 0.7499999998295455}}, 'eval_global': {'textcat_p': 0.7499999998295455, 'textcat_r': 0.7499999998295455, 'textcat_f': 0.7499999998295455}}",77
78,"{'QA': {'tp': 33.0, 'fp': 11.00000001, 'fn': 11.00000001, 'tn': 31.0, 'tot': 44.00000001, 'eval': {'textcat_p': 0.7499999998295455, 'textcat_r': 0.7499999998295455, 'textcat_f': 0.7499999998295455}}, 'eval_global': {'textcat_p': 0.7499999998295455, 'textcat_r': 0.7499999998295455, 'textcat_f': 0.7499999998295455}}",78
79,"{'QA': {'tp': 33.0, 'fp': 11.00000001, 'fn': 11.00000001, 'tn': 31.0, 'tot': 44.00000001, 'eval': {'textcat_p': 0.7499999998295455, 'textcat_r': 0.7499999998295455, 'textcat_f': 0.7499999998295455}}, 'eval_global': {'textcat_p': 0.7499999998295455, 'textcat_r': 0.7499999998295455, 'textcat_f': 0.7499999998295455}}",79
80,"{'QA': {'tp': 33.0, 'fp': 11.00000001, 'fn': 11.00000001, 'tn': 31.0, 'tot': 44.00000001, 'eval': {'textcat_p': 0.7499999998295455, 'textcat_r': 0.7499999998295455, 'textcat_f': 0.7499999998295455}}, 'eval_global': {'textcat_p': 0.7499999998295455, 'textcat_r': 0.7499999998295455, 'textcat_f': 0.7499999998295455}}",80
81,"{'QA': {'tp': 33.0, 'fp': 11.00000001, 'fn': 11.00000001, 'tn': 31.0, 'tot': 44.00000001, 'eval': {'textcat_p': 0.7499999998295455, 'textcat_r': 0.7499999998295455, 'textcat_f': 0.7499999998295455}}, 'eval_global': {'textcat_p': 0.7499999998295455, 'textcat_r': 0.7499999998295455, 'textcat_f': 0.7499999998295455}}",81
82,"{'QA': {'tp': 33.0, 'fp': 11.00000001, 'fn': 11.00000001, 'tn': 31.0, 'tot': 44.00000001, 'eval': {'textcat_p': 0.7499999998295455, 'textcat_r': 0.7499999998295455, 'textcat_f': 0.7499999998295455}}, 'eval_global': {'textcat_p': 0.7499999998295455, 'textcat_r': 0.7499999998295455, 'textcat_f': 0.7499999998295455}}",82
83,"{'QA': {'tp': 33.0, 'fp': 12.00000001, 'fn': 11.00000001, 'tn': 30.0, 'tot': 44.00000001, 'eval': {'textcat_p': 0.7333333331703703, 'textcat_r': 0.7499999998295455, 'textcat_f': 0.7415730335412195}}, 'eval_global': {'textcat_p': 0.7333333331703703, 'textcat_r': 0.7499999998295455, 'textcat_f': 0.7415730335412195}}",83
84,"{'QA': {'tp': 33.0, 'fp': 12.00000001, 'fn': 11.00000001, 'tn': 30.0, 'tot': 44.00000001, 'eval': {'textcat_p': 0.7333333331703703, 'textcat_r': 0.7499999998295455, 'textcat_f': 0.7415730335412195}}, 'eval_global': {'textcat_p': 0.7333333331703703, 'textcat_r': 0.7499999998295455, 'textcat_f': 0.7415730335412195}}",84
85,"{'QA': {'tp': 33.0, 'fp': 12.00000001, 'fn': 11.00000001, 'tn': 30.0, 'tot': 44.00000001, 'eval': {'textcat_p': 0.7333333331703703, 'textcat_r': 0.7499999998295455, 'textcat_f': 0.7415730335412195}}, 'eval_global': {'textcat_p': 0.7333333331703703, 'textcat_r': 0.7499999998295455, 'textcat_f': 0.7415730335412195}}",85
86,"{'QA': {'tp': 32.0, 'fp': 12.00000001, 'fn': 12.00000001, 'tn': 30.0, 'tot': 44.00000001, 'eval': {'textcat_p': 0.727272727107438, 'textcat_r': 0.727272727107438, 'textcat_f': 0.7272727271074381}}, 'eval_global': {'textcat_p': 0.727272727107438, 'textcat_r': 0.727272727107438, 'textcat_f': 0.7272727271074381}}",86
87,"{'QA': {'tp': 32.0, 'fp': 12.00000001, 'fn': 12.00000001, 'tn': 30.0, 'tot': 44.00000001, 'eval': {'textcat_p': 0.727272727107438, 'textcat_r': 0.727272727107438, 'textcat_f': 0.7272727271074381}}, 'eval_global': {'textcat_p': 0.727272727107438, 'textcat_r': 0.727272727107438, 'textcat_f': 0.7272727271074381}}",87
88,"{'QA': {'tp': 33.0, 'fp': 12.00000001, 'fn': 11.00000001, 'tn': 30.0, 'tot': 44.00000001, 'eval': {'textcat_p': 0.7333333331703703, 'textcat_r': 0.7499999998295455, 'textcat_f': 0.7415730335412195}}, 'eval_global': {'textcat_p': 0.7333333331703703, 'textcat_r': 0.7499999998295455, 'textcat_f': 0.7415730335412195}}",88
89,"{'QA': {'tp': 33.0, 'fp': 12.00000001, 'fn': 11.00000001, 'tn': 30.0, 'tot': 44.00000001, 'eval': {'textcat_p': 0.7333333331703703, 'textcat_r': 0.7499999998295455, 'textcat_f': 0.7415730335412195}}, 'eval_global': {'textcat_p': 0.7333333331703703, 'textcat_r': 0.7499999998295455, 'textcat_f': 0.7415730335412195}}",89
90,"{'QA': {'tp': 33.0, 'fp': 12.00000001, 'fn': 11.00000001, 'tn': 30.0, 'tot': 44.00000001, 'eval': {'textcat_p': 0.7333333331703703, 'textcat_r': 0.7499999998295455, 'textcat_f': 0.7415730335412195}}, 'eval_global': {'textcat_p': 0.7333333331703703, 'textcat_r': 0.7499999998295455, 'textcat_f': 0.7415730335412195}}",90
91,"{'QA': {'tp': 33.0, 'fp': 12.00000001, 'fn': 11.00000001, 'tn': 30.0, 'tot': 44.00000001, 'eval': {'textcat_p': 0.7333333331703703, 'textcat_r': 0.7499999998295455, 'textcat_f': 0.7415730335412195}}, 'eval_global': {'textcat_p': 0.7333333331703703, 'textcat_r': 0.7499999998295455, 'textcat_f': 0.7415730335412195}}",91
92,"{'QA': {'tp': 33.0, 'fp': 12.00000001, 'fn': 11.00000001, 'tn': 30.0, 'tot': 44.00000001, 'eval': {'textcat_p': 0.7333333331703703, 'textcat_r': 0.7499999998295455, 'textcat_f': 0.7415730335412195}}, 'eval_global': {'textcat_p': 0.7333333331703703, 'textcat_r': 0.7499999998295455, 'textcat_f': 0.7415730335412195}}",92
93,"{'QA': {'tp': 33.0, 'fp': 12.00000001, 'fn': 11.00000001, 'tn': 30.0, 'tot': 44.00000001, 'eval': {'textcat_p': 0.7333333331703703, 'textcat_r': 0.7499999998295455, 'textcat_f': 0.7415730335412195}}, 'eval_global': {'textcat_p': 0.7333333331703703, 'textcat_r': 0.7499999998295455, 'textcat_f': 0.7415730335412195}}",93
94,"{'QA': {'tp': 33.0, 'fp': 13.00000001, 'fn': 11.00000001, 'tn': 29.0, 'tot': 44.00000001, 'eval': {'textcat_p': 0.7173913041918715, 'textcat_r': 0.7499999998295455, 'textcat_f': 0.7333333331703703}}, 'eval_global': {'textcat_p': 0.7173913041918715, 'textcat_r': 0.7499999998295455, 'textcat_f': 0.7333333331703703}}",94
95,"{'QA': {'tp': 33.0, 'fp': 13.00000001, 'fn': 11.00000001, 'tn': 29.0, 'tot': 44.00000001, 'eval': {'textcat_p': 0.7173913041918715, 'textcat_r': 0.7499999998295455, 'textcat_f': 0.7333333331703703}}, 'eval_global': {'textcat_p': 0.7173913041918715, 'textcat_r': 0.7499999998295455, 'textcat_f': 0.7333333331703703}}",95
96,"{'QA': {'tp': 33.0, 'fp': 13.00000001, 'fn': 11.00000001, 'tn': 29.0, 'tot': 44.00000001, 'eval': {'textcat_p': 0.7173913041918715, 'textcat_r': 0.7499999998295455, 'textcat_f': 0.7333333331703703}}, 'eval_global': {'textcat_p': 0.7173913041918715, 'textcat_r': 0.7499999998295455, 'textcat_f': 0.7333333331703703}}",96
97,"{'QA': {'tp': 32.0, 'fp': 13.00000001, 'fn': 12.00000001, 'tn': 29.0, 'tot': 44.00000001, 'eval': {'textcat_p': 0.7111111109530864, 'textcat_r': 0.727272727107438, 'textcat_f': 0.7191011234339098}}, 'eval_global': {'textcat_p': 0.7111111109530864, 'textcat_r': 0.727272727107438, 'textcat_f': 0.7191011234339098}}",97
98,"{'QA': {'tp': 32.0, 'fp': 12.00000001, 'fn': 12.00000001, 'tn': 30.0, 'tot': 44.00000001, 'eval': {'textcat_p': 0.727272727107438, 'textcat_r': 0.727272727107438, 'textcat_f': 0.7272727271074381}}, 'eval_global': {'textcat_p': 0.727272727107438, 'textcat_r': 0.727272727107438, 'textcat_f': 0.7272727271074381}}",98
99,"{'QA': {'tp': 33.0, 'fp': 12.00000001, 'fn': 11.00000001, 'tn': 30.0, 'tot': 44.00000001, 'eval': {'textcat_p': 0.7333333331703703, 'textcat_r': 0.7499999998295455, 'textcat_f': 0.7415730335412195}}, 'eval_global': {'textcat_p': 0.7333333331703703, 'textcat_r': 0.7499999998295455, 'textcat_f': 0.7415730335412195}}",99
