,US,pred,label
0,"As a parent, I want to be able to create an account, so that I can sign up my kids for camp online.",4.724302198155783e-05,QA
1,"As a donor representative, I want to see thumbnails of images, so that I can select which one I want.",4.539787187241018e-05,QA
